88.7487,-54.5435
88.0892,-54.0946
87.4287,-53.6534
86.7595,-53.2268
86.0804,-52.8155
85.3976,-52.4099
84.7214,-51.9984
84.052,-51.5732
83.3873,-51.1381
82.7229,-50.7005
82.0561,-50.2656
81.3886,-49.8311
80.7268,-49.3878
80.0799,-48.926
79.455,-48.4387
78.8578,-47.9205
78.3018,-47.3642
77.8004,-46.7687
77.3589,-46.1379
76.9797,-45.4831
76.663,-44.8196
76.4226,-44.1523
76.2865,-43.4702
76.2711,-42.7589
76.3552,-42.0162
76.4957,-41.253
76.6545,-40.4783
76.8186,-39.7006
76.9968,-38.9272
77.2048,-38.1628
77.4486,-37.4097
77.73,-36.6696
78.0417,-35.9408
78.3681,-35.2172
78.6916,-34.4915
79.0025,-33.7598
79.3032,-33.0231
79.5993,-32.2841
79.8964,-31.5456
80.1959,-30.8084
80.4972,-30.0727
80.7969,-29.3369
81.1016,-28.6038
81.4178,-27.8759
81.7424,-27.1515
82.0636,-26.4252
82.3709,-25.6925
82.6597,-24.9522
82.9255,-24.2059
83.1554,-23.4541
83.3318,-22.6969
83.4442,-21.9337
83.4967,-21.1641
83.4973,-20.3893
83.4537,-19.6138
83.3806,-18.8426
83.3193,-18.0801
83.3245,-17.3274
83.4238,-16.5814
83.607,-15.8366
83.8289,-15.088
84.0494,-14.3345
84.2468,-13.5781
84.4018,-12.8222
84.49,-12.07
84.4867,-11.3306
84.3681,-10.6149
84.1266,-9.9255
83.7845,-9.253
83.3896,-8.5833
82.9871,-7.9052
82.6096,-7.2116
82.2782,-6.4981
81.9942,-5.769
81.7362,-5.0418
81.454,-4.3449
81.0921,-3.7091
80.6244,-3.1468
80.0627,-2.6483
79.4373,-2.1954
78.2134,-1.4197
77.5337,-1.0675
76.8499,-0.72636
76.1624,-0.40874
75.4318,-0.21188
74.7073,-0.028156
-47.8566,-35.2744