67.9393,-350.0043
68.3353,-349.828
68.7222,-349.6256
69.1167,-349.4444
69.4982,-349.2343
69.8714,-349.012
70.2433,-348.7861
70.6143,-348.5583
70.9846,-348.3311
71.3519,-348.0967
71.7225,-347.8702
72.0989,-347.6514
72.481,-347.4438
72.861,-347.232
73.2465,-347.0311
73.6465,-346.8605
74.0473,-346.6908
74.4471,-346.5199
74.841,-346.3351
75.2312,-346.1428
75.6241,-345.956
76.0079,-345.7516
76.3845,-345.5344
76.7572,-345.3095
77.1345,-345.0936
77.522,-344.8957
77.9111,-344.7011
78.2997,-344.5057
78.6733,-344.2849
79.0303,-344.0368
79.3847,-343.7839
79.7421,-343.5364
80.1108,-343.3055
80.4823,-343.079
80.8519,-342.85
81.2328,-342.64
81.6212,-342.4445
82.0084,-342.2456
82.3999,-342.0567
82.7996,-341.8854
83.2025,-341.7207
83.6021,-341.5493
83.987,-341.3479
84.3627,-341.1286
84.7413,-340.9141
85.106,-340.6785
85.4529,-340.4162
85.7982,-340.1515
86.1447,-339.8885
86.491,-339.6252
86.8377,-339.3624
87.1844,-339.0997
87.5312,-338.837
87.8787,-338.5753
88.2256,-338.3128
88.5764,-338.0557
88.9365,-337.8117
89.2971,-337.5683
89.6572,-337.3243
90.0188,-337.0824
90.3798,-336.8396
90.7418,-336.5984
91.1011,-336.3532
91.4604,-336.108
91.8173,-335.8591
92.1771,-335.6146
92.5527,-335.3957
92.9329,-335.184
93.3104,-334.9679
93.6742,-334.7311
94.0225,-334.4704
94.3706,-334.2094
94.7224,-333.954
95.0938,-333.7277
95.4696,-333.5081
95.8399,-333.2802
96.2192,-333.0664
96.594,-332.8462
96.9752,-332.6359
97.3468,-332.411
97.687,-332.1405
98.0226,-331.8632
98.3619,-331.5913
98.7278,-331.3607
99.1163,-331.1641
99.5029,-330.9653
99.8887,-330.7639
100.2624,-330.5417
100.6366,-330.3195
101.0111,-330.0982
101.3793,-329.8667
101.7482,-329.6359
102.1141,-329.401
102.479,-329.1637
102.8327,-328.911
103.1923,-328.6653
103.5456,-328.4124
103.8613,-328.1135
104.1706,-327.8073
104.4848,-327.5066
104.817,-327.2278
105.1729,-326.9774
105.5278,-326.726
105.8825,-326.4741
106.2303,-326.2128
106.576,-325.9488
106.9241,-325.6877
107.2703,-325.4244
107.6194,-325.1647
107.9665,-324.9026
108.3152,-324.6425
108.6638,-324.3821
109.0131,-324.1229
109.3619,-323.8629
109.6917,-323.5803
110.0068,-323.2805
110.3226,-322.9812
110.6361,-322.6797
110.9424,-322.3707
111.2469,-322.0601
111.5537,-321.7517
111.8735,-321.4571
112.2016,-321.1713
112.5259,-320.8814
112.862,-320.6056
113.2083,-320.3426
113.5589,-320.0848
113.9055,-319.822
114.2342,-319.5376
114.558,-319.2467
114.8831,-318.9579
115.209,-318.6696
115.5354,-318.3821
115.8638,-318.0967
116.1889,-317.8077
116.499,-317.5027
116.8058,-317.1942
117.1155,-316.8888
117.4304,-316.5888
117.752,-316.2958
118.0735,-316.0028
118.3937,-315.7083
118.7074,-315.4069
119.0192,-315.1035
119.3327,-314.802
119.6481,-314.5024
119.966,-314.2054
120.2844,-313.9089
120.5994,-313.609
120.8984,-313.2932
121.1944,-312.9742
121.4935,-312.6585
121.7865,-312.3368
122.0799,-312.0157
122.3715,-311.6928
122.6649,-311.3717
122.9625,-311.0544
123.2597,-310.7367
123.5576,-310.4197
123.8541,-310.1013
124.1507,-309.7831
124.4473,-309.4649
124.7423,-309.1451
125.0331,-308.8216
125.3224,-308.4966
125.6134,-308.1733
125.905,-307.8505
126.1989,-307.5297
126.4918,-307.2081
126.7839,-306.8857
127.073,-306.5607
127.3617,-306.2353
127.651,-305.9104
127.9328,-305.5789
128.2138,-305.2468
128.495,-304.915
128.7744,-304.5815
129.0535,-304.2479
129.3313,-303.913
129.6104,-303.5794
129.8902,-303.2463
130.1711,-302.914
130.4513,-302.5813
130.73,-302.2472
131.0077,-301.9124
131.2848,-301.577
131.5629,-301.2425
131.8415,-300.9084
132.1203,-300.5745
132.3993,-300.2407
132.6847,-299.9124
132.9731,-299.5867
133.26,-299.2597
133.5454,-298.9314
133.8213,-298.5951
134.0987,-298.2599
134.3749,-297.9239
134.6376,-297.5772
134.897,-297.228
135.1563,-296.8787
135.4176,-296.5309
135.6817,-296.1853
135.9459,-295.8396
136.2105,-295.4943
136.479,-295.152
136.7491,-294.811
137.0175,-294.4686
137.2864,-294.1267
137.5517,-293.7819
137.8193,-293.4389
138.0842,-293.0939
138.3386,-292.741
138.5918,-292.3872
138.8454,-292.0338
139.1059,-291.6854
139.3696,-291.3395
139.6353,-290.995
139.8957,-290.6467
140.1372,-290.2849
140.3754,-289.9208
140.6169,-289.559
140.8722,-289.2072
141.1399,-288.8642
141.4059,-288.52
141.6699,-288.1743
141.9201,-287.8185
142.1695,-287.462
142.4204,-287.1066
142.6627,-286.7453
142.9052,-286.3842
143.1454,-286.0215
143.39,-285.6618
143.6395,-285.3054
143.8901,-284.9498
144.1401,-284.5938
144.3851,-284.2343
144.6289,-283.874
144.8722,-283.5134
145.1128,-283.151
145.347,-282.7844
145.5811,-282.4178
145.8158,-282.0514
146.0491,-281.6843
146.2839,-281.3181
146.5168,-280.9506
146.7603,-280.5902
147.0101,-280.2342
147.2627,-279.8799
147.5107,-279.5226
147.735,-279.15
147.9564,-278.7754
148.1808,-278.4028
148.4048,-278.0298
148.6329,-277.6594
148.8584,-277.2874
149.0873,-276.9175
149.3183,-276.5488
149.5509,-276.1812
149.7824,-275.8129
150.0057,-275.4396
150.2257,-275.0643
150.4454,-274.6888
150.6643,-274.3129
150.8788,-273.9344
151.0937,-273.5562
151.3086,-273.1779
151.5236,-272.7998
151.7401,-272.4224
151.9547,-272.044
152.1744,-271.6686
152.3971,-271.2949
152.6221,-270.9226
152.8452,-270.5491
153.061,-270.1714
153.2757,-269.793
153.4897,-269.4143
153.7079,-269.0379
153.9268,-268.662
154.1488,-268.2879
154.3674,-267.9118
154.5677,-267.5257
154.7645,-267.1377
154.9636,-266.7509
155.1697,-266.3679
155.3832,-265.9889
155.5972,-265.6101
155.8079,-265.2296
156.0026,-264.8406
156.1949,-264.4503
156.3898,-264.0615
156.5814,-263.6709
156.7752,-263.2814
156.9667,-262.8908
157.1613,-262.5017
157.36,-262.1148
157.5598,-261.7283
157.7589,-261.3415
157.9521,-260.9518
158.1431,-260.5609
158.3339,-260.17
158.5264,-259.7798
158.7209,-259.3907
158.916,-259.0019
159.1105,-258.6128
159.3015,-258.2219
159.4914,-257.8305
159.6816,-257.4393
159.8664,-257.0455
160.0431,-256.6481
160.2197,-256.2504
160.3966,-255.853
160.5729,-255.4553
160.7499,-255.0579
160.9259,-254.6601
161.1024,-254.2624
161.2767,-253.8639
161.4527,-253.466
161.6253,-253.0668
161.7848,-252.662
161.9425,-252.2566
162.1018,-251.8518
162.2645,-251.4483
162.431,-251.0465
162.5964,-250.6441
162.7628,-250.2422
162.9286,-249.84
163.0953,-249.4381
163.2612,-249.036
163.4213,-248.6315
163.579,-248.2261
163.7374,-247.8209
163.8908,-247.4139
164.0366,-247.004
164.1822,-246.5941
164.328,-246.1842
164.4739,-245.7743
164.6202,-245.3647
164.7659,-244.9548
164.9154,-244.5462
165.0668,-244.1385
165.2196,-243.7311
165.371,-243.3233
165.5179,-242.9138
165.6639,-242.504
165.8101,-242.0943
165.9589,-241.6855
166.1083,-241.277
166.2597,-240.8691
166.4074,-240.46
166.5398,-240.0456
166.6693,-239.6303
166.8014,-239.2158
166.9311,-238.8006
167.0619,-238.3857
167.1922,-237.9706
167.3225,-237.5556
167.4554,-237.1413
167.5872,-236.7268
167.72,-236.3125
167.8572,-235.8997
167.9966,-235.4876
168.1365,-235.0756
168.2705,-234.6619
168.3927,-234.2444
168.5135,-233.8264
168.6355,-233.4089
168.7485,-232.9888
168.8595,-232.5682
168.9718,-232.1479
169.0786,-231.7262
169.1843,-231.3042
169.286,-230.8812
169.392,-230.4594
169.5154,-230.0423
169.6444,-229.6268
169.7706,-229.2105
169.8867,-228.7915
169.9892,-228.3687
170.0921,-227.946
170.1945,-227.5232
170.2907,-227.0989
170.387,-226.6747
170.4836,-226.2505
170.5823,-225.8269
170.6844,-225.404
170.7843,-224.9805
170.8897,-224.5586
171.005,-224.1391
171.1239,-223.7206
171.2392,-223.3012
171.3362,-222.8774
171.4212,-222.4507
171.5092,-222.0246
171.5903,-221.5974
171.6617,-221.1682
171.7312,-220.7388
171.8023,-220.3096
171.8795,-219.8815
171.96,-219.454
172.0392,-219.0262
172.1223,-218.5992
172.209,-218.1729
172.2972,-217.747
172.3838,-217.3206
172.4582,-216.892
172.5291,-216.4628
172.6022,-216.034
172.6698,-215.6043
172.736,-215.1742
172.7997,-214.744
172.8658,-214.314
172.9389,-213.8851
173.0134,-213.4565
173.0871,-213.0278
173.155,-212.5982
173.2177,-212.1676
173.2794,-211.7371
173.3425,-211.3066
173.4051,-210.8761
173.4687,-210.4458
173.5317,-210.0153
173.5779,-209.583
173.6119,-209.1493
173.6445,-208.7155
173.6819,-208.2821
173.7285,-207.8496
173.7774,-207.4174
173.8242,-206.9848
173.8623,-206.5516
173.8956,-206.1178
173.9288,-205.684
173.9681,-205.2509
174.0193,-204.8189
174.0731,-204.3872
174.1235,-203.9551
174.1552,-203.5215
174.1757,-203.0868
174.2003,-202.6526
174.2185,-202.2179
174.2358,-201.7832
174.2499,-201.3484
174.2667,-200.9137
174.2973,-200.4798
174.3303,-200.046
174.3621,-199.6122
174.3827,-199.1778
174.3923,-198.7428
174.4019,-198.308
174.4119,-197.873
174.423,-197.4382
174.4342,-197.0032
174.4455,-196.5684
174.4557,-196.1335
174.4661,-195.6985
174.4755,-195.2637
174.4888,-194.8288
174.5115,-194.3945
174.5364,-193.9601
174.5587,-193.5257
174.5648,-193.0909
174.5586,-192.6558
174.5558,-192.2209
174.5448,-191.786
174.5209,-191.3518
174.4938,-190.9175
174.4695,-190.4832
174.452,-190.0486
174.4383,-189.6137
174.4238,-189.179
174.4052,-188.7443
174.3801,-188.3101
174.3535,-187.8759
174.329,-187.4415
174.308,-187.0071
174.29,-186.5723
174.2695,-186.1378
174.2486,-185.7033
174.2226,-185.269
174.1984,-184.8347
174.1724,-184.4004
174.1181,-183.9689
174.0613,-183.5375
174.0073,-183.1059
173.9301,-182.6779
173.8437,-182.2518
173.7523,-181.8263
173.6731,-181.3989
173.6191,-180.9674
173.5704,-180.5349
173.5172,-180.1033
173.4569,-179.6724
173.3919,-179.2423
173.3266,-178.8122
173.2666,-178.3813
173.21,-177.9501
173.1582,-177.518
173.1009,-177.0869
173.0137,-176.661
172.9164,-176.2369
172.8236,-175.812
172.7375,-175.3856
172.666,-174.9566
172.5933,-174.5276
172.5209,-174.0987
172.4552,-173.6686
172.389,-173.2387
172.3233,-172.8086
172.2608,-172.3781
172.2004,-171.9473
172.1403,-171.5164
172.0758,-171.0863
171.9988,-170.6581
171.9214,-170.23
171.8442,-169.802
171.7515,-169.3769
171.6544,-168.953
171.5575,-168.5288
171.4666,-168.1035
171.3885,-167.6755
171.3105,-167.2475
171.2322,-166.8197
171.1565,-166.3912
171.0804,-165.963
171.0049,-165.5345
170.9247,-165.107
170.8391,-164.6805
170.7531,-164.254
170.6676,-163.8275
170.5891,-163.3995
170.513,-162.9713
170.4349,-162.5433
170.3507,-162.1166
170.252,-161.6929
170.1565,-161.2685
170.058,-160.8448
169.9467,-160.4242
169.8347,-160.004
169.7215,-159.5838
169.627,-159.1596
169.5499,-158.7317
169.4801,-158.302
169.4017,-157.8744
169.2814,-157.4566
169.1497,-157.0418
169.0259,-156.6249
168.9091,-156.2061
168.8097,-155.7825
168.709,-155.3593
168.6071,-154.9365
168.503,-154.514
168.3955,-154.0925
168.2916,-153.67
168.1886,-153.2474
168.0893,-152.8239
167.9901,-152.4002
167.8827,-151.979
167.7538,-151.5635
167.6206,-151.1493
167.492,-150.7338
167.349,-150.3228
167.2054,-149.9124
167.0593,-149.5024
166.9229,-149.0898
166.8137,-148.6686
166.7048,-148.2475
166.5955,-147.8264
166.4854,-147.4055
166.3726,-146.9855
166.2633,-146.5641
166.1284,-146.1519
165.9596,-145.7511
165.7841,-145.3528
165.6154,-144.952
165.4616,-144.5451
165.3168,-144.1349
165.1678,-143.7262
165.0264,-143.3148
164.8886,-142.9022
164.7522,-142.4891
164.6139,-142.0767
164.4504,-141.6736
164.2847,-141.2713
164.1222,-140.8678
163.9485,-140.4689
163.776,-140.0697
163.5978,-139.6726
163.4293,-139.2718
163.2795,-138.8634
163.1346,-138.4532
162.9858,-138.0444
162.8173,-137.6437
162.6396,-137.2466
162.4626,-136.8492
162.2895,-136.4502
162.126,-136.047
161.9631,-135.6437
161.7997,-135.2404
161.6363,-134.8373
161.4724,-134.4343
161.3089,-134.0312
161.1421,-133.6295
160.9679,-133.2308
160.7935,-132.8323
160.6191,-132.4337
160.4302,-132.0419
160.2384,-131.6514
160.0481,-131.2602
159.8532,-130.8714
159.658,-130.4825
159.4598,-130.0953
159.2647,-129.7064
159.0742,-129.3155
158.8861,-128.9232
158.6967,-128.5315
158.4977,-128.1448
158.2923,-127.7613
158.0847,-127.3791
157.8825,-126.9938
157.6886,-126.6045
157.4979,-126.2135
157.3046,-125.8237
157.1056,-125.437
156.9031,-125.0519
156.6995,-124.6676
156.4965,-124.2827
156.2864,-123.9019
156.0795,-123.5191
155.8696,-123.1381
155.6316,-122.7746
155.382,-122.4182
155.1331,-122.0615
154.8919,-121.6996
154.6656,-121.3282
154.4405,-120.9559
154.2142,-120.5843
153.9901,-120.2115
153.7661,-119.8385
153.5414,-119.4661
153.3201,-119.0915
153.0987,-118.7171
152.881,-118.3403
152.658,-117.967
152.4058,-117.6127
152.1489,-117.2615
151.8967,-116.9072
151.6417,-116.5545
151.3923,-116.1982
151.1387,-115.8447
150.8934,-115.4856
150.6629,-115.1168
150.4356,-114.7457
150.2055,-114.3766
149.9617,-114.0165
149.7113,-113.6607
149.4619,-113.3043
149.2135,-112.9471
148.9667,-112.5889
148.7209,-112.23
148.4739,-111.8719
148.2211,-111.5179
147.9662,-111.1653
147.7119,-110.8124
147.4569,-110.4599
147.2007,-110.1084
146.9454,-109.7561
146.6884,-109.4051
146.4266,-109.0577
146.1639,-108.7109
145.9016,-108.364
145.6449,-108.0127
145.3917,-107.659
145.1401,-107.304
144.8852,-106.9517
144.6167,-106.6094
144.3461,-106.2687
144.0772,-105.9268
143.8066,-105.5861
143.5358,-105.2458
143.2654,-104.9048
142.9922,-104.5665
142.7093,-104.236
142.424,-103.9074
142.1415,-103.5768
141.8685,-103.2381
141.6028,-102.8937
141.3344,-102.5513
141.0709,-102.2053
140.8111,-101.8563
140.5533,-101.5058
140.2938,-101.1568
140.0244,-100.8152
139.7506,-100.4773
139.4783,-100.1379
139.1976,-99.8059
138.9006,-99.4882
138.6014,-99.1722
138.3047,-98.8542
138.0153,-98.5294
137.7316,-98.1996
137.4443,-97.8729
137.165,-97.5394
136.8896,-97.2028
136.6184,-96.8625
136.3433,-96.5257
136.0465,-96.2078
135.7441,-95.8951
135.4436,-95.5806
135.1523,-95.2577
134.872,-94.9252
134.5925,-94.5916
134.3112,-94.26
134.0201,-93.9366
133.727,-93.6152
133.4356,-93.2922
133.1397,-92.9732
132.842,-92.6561
132.5449,-92.3382
132.2428,-92.0255
131.9287,-91.7244
131.6123,-91.4259
131.2983,-91.1249
130.9859,-90.8221
130.6768,-90.5161
130.3668,-90.2107
130.0569,-89.9055
129.7482,-89.5989
129.4381,-89.2939
129.1297,-88.9871
128.8287,-88.673
128.5311,-88.3558
128.2327,-88.0391
127.9248,-87.7324
127.6035,-87.439
127.2802,-87.1479
126.9598,-86.8539
126.6505,-86.5478
126.3461,-86.2371
126.0379,-85.93
125.7235,-85.6299
125.3952,-85.3443
125.0689,-85.0566
124.7415,-84.7702
124.4089,-84.4896
124.0766,-84.2092
123.7432,-83.9293
123.4336,-83.6255
123.1412,-83.3032
122.8508,-82.9793
122.5556,-82.6601
122.2411,-82.3594
121.9249,-82.0609
121.6103,-81.7602
121.292,-81.4638
120.9746,-81.1663
120.6551,-80.8709
120.3404,-80.5708
120.0355,-80.2604
119.7329,-79.948
119.4281,-79.6375
119.1217,-79.3288
118.8117,-79.0235
118.5032,-78.7167
118.1921,-78.4129
117.8716,-78.1185
117.5502,-77.8256
117.2296,-77.5313
116.9126,-77.2336
116.5974,-76.9337
116.2812,-76.6348
115.9584,-76.3438
115.6232,-76.0661
115.2889,-75.7882
114.954,-75.5102
114.6177,-75.2344
114.2819,-74.9579
113.945,-74.6824
113.6127,-74.4021
113.2808,-74.1204
112.9511,-73.8369
112.6176,-73.5576
112.2722,-73.2931
111.9254,-73.0306
111.5795,-72.7664
111.2332,-72.5036
110.8867,-72.2401
110.5406,-71.9769
110.1936,-71.7143
109.8442,-71.4551
109.4946,-71.1965
109.1449,-70.9373
108.7935,-70.6815
108.4402,-70.427
108.0878,-70.1725
107.7343,-69.9187
107.3806,-69.6653
107.0268,-69.4126
106.6728,-69.1592
106.3194,-68.9061
105.9652,-68.6529
105.612,-68.3993
105.2581,-68.1462
104.9056,-67.8912
104.5523,-67.6378
104.1995,-67.3827
103.8532,-67.1201
103.5075,-66.8554
103.1619,-66.5915
102.8061,-66.342
102.4387,-66.1085
102.0714,-65.8762
101.7043,-65.6419
101.3419,-65.402
100.9799,-65.1602
100.6172,-64.9202
100.2548,-64.6799
99.8903,-64.4417
99.5274,-64.2028
99.163,-63.9642
98.7993,-63.7263
98.4349,-63.4881
98.0705,-63.2505
97.7088,-63.0093
97.3473,-62.7665
96.9877,-62.5227
96.6244,-62.2824
96.2518,-62.0589
95.8773,-61.8371
95.5042,-61.6133
95.1202,-61.4101
94.7294,-61.2179
94.3384,-61.0287
93.949,-60.8336
93.5734,-60.6152
93.199,-60.3931
92.8227,-60.1747
92.4473,-59.9558
92.0675,-59.7422
91.6911,-59.5255
91.3101,-59.3144
90.9226,-59.1177
90.5337,-58.9226
90.145,-58.7266
89.754,-58.5375
89.3593,-58.3523
88.967,-58.1665
88.5731,-57.9802
88.1832,-57.7881
87.7927,-57.5966
87.4015,-57.4051
87.0129,-57.2114
86.6219,-57.0185
86.234,-56.8237
85.8427,-56.6319
85.4526,-56.4399
85.0617,-56.2497
84.6701,-56.0585
84.2827,-55.8631
83.8924,-55.6681
83.5062,-55.4702
83.1119,-55.2851
82.7144,-55.1087
82.3149,-54.938
81.916,-54.7616
81.5338,-54.5573
81.1505,-54.3481
80.7688,-54.142
80.3764,-53.9539
79.9774,-53.7796
79.5801,-53.6055
79.1804,-53.429
78.8023,-53.2186
78.4204,-53.0058
78.041,-52.7961
77.6645,-52.5772
77.2863,-52.3605
76.916,-52.1366
76.5451,-51.9045
76.2105,-51.6315
75.857,-51.3717
75.5318,-51.0896
75.2894,-50.7301
74.9852,-50.4357
74.6885,-50.135
74.4595,-49.7619
74.2376,-49.3916
74.0827,-48.9836
73.9783,-48.5624
73.8972,-48.1372
73.8387,-47.7027
73.7742,-47.2764
73.724,-46.8407
73.6944,-46.4097
73.6613,-45.9742
73.6343,-45.5403
73.6406,-45.1069
73.6575,-44.6697
73.6679,-44.2377
73.6884,-43.8004
73.7145,-43.3683
73.7404,-42.933
73.7683,-42.4986
73.8011,-42.0663
73.837,-41.6304
73.8711,-41.1994
73.9056,-40.7633
73.9423,-40.3316
73.9755,-39.8971
74.0199,-39.464
74.0895,-39.0364
74.1627,-38.605
74.2339,-38.1787
74.3136,-37.7486
74.3988,-37.3235
74.481,-36.8961
74.5775,-36.4712
74.7019,-36.0567
74.8269,-35.6369
74.9541,-35.2241
75.1001,-34.8119
75.2801,-34.4182
75.4868,-34.0362
75.7052,-33.6577
75.978,-33.3257
76.3044,-33.0369
76.6634,-32.7971
77.0463,-32.5872
77.4307,-32.3848
77.8174,-32.187
78.1958,-31.9691
78.5765,-31.7626
78.9775,-31.5947
79.3917,-31.456
79.7716,-31.2617
80.0759,-30.9554
80.3879,-30.6537
80.7488,-30.4062
81.0853,-30.1346
81.3826,-29.8181
81.6531,-29.4776
81.8685,-29.1035
82.054,-28.7092
82.2413,-28.317
82.395,-27.91
82.5427,-27.5007
82.6984,-27.0946
82.8243,-26.6781
82.9455,-26.2608
83.0612,-25.841
83.1403,-25.4148
83.1938,-24.9829
83.247,-24.5511
83.271,-24.1185
83.2526,-23.6833
83.2352,-23.2493
83.2176,-22.8139
83.2049,-22.3797
83.1938,-21.9444
83.1808,-21.5097
83.2041,-21.0764
83.2531,-20.6438
83.3027,-20.2123
83.3543,-19.7795
83.4254,-19.3513
83.4977,-18.9214
83.5689,-18.4929
83.6935,-18.0779
83.8478,-17.6708
84.0009,-17.2645
84.1551,-16.8564
84.3049,-16.4494
84.4562,-16.0403
84.607,-15.633
84.7771,-15.2328
84.9551,-14.835
85.1294,-14.4379
85.289,-14.0325
85.4023,-13.6142
85.5181,-13.1935
85.6341,-12.7748
85.7262,-12.35
85.8253,-11.9251
85.9116,-11.5008
86.0206,-11.0766
86.1177,-10.656
86.0948,-10.2252
86.0289,-9.7941
85.9906,-9.3621
85.9459,-8.9276
85.8478,-8.5106
85.6928,-8.1017
85.5343,-7.698
85.3418,-7.309
85.1243,-6.9304
84.921,-6.5484
84.697,-6.1722
84.4688,-5.8054
84.2316,-5.4378
83.9994,-5.0716
83.7986,-4.6859
83.6005,-4.2973
83.4083,-3.9097
83.1902,-3.5303
82.9492,-3.1728
82.6991,-2.813
82.4059,-2.4949
82.111,-2.1737
81.8043,-1.8643
81.4242,-1.6697
81.0179,-1.5013
80.624,-1.3277
80.2183,-1.1617
79.8211,-0.9864
79.4196,-0.82439
78.9982,-0.70039
78.5817,-0.60349
78.1544,-0.4767
77.7482,-0.365
77.3337,-0.18792
76.9368,-0.050387
