80.0447,-56.487
79.3109,-56.076
78.5934,-55.6421
77.8872,-55.1834
77.1837,-54.7126
76.4783,-54.241
75.7741,-53.7738
75.0686,-53.3054
74.3676,-52.8341
73.6688,-52.3558
72.9737,-51.8688
72.2875,-51.3723
71.6146,-50.8612
70.9606,-50.3281
70.3345,-49.766
69.7453,-49.1664
69.2081,-48.524
68.7506,-47.8401
68.3993,-47.1163
68.188,-46.3639
68.1311,-45.5927
68.2148,-44.8092
68.3989,-44.0163
68.6383,-43.2195
68.8883,-42.4162
69.1365,-41.6106
69.3904,-40.8119
69.6878,-40.0417
70.0722,-39.3286
70.5667,-38.6928
71.1594,-38.1308
71.8218,-37.6267
72.5174,-37.1581
73.2179,-36.7033
73.8968,-36.2342
74.5242,-35.7151
75.0892,-35.1259
75.5989,-34.473
76.0726,-33.7802
76.5262,-33.068
76.9688,-32.3482
77.395,-31.6193
77.8131,-30.8836
78.2255,-30.1444
78.6367,-29.4047
79.0485,-28.6659
79.4667,-27.9318
79.8957,-27.2042
80.3407,-26.4845
80.7874,-25.7664
81.2155,-25.0399
81.6016,-24.2956
81.9186,-23.5264
82.1458,-22.7305
82.2712,-21.9135
82.2954,-21.0854
82.2466,-20.2632
82.1813,-19.4692
82.1771,-18.7222
82.3203,-18.03
82.6346,-17.3775
83.074,-16.7372
83.5642,-16.0867
84.0438,-15.4128
84.4549,-14.7029
84.77,-13.9543
84.9664,-13.1734
85.0365,-12.3724
84.9921,-11.5673
84.8467,-10.774
84.6038,-10.0016
84.2734,-9.2514
83.88,-8.5183
83.456,-7.7952
83.0337,-7.0754
82.6259,-6.3575
82.215,-5.6597
81.7526,-5.0184
81.2003,-4.4618
80.5628,-3.9806
80.3292,-3.9098
79.687,-3.4968
79.1078,-2.9773
78.4551,-2.5754
77.7344,-2.2791
77.012,-1.9822
76.3152,-1.6294
75.6207,-1.2745
-48.6657,-37.1382