80.2667,-56.0516
79.577,-55.6327
78.8815,-55.2149
78.1881,-54.7864
77.4963,-54.3506
76.8036,-53.9133
76.1109,-53.4754
75.4225,-53.031
74.7438,-52.5727
74.0766,-52.0976
73.4182,-51.6097
72.7646,-51.1155
72.115,-50.6169
71.4748,-50.1081
70.8538,-49.5784
70.2605,-49.019
69.7019,-48.4275
69.1938,-47.8066
68.763,-47.1616
68.4523,-46.5008
68.3071,-45.8291
68.3453,-45.1449
68.5404,-44.4448
68.838,-43.7298
69.1867,-43.0053
69.5547,-42.2762
69.9273,-41.5468
70.3103,-40.8248
70.7202,-40.1219
71.1753,-39.4531
71.687,-38.8296
72.253,-38.2527
72.8573,-37.711
73.4742,-37.1821
74.0775,-36.6399
74.6493,-36.0662
75.1853,-35.4571
75.6902,-34.8195
76.1657,-34.159
76.6087,-33.4764
77.0207,-32.7734
77.4109,-32.0556
77.7894,-31.3296
78.1597,-30.5983
78.5195,-29.8615
78.8665,-29.1184
79.1999,-28.369
79.5216,-27.6146
79.836,-26.8576
80.15,-26.1016
80.4701,-25.3499
80.7931,-24.6014
81.1039,-23.8496
81.3857,-23.0871
81.6354,-22.3115
81.8647,-21.5268
82.0877,-20.7387
82.3139,-19.9516
82.5478,-19.1701
82.7927,-18.3989
83.0605,-17.6455
83.3639,-16.9147
83.6947,-16.1986
84.0172,-15.4771
84.2888,-14.7317
84.4847,-13.9573
84.6001,-13.161
84.6388,-12.3532
84.6044,-11.5443
84.4972,-10.7429
84.3184,-9.955
84.0721,-9.1863
83.7627,-8.4429
83.3973,-7.7292
82.9799,-7.0508
82.5079,-6.4148
81.9801,-5.821
81.41,-5.2555
80.8239,-4.6952
80.2459,-4.1209
79.0995,-2.8743
78.5957,-2.2323
78.0968,-1.5892
77.4283,-1.1215
76.7614,-0.64993
-47.9835,-37.5449