79.3006,-56.3574
78.599,-55.9401
77.9131,-55.4995
77.2429,-55.0361
76.5821,-54.5586
75.922,-54.0792
75.2578,-53.6041
74.5909,-53.1312
73.925,-52.6557
73.2613,-52.1763
72.601,-51.6925
71.9495,-51.2004
71.3195,-50.689
70.7293,-50.1421
70.1951,-49.5463
69.72,-48.8999
69.299,-48.2141
68.933,-47.5036
68.644,-46.7792
68.4725,-46.0464
68.4535,-45.3092
68.5879,-44.5707
68.8396,-43.8335
69.1503,-43.0961
69.4679,-42.3528
69.7602,-41.5989
70.0267,-40.8392
70.3004,-40.0935
70.6296,-39.3916
71.0548,-38.7644
71.589,-38.2277
72.2116,-37.7685
72.8797,-37.3487
73.545,-36.9225
74.1652,-36.4504
74.7177,-35.9092
75.2047,-35.2972
75.6477,-34.6339
76.0698,-33.9432
76.4808,-33.2393
76.8805,-32.5269
77.2675,-31.8072
77.6431,-31.0812
78.0098,-30.3508
78.3684,-29.617
78.7234,-28.8824
79.0856,-28.1524
79.4638,-27.4308
79.8551,-26.7154
80.2459,-25.9988
80.6222,-25.2738
80.977,-24.5375
81.3121,-23.7913
81.6298,-23.0381
81.9244,-22.2801
82.1752,-21.5169
82.354,-20.7467
82.4468,-19.9693
82.4762,-19.1881
82.5027,-18.4099
82.5921,-17.6416
82.7737,-16.8856
83.0274,-16.1373
83.3006,-15.3866
83.5364,-14.6243
83.6995,-13.8479
83.7751,-13.0621
83.7606,-12.2735
83.6624,-11.4863
83.4968,-10.7017
83.2831,-9.9209
83.0313,-9.1474
82.742,-8.3852
82.4161,-7.6373
82.0553,-6.9054
81.6621,-6.1899
81.2398,-5.4905
80.7911,-4.8077
80.3157,-4.1439
79.8112,-3.5038
-50.7164,-37.498