81.1268,-333.8346
81.4968,-333.6496
81.8688,-333.4688
82.2394,-333.2851
82.6105,-333.1026
82.9876,-332.9326
83.365,-332.7637
83.7444,-332.5986
84.1215,-332.429
84.4692,-332.2111
84.7935,-331.9539
85.1197,-331.6999
85.4447,-331.4441
85.7769,-331.1977
86.1152,-330.96
86.4523,-330.72
86.7913,-330.4833
87.1271,-330.2416
87.4642,-330.002
87.7984,-329.7585
88.1356,-329.5186
88.4699,-329.2755
88.7814,-329.0033
89.0904,-328.7285
89.4011,-328.4553
89.7108,-328.1812
90.0206,-327.9073
90.3313,-327.6341
90.6627,-327.3875
91.001,-327.149
91.3361,-326.9071
91.6747,-326.6692
92.0099,-326.4269
92.3515,-326.1941
92.7017,-325.9739
93.0535,-325.7567
93.4046,-325.5375
93.7556,-325.3192
94.122,-325.1285
94.4967,-324.9537
94.8439,-324.7355
95.1617,-324.4708
95.4778,-324.2039
95.7972,-323.9414
96.1227,-323.6859
96.4555,-323.4408
96.78,-323.1833
97.1147,-322.9415
97.4789,-322.7473
97.8531,-322.5689
98.218,-322.3754
98.5607,-322.1462
98.8897,-321.8946
99.2236,-321.6511
99.5538,-321.4018
99.8765,-321.1431
100.199,-320.8845
100.5208,-320.624
100.8439,-320.3664
101.1654,-320.1057
101.4885,-319.8478
101.8288,-319.6137
102.179,-319.3934
102.5282,-319.1722
102.8783,-318.9514
103.228,-318.7311
103.5813,-318.5156
103.9332,-318.2986
104.2869,-318.0839
104.6384,-317.8661
104.9696,-317.6189
105.2972,-317.3658
105.6272,-317.117
105.955,-316.8643
106.2889,-316.6205
106.6226,-316.3761
106.9569,-316.1325
107.2914,-315.8893
107.6269,-315.6472
107.965,-315.4093
108.3015,-315.1685
108.6399,-314.9308
108.9728,-314.6856
109.2983,-314.4303
109.6219,-314.1729
109.9471,-313.917
110.2711,-313.6602
110.5829,-313.3883
110.8922,-313.114
111.2012,-312.8389
111.511,-312.565
111.843,-312.3202
112.1907,-312.0959
112.5369,-311.87
112.8846,-311.6456
113.2193,-311.4045
113.5286,-311.1299
113.8376,-310.8549
114.1462,-310.5797
114.4558,-310.3053
114.7903,-310.0623
115.1268,-309.8215
115.4612,-309.5784
115.7977,-309.3377
116.1172,-309.0756
116.4305,-308.8057
116.7426,-308.5341
117.0554,-308.2637
117.3635,-307.9878
117.6563,-307.6957
117.9492,-307.4038
118.2419,-307.1115
118.5348,-306.8196
118.8355,-306.5355
119.1385,-306.254
119.4416,-305.9726
119.7446,-305.691
120.0485,-305.4105
120.3537,-305.1313
120.6584,-304.8517
120.964,-304.5729
121.2683,-304.2929
121.5635,-304.0032
121.8564,-303.7111
122.151,-303.4209
122.4441,-303.1289
122.7505,-302.8518
123.0677,-302.5861
123.3847,-302.3207
123.7024,-302.0557
124.013,-301.7828
124.3177,-301.5032
124.6212,-301.222
124.9256,-300.9422
125.2253,-300.6571
125.5148,-300.3618
125.8045,-300.0666
126.0936,-299.7708
126.3835,-299.4758
126.6797,-299.187
126.9764,-298.899
127.2731,-298.6107
127.5693,-298.3222
127.8613,-298.0292
128.1498,-297.7328
128.4397,-297.4378
128.7285,-297.1417
129.0224,-296.851
129.3293,-296.5734
129.6346,-296.2947
129.9425,-296.0182
130.2469,-295.7385
130.5197,-295.4285
130.7819,-295.1083
131.0485,-294.7924
131.3113,-294.4726
131.5864,-294.1643
131.8717,-293.8648
132.1579,-293.5663
132.4442,-293.2677
132.7307,-292.9694
133.0253,-292.6791
133.3193,-292.3882
133.6131,-292.0972
133.9083,-291.8072
134.1992,-291.5134
134.4923,-291.2213
134.7805,-290.9249
135.0742,-290.6334
135.3589,-290.334
135.6037,-290.001
135.8443,-289.6642
136.0878,-289.3301
136.3298,-288.9947
136.5924,-288.6751
136.8571,-288.3573
137.1196,-288.0376
137.3848,-287.7203
137.6479,-287.4011
137.914,-287.0845
138.1785,-286.7665
138.4438,-286.4492
138.709,-286.1319
138.9688,-285.81
139.2286,-285.4882
139.4875,-285.1656
139.747,-284.8435
139.9979,-284.515
140.2355,-284.1763
140.4751,-283.8393
140.7119,-283.5
140.9533,-283.1644
141.2166,-282.8455
141.4835,-282.5294
141.7471,-282.2108
142.0133,-281.8941
142.2828,-281.5806
142.5565,-281.2703
142.8298,-280.96
143.103,-280.6494
143.3597,-280.3259
143.5967,-279.987
143.834,-279.6481
144.0715,-279.3096
144.3077,-278.97
144.5395,-278.6276
144.7698,-278.2839
145.0019,-277.9416
145.2322,-277.598
145.466,-277.2568
145.6998,-276.9157
145.9339,-276.5746
146.1685,-276.234
146.4085,-275.8974
146.6602,-275.5691
146.9095,-275.2391
147.1616,-274.911
147.4106,-274.581
147.6413,-274.2378
147.8676,-273.8915
148.0963,-273.5469
148.323,-273.2009
148.5337,-272.8456
148.7287,-272.4807
148.9237,-272.1161
149.1193,-271.7516
149.3349,-271.3996
149.5755,-271.0632
149.8143,-270.7254
150.0552,-270.3892
150.2938,-270.0514
150.5113,-269.6998
150.7248,-269.3454
150.9405,-268.9926
151.1544,-268.6385
151.3766,-268.2897
151.6001,-267.9417
151.8238,-267.5938
152.048,-267.2462
152.2582,-266.8903
152.4578,-266.5281
152.6555,-266.1648
152.8552,-265.8026
153.053,-265.4393
153.243,-265.0719
153.4314,-264.7038
153.6208,-264.336
153.8097,-263.9681
153.9996,-263.6006
154.1902,-263.2336
154.3802,-262.8662
154.5709,-262.4991
154.7668,-262.135
154.9692,-261.7742
155.1716,-261.4136
155.3737,-261.0527
155.5684,-260.688
155.7482,-260.3155
155.9291,-259.9435
156.1089,-259.571
156.2914,-259.2
156.4965,-258.8408
156.7025,-258.4821
156.9078,-258.1231
157.1136,-257.7643
157.2961,-257.3935
157.4682,-257.0175
157.6399,-256.6412
157.812,-256.2651
157.9742,-255.8849
158.1162,-255.4964
158.258,-255.1079
158.3998,-254.7193
158.5425,-254.3312
158.6938,-253.9461
158.8472,-253.5621
158.9976,-253.1767
159.1519,-252.7931
159.343,-252.4277
159.5563,-252.0728
159.7638,-251.7155
159.977,-251.3607
160.1515,-250.9889
160.2705,-250.5931
160.3868,-250.1959
160.5042,-249.7995
160.6252,-249.404
160.7684,-249.0161
160.9154,-248.6294
161.0577,-248.241
161.2052,-247.8546
161.3656,-247.4736
161.5357,-247.0965
161.7023,-246.718
161.8711,-246.3404
162.0242,-245.9567
162.1473,-245.5619
162.2724,-245.1677
162.3948,-244.7725
162.5226,-244.3794
162.681,-243.9973
162.8416,-243.6162
163.001,-243.2345
163.1604,-242.8529
163.2879,-242.4604
163.3931,-242.0602
163.5017,-241.6613
163.6065,-241.261
163.73,-240.8673
163.8962,-240.4887
164.0644,-240.1108
164.2319,-239.7326
164.3988,-239.3542
164.5217,-238.9606
164.6228,-238.5593
164.7272,-238.1593
164.8282,-237.7581
164.9344,-237.3584
165.0447,-236.9598
165.1562,-236.5615
165.2674,-236.1631
165.378,-235.7645
165.4836,-235.3647
165.5871,-234.9642
165.6922,-234.5642
165.7963,-234.1639
165.9215,-233.7701
166.0639,-233.3818
166.2038,-232.9926
166.3473,-232.6046
166.476,-232.212
166.5767,-231.811
166.6723,-231.4085
166.7726,-231.0073
166.8691,-230.6051
166.9608,-230.2018
167.0492,-229.7978
167.1376,-229.3937
167.2271,-228.9899
167.3243,-228.588
167.4339,-228.1891
167.5411,-227.7897
167.6502,-227.3907
167.7467,-226.989
167.8112,-226.5804
167.8764,-226.1721
167.9399,-225.7633
168.0133,-225.3567
168.124,-224.9583
168.2377,-224.5605
168.3486,-224.1621
168.4619,-223.7642
168.5629,-223.3633
168.6583,-222.9608
168.7532,-222.5582
168.8482,-222.1557
168.9439,-221.7533
169.0417,-221.3514
169.1399,-220.9496
169.2379,-220.5478
169.3358,-220.146
169.4298,-219.7432
169.5228,-219.3402
169.6168,-218.9373
169.7096,-218.5343
169.7947,-218.1296
169.8738,-217.7236
169.954,-217.3179
170.0334,-216.9119
170.1075,-216.5051
170.1744,-216.0969
170.2416,-215.6888
170.3086,-215.2807
170.3757,-214.8726
170.4512,-214.4659
170.5268,-214.0592
170.6027,-213.6527
170.6782,-213.246
170.731,-212.8364
170.764,-212.424
170.7975,-212.0118
170.8307,-211.5996
170.8895,-211.1913
170.9869,-210.7894
171.0831,-210.3871
171.1812,-209.9853
171.2729,-209.5822
171.3303,-209.1727
171.3834,-208.7624
171.4413,-208.3529
171.4942,-207.9427
171.5398,-207.5317
171.5778,-207.1198
171.6192,-206.7083
171.6584,-206.2965
171.7041,-205.8855
171.7626,-205.476
171.8192,-205.0664
171.8788,-204.657
171.9347,-204.2472
171.9696,-203.8352
172.0004,-203.4227
172.035,-203.0106
172.0665,-202.5981
172.1035,-202.1862
172.1408,-201.7742
172.1785,-201.3624
172.2166,-200.9505
172.2595,-200.5393
172.3202,-200.1301
172.3794,-199.7208
172.4401,-199.3116
172.4993,-198.9023
172.5409,-198.4908
172.5802,-198.0791
172.6212,-197.6675
172.6602,-197.2558
172.6764,-196.8428
172.6802,-196.4291
172.6875,-196.0157
172.6908,-195.6019
172.7084,-195.1889
172.7282,-194.7756
172.7523,-194.3629
172.7724,-193.9496
172.7959,-193.5368
172.8694,-193.1298
172.9448,-192.7232
173.0202,-192.3164
173.0944,-191.9097
173.1012,-191.4981
173.0816,-191.0848
173.0661,-190.6717
173.0461,-190.2583
173.0405,-189.8451
173.0469,-189.4315
173.0572,-189.018
173.0643,-188.6045
173.0737,-188.1909
173.0898,-187.7777
173.1062,-187.3644
173.1235,-186.9512
173.139,-186.5378
173.1374,-186.1245
173.1219,-185.7112
173.1091,-185.2978
173.094,-184.8844
173.0866,-184.471
173.097,-184.0576
173.1071,-183.6441
173.1185,-183.2306
173.1277,-182.8171
173.1115,-182.4041
173.0838,-181.9914
173.0595,-181.5785
173.0323,-181.1658
173.0073,-180.753
172.9813,-180.3402
172.9556,-179.9274
172.9303,-179.5145
172.9041,-179.1018
172.8901,-178.6884
172.8764,-178.275
172.8624,-177.8617
172.8501,-177.4482
172.8395,-177.0349
172.8382,-176.621
172.8298,-176.2078
172.8298,-175.7938
172.8207,-175.3806
172.7609,-174.9719
172.689,-174.5643
172.6241,-174.156
172.5542,-173.7482
172.504,-173.3383
172.4796,-172.9253
172.4532,-172.5126
172.4307,-172.0995
172.4031,-171.687
172.3383,-171.2787
172.2666,-170.8712
172.1999,-170.4631
172.1293,-170.0555
172.0781,-169.6454
172.0404,-169.2335
172.0031,-168.8216
171.9663,-168.4096
171.9159,-167.9994
171.8465,-167.5917
171.7765,-167.184
171.7066,-166.7764
171.6372,-166.3686
171.5839,-165.9585
171.5325,-165.548
171.4798,-165.1378
171.4283,-164.7274
171.3689,-164.3181
171.3078,-163.9091
171.2465,-163.5
171.1851,-163.091
171.1233,-162.682
171.0604,-162.2732
170.9972,-161.8645
170.9348,-161.4556
170.8704,-161.0471
170.7952,-160.6404
170.718,-160.234
170.6427,-159.8273
170.566,-159.4209
170.4963,-159.0133
170.4333,-158.6044
170.3687,-158.196
170.307,-157.7869
170.2414,-157.3786
170.1524,-156.9748
170.0564,-156.5724
169.9647,-156.1692
169.8695,-155.7666
169.7761,-155.3638
169.6806,-154.9613
169.5847,-154.559
169.4904,-154.1563
169.3936,-153.7541
169.2904,-153.3536
169.1835,-152.954
169.0791,-152.5539
168.9731,-152.1541
168.8711,-151.7532
168.7705,-151.352
168.6685,-150.9512
168.5687,-150.5498
168.4644,-150.1496
168.3581,-149.7499
168.2494,-149.3508
168.1427,-148.9512
168.0344,-148.552
167.9163,-148.1556
167.7977,-147.7594
167.6795,-147.363
167.5608,-146.9668
167.4363,-146.5724
167.308,-146.1792
167.1812,-145.7855
167.0527,-145.3924
166.9266,-144.9985
166.8003,-144.6046
166.6756,-144.2103
166.5498,-143.8162
166.4245,-143.4221
166.3105,-143.0245
166.1983,-142.6265
166.0873,-142.228
165.9749,-141.83
165.8465,-141.4371
165.706,-141.048
165.5659,-140.6589
165.4262,-140.2696
165.2836,-139.8813
165.1405,-139.4933
164.9949,-139.1061
164.8521,-138.718
164.7046,-138.3316
164.5401,-137.9522
164.3741,-137.5733
164.2088,-137.1942
164.0437,-136.815
163.8971,-136.4285
163.7636,-136.037
163.6275,-135.6465
163.4944,-135.2548
163.3582,-134.8643
163.2064,-134.4796
163.0512,-134.0962
162.8981,-133.712
162.7435,-133.3284
162.5848,-132.9465
162.4198,-132.5672
162.2541,-132.1882
162.0896,-131.8087
161.9222,-131.4306
161.7447,-131.057
161.5652,-130.6843
161.3877,-130.3108
161.2085,-129.938
161.0367,-129.5618
160.867,-129.1846
160.6975,-128.8073
160.5284,-128.4298
160.3599,-128.0522
160.1994,-127.6709
160.0366,-127.2908
159.8764,-126.9093
159.7134,-126.5293
159.5265,-126.1606
159.3315,-125.7958
159.1384,-125.43
158.9442,-125.0649
158.7554,-124.6969
158.5715,-124.3264
158.3862,-123.9567
158.203,-123.5858
158.0163,-123.2168
157.8145,-122.8558
157.6099,-122.4963
157.408,-122.1354
157.2038,-121.7756
157,-121.4157
156.7948,-121.0566
156.59,-120.6973
156.3855,-120.3378
156.1846,-119.9762
155.9883,-119.6122
155.7904,-119.249
155.5943,-118.8848
155.3937,-118.5232
155.1837,-118.1668
154.9721,-117.8115
154.7619,-117.4552
154.5505,-117.0998
154.3294,-116.7503
154.1016,-116.4051
153.8743,-116.0596
153.6467,-115.7142
153.4235,-115.366
153.2031,-115.016
152.9825,-114.6662
152.7623,-114.316
152.5389,-113.968
152.3122,-113.622
152.0849,-113.2765
151.8581,-112.9306
151.6309,-112.5849
151.4026,-112.2401
151.1741,-111.8953
150.9455,-111.5506
150.7171,-111.2058
150.4907,-110.8597
150.2662,-110.5123
150.0414,-110.1651
149.817,-109.8177
149.5886,-109.4729
149.3509,-109.1344
149.1125,-108.7965
148.875,-108.4579
148.6364,-108.12
148.3976,-107.7823
148.1567,-107.446
147.9172,-107.1089
147.6764,-106.7726
147.437,-106.4353
147.2049,-106.093
146.9733,-105.7503
146.7415,-105.4077
146.5096,-105.0652
146.2727,-104.7262
146.0316,-104.3902
145.7906,-104.054
145.5498,-103.7177
145.3081,-103.3821
145.0664,-103.0464
144.8231,-102.712
144.5818,-102.376
144.3383,-102.0418
144.0823,-101.7169
143.8234,-101.3944
143.5661,-101.0706
143.3078,-100.7475
143.0577,-100.4182
142.8154,-100.0829
142.5718,-99.7488
142.3301,-99.413
142.086,-99.0792
141.8275,-98.7565
141.5647,-98.437
141.3042,-98.1158
141.0419,-97.796
140.7824,-97.4739
140.5239,-97.151
140.2655,-96.8281
140.0074,-96.5049
139.7503,-96.1809
139.4975,-95.8536
139.2441,-95.5266
138.9912,-95.1994
138.7322,-94.8771
138.4611,-94.5647
138.1897,-94.2526
137.9187,-93.9401
137.6475,-93.6279
137.3781,-93.3139
137.108,-93.0008
136.8387,-92.6868
136.5685,-92.3737
136.2969,-92.0618
136.0246,-91.7504
135.7528,-91.4387
135.4807,-91.1272
135.2015,-90.8222
134.9177,-90.5213
134.634,-90.2203
134.35,-89.9196
134.0683,-89.6167
133.7902,-89.3106
133.5131,-89.0035
133.2349,-88.6975
132.9578,-88.3904
132.6817,-88.0824
132.4063,-87.7739
132.1313,-87.4649
131.855,-87.1572
131.5651,-86.863
131.2576,-86.5861
130.9536,-86.3059
130.646,-86.0291
130.3481,-85.7432
130.088,-85.4217
129.8292,-85.0991
129.5704,-84.7763
129.3102,-84.455
129.0124,-84.1691
128.7038,-83.8933
128.3992,-83.6139
128.0908,-83.3379
127.7909,-83.0536
127.4989,-82.7605
127.2077,-82.4669
126.9171,-82.1725
126.6246,-81.88
126.3168,-81.6041
126.0043,-81.3328
125.6954,-81.058
125.3832,-80.7865
125.0674,-80.5199
124.7408,-80.266
124.4147,-80.0115
124.0891,-79.7567
123.7747,-79.489
123.4883,-79.1907
123.1996,-78.8945
122.9132,-78.596
122.6201,-78.3049
122.2944,-78.05
121.9672,-77.797
121.6415,-77.5421
121.3141,-77.2892
121.0021,-77.0182
120.6955,-76.7405
120.3921,-76.4597
120.085,-76.1822
119.7863,-75.8971
119.525,-75.5765
119.2669,-75.2533
119.0065,-74.9318
118.7473,-74.6098
118.4359,-74.3437
118.093,-74.1121
117.7528,-73.8775
117.4092,-73.6465
117.0697,-73.411
116.7296,-73.175
116.3919,-72.9366
116.0531,-72.6992
115.7225,-72.4512
115.4079,-72.1827
115.0896,-71.9185
114.7763,-71.6484
114.4572,-71.3853
114.1116,-71.1594
113.7583,-70.9437
113.4096,-70.7215
113.0575,-70.5045
112.7221,-70.2649
112.4214,-69.9814
112.1195,-69.6985
111.8201,-69.4129
111.5172,-69.1318
111.1703,-68.9086
110.8127,-68.7004
110.4599,-68.4847
110.1024,-68.2764
109.7561,-68.0509
109.4191,-67.8112
109.0853,-67.5671
108.7491,-67.326
108.4153,-67.0821
108.0864,-66.8309
107.7571,-66.581
107.4289,-66.329
107.0991,-66.0795
106.7667,-65.8336
106.4299,-65.5932
106.0939,-65.3524
105.7581,-65.1104
105.4391,-64.85
105.1489,-64.5543
104.8541,-64.2651
104.5653,-63.9681
104.2695,-63.6798
103.9201,-63.4614
103.5595,-63.2567
103.2059,-63.0439
102.8463,-62.838
102.4899,-62.6291
102.1274,-62.4294
101.7667,-62.2269
101.4054,-62.0263
101.0439,-61.8243
100.6913,-61.6091
100.339,-61.3916
99.9863,-61.176
99.6349,-60.9579
99.3043,-60.7105
98.9858,-60.4469
98.664,-60.1867
98.3454,-59.9232
98.016,-59.6731
97.6814,-59.4302
97.3454,-59.189
97.0099,-58.9467
96.6713,-58.7102
96.3179,-58.4944
95.9651,-58.2793
95.6122,-58.063
95.2586,-57.8486
94.9018,-57.6398
94.5415,-57.4359
94.1842,-57.2286
93.8237,-57.0246
93.4638,-56.822
93.1001,-56.6244
92.7371,-56.4262
92.375,-56.2268
92.0403,-55.9903
91.7487,-55.6964
91.4516,-55.4094
91.1609,-55.1141
90.8476,-54.8524
90.4657,-54.6967
90.0774,-54.5512
89.695,-54.3955
89.3073,-54.2498
88.9244,-54.0942
88.5376,-53.947
88.155,-53.7908
87.7681,-53.643
87.3856,-53.4873
87.0341,-53.2701
86.6891,-53.0421
86.34,-52.8201
85.9944,-52.5929
85.6394,-52.3808
85.2827,-52.1711
84.9256,-51.9632
84.5679,-51.7545
84.206,-51.5563
83.829,-51.3847
83.4536,-51.2121
83.077,-51.0407
82.7009,-50.8683
82.3342,-50.6783
81.9686,-50.4834
81.6047,-50.2884
81.2389,-50.0938
80.8785,-49.892
80.521,-49.6837
80.1637,-49.475
79.807,-49.2667
79.449,-49.058
79.1038,-48.832
78.7631,-48.5964
78.423,-48.3617
78.0832,-48.1258
77.7416,-47.8921
77.4014,-47.658
77.0584,-47.4254
76.7181,-47.1917
76.375,-46.9596
76.0304,-46.7313
75.6867,-46.5016
75.3404,-46.2742
74.9982,-46.0437
74.6635,-45.7992
74.3364,-45.5475
74.0055,-45.2984
73.6763,-45.048
73.3581,-44.7861
73.0635,-44.4944
72.7769,-44.1978
72.4798,-43.9081
72.19,-43.6153
71.8497,-43.377
71.5371,-43.115
71.3688,-42.7404
71.2036,-42.3578
71.04,-41.9814
70.9671,-41.5737
70.9368,-41.1638
70.9593,-40.7514
70.9962,-40.3382
71.0191,-39.9265
71.0542,-39.5132
71.08,-39.1011
71.1436,-38.6938
71.2475,-38.2932
71.3515,-37.8937
71.4569,-37.4926
71.567,-37.0953
71.7114,-36.7071
71.8571,-36.3198
71.999,-35.9324
72.1471,-35.5444
72.2758,-35.1533
72.4114,-34.7607
72.5386,-34.3683
72.6725,-33.9769
72.7946,-33.5805
72.9062,-33.185
73.077,-32.8159
73.201,-32.4685
73.3105,-32.0993
73.5756,-31.79
73.9478,-31.6274
74.3404,-31.5094
74.7362,-31.3817
75.1299,-31.2577
75.5326,-31.1914
75.9466,-31.1955
76.324,-31.0831
76.6659,-30.848
77.0102,-30.62
77.3312,-30.3628
77.6143,-30.0612
77.8307,-29.7177
77.977,-29.3315
78.1137,-28.9409
78.2604,-28.5541
78.4077,-28.1677
78.5591,-27.7829
78.7088,-27.397
78.8584,-27.012
79.0374,-26.6389
79.2285,-26.2728
79.4188,-25.9052
79.612,-25.5393
79.7922,-25.1679
79.9615,-24.7896
80.1223,-24.4097
80.2915,-24.0311
80.4539,-23.6515
80.6087,-23.2678
80.764,-22.8839
80.9131,-22.4993
81.0735,-22.1163
81.243,-21.7432
81.4702,-21.3932
81.6775,-21.0388
81.7634,-20.6381
81.8187,-20.2261
81.8921,-19.8215
81.9597,-19.4107
81.9611,-19.0037
81.9209,-18.5902
81.8966,-18.1785
81.8598,-17.7673
81.7464,-17.3738
81.4967,-17.0506
81.1943,-16.767
80.8875,-16.4899
80.5957,-16.1982
80.3439,-15.8707
80.1182,-15.5245
79.9673,-15.1435
79.8516,-14.7437
79.7366,-14.3493
79.6157,-13.9506
79.5574,-13.5518
79.6121,-13.1419
79.6864,-12.7346
79.8255,-12.3492
80.0029,-11.9725
80.1603,-11.592
80.3405,-11.2181
80.5524,-10.8666
80.8147,-10.5456
81.112,-10.2646
81.4306,-9.9931
81.7275,-9.7126
82.0484,-9.4421
82.3472,-9.1654
82.5179,-8.8334
82.6124,-8.4429
82.556,-8.0464
82.4547,-7.6421
82.3757,-7.2385
82.1867,-6.8703
81.9863,-6.509
81.7917,-6.1447
81.5702,-5.7944
81.3296,-5.4613
81.0785,-5.129
80.8486,-4.7883
80.613,-4.4457
80.3789,-4.1067
80.1252,-3.7803
79.8424,-3.478
79.5122,-3.2404
79.1455,-3.0421
78.7895,-2.8375
78.4158,-2.6558
78.0382,-2.4907
77.6582,-2.3268
77.277,-2.1638
76.9001,-1.9982
76.5209,-1.8272
76.1499,-1.6497
75.7722,-1.4763
75.3996,-1.2997
75.0207,-1.1328
74.6404,-0.96927
74.2629,-0.80312
73.8802,-0.64162
73.5068,-0.46843
73.127,-0.29949
72.7552,-0.12249
72.3669,-0.020897
