72.0322,-330.2603
72.4187,-330.0941
72.8128,-329.9497
73.2205,-329.8426
73.6255,-329.7281
74.0318,-329.6174
74.4182,-329.4512
74.8003,-329.2743
75.1857,-329.1046
75.5666,-328.9249
75.966,-328.7915
76.3644,-328.657
76.7684,-328.5356
77.164,-328.3956
77.5189,-328.1706
77.8697,-327.9363
78.2239,-327.7094
78.5754,-327.4771
78.9288,-327.2483
79.281,-327.0175
79.634,-326.7877
79.9864,-326.5575
80.3392,-326.3274
80.6917,-326.0973
81.0445,-325.8673
81.397,-325.637
81.7498,-325.4072
82.1024,-325.1768
82.455,-324.9469
82.8078,-324.7167
83.1602,-324.4864
83.5132,-324.2568
83.8655,-324.026
84.2185,-323.7966
84.5709,-323.5658
84.9237,-323.3363
85.2764,-323.1059
85.6287,-322.8758
85.9819,-322.646
86.3339,-322.4152
86.6872,-322.1861
87.0393,-321.9549
87.3924,-321.7258
87.7448,-321.495
88.0973,-321.2651
88.4505,-321.0354
88.8023,-320.8043
89.1562,-320.5757
89.5073,-320.3435
89.8552,-320.1064
90.2004,-319.8649
90.5478,-319.6275
90.8939,-319.3869
91.2514,-319.1673
91.6316,-318.9852
92.0094,-318.8007
92.3909,-318.6208
92.7679,-318.4346
93.1129,-318.1972
93.44,-317.9309
93.7704,-317.6711
94.0994,-317.4069
94.4241,-317.1403
94.74,-316.8612
95.048,-316.574
95.3675,-316.3002
95.672,-316.0077
95.9429,-315.6918
96.1835,-315.3392
96.4656,-315.0445
96.8549,-314.8981
97.2659,-314.7834
97.6567,-314.6386
98.0195,-314.4275
98.3611,-314.1802
98.7142,-313.9515
99.0592,-313.7091
99.4036,-313.4679
99.742,-313.2166
100.0802,-312.9661
100.4202,-312.7176
100.7584,-312.4667
101.1101,-312.235
101.459,-311.9991
101.8098,-311.7666
102.1597,-311.5319
102.5038,-311.2896
102.846,-311.044
103.1866,-310.7966
103.5292,-310.5517
103.8669,-310.3001
104.2017,-310.0449
104.5358,-309.7884
104.8698,-309.5322
105.2077,-309.2811
105.5619,-309.0538
105.9183,-308.8291
106.2724,-308.6014
106.6285,-308.3766
106.9673,-308.1268
107.3039,-307.8739
107.6408,-307.621
107.9762,-307.3667
108.305,-307.1039
108.6245,-306.8294
108.9478,-306.5598
109.2671,-306.285
109.5886,-306.0133
109.9054,-305.7357
110.2247,-305.4614
110.5427,-305.1851
110.8621,-304.9111
111.2119,-304.6763
111.5597,-304.4393
111.9102,-304.2055
112.2576,-303.968
112.557,-303.6748
112.8406,-303.3633
113.1263,-303.054
113.4107,-302.7436
113.7333,-302.4798
114.0967,-302.2672
114.4586,-302.052
114.8228,-301.8403
115.1841,-301.6245
115.5084,-301.3583
115.8204,-301.0751
116.1349,-300.7954
116.4474,-300.513
116.7741,-300.2476
117.1064,-299.989
117.4384,-299.7301
117.7713,-299.4722
118.102,-299.2115
118.4314,-298.9492
118.7594,-298.6852
119.0887,-298.4227
119.417,-298.159
119.7478,-297.8985
120.0787,-297.638
120.4092,-297.3771
120.7404,-297.1171
121.0615,-296.8448
121.3787,-296.5679
121.695,-296.29
122.0121,-296.0129
122.3282,-295.7348
122.6362,-295.4475
122.9443,-295.1606
123.252,-294.873
123.5604,-294.5863
123.8748,-294.3063
124.1924,-294.0298
124.5094,-293.7527
124.8268,-293.4759
125.1471,-293.2026
125.4711,-292.9336
125.7955,-292.6653
126.1193,-292.396
126.4296,-292.1129
126.7094,-291.7981
126.9903,-291.4845
127.2702,-291.1699
127.5523,-290.8575
127.8728,-290.5845
128.1938,-290.3118
128.5145,-290.039
128.8353,-289.7662
129.1295,-289.4653
129.4201,-289.1605
129.7106,-288.8557
130.0013,-288.5511
130.3048,-288.2598
130.6215,-287.9822
130.9373,-287.7037
131.2542,-287.4264
131.5691,-287.1469
131.8657,-286.8481
132.1608,-286.5477
132.4575,-286.2489
132.7527,-285.9486
133.0497,-285.6502
133.3458,-285.3507
133.6428,-285.0523
133.939,-284.753
134.2332,-284.4517
134.5236,-284.1468
134.8143,-283.8421
135.1049,-283.5374
135.3966,-283.2337
135.6924,-282.9341
135.9878,-282.634
136.2839,-282.3346
136.5791,-282.0343
136.8705,-281.7303
137.1604,-281.4249
137.4518,-281.1209
137.7415,-280.8153
138.0164,-280.4971
138.2742,-280.1641
138.534,-279.8328
138.7919,-279.4998
139.0538,-279.1703
139.3438,-278.8651
139.6351,-278.5609
139.9255,-278.256
140.2164,-277.9516
140.4829,-277.626
140.7427,-277.2945
141.0029,-276.9635
141.2624,-276.6319
141.5276,-276.3048
141.7955,-275.98
142.0644,-275.6559
142.3324,-275.3312
142.6013,-275.0071
142.8709,-274.6837
143.1406,-274.3602
143.4105,-274.0371
143.6799,-273.7135
143.9428,-273.3846
144.2017,-273.0524
144.4613,-272.7209
144.7202,-272.3889
144.9793,-272.0569
145.2367,-271.7236
145.4941,-271.3904
145.7518,-271.0574
146.0091,-270.724
146.2654,-270.39
146.5207,-270.0551
146.7768,-269.7208
147.0323,-269.3861
147.2892,-269.0525
147.5467,-268.7193
147.8035,-268.3856
148.0615,-268.0528
148.3161,-267.7174
148.5628,-267.3762
148.8073,-267.0334
149.0542,-266.6923
149.2987,-266.3495
149.5374,-266.0026
149.7721,-265.653
150.0083,-265.3043
150.2436,-264.9552
150.4785,-264.6057
150.7132,-264.2561
150.9468,-263.9057
151.1819,-263.5564
151.415,-263.2057
151.6455,-262.8533
151.8744,-262.4999
152.1044,-262.1472
152.334,-261.7942
152.5659,-261.4427
152.8009,-261.0933
153.0343,-260.7428
153.2699,-260.3937
153.5016,-260.0423
153.7284,-259.6874
153.9526,-259.331
154.179,-258.9759
154.4038,-258.6199
154.6066,-258.2514
154.7956,-257.8752
154.9838,-257.4984
155.1737,-257.1227
155.3848,-256.7593
155.6208,-256.4104
155.8535,-256.0596
156.0896,-255.7108
156.3201,-255.3586
156.5166,-254.9863
156.7109,-254.6127
156.9068,-254.24
157.1018,-253.8667
157.3131,-253.5026
157.5284,-253.1407
157.7429,-252.7784
157.9585,-252.4166
158.1659,-252.0505
158.3511,-251.6723
158.5355,-251.2938
158.7203,-250.9154
158.9053,-250.5371
159.117,-250.1732
159.3296,-249.8096
159.541,-249.4455
159.7538,-249.0821
159.9512,-248.7103
160.1439,-248.3359
160.3354,-247.9609
160.5278,-247.5864
160.7198,-247.2116
160.9126,-246.8372
161.1049,-246.4626
161.2976,-246.0882
161.4875,-245.7124
161.6668,-245.3314
161.8454,-244.9501
162.0249,-244.5692
162.2033,-244.1878
162.3771,-243.8042
162.5494,-243.42
162.723,-243.0363
162.8956,-242.6523
163.0769,-242.2723
163.2613,-241.8937
163.4452,-241.5149
163.6301,-241.1365
163.805,-240.7537
163.9682,-240.3655
164.1292,-239.9764
164.2926,-239.5884
164.4534,-239.1992
164.6055,-238.8066
164.7557,-238.4131
164.9073,-238.0203
165.058,-237.6271
165.2186,-237.2379
165.3834,-236.8504
165.547,-236.4624
165.7123,-236.0751
165.8735,-235.6861
166.0351,-235.2973
166.1944,-234.9075
166.356,-234.5186
166.5131,-234.128
166.6529,-233.7308
166.7913,-233.3331
166.9306,-232.9358
167.0696,-232.5383
167.2166,-232.1437
167.3694,-231.7514
167.5213,-231.3586
167.6745,-230.9664
167.824,-230.5728
167.9622,-230.1751
168.0984,-229.7766
168.2368,-229.3789
168.3729,-228.9804
168.4995,-228.5789
168.6223,-228.1761
168.7472,-227.7739
168.8702,-227.3712
168.9892,-226.9673
169.1002,-226.5612
169.2119,-226.1552
169.3234,-225.7491
169.4394,-225.3444
169.5694,-224.9439
169.6983,-224.543
169.8286,-224.1426
169.9573,-223.7417
170.0651,-223.3349
170.1628,-222.9252
170.2619,-222.516
170.3599,-222.1065
170.4698,-221.7002
170.5943,-221.2979
170.7182,-220.8955
170.8432,-220.4934
170.9659,-220.0906
171.0798,-219.6852
171.1911,-219.2791
171.3052,-218.8738
171.4164,-218.4676
171.5098,-218.0573
171.5942,-217.6446
171.6807,-217.2326
171.7655,-216.8201
171.8518,-216.408
171.9375,-215.9957
172.0236,-215.5835
172.1097,-215.1713
172.2028,-214.7608
172.3171,-214.3556
172.4304,-213.95
172.5447,-213.5448
172.6579,-213.1392
172.7423,-212.7268
172.8208,-212.3131
172.9006,-211.8997
172.9791,-211.486
173.0648,-211.0737
173.1519,-210.6617
173.2402,-210.25
173.3272,-209.838
173.4064,-209.4246
173.4697,-209.0083
173.5341,-208.5922
173.5975,-208.1758
173.6618,-207.7598
173.755,-207.3493
173.8545,-206.9402
173.9533,-206.5308
174.0529,-206.1217
174.1373,-205.7093
174.2117,-205.2949
174.2848,-204.8802
174.3596,-204.4657
174.4307,-204.0508
174.5015,-203.6356
174.5697,-203.2202
174.6407,-202.805
174.6948,-202.3883
174.7037,-201.9674
174.71,-201.5463
174.7186,-201.1254
174.7253,-200.7043
174.7756,-200.2876
174.8537,-199.8739
174.9316,-199.4601
175.0105,-199.0464
175.0769,-198.6308
175.1332,-198.2135
175.1866,-197.7958
175.2431,-197.3785
175.2915,-196.9604
175.3086,-196.5398
175.3231,-196.1189
175.3397,-195.6982
175.3548,-195.2773
175.3919,-194.8579
175.4324,-194.4388
175.472,-194.0196
175.5131,-193.6005
175.547,-193.1808
175.5759,-192.7608
175.6022,-192.3405
175.6311,-191.9204
175.6575,-191.5002
175.6805,-191.0797
175.7016,-190.6592
175.7239,-190.2386
175.7456,-189.8181
175.7661,-189.3975
175.786,-188.9769
175.805,-188.5563
175.8252,-188.1356
175.8441,-187.715
175.8718,-187.2948
175.8981,-186.8746
175.9257,-186.4543
175.9521,-186.0341
175.9507,-185.6132
175.9427,-185.1922
175.9359,-184.7712
175.9276,-184.3502
175.9103,-183.9297
175.8767,-183.5098
175.8457,-183.09
175.8117,-182.6702
175.7837,-182.2502
175.7746,-181.8292
175.7691,-181.4081
175.7602,-180.9872
175.7541,-180.5661
175.7565,-180.1452
175.7643,-179.7241
175.7722,-179.3031
175.7786,-178.8821
175.7496,-178.4642
175.669,-178.0506
175.5938,-177.6366
175.5124,-177.2232
175.4385,-176.8089
175.433,-176.3882
175.4338,-175.9668
175.429,-175.546
175.4289,-175.1247
175.3948,-174.7058
175.3431,-174.2879
175.2902,-173.8701
175.2376,-173.4524
175.1883,-173.0342
175.1522,-172.6147
175.1172,-172.195
175.0813,-171.7755
175.0424,-171.3563
174.9765,-170.9404
174.9093,-170.5248
174.8442,-170.1087
174.7762,-169.6932
174.7075,-169.2777
174.6343,-168.863
174.5651,-168.4477
174.4923,-168.0329
174.4247,-167.6173
174.3564,-167.2017
174.2894,-166.7861
174.2224,-166.3703
174.1633,-165.9538
174.1372,-165.5334
174.1081,-165.1135
174.0827,-164.693
174.0489,-164.2736
173.9699,-163.8602
173.8863,-163.4473
173.8071,-163.0339
173.7238,-162.6209
173.6378,-162.2089
173.5477,-161.7974
173.4604,-161.3856
173.3708,-160.9741
173.2703,-160.5653
173.163,-160.1582
173.0566,-159.7506
172.9497,-159.3435
172.8606,-158.9322
172.7905,-158.5171
172.7195,-158.102
172.6498,-157.6867
172.5759,-157.2722
172.4932,-156.8593
172.4082,-156.447
172.3256,-156.0339
172.2398,-155.6218
172.1433,-155.2119
172.0453,-154.8024
171.9483,-154.3926
171.851,-153.9829
171.7669,-153.5705
171.691,-153.1562
171.6135,-152.7425
171.5379,-152.3281
171.4381,-151.9199
171.3099,-151.5188
171.1806,-151.1181
171.0517,-150.7172
170.9232,-150.3162
170.7995,-149.9138
170.6782,-149.5104
170.554,-149.1082
170.4332,-148.7047
170.3353,-148.2958
170.2539,-147.8824
170.1694,-147.47
170.0874,-147.057
169.9728,-146.6542
169.7991,-146.2707
169.626,-145.8868
169.4513,-145.5037
169.2943,-145.1145
169.204,-144.7035
169.1168,-144.2912
169.0265,-143.8802
168.939,-143.4681
168.8186,-143.065
168.6898,-142.6641
168.5603,-142.2634
168.4308,-141.8628
168.3148,-141.4581
168.2051,-141.0516
168.0967,-140.6447
167.9869,-140.2381
167.8616,-139.8365
167.7211,-139.4395
167.5814,-139.0423
167.4413,-138.6451
167.2981,-138.2492
167.1487,-137.8555
166.9988,-137.462
166.8493,-137.0684
166.701,-136.6743
166.566,-136.2755
166.4311,-135.8765
166.2959,-135.4778
166.1612,-135.0788
166.0189,-134.6825
165.8765,-134.2862
165.7339,-133.89
165.5912,-133.4939
165.4406,-133.1006
165.2834,-132.7101
165.1274,-132.3189
164.97,-131.9284
164.8127,-131.5377
164.6533,-131.148
164.4948,-130.7579
164.3358,-130.3679
164.1768,-129.9781
164.0192,-129.5875
163.8599,-129.1979
163.7028,-128.807
163.5427,-128.4177
163.3743,-128.0317
163.203,-127.647
163.0342,-127.2613
162.8634,-126.8763
162.6892,-126.4931
162.513,-126.1105
162.336,-125.7286
162.1607,-125.3456
161.9829,-124.964
161.808,-124.5809
161.6296,-124.1995
161.4549,-123.8163
161.2766,-123.4348
161.0614,-123.0735
160.8385,-122.716
160.6178,-122.3575
160.3957,-121.9997
160.2016,-121.6267
160.022,-121.2459
159.842,-120.8651
159.6628,-120.4842
159.4736,-120.1081
159.2727,-119.7381
159.0708,-119.3685
158.8698,-118.9985
158.668,-118.629
158.467,-118.2589
158.2654,-117.8893
158.0644,-117.5192
157.8628,-117.1496
157.6603,-116.7803
157.4569,-116.4117
157.2542,-116.0426
157.0507,-115.6739
156.8413,-115.3087
156.629,-114.9449
156.4171,-114.5812
156.205,-114.2172
155.993,-113.8536
155.7822,-113.4889
155.5705,-113.125
155.36,-112.7603
155.1456,-112.3979
154.9181,-112.0437
154.6889,-111.6902
154.4614,-111.3361
154.2324,-110.9826
154.0028,-110.6297
153.7721,-110.2774
153.5421,-109.9247
153.3116,-109.5723
153.0818,-109.2194
152.8522,-108.8665
152.6225,-108.5135
152.393,-108.1606
152.16,-107.8098
151.9218,-107.4626
151.6831,-107.1157
151.445,-106.7683
151.2065,-106.4214
150.9692,-106.0734
150.7311,-105.7263
150.4938,-105.3782
150.2557,-105.0311
150.0106,-104.6886
149.763,-104.348
149.5161,-104.007
149.2687,-103.6661
149.0209,-103.3259
148.7725,-102.9857
148.524,-102.6459
148.2757,-102.3056
148.0261,-101.9666
147.7752,-101.6284
147.5237,-101.2906
147.2728,-100.9525
147.0197,-100.6159
146.7614,-100.2835
146.5026,-99.9512
146.2443,-99.6187
145.9852,-99.2867
145.724,-98.9565
145.462,-98.6269
145.201,-98.2963
144.9388,-97.967
144.6711,-97.6418
144.4001,-97.3197
144.1305,-96.9961
143.8596,-96.6738
143.5911,-96.3494
143.3241,-96.0238
143.0575,-95.698
142.791,-95.3717
142.525,-95.0455
142.2662,-94.7131
142.0057,-94.3825
141.7473,-94.0499
141.4836,-93.7218
141.1983,-93.4122
140.9108,-93.1044
140.6253,-92.7952
140.3381,-92.4869
140.0542,-92.1762
139.7696,-91.8656
139.4854,-91.5551
139.2011,-91.2443
138.9129,-90.9373
138.6214,-90.6336
138.3298,-90.3297
138.0381,-90.0262
137.7473,-89.7214
137.4593,-89.4144
137.1721,-89.1063
136.884,-88.7993
136.5968,-88.4914
136.3109,-88.1821
136.0257,-87.8725
135.7403,-87.5627
135.4547,-87.2535
135.1685,-86.9444
134.881,-86.6369
134.5947,-86.328
134.3072,-86.0204
134.0077,-85.725
133.6957,-85.442
133.3842,-85.1589
133.0727,-84.8753
132.7609,-84.5925
132.4531,-84.305
132.1436,-84.0196
131.8362,-83.7318
131.5265,-83.4464
131.2065,-83.173
130.8822,-82.9042
130.5591,-82.6344
130.2355,-82.3648
129.9271,-82.0797
129.6461,-81.7659
129.3634,-81.454
129.0829,-81.1398
128.7999,-80.8281
128.4802,-80.556
128.1478,-80.2969
127.8174,-80.0363
127.4857,-79.7767
127.1675,-79.5015
126.8586,-79.2153
126.5488,-78.93
126.2405,-78.6433
125.9303,-78.3584
125.6111,-78.0841
125.2888,-77.8129
124.9683,-77.5398
124.6463,-77.2685
124.3154,-77.0083
123.9785,-76.7557
123.6421,-76.5023
123.3056,-76.2495
122.9719,-75.9924
122.6407,-75.7326
122.3094,-75.4725
121.9781,-75.2127
121.6464,-74.9532
121.3131,-74.6959
120.9803,-74.4381
120.6468,-74.1808
120.3154,-73.9213
119.9911,-73.6525
119.6674,-73.3833
119.3432,-73.1145
119.0193,-72.8454
118.6984,-72.5729
118.3782,-72.2993
118.0582,-72.0257
117.738,-71.7521
117.3994,-71.5035
117.0462,-71.2741
116.693,-71.0448
116.3399,-70.8154
115.998,-70.5706
115.6736,-70.3023
115.3486,-70.0343
115.0243,-69.766
114.6977,-69.5002
114.3529,-69.2587
114.0072,-69.0181
113.6624,-68.7764
113.3168,-68.536
112.9788,-68.2847
112.6429,-68.031
112.3078,-67.7757
111.972,-67.5219
111.6276,-67.2802
111.2706,-67.057
110.9135,-66.8339
110.5568,-66.61
110.2047,-66.3797
109.8636,-66.1324
109.5207,-65.8882
109.1801,-65.6405
108.8369,-65.3965
108.481,-65.1722
108.1196,-64.9556
107.7602,-64.7366
107.3995,-64.519
107.036,-64.3065
106.6723,-64.0947
106.3064,-63.8853
105.944,-63.6725
105.6252,-63.4121
105.3932,-63.0606
105.1463,-62.7221
104.787,-62.5088
104.3931,-62.3538
104.004,-62.1982
103.6128,-62.0381
103.2351,-61.8552
102.8567,-61.6681
102.4775,-61.4863
102.1005,-61.2985
101.72,-61.1173
101.3434,-60.9304
100.9628,-60.7484
100.5858,-60.5626
100.2415,-60.3222
99.9102,-60.0631
99.578,-59.8035
99.2456,-59.5455
98.89,-59.3214
98.5249,-59.111
98.1618,-58.8987
97.7968,-58.6874
97.4306,-58.4813
97.0554,-58.2888
96.6794,-58.1003
96.3055,-57.9059
95.9282,-57.7191
95.5419,-57.5532
95.1489,-57.3996
94.7619,-57.236
94.3819,-57.0534
94.0096,-56.8577
93.6322,-56.6699
93.2632,-56.4689
92.9285,-56.2139
92.5958,-55.9554
92.2622,-55.6988
91.9285,-55.4416
91.5596,-55.2461
91.1699,-55.0858
90.7816,-54.9237
90.3919,-54.7636
90.0073,-54.593
89.6344,-54.3979
89.2619,-54.201
88.8892,-54.0057
88.5165,-53.8089
88.1336,-53.6348
87.7484,-53.4642
87.363,-53.2946
86.9779,-53.1244
86.5923,-52.955
86.2057,-52.7885
85.8192,-52.6208
85.4322,-52.4553
85.0458,-52.2879
84.6534,-52.1347
84.2635,-51.9765
83.8705,-51.8239
83.4918,-51.6461
83.1529,-51.3966
82.8174,-51.1418
82.4791,-50.8912
82.1422,-50.6388
81.7893,-50.4087
81.4358,-50.1803
81.0844,-49.9478
80.7295,-49.7219
80.3765,-49.4914
80.0165,-49.274
79.6627,-49.0442
79.3002,-48.8329
78.8938,-48.728
78.4816,-48.6362
78.0744,-48.5324
77.6612,-48.4484
77.2465,-48.3807
76.8392,-48.2884
76.4652,-48.095
76.0903,-47.9026
75.7219,-47.702
75.3928,-47.4373
75.0633,-47.1776
74.7346,-46.9117
74.4046,-46.6528
74.0369,-46.4499
73.6551,-46.2729
73.2764,-46.0894
72.8963,-45.9067
72.529,-45.7029
72.1573,-45.5021
71.7909,-45.2976
71.4204,-45.0944
71.0532,-44.8908
70.7491,-44.6058
70.4701,-44.2906
70.1924,-43.9746
69.9092,-43.6616
69.6271,-43.3511
69.3398,-43.0407
69.0576,-42.7307
68.8784,-42.3536
68.7281,-41.961
68.5446,-41.582
68.3547,-41.2052
68.1742,-40.827
68.014,-40.4348
67.8757,-40.0408
67.8639,-39.6256
67.9119,-39.2065
67.9716,-38.7912
68.0631,-38.3784
68.1279,-37.9634
68.2394,-37.5571
68.3797,-37.1621
68.5312,-36.7678
68.6791,-36.3743
68.8273,-35.9801
69.0227,-35.6062
69.1822,-35.2182
69.3091,-34.8185
69.4061,-34.4054
69.5564,-34.0214
69.8576,-33.7358
70.2229,-33.5179
70.5305,-33.2644
70.7499,-32.9087
71.051,-32.6375
71.4295,-32.4463
71.7916,-32.2339
72.1829,-32.0795
72.5812,-31.9481
72.9872,-31.8315
73.3869,-31.7027
73.7893,-31.5751
74.1794,-31.4203
74.469,-31.1327
74.7143,-30.7911
74.9648,-30.4515
75.125,-30.0755
75.1898,-29.6596
75.2521,-29.2429
75.3151,-28.827
75.3919,-28.413
75.5148,-28.0116
75.6429,-27.6088
75.7644,-27.2073
75.8934,-26.8049
76.0316,-26.4086
76.18,-26.0135
76.3216,-25.6173
76.4687,-25.2231
76.6522,-24.8441
76.8507,-24.4742
77.049,-24.1008
77.2462,-23.7309
77.4275,-23.3489
77.6018,-22.9672
77.7784,-22.5841
77.9533,-22.201
78.1284,-21.819
78.3036,-21.4343
78.477,-21.0531
78.6531,-20.6677
78.8279,-20.2875
79.0085,-19.9046
79.1868,-19.5247
79.366,-19.1434
79.5349,-18.757
79.6636,-18.3588
79.7989,-17.9557
79.9183,-17.558
80.0025,-17.1393
80.0712,-16.7303
80.1574,-16.3114
80.2249,-15.9019
80.0625,-15.5767
79.7253,-15.3155
79.4045,-15.0512
79.1789,-14.7105
79.0231,-14.3252
78.8051,-13.9607
78.5872,-13.6039
78.56,-13.2386
78.7716,-12.8829
78.9988,-12.519
79.2601,-12.2217
79.6544,-12.043
80.0224,-11.8637
80.4179,-11.6891
80.775,-11.4875
81.1184,-11.2349
81.3843,-10.9457
81.3085,-10.5431
81.2196,-10.1199
81.2202,-9.7109
81.0961,-9.3072
80.9206,-8.9317
80.7558,-8.5393
80.6413,-8.1395
80.5625,-7.7231
80.4237,-7.3326
80.1838,-6.9921
79.9223,-6.6556
79.6804,-6.3165
79.4473,-5.962
79.2314,-5.603
79.0071,-5.2454
78.7869,-4.8864
78.5667,-4.5287
78.3429,-4.1701
78.1253,-3.8116
77.8999,-3.4542
77.6454,-3.1236
77.3477,-2.8244
77.0573,-2.5192
76.7612,-2.2217
76.4071,-2.0026
76.0243,-1.831
75.6415,-1.6504
75.26,-1.4774
74.8799,-1.2922
74.5027,-1.1071
74.1236,-0.92423
73.7458,-0.7348
73.3676,-0.55632
72.9761,-0.39235
72.5827,-0.25446
72.1873,-0.095994
