89.4571,-331.8557
89.8306,-331.6835
90.2112,-331.5232
90.5851,-331.3512
90.9653,-331.1903
91.3204,-330.9878
91.6426,-330.7318
91.9606,-330.4686
92.2962,-330.2318
92.6496,-330.0197
93.0044,-329.8098
93.3587,-329.5993
93.6961,-329.366
93.9997,-329.0876
94.3014,-328.8063
94.6055,-328.5287
94.9069,-328.2469
95.2077,-327.9657
95.5053,-327.6801
95.8057,-327.3983
96.1037,-327.1132
96.4036,-326.8307
96.7022,-326.5465
97.0015,-326.263
97.3007,-325.9799
97.5992,-325.6953
97.8993,-325.4131
98.1971,-325.1278
98.4977,-324.8462
98.795,-324.5604
99.0986,-324.2821
99.4249,-324.0306
99.7549,-323.7833
100.0841,-323.536
100.4257,-323.3047
100.7649,-323.0711
101.1057,-322.8388
101.4459,-322.6064
101.7856,-322.3729
102.1269,-322.1417
102.4655,-321.9071
102.8078,-321.6768
103.1456,-321.4414
103.4885,-321.2118
103.8259,-320.976
104.1689,-320.7465
104.5065,-320.5108
104.7969,-320.2215
105.0692,-319.9117
105.3448,-319.6055
105.6264,-319.305
105.9262,-319.022
106.2266,-318.7401
106.525,-318.4553
106.8268,-318.1752
107.101,-317.8669
107.3707,-317.5571
107.6339,-317.2377
107.9043,-316.929
108.2533,-316.7403
108.6518,-316.6272
109.0093,-316.4467
109.303,-316.1599
109.5893,-315.8609
109.887,-315.5785
110.2062,-315.3165
110.5317,-315.0647
110.8512,-314.8035
111.1765,-314.5508
111.4951,-314.2891
111.8183,-314.0331
112.1272,-313.7617
112.4106,-313.4624
112.6886,-313.1583
112.9719,-312.8585
113.2774,-312.5845
113.6031,-312.3306
113.925,-312.0743
114.2497,-311.8196
114.5663,-311.5565
114.8733,-311.2814
115.1815,-311.0074
115.487,-310.7313
115.7742,-310.4374
116.0267,-310.1117
116.2855,-309.7907
116.5373,-309.4645
116.8044,-309.1515
117.112,-308.8784
117.4255,-308.6098
117.7346,-308.3377
118.0457,-308.0673
118.357,-307.7967
118.6648,-307.5236
118.9795,-307.2557
119.287,-306.9836
119.6143,-306.7293
119.9241,-306.4611
120.2545,-306.2095
120.5521,-305.9317
120.7337,-305.5664
120.8887,-305.1789
121.0709,-304.8143
121.414,-304.6046
121.7928,-304.4262
122.1475,-304.2271
122.4958,-304.0103
122.7648,-303.6981
123.0487,-303.399
123.3213,-303.0899
123.6015,-302.7875
123.8726,-302.4771
124.1434,-302.1664
124.4167,-301.858
124.6852,-301.5449
125.017,-301.3002
125.3453,-301.0524
125.6817,-300.8127
126.0101,-300.565
126.2913,-300.2643
126.5644,-299.9552
126.8423,-299.6511
127.1171,-299.3437
127.3737,-299.0221
127.6169,-298.6894
127.8577,-298.3545
128.1024,-298.0234
128.3886,-297.7334
128.7224,-297.4905
129.0493,-297.2405
129.3835,-296.9981
129.7064,-296.7436
129.9921,-296.4468
130.2709,-296.1429
130.556,-295.8455
130.8345,-295.5415
131.0869,-295.2162
131.335,-294.8867
131.5868,-294.5606
131.8355,-294.2318
132.0955,-293.9127
132.38,-293.6146
132.6663,-293.3179
132.9511,-293.0202
133.237,-292.7232
133.5069,-292.4122
133.7659,-292.0916
134.0247,-291.7707
134.2835,-291.4501
134.5444,-291.1309
134.8182,-290.823
135.0925,-290.5153
135.3661,-290.2071
135.6407,-289.8996
135.9187,-289.5955
136.199,-289.2932
136.478,-288.9899
136.7583,-288.6877
137.0289,-288.3769
137.2961,-288.0631
137.5625,-287.7485
137.8294,-287.4346
138.0917,-287.1166
138.352,-286.7971
138.6123,-286.4775
138.8724,-286.1578
139.1318,-285.8376
139.387,-285.5139
139.6424,-285.1905
139.8977,-284.8668
140.153,-284.5434
140.391,-284.207
140.6214,-283.8654
140.8521,-283.5237
141.0824,-283.182
141.34,-282.8627
141.6341,-282.5741
141.9282,-282.2852
142.2225,-281.9967
142.5161,-281.7074
142.7692,-281.3823
143.021,-281.0559
143.2745,-280.731
143.5259,-280.4043
143.7723,-280.0744
143.9925,-279.7257
144.2156,-279.3795
144.4359,-279.0308
144.657,-278.6833
144.8747,-278.333
145.0944,-277.9846
145.3127,-277.6347
145.5318,-277.2858
145.7878,-276.9643
146.061,-276.6557
146.3352,-276.3479
146.6078,-276.0389
146.855,-275.7113
147.066,-275.357
147.2796,-275.0048
147.4907,-274.6505
147.7104,-274.3028
147.9812,-273.992
148.2536,-273.6827
148.5248,-273.3723
148.7967,-273.0626
149.0283,-272.7239
149.2341,-272.3668
149.4409,-272.0104
149.6463,-271.6529
149.8534,-271.2967
150.0756,-270.9495
150.3008,-270.6044
150.5239,-270.2577
150.7489,-269.9125
150.9686,-269.5638
151.1745,-269.2068
151.3792,-268.8491
151.5847,-268.4918
151.7909,-268.135
152.0109,-267.7863
152.231,-267.438
152.4507,-267.0892
152.671,-266.741
152.8933,-266.3938
153.1183,-266.0485
153.3426,-265.7028
153.5676,-265.3573
153.7919,-265.0117
154.0275,-264.6733
154.263,-264.3353
154.4987,-263.9969
154.7342,-263.6589
154.9592,-263.3135
155.1816,-262.9666
155.4041,-262.6196
155.6265,-262.2726
155.8291,-261.9144
156.0124,-261.5451
156.1959,-261.1762
156.3791,-260.8068
156.5661,-260.4398
156.7633,-260.0777
156.9608,-259.7161
157.1581,-259.3541
157.3554,-258.9923
157.547,-258.6274
157.7383,-258.2623
157.9301,-257.8975
158.1211,-257.5322
158.3008,-257.1615
158.4731,-256.787
158.6469,-256.4134
158.8191,-256.0388
158.9855,-255.662
159.1401,-255.2798
159.2966,-254.8986
159.4512,-254.5164
159.6075,-254.1351
159.7824,-253.7621
159.9618,-253.3908
160.14,-253.0194
160.3191,-252.648
160.4952,-252.2755
160.6695,-251.9019
160.8434,-251.5283
161.0176,-251.1547
161.1902,-250.7805
161.3565,-250.4034
161.5225,-250.0261
161.689,-249.6491
161.8548,-249.2717
162.0162,-248.8927
162.1642,-248.5078
162.3137,-248.1239
162.4615,-247.739
162.6136,-247.3561
162.7886,-246.983
162.9661,-246.611
163.141,-246.2378
163.3186,-245.8657
163.4989,-245.4953
163.6829,-245.1263
163.8648,-244.7567
164.0485,-244.3875
164.2151,-244.0114
164.3514,-243.6224
164.4871,-243.2332
164.623,-242.8441
164.7591,-242.455
164.9175,-242.0748
165.082,-241.6968
165.2456,-241.3187
165.4101,-240.9406
165.5588,-240.5567
165.6919,-240.1665
165.8248,-239.7764
165.9576,-239.3862
166.0928,-238.9969
166.2485,-238.6153
166.4053,-238.2341
166.5608,-237.8525
166.7177,-237.4712
166.8619,-237.0853
167.0058,-236.6989
167.1485,-236.3124
167.2921,-235.9259
167.4355,-235.5396
167.5814,-235.1541
167.7279,-234.7688
167.8731,-234.3832
168.0202,-233.998
168.1586,-233.61
168.2973,-233.2217
168.4333,-232.8328
168.572,-232.4445
168.7066,-232.0551
168.8158,-231.6576
168.9234,-231.2598
169.032,-230.8622
169.1402,-230.4645
169.2711,-230.0739
169.4094,-229.6855
169.5455,-229.2967
169.6844,-228.9084
169.814,-228.5174
169.9378,-228.1241
170.0583,-227.7301
170.1819,-227.3368
170.3028,-226.9429
170.4115,-226.5455
170.5122,-226.1457
170.6132,-225.7462
170.7149,-225.3467
170.8222,-224.9491
170.9532,-224.558
171.0809,-224.1664
171.2124,-223.7756
171.3398,-223.3838
171.4289,-222.9814
171.5138,-222.578
171.6025,-222.1756
171.688,-221.7723
171.7793,-221.3705
171.8707,-220.9685
171.9628,-220.5669
172.0551,-220.165
172.1493,-219.764
172.2567,-219.3659
172.362,-218.9676
172.4697,-218.5696
172.575,-218.1712
172.6522,-217.7666
172.7235,-217.3605
172.7957,-216.9549
172.8679,-216.5489
172.9501,-216.1453
173.0411,-215.7431
173.1296,-215.3408
173.2214,-214.9388
173.3053,-214.5356
173.3614,-214.1273
173.4133,-213.7183
173.4692,-213.3101
173.5216,-212.9011
173.5612,-212.4911
173.595,-212.0802
173.6297,-211.6696
173.6646,-211.2589
173.7309,-210.8536
173.8351,-210.4547
173.9364,-210.0553
174.0412,-209.6565
174.142,-209.257
174.1855,-208.8486
174.2092,-208.4368
174.2366,-208.0259
174.2609,-207.6141
174.2963,-207.2038
174.3328,-206.793
174.37,-206.3827
174.4073,-205.9721
174.4424,-205.5615
174.4749,-205.1507
174.5053,-204.7396
174.5382,-204.3288
174.5685,-203.9176
174.5812,-203.5059
174.5898,-203.0937
174.6,-202.6818
174.6093,-202.2696
174.6422,-201.8593
174.6921,-201.4501
174.7405,-201.0408
174.7912,-200.6318
174.833,-200.222
174.8454,-199.8102
174.8536,-199.3979
174.8663,-198.9861
174.8744,-198.5739
174.8754,-198.162
174.8687,-197.7497
174.8662,-197.3376
174.8598,-196.9255
174.8647,-196.5135
174.8901,-196.1023
174.918,-195.6909
174.9439,-195.2797
174.9713,-194.8683
174.9944,-194.457
175.0155,-194.0452
175.0362,-193.6337
175.0571,-193.222
175.0712,-192.8103
175.0618,-192.3983
175.0525,-191.9861
175.0431,-191.5742
175.0337,-191.162
175.0436,-190.7505
175.0695,-190.339
175.0953,-189.9278
175.1211,-189.5163
175.1385,-189.1049
175.1236,-188.693
175.1088,-188.2811
175.094,-187.8693
175.079,-187.4573
175.077,-187.0453
175.0755,-186.633
175.0746,-186.2209
175.0728,-185.8087
175.0633,-185.3969
175.0362,-184.9855
175.0106,-184.5742
174.9833,-184.1629
174.9578,-183.7515
174.9518,-183.3399
174.9615,-182.9277
174.9693,-182.5158
174.9789,-182.1035
174.9748,-181.6924
174.9119,-181.2851
174.8478,-180.8779
174.7845,-180.4707
174.7209,-180.0634
174.7004,-179.652
174.6826,-179.2401
174.6638,-178.8285
174.6464,-178.4165
174.6361,-178.0047
174.6314,-177.5924
174.6246,-177.1805
174.6199,-176.7682
174.5897,-176.3579
174.5378,-175.949
174.4845,-175.5403
174.4321,-175.1315
174.3793,-174.7226
174.3333,-174.3132
174.2887,-173.9033
174.2429,-173.4939
174.1988,-173.0839
174.1605,-172.6738
174.1352,-172.2623
174.1072,-171.8512
174.0819,-171.4397
174.0525,-171.0286
174.01,-170.6187
173.9656,-170.2089
173.9228,-169.7991
173.8787,-169.3891
173.8158,-168.9823
173.7405,-168.5769
173.6653,-168.1718
173.5902,-167.7665
173.5149,-167.3612
173.4415,-166.9557
173.3682,-166.55
173.2947,-166.1446
173.2218,-165.7388
173.1497,-165.3331
173.0804,-164.9267
173.0094,-164.5208
172.9404,-164.1144
172.8751,-163.7075
172.8191,-163.2992
172.761,-162.8911
172.7046,-162.4829
172.646,-162.0749
172.5701,-161.6698
172.4946,-161.2646
172.4178,-160.8597
172.3432,-160.4543
172.2955,-160.0466
172.2942,-159.6341
172.2875,-159.2223
172.287,-158.8098
172.2785,-158.3982
172.1822,-157.998
172.0786,-157.5985
171.9822,-157.1983
171.8788,-156.7987
171.787,-156.3974
171.692,-155.9959
171.6021,-155.594
171.5079,-155.1925
171.4093,-154.7927
171.2938,-154.3969
171.1798,-154.0008
171.0651,-153.605
170.9504,-153.209
170.8571,-152.8079
170.7679,-152.4052
170.68,-152.0028
170.5905,-151.6002
170.4963,-151.1994
170.383,-150.8029
170.271,-150.4064
170.1579,-150.01
170.0494,-149.6126
169.9881,-149.2051
169.9273,-148.7973
169.8662,-148.3899
169.8052,-147.9821
169.689,-147.5888
169.5458,-147.2022
169.403,-146.8157
169.2597,-146.4292
169.1298,-146.0383
169.0168,-145.642
168.9045,-145.2453
168.7915,-144.8491
168.6792,-144.4523
168.5456,-144.0629
168.404,-143.6756
168.2614,-143.2891
168.12,-142.9018
167.9748,-142.5163
167.8033,-142.1415
167.6299,-141.7676
167.4585,-141.3928
167.285,-141.0188
167.1203,-140.6412
166.9618,-140.2606
166.8057,-139.8793
166.6472,-139.4987
166.4918,-139.1171
166.3461,-138.7315
166.2025,-138.3452
166.057,-137.9596
165.9132,-137.5733
165.7581,-137.1917
165.589,-136.8158
165.4189,-136.4404
165.2494,-136.0646
165.0798,-135.6891
164.9241,-135.3075
164.7737,-134.9238
164.6222,-134.5405
164.4722,-134.1565
164.3233,-133.7724
164.192,-133.3815
164.0579,-132.992
163.9269,-132.6009
163.7927,-132.2116
163.6181,-131.8391
163.4249,-131.4751
163.2351,-131.1092
163.0421,-130.745
162.8586,-130.3763
162.7084,-129.9926
162.5599,-129.6081
162.4103,-129.224
162.2611,-128.8399
162.0809,-128.4699
161.8839,-128.108
161.6886,-127.7449
161.4911,-127.3832
161.2982,-127.0191
161.1379,-126.6395
160.9806,-126.2584
160.8204,-125.8788
160.6628,-125.4979
160.4832,-125.1269
160.3041,-124.7558
160.1239,-124.385
159.9441,-124.0142
159.759,-123.6459
159.5648,-123.2824
159.3724,-122.918
159.1776,-122.5547
158.982,-122.1921
158.7722,-121.8371
158.5657,-121.4807
158.356,-121.1255
158.1493,-120.7693
157.9896,-120.3896
157.8372,-120.0067
157.6832,-119.6243
157.5302,-119.2417
157.3324,-118.8819
157.1101,-118.5348
156.8887,-118.1873
156.6659,-117.8403
156.4475,-117.4911
156.2314,-117.1399
156.0174,-116.7879
155.8013,-116.4367
155.5917,-116.0821
155.4034,-115.7155
155.2164,-115.3482
155.0283,-114.9814
154.8411,-114.6142
154.6294,-114.2613
154.4048,-113.9155
154.1802,-113.5701
153.9554,-113.2244
153.7339,-112.8771
153.5174,-112.5262
153.3011,-112.1756
153.0847,-111.8246
152.8628,-111.4777
152.6095,-111.1526
152.3557,-110.8278
152.1025,-110.5027
151.8486,-110.1779
151.6317,-109.828
151.4205,-109.4739
151.2101,-109.1197
150.9991,-108.7655
150.7669,-108.4255
150.5264,-108.0907
150.2855,-107.7562
150.0453,-107.4213
149.8111,-107.0822
149.5848,-106.7378
149.3571,-106.3941
149.1311,-106.0496
148.9029,-105.7063
148.6651,-105.3698
148.4256,-105.0342
148.1877,-104.6978
147.9484,-104.3621
147.7027,-104.0313
147.4519,-103.7043
147.2017,-103.3766
146.9512,-103.0495
146.705,-102.7189
146.4748,-102.3772
146.2443,-102.0353
146.0142,-101.6936
145.7837,-101.3518
145.5352,-101.0232
145.2836,-100.6967
145.0324,-100.3699
144.7809,-100.0435
144.5292,-99.7169
144.2767,-99.3913
144.0242,-99.0654
143.7718,-98.7398
143.5179,-98.4149
143.255,-98.0976
142.992,-97.7802
142.7291,-97.4628
142.4662,-97.1454
142.2071,-96.8248
141.9508,-96.5022
141.6941,-96.1796
141.4379,-95.8569
141.1745,-95.5401
140.8897,-95.2423
140.6041,-94.945
140.3194,-94.6471
140.0357,-94.3481
139.7629,-94.0392
139.4893,-93.731
139.2164,-93.4219
138.9429,-93.1138
138.6632,-92.8109
138.3823,-92.5094
138.1019,-92.2072
137.8212,-91.9056
137.5409,-91.6033
137.2604,-91.3014
136.9801,-90.9992
136.6996,-90.6971
136.4163,-90.398
136.1224,-90.1089
135.8286,-89.82
135.5348,-89.5307
135.241,-89.2419
134.9694,-88.9317
134.6981,-88.6216
134.4273,-88.3108
134.1557,-88.0008
133.8608,-87.7131
133.5624,-87.4286
133.2654,-87.1431
132.9668,-86.8587
132.671,-86.5721
132.3752,-86.2848
132.0811,-85.9963
131.7854,-85.7089
131.4919,-85.4198
131.2166,-85.113
130.9423,-84.8053
130.6674,-84.4983
130.3913,-84.1922
130.0943,-83.9067
129.7965,-83.6215
129.4998,-83.3356
129.2017,-83.0507
128.9007,-82.7696
128.5962,-82.4915
128.2936,-82.2118
127.9892,-81.9338
127.6832,-81.6579
127.3704,-81.3895
127.0588,-81.1196
126.7465,-80.8509
126.4384,-80.5769
126.1365,-80.2966
125.8337,-80.0167
125.5323,-79.7358
125.2288,-79.4568
124.924,-79.1794
124.6169,-78.9045
124.3123,-78.6267
124.0052,-78.352
123.6821,-78.0967
123.3496,-77.8533
123.0188,-77.6072
122.6867,-77.3634
122.3569,-77.1159
122.0323,-76.8622
121.7078,-76.6079
121.3835,-76.3537
121.0587,-76.0998
120.7334,-75.8467
120.4071,-75.595
120.0815,-75.3421
119.7554,-75.0904
119.4402,-74.825
119.1367,-74.5465
118.8328,-74.2678
118.5296,-73.9888
118.2107,-73.7288
117.8756,-73.489
117.539,-73.2511
117.204,-73.0109
116.8812,-72.7553
116.5644,-72.4912
116.2459,-72.23
115.929,-71.966
115.6159,-71.6986
115.3093,-71.4226
115.0019,-71.1485
114.6951,-70.873
114.3753,-70.6142
114.0397,-70.3749
113.7038,-70.1359
113.3682,-69.8969
113.0323,-69.6577
112.6777,-69.4484
112.3196,-69.244
111.962,-69.0395
111.6038,-68.8353
111.2724,-68.5925
110.954,-68.3309
110.6362,-68.0684
110.3178,-67.8068
109.9926,-67.5536
109.6619,-67.3079
109.3311,-67.0617
109.0007,-66.8156
108.6645,-66.5773
108.3142,-66.3606
107.9627,-66.145
107.6125,-65.9279
107.261,-65.7125
106.9223,-65.4779
106.5869,-65.2387
106.252,-64.998
105.9171,-64.7582
105.5817,-64.5183
105.2404,-64.2876
104.8972,-64.0591
104.556,-63.8281
104.2124,-63.6004
103.8637,-63.3814
103.5023,-63.1828
103.1437,-62.9798
102.7827,-62.781
102.4236,-62.5785
102.0781,-62.3549
101.7403,-62.1184
101.4025,-61.8825
101.0639,-61.6474
100.7259,-61.4115
100.3851,-61.1799
100.0468,-60.9441
99.7059,-60.7129
99.3716,-60.4715
99.045,-60.2206
98.7196,-59.9675
98.394,-59.7146
98.0655,-59.4662
97.7368,-59.2165
97.4036,-58.9756
97.0765,-58.7224
96.7417,-58.4848
96.3593,-58.3489
95.9537,-58.2615
95.5593,-58.1506
95.1533,-58.0643
94.7588,-57.9532
94.4062,-57.7435
94.0641,-57.5101
93.7136,-57.2962
93.3697,-57.0663
93.0251,-56.8424
92.6846,-56.6085
92.3441,-56.3773
92.0014,-56.148
91.663,-55.9125
91.2822,-55.7553
90.903,-55.5969
90.5152,-55.4532
90.1365,-55.2937
89.8422,-55.0129
89.5658,-54.7041
89.2814,-54.408
88.9379,-54.2072
88.5415,-54.0891
88.1489,-53.9674
87.7542,-53.8458
87.3599,-53.7276
86.9668,-53.6029
86.5711,-53.4872
86.1793,-53.3607
85.8264,-53.1506
85.4812,-52.9239
85.1298,-52.7094
84.7847,-52.4834
84.4427,-52.2541
84.1114,-52.0087
83.7743,-51.7712
83.4426,-51.5271
83.1054,-51.2896
82.7404,-51.0998
82.3716,-50.9142
82.0063,-50.7244
81.6379,-50.5391
81.2705,-50.3522
80.9004,-50.1714
80.5327,-49.9841
80.1628,-49.8038
79.7812,-49.653
79.3811,-49.5545
78.982,-49.4506
78.5826,-49.3504
78.1827,-49.249
77.8154,-49.0716
77.4627,-48.8599
77.1273,-48.6183
76.8019,-48.3704
76.4829,-48.1029
76.1561,-47.8594
75.795,-47.7375
74.9085,-47.7375
75.795,-47.7375
74.6825,-47.5423
74.3983,-47.2329
74.1022,-46.9561
73.7723,-46.7109
73.4009,-46.534
73.0394,-46.3346
72.6694,-46.1528
72.3063,-45.9587
71.9381,-45.7717
71.573,-45.5825
71.2069,-45.3911
70.8472,-45.1928
70.5063,-44.9594
70.1605,-44.7362
69.8228,-44.4996
69.4938,-44.2514
69.1727,-43.9939
68.8434,-43.7438
68.5219,-43.4889
68.3062,-43.1421
68.118,-42.7778
67.8244,-42.4911
67.5103,-42.2272
67.1992,-41.9552
66.8981,-41.6744
66.6167,-41.3747
66.4066,-41.0206
66.2219,-40.654
66.0127,-40.2943
65.9124,-39.8971
65.6761,-39.5687
65.5227,-39.289
65.6954,-38.9428
65.7326,-38.534
65.7245,-38.1181
65.7631,-37.711
65.7956,-37.2975
65.8783,-36.8953
65.9143,-36.4815
65.9956,-36.0796
66.0137,-35.6637
66.0532,-35.2581
66.2437,-34.9167
66.3201,-34.5287
66.4621,-34.1638
66.7359,-33.8509
66.9839,-33.5239
67.2502,-33.2087
67.476,-32.8617
67.7194,-32.5324
67.9475,-32.1842
68.1888,-31.8559
68.5457,-31.6555
68.9209,-31.4864
69.3168,-31.4042
69.7305,-31.3873
70.1405,-31.3528
70.2428,-31.3481
71.375,-31.3481
71.375,-31.3481
71.7721,-31.2833
72.1322,-31.0896
72.501,-30.8982
72.8592,-30.7009
73.065,-30.3584
73.2272,-29.9765
73.404,-29.6075
73.5658,-29.2247
73.7624,-28.8667
73.9798,-28.5146
74.2103,-28.1743
74.4294,-27.8241
74.6589,-27.4821
74.8897,-27.1409
75.1246,-26.8016
75.3358,-26.451
75.4832,-26.0648
75.6343,-25.683
75.7797,-25.2955
75.9313,-24.9139
76.0747,-24.5261
76.1499,-24.1229
76.2144,-23.7147
76.286,-23.3091
76.3157,-22.8988
76.336,-22.4861
76.3549,-22.0763
76.3727,-21.6619
76.3955,-21.2535
76.4135,-20.8383
76.4396,-20.4304
76.4561,-20.0152
76.4491,-19.6132
76.2756,-19.234
76.1134,-18.8597
76.2635,-18.5191
76.5171,-18.1914
76.7271,-17.8417
76.9022,-17.4669
77.073,-17.0934
77.2461,-16.7179
77.401,-16.3374
77.5412,-15.9492
77.6002,-15.5456
77.6208,-15.1336
77.6447,-14.722
77.6007,-14.3186
77.485,-13.9223
77.3681,-13.5283
77.2509,-13.1315
77.1384,-12.737
77.0376,-12.3353
77.0274,-11.9395
77.1516,-11.5468
77.2841,-11.1556
77.413,-10.7658
77.5738,-10.384
77.7164,-10.001
77.7633,-9.5901
77.8034,-9.1814
77.8382,-8.7701
77.8082,-8.3599
77.779,-7.9483
77.679,-7.5493
77.569,-7.1522
77.4651,-6.7527
77.3735,-6.3525
77.2995,-5.9448
77.0682,-5.6188
76.7936,-5.3122
76.6046,-4.9536
76.458,-4.5657
76.3009,-4.1872
76.0322,-3.9001
75.6808,-3.6825
75.3357,-3.4587
74.9789,-3.2526
74.6034,-3.0842
74.2265,-2.9164
73.8497,-2.7499
73.4739,-2.5806
73.0962,-2.4151
72.7383,-2.2128
72.3871,-1.9967
72.0386,-1.7775
71.6877,-1.5598
71.3132,-1.3912
70.9351,-1.2238
70.5574,-1.0626
70.1802,-0.89209
69.8059,-0.72482
69.4374,-0.53454
69.0658,-0.36231
68.6981,-0.16993
68.325,-0.010348
