77.9821,-344.3135
78.345,-344.0863
78.7082,-343.8595
79.0713,-343.6325
79.4344,-343.4055
79.7977,-343.1787
80.1605,-342.9514
80.5241,-342.725
80.8866,-342.4973
81.2503,-342.2712
81.6129,-342.0434
81.9766,-341.8173
82.3468,-341.6022
82.7182,-341.3892
83.089,-341.1747
83.4601,-340.9614
83.8311,-340.7473
84.2021,-340.5336
84.5732,-340.3199
84.9441,-340.1058
85.3153,-339.8923
85.6861,-339.6782
86.0572,-339.4647
86.4282,-339.2507
86.7992,-339.037
87.1704,-338.8232
87.5411,-338.6092
87.9124,-338.3957
88.2831,-338.1815
88.6544,-337.9681
89.0253,-337.7539
89.3964,-337.5404
89.7674,-337.3265
90.1383,-337.1126
90.5096,-336.8991
90.8802,-336.6849
91.2516,-336.4716
91.6223,-336.2572
91.9771,-336.02
92.3089,-335.7492
92.6407,-335.4786
92.973,-335.2085
93.3042,-334.9371
93.6371,-334.6678
93.9678,-334.3956
94.3011,-334.1269
94.6316,-333.8544
94.9648,-333.5857
95.2957,-333.3136
95.6282,-333.0441
95.9601,-332.7732
96.2913,-332.502
96.6247,-332.2332
96.9544,-331.9597
97.2893,-331.6933
97.6174,-331.4174
97.9538,-331.1532
98.2807,-330.8755
98.6325,-330.6351
99.0097,-330.4351
99.3146,-330.1376
99.607,-329.8221
99.9094,-329.5211
100.2027,-329.2072
100.5039,-328.9043
100.7987,-328.5926
101.0984,-328.2873
101.3947,-327.9779
101.6929,-327.6705
101.9905,-327.363
102.2875,-327.0541
102.5861,-326.7477
102.8825,-326.4381
103.1814,-326.1319
103.4777,-325.8225
103.7765,-325.5158
104.0732,-325.2071
104.3714,-324.8996
104.6687,-324.5917
104.9663,-324.2835
105.2643,-323.9762
105.5612,-323.6675
105.8597,-323.3606
106.1562,-323.0516
106.455,-322.7448
106.7515,-322.436
107.05,-322.1288
107.347,-321.8205
107.6449,-321.5127
107.9426,-321.205
108.2396,-320.8965
108.5383,-320.5896
108.8343,-320.2804
109.134,-319.9741
109.4291,-319.6644
109.7295,-319.3585
110.0242,-319.0484
110.3247,-318.7429
110.6195,-318.4326
110.8579,-318.0782
111.0858,-317.715
111.3179,-317.3559
111.5823,-317.0251
111.9174,-316.7588
112.2514,-316.4902
112.59,-316.2302
112.9703,-316.0319
113.3488,-315.8334
113.7297,-315.6359
114.1078,-315.4366
114.4529,-315.1851
114.7829,-314.9126
115.1156,-314.6429
115.4459,-314.3703
115.7522,-314.0727
116.0438,-313.7585
116.3364,-313.4465
116.6284,-313.1327
116.9114,-312.8122
117.1773,-312.4763
117.4434,-312.1409
117.7093,-311.8053
117.9827,-311.4759
118.2699,-311.1584
118.5581,-310.8414
118.8448,-310.5237
119.1545,-310.2302
119.4943,-309.9701
119.8366,-309.7123
120.1762,-309.4518
120.4886,-309.1617
120.7757,-308.8434
121.0657,-308.5289
121.3526,-308.2104
121.6589,-307.9145
122.008,-307.6667
122.3604,-307.4232
122.7094,-307.1754
123.0342,-306.9031
123.2899,-306.559
123.5493,-306.2188
123.805,-305.8749
124.0643,-305.5343
124.4026,-305.2772
124.7575,-305.0367
125.11,-304.7943
125.4642,-304.5532
125.8065,-304.2962
126.1457,-304.0349
126.4858,-303.7745
126.824,-303.5123
127.1208,-303.2077
127.3855,-302.8708
127.6544,-302.5379
127.9186,-302.2005
128.1877,-301.8678
128.4987,-301.5747
128.8211,-301.2925
129.1392,-301.0061
129.4611,-300.7235
129.7567,-300.4147
130.0388,-300.0928
130.3199,-299.7696
130.6011,-299.4467
130.8794,-299.1213
131.1536,-298.7923
131.4299,-298.4654
131.7036,-298.1358
131.9809,-297.8097
132.2646,-297.4889
132.5514,-297.171
132.8355,-296.8505
133.1217,-296.532
133.4065,-296.2123
133.6922,-295.8932
133.9778,-295.5743
134.2626,-295.2543
134.5668,-294.9535
134.8778,-294.6592
135.1917,-294.3678
135.5023,-294.0732
135.7816,-293.7496
136.0494,-293.4153
136.3206,-293.084
136.5888,-292.7501
136.8527,-292.4133
137.0904,-292.057
137.3295,-291.7018
137.5677,-291.346
137.8093,-290.993
138.1154,-290.6934
138.4216,-290.3941
138.7274,-290.0943
139.0341,-289.7955
139.2769,-289.4436
139.5152,-289.0881
139.75,-288.7296
139.9892,-288.3749
140.2866,-288.0709
140.6101,-287.7895
140.9274,-287.5028
141.251,-287.2214
141.5481,-286.9171
141.7878,-286.5627
142.0229,-286.2044
142.2614,-285.8491
142.498,-285.4919
142.7412,-285.1396
142.9846,-284.7872
143.2269,-284.4343
143.471,-284.0823
143.7424,-283.7516
144.0197,-283.4252
144.296,-283.098
144.5723,-282.771
144.8019,-282.4118
145.0049,-282.0347
145.212,-281.66
145.4137,-281.2821
145.6341,-280.9159
145.8834,-280.568
146.1392,-280.2243
146.3891,-279.8767
146.6438,-279.5324
146.919,-279.2046
147.1966,-278.8786
147.4747,-278.5527
147.7479,-278.2235
147.9962,-277.8745
148.2392,-277.522
148.4884,-277.1737
148.7303,-276.8204
148.955,-276.4561
149.1743,-276.0881
149.3977,-275.723
149.612,-275.3523
149.8065,-274.9709
150.0021,-274.59
150.1948,-274.2074
150.398,-273.8314
150.656,-273.49
150.9202,-273.1526
151.1781,-272.8111
151.442,-272.4736
151.6864,-272.1223
151.9261,-271.7674
152.1622,-271.4102
152.401,-271.0547
152.635,-270.6962
152.8496,-270.3257
153.0631,-269.9546
153.2779,-269.584
153.491,-269.2127
153.7016,-268.8397
153.9087,-268.4651
154.12,-268.0925
154.3266,-267.7174
154.5134,-267.3324
154.6938,-266.9438
154.8786,-266.5578
155.0601,-266.1697
155.2697,-265.7992
155.5371,-265.4646
155.8026,-265.129
156.0722,-264.7957
156.3329,-264.4572
156.5075,-264.0669
156.6731,-263.6712
156.8484,-263.2812
157.0139,-262.8855
157.1974,-262.4992
157.378,-262.1105
157.565,-261.7256
157.7477,-261.3381
157.9403,-260.9559
158.1445,-260.5795
158.3464,-260.2018
158.5524,-259.8264
158.7557,-259.4496
158.9729,-259.0804
159.1834,-258.7076
159.4003,-258.3382
159.6115,-257.9659
159.7704,-257.5689
159.9209,-257.1679
160.0738,-256.7679
160.2255,-256.3675
160.4036,-255.9785
160.5939,-255.595
160.7833,-255.2108
160.9736,-254.8273
161.1554,-254.4396
161.3339,-254.0504
161.5124,-253.6611
161.6904,-253.2716
161.87,-252.883
162.0494,-252.494
162.2301,-252.106
162.4096,-251.7171
162.5809,-251.3249
162.7373,-250.9262
162.8937,-250.5276
163.0508,-250.1293
163.2065,-249.7303
163.3687,-249.3341
163.5303,-248.9374
163.6939,-248.5418
163.8557,-248.1453
164.0313,-247.7551
164.2243,-247.3728
164.4167,-246.9903
164.6107,-246.6085
164.7969,-246.2231
164.9704,-245.8316
165.1392,-245.4381
165.3133,-245.0468
165.4801,-244.6525
165.6308,-244.2518
165.7763,-243.849
165.9266,-243.448
166.0728,-243.0456
166.187,-242.6331
166.2944,-242.2186
166.4032,-241.8043
166.5114,-241.3902
166.6609,-240.99
166.8322,-240.5976
167.0029,-240.2049
167.1743,-239.8125
167.321,-239.4109
167.4484,-239.002
167.5754,-238.5931
167.7027,-238.1841
167.8331,-237.7764
167.9663,-237.3693
168.0993,-236.9624
168.2326,-236.5554
168.358,-236.1461
168.4681,-235.7324
168.5776,-235.3183
168.6879,-234.9046
168.8034,-234.4924
168.9402,-234.0867
169.0759,-233.6805
169.2127,-233.2747
169.3437,-232.8672
169.4418,-232.4504
169.5394,-232.0335
169.6374,-231.6166
169.7352,-231.1998
169.8582,-230.7896
169.9829,-230.38
170.1076,-229.9703
170.2321,-229.5607
170.335,-229.1452
170.4289,-228.7274
170.5242,-228.31
170.6177,-227.892
170.699,-227.4719
170.77,-227.0494
170.8434,-226.6277
170.9144,-226.2053
170.9981,-225.7856
171.0985,-225.3694
171.2006,-224.9535
171.3015,-224.5374
171.4031,-224.1213
171.5155,-223.7082
171.6275,-223.2948
171.7403,-222.8818
171.8518,-222.4683
171.9366,-222.0489
172.0129,-221.6275
172.0912,-221.2065
172.1673,-220.7851
172.2491,-220.3647
172.3319,-219.9447
172.417,-219.5249
172.4998,-219.1049
172.5595,-218.6815
172.5954,-218.2547
172.6336,-217.8283
172.6696,-217.4015
172.726,-216.9782
172.8287,-216.5625
172.933,-216.1471
173.0359,-215.7315
173.1387,-215.3158
173.2265,-214.8967
173.3144,-214.4776
173.4027,-214.0587
173.4901,-213.6394
173.5578,-213.217
173.6103,-212.7919
173.665,-212.3673
173.7174,-211.9422
173.7656,-211.5169
173.804,-211.0903
173.8441,-210.664
173.8831,-210.2376
173.9355,-209.8129
174.0105,-209.3914
174.0845,-208.9695
174.1602,-208.5481
174.2279,-208.1253
174.2863,-207.7011
174.3414,-207.2765
174.3999,-206.8522
174.4543,-206.4276
174.4827,-206.0003
174.5081,-205.5729
174.536,-205.1456
174.562,-204.7182
174.5881,-204.2907
174.6136,-203.8633
174.639,-203.4358
174.6651,-203.0084
174.7076,-202.5824
174.7523,-202.1564
174.7952,-201.7305
174.84,-201.3045
174.8798,-200.8782
174.92,-200.4518
174.9585,-200.0254
174.9984,-199.599
175.0292,-199.172
175.0505,-198.7444
175.0712,-198.3166
175.0923,-197.889
175.1105,-197.4611
175.1153,-197.033
175.1201,-196.6048
175.1248,-196.1766
175.1297,-195.7484
175.1461,-195.3205
175.1634,-194.8927
175.1802,-194.4648
175.1975,-194.037
175.214,-193.609
175.2311,-193.1812
175.2476,-192.7533
175.2647,-192.3254
175.2728,-191.8974
175.2646,-191.4693
175.256,-191.0412
175.2477,-190.613
175.2391,-190.185
175.2405,-189.7567
175.243,-189.3285
175.2456,-188.9003
175.2482,-188.4721
175.2342,-188.0445
175.2029,-187.6174
175.1719,-187.1903
175.1405,-186.7632
175.1125,-186.336
175.1005,-185.908
175.0891,-185.4799
175.0771,-185.0519
175.0639,-184.6239
175.0437,-184.1962
175.0241,-183.7683
175.0041,-183.3407
174.9838,-182.9129
174.9596,-182.4854
174.9349,-182.0579
174.9109,-181.6303
174.8859,-181.2029
174.8644,-180.7752
174.8418,-180.3476
174.8206,-179.9198
174.798,-179.4923
174.7604,-179.0659
174.7115,-178.6405
174.6633,-178.215
174.6148,-177.7896
174.5657,-177.3642
174.5155,-176.9389
174.464,-176.5138
174.4142,-176.0885
174.3608,-175.6637
174.3036,-175.2392
174.2438,-174.8153
174.1866,-174.3908
174.1267,-173.9669
174.0523,-173.5452
173.9759,-173.1238
173.901,-172.7022
173.825,-172.2808
173.7585,-171.8579
173.7018,-171.4335
173.6447,-171.0091
173.5884,-170.5846
173.5309,-170.1603
173.4665,-169.7369
173.4,-169.3139
173.3357,-168.8905
173.269,-168.4676
173.1878,-168.0472
173.1032,-167.6274
173.0213,-167.2071
172.9366,-166.7873
172.8518,-166.3676
172.7637,-165.9485
172.6782,-165.5289
172.5904,-165.1099
172.492,-164.6932
172.3864,-164.2782
172.2821,-163.8629
172.1769,-163.4478
172.075,-163.0319
171.9934,-162.6116
171.9111,-162.1914
171.83,-161.7709
171.7471,-161.3508
171.6392,-160.9364
171.5291,-160.5226
171.4214,-160.1081
171.3113,-159.6943
171.1947,-159.2824
171.0703,-158.8726
170.9478,-158.4623
170.8239,-158.0524
170.7085,-157.6402
170.6021,-157.2253
170.4957,-156.8106
170.3897,-156.3957
170.2819,-155.9813
170.171,-155.5677
170.059,-155.1544
169.9481,-154.7408
169.8362,-154.3274
169.72,-153.9153
169.5986,-153.5047
169.4774,-153.094
169.3564,-152.6832
169.2393,-152.2714
169.1288,-151.8576
169.0173,-151.4442
168.9069,-151.0305
168.7889,-150.6189
168.6574,-150.2115
168.5249,-149.8042
168.3931,-149.3968
168.261,-148.9895
168.1356,-148.5801
168.0126,-148.1699
167.8888,-147.76
167.7661,-147.3497
167.6419,-146.9399
167.5193,-146.5296
167.3948,-146.1199
167.2722,-145.7096
167.1407,-145.3023
166.9861,-144.9031
166.8297,-144.5044
166.6749,-144.1052
166.5198,-143.706
166.369,-143.3052
166.2171,-142.9049
166.0661,-142.5042
165.9143,-142.1038
165.7595,-141.7045
165.6041,-141.3055
165.4491,-140.9063
165.2938,-140.5073
165.1389,-140.1081
164.984,-139.7088
164.8291,-139.3096
164.6744,-138.9103
164.5209,-138.5106
164.369,-138.1102
164.2164,-137.7102
164.0647,-137.3097
163.9135,-136.9091
163.7656,-136.5072
163.6164,-136.1059
163.4686,-135.7039
163.2992,-135.3121
163.0833,-134.9424
162.8661,-134.5733
162.6499,-134.2037
162.4457,-133.8283
162.2865,-133.4308
162.127,-133.0333
161.9675,-132.636
161.8021,-132.2413
161.5995,-131.864
161.3983,-131.4861
161.1954,-131.1089
160.9965,-130.7299
160.8373,-130.3325
160.6803,-129.934
160.521,-129.5366
160.3641,-129.1381
160.1828,-128.7507
159.9881,-128.3693
159.7916,-127.9888
159.5966,-127.6076
159.3966,-127.229
159.1952,-126.8511
158.9934,-126.4734
158.7916,-126.0957
158.6099,-125.7083
158.4369,-125.3166
158.2645,-124.9246
158.0913,-124.533
157.9125,-124.1439
157.7306,-123.7562
157.5495,-123.3682
157.3677,-122.9805
157.1756,-122.5979
156.978,-122.218
156.7802,-121.8382
156.5829,-121.4581
156.3785,-121.082
156.1646,-120.711
155.9491,-120.341
155.7356,-119.9698
155.5367,-119.591
155.3552,-119.2031
155.1709,-118.8167
154.9894,-118.4287
154.7949,-118.0483
154.5488,-117.698
154.3005,-117.349
154.0539,-116.9991
153.8067,-116.6494
153.6004,-116.2742
153.3943,-115.8988
153.1873,-115.524
152.9818,-115.1482
152.7645,-114.7793
152.5458,-114.4111
152.3243,-114.0447
152.1057,-113.6765
151.8764,-113.315
151.6391,-112.9586
151.3994,-112.6037
151.1615,-112.2477
150.9232,-111.8919
150.6868,-111.5348
150.4511,-111.1774
150.2138,-110.8208
149.977,-110.4643
149.7097,-110.1294
149.4457,-109.7926
149.1781,-109.4579
148.9141,-109.1211
148.7161,-108.7421
148.5245,-108.359
148.3309,-107.9771
148.1386,-107.5944
147.9126,-107.2315
147.6751,-106.8751
147.4386,-106.5182
147.2004,-106.1622
146.9417,-105.8216
146.6732,-105.4877
146.4071,-105.1525
146.1388,-104.8186
145.8837,-104.4749
145.635,-104.1263
145.3872,-103.7771
145.1391,-103.4281
144.8936,-103.0772
144.6523,-102.7235
144.4095,-102.3708
144.1685,-102.0168
143.9248,-101.6647
143.681,-101.3126
143.435,-100.9622
143.1911,-100.6102
142.9453,-100.2596
142.68,-99.9235
142.4126,-99.5891
142.1465,-99.2535
141.8792,-98.919
141.6076,-98.588
141.3298,-98.2621
141.0533,-97.9353
140.7754,-97.6093
140.494,-97.2868
140.2013,-96.9741
139.9098,-96.6606
139.6173,-96.3477
139.3489,-96.0164
139.121,-95.6539
138.8928,-95.2915
138.6654,-94.9286
138.4185,-94.58
138.1426,-94.2526
137.8644,-93.927
137.5889,-93.5992
137.3106,-93.2738
137.0309,-92.9495
136.7487,-92.6276
136.4683,-92.3037
136.1867,-91.9814
135.8599,-91.7056
135.5264,-91.4376
135.1911,-91.1705
134.8586,-90.9016
134.6012,-90.5616
134.3588,-90.2083
134.1112,-89.8594
133.8691,-89.5055
133.6233,-89.1557
133.3844,-88.7994
133.1405,-88.4484
132.9011,-88.0925
132.6352,-87.7588
132.346,-87.4427
132.0547,-87.129
131.7645,-86.814
131.4544,-86.522
131.1016,-86.2792
130.7502,-86.0346
130.3969,-85.7925
130.0523,-85.5393
129.7326,-85.2547
129.4157,-84.9665
129.0959,-84.6818
128.7813,-84.3915
128.4969,-84.0717
128.2153,-83.7488
127.9309,-83.4288
127.6493,-83.1062
127.3511,-82.7992
127.0469,-82.498
126.7397,-82.1994
126.4356,-81.8981
126.1217,-81.6069
125.8031,-81.321
125.4814,-81.0381
125.1627,-80.7523
124.8905,-80.4235
124.6324,-80.0816
124.372,-79.7418
124.1136,-79.4003
123.8224,-79.089
123.5023,-78.8049
123.1808,-78.5216
122.8607,-78.2377
122.5073,-77.9991
122.1356,-77.7875
121.7617,-77.5777
121.3905,-77.3653
121.0859,-77.076
120.8275,-76.7337
120.5642,-76.3971
120.3065,-76.0538
120.0151,-75.7471
119.6638,-75.5031
119.306,-75.267
118.9544,-75.0232
118.5971,-74.7864
118.2405,-74.5502
117.8787,-74.3203
117.5194,-74.0881
117.1589,-73.8563
116.8027,-73.6195
116.4574,-73.3658
116.109,-73.1171
115.7647,-72.8622
115.4151,-72.6152
115.0373,-72.4149
114.6546,-72.2214
114.2762,-72.022
113.8944,-71.8272
113.552,-71.5759
113.2346,-71.2885
112.9163,-71.0022
112.6005,-70.7127
112.2505,-70.4701
111.8801,-70.257
111.5031,-70.0516
111.1335,-69.8377
110.8241,-69.5515
110.5564,-69.2161
110.2809,-68.8892
110.0127,-68.5546
109.7229,-68.2434
109.3692,-68.0031
109.0107,-67.768
108.6562,-67.5285
108.2983,-67.2928
107.9583,-67.0329
107.6199,-66.7706
107.2836,-66.5054
106.9452,-66.2431
106.5862,-66.0118
106.2123,-65.8028
105.8407,-65.5905
105.4667,-65.3813
105.1017,-65.1583
104.744,-64.9226
104.3877,-64.6854
104.0306,-64.4488
103.6736,-64.2127
103.355,-63.9265
103.0369,-63.6403
102.7213,-63.3503
102.4025,-63.065
102.021,-62.8719
101.635,-62.685
101.2534,-62.4921
100.8677,-62.3048
100.4983,-62.0888
100.1257,-61.8772
99.7555,-61.6623
99.3839,-61.4494
99.0227,-61.2206
98.6778,-60.9666
98.3315,-60.715
97.9874,-60.4598
97.6401,-60.2097
97.2918,-59.9601
96.9402,-59.7162
96.5918,-59.4666
96.2405,-59.2225
95.8453,-59.0581
95.4479,-58.8987
95.0516,-58.7364
94.6609,-58.5657
94.3355,-58.2871
94.0106,-58.0081
93.6849,-57.7304
93.3601,-57.4509
93.0012,-57.2179
92.6426,-56.9831
92.2582,-56.8026
91.853,-56.663
91.4488,-56.523
91.0495,-56.3677
90.6575,-56.1964
90.2627,-56.0295
89.8712,-55.857
89.4948,-55.6556
89.134,-55.4239
88.7699,-55.1997
88.4088,-54.9682
88.0475,-54.7399
87.6949,-54.4956
87.3411,-54.2555
86.9877,-54.0127
86.6283,-53.7853
86.2111,-53.687
85.7954,-53.5865
85.3778,-53.4894
84.9675,-53.3764
84.621,-53.1261
84.2761,-52.871
83.9299,-52.6202
83.5845,-52.366
83.2296,-52.1274
82.8734,-51.8889
82.518,-51.6507
82.1615,-51.4131
81.7784,-51.225
81.3855,-51.0542
80.9937,-50.8815
80.6012,-50.7105
80.2167,-50.5222
79.839,-50.3213
79.4604,-50.1203
79.0831,-49.9188
78.7071,-49.713
78.3353,-49.5012
77.9624,-49.2903
77.5899,-49.0792
77.2717,-48.7985
76.9756,-48.4895
76.6824,-48.1768
76.3851,-47.8694
76.0122,-47.6696
75.6178,-47.4993
75.2305,-47.3199
74.8359,-47.1501
74.4534,-46.96
74.0687,-46.7704
73.6893,-46.5727
73.3058,-46.3819
72.9397,-46.1633
72.6103,-45.8909
72.2814,-45.6156
71.9525,-45.3422
71.6145,-45.0802
71.2502,-44.8547
70.9252,-44.5898
70.6875,-44.2331
70.4455,-43.8809
70.1831,-43.5411
69.9323,-43.1956
69.6774,-42.8509
69.4915,-42.465
69.2805,-42.0926
69.0567,-41.7282
68.957,-41.3151
68.8749,-40.8923
68.8937,-40.4738
68.9606,-40.049
68.9196,-39.6242
68.8753,-39.1973
68.8387,-38.7712
68.8665,-38.3468
68.9316,-37.9217
68.9941,-37.5004
69.084,-37.0794
69.1577,-36.6593
69.2701,-36.2461
69.4216,-35.8468
69.5809,-35.4493
69.736,-35.0491
69.9054,-34.6584
70.1032,-34.2757
70.297,-33.8972
70.4955,-33.5144
70.6823,-33.1322
70.8524,-32.7371
71.0307,-32.3491
71.2138,-31.9618
71.4048,-31.5778
71.7051,-31.3002
72.0791,-31.0803
72.4424,-30.8653
72.8228,-30.6564
73.189,-30.4433
73.5923,-30.3025
74.0083,-30.2038
74.423,-30.1085
74.8465,-30.0108
75.2534,-29.914
75.693,-29.8712
76.1029,-29.8344
76.5194,-29.7243
76.8053,-29.4439
76.8907,-29.0267
77.0692,-28.6412
77.2802,-28.2652
77.4612,-27.8785
77.6655,-27.5015
77.8156,-27.0993
77.9716,-26.702
78.1271,-26.3016
78.2768,-25.9014
78.4493,-25.5088
78.6107,-25.1122
78.7867,-24.7222
78.9489,-24.3249
79.0736,-23.9182
79.1773,-23.5006
79.2843,-23.0876
79.3924,-22.6723
79.4746,-22.2524
79.5469,-21.8316
79.6096,-21.4059
79.6817,-20.9864
79.7381,-20.5592
79.7756,-20.1353
79.814,-19.7071
79.8457,-19.2804
79.8902,-18.8557
79.9289,-18.4264
79.9998,-18.0082
80.1864,-17.6342
80.4554,-17.2979
80.6923,-16.9424
81.0108,-16.6545
81.3278,-16.3732
81.4164,-15.9693
81.4609,-15.5377
81.522,-15.1178
81.6253,-14.7008
81.6952,-14.2871
81.6023,-13.8696
81.5103,-13.4495
81.3991,-13.0404
81.2146,-12.6515
81.0301,-12.2666
80.8472,-11.8796
80.6604,-11.4919
80.5015,-11.0989
80.3397,-10.6959
80.3,-10.2834
80.4408,-9.8747
80.5945,-9.4794
80.7354,-9.0709
80.8265,-8.6567
80.8993,-8.2323
80.9293,-7.8065
80.9537,-7.3797
80.9811,-6.9497
80.9442,-6.5276
80.9031,-6.0959
80.7341,-5.7125
80.5397,-5.3249
80.3522,-4.9443
80.1636,-4.5582
79.9779,-4.172
79.6868,-3.8614
79.4066,-3.53
79.1376,-3.2154
79.0251,-2.7831
78.8658,-2.4388
78.4687,-2.344
78.1259,-2.1038
77.8019,-1.8072
77.45,-1.5839
77.0388,-1.4823
76.6076,-1.4281
76.1955,-1.333
75.7659,-1.2714
75.3637,-1.1425
74.9623,-0.98676
74.5701,-0.81966
74.172,-0.65817
73.7756,-0.4979
73.3761,-0.34431
72.974,-0.19434
72.5761,-0.040237
72.1529,-0.0022619
