86.7797,-53.2405
86.0035,-52.8815
85.2245,-52.5248
84.4439,-52.1686
83.6621,-51.8123
82.8824,-51.4583
82.1013,-51.1051
81.3191,-50.7525
80.5394,-50.3975
79.7696,-50.0309
79.0151,-49.6367
78.2862,-49.2003
77.5896,-48.7137
76.9251,-48.1821
76.2828,-47.6204
75.6496,-47.044
75.022,-46.4602
74.4096,-45.8681
73.8247,-45.2554
73.2875,-44.6072
72.8203,-43.9172
72.4484,-43.1894
72.2125,-42.4339
72.1434,-41.6579
72.2443,-40.8713
72.4817,-40.0861
72.8142,-39.3139
73.2075,-38.5603
73.6473,-37.8317
74.1315,-37.1339
74.6632,-36.472
75.2404,-35.8466
75.852,-35.252
76.4847,-34.6794
77.1226,-34.1175
77.7361,-33.5435
78.289,-32.928
78.7596,-32.2523
79.1552,-31.5205
79.5054,-30.7532
79.8268,-29.967
80.1229,-29.169
80.3987,-28.3627
80.6707,-27.5543
80.944,-26.7453
81.2119,-25.9346
81.4509,-25.1185
81.6333,-24.2939
81.7342,-23.4636
81.7297,-22.6388
81.6131,-21.8349
81.3905,-21.0676
81.0881,-20.3359
80.7598,-19.6133
80.4759,-18.8667
80.2953,-18.0846
80.2502,-17.2869
80.3582,-16.5117
80.636,-15.8025
81.0818,-15.1856
81.658,-14.6563
82.2792,-14.1775
82.8479,-13.6858
83.2804,-13.1152
83.5474,-12.4344
83.6899,-11.6618
83.772,-10.8366
83.837,-9.9916
83.8845,-9.15
83.8746,-8.328
83.7491,-7.5396
83.476,-6.7947
83.0686,-6.0907
82.5735,-5.4158
82.0321,-4.7597
81.4645,-4.1202
80.8748,-3.5029
80.2581,-2.9218
79.6019,-2.3897
78.9036,-1.9108
78.0748,-1.3711
77.345,-1.0212
76.6163,-0.66847
75.8942,-0.30219
75.1699,0.060261
74.4336,0.398
73.6962,0.68357
-44.5626,-34.7028