93.0469,-58.5724
92.4406,-58.0022
91.8114,-57.4536
91.1778,-56.9214
90.539,-56.38
89.9196,-55.8298
89.3035,-55.2673
88.6849,-54.7053
88.0652,-54.1549
87.4302,-53.6073
86.7965,-53.0715
86.1526,-52.5398
85.5068,-52.0102
84.8729,-51.4769
84.2431,-50.9254
83.6277,-50.3696
83.0037,-49.8153
82.3664,-49.2769
81.7161,-48.7637
81.0438,-48.2645
80.3723,-47.7775
79.6987,-47.2838
79.0358,-46.7772
78.3887,-46.2583
77.7457,-45.7221
77.1233,-45.1752
76.514,-44.6058
75.9262,-44.0159
75.3533,-43.4161
74.7791,-42.8096
74.2226,-42.204
73.695,-41.5796
73.2444,-40.9223
72.9117,-40.2307
72.7304,-39.5066
72.732,-38.7602
72.8698,-37.9888
73.0988,-37.2121
73.3982,-36.4607
73.7814,-35.7692
74.2902,-35.1765
74.905,-34.6841
75.5963,-34.2807
76.3177,-33.9363
77.0129,-33.5798
77.6485,-33.1375
78.1939,-32.5738
78.6745,-31.9188
79.1114,-31.2157
79.5143,-30.4874
79.9021,-29.7495
80.2655,-29.0004
80.623,-28.2463
80.9765,-27.4918
81.3176,-26.7342
81.6343,-25.9737
81.8717,-25.1971
82.008,-24.4003
82.0409,-23.5879
82.0038,-22.7672
81.9609,-21.9509
81.9545,-21.1402
82.0416,-20.3467
82.2522,-19.5963
82.6067,-18.9159
83.0961,-18.3089
83.6238,-17.7241
84.1023,-17.0982
84.4623,-16.3986
84.6876,-15.6308
84.8069,-14.8253
84.8298,-14.0016
84.7899,-13.1747
84.6919,-12.3518
84.5365,-11.5364
84.3312,-10.7393
84.0477,-9.9692
83.6849,-9.2418
83.235,-8.5668
82.7044,-7.9497
83.5353,-8.8386
83.0866,-8.3088
82.7442,-7.7129
82.1605,-7.3341
81.5812,-6.9521
81.0128,-6.5558
80.4426,-6.1605
79.8897,-5.7404
79.3692,-5.2784
78.8508,-4.8168
78.2146,-4.5778
77.5462,-4.3986
76.8756,-4.2181
-41.7151,-33.8801