73.2913,-49.0795
72.6613,-48.5641
72.08,-48.0022
71.5581,-47.3923
71.1131,-46.7341
70.7681,-46.0271
70.5432,-45.2758
70.4483,-44.494
70.4819,-43.7007
70.6324,-42.9104
70.8738,-42.1309
71.1734,-41.3622
71.5043,-40.6008
71.8503,-39.8441
72.1988,-39.0892
72.5393,-38.3332
72.8653,-37.5765
73.183,-36.8259
73.5165,-36.0951
73.8927,-35.394
74.3193,-34.7186
74.7846,-34.0563
75.2748,-33.3999
75.7862,-32.7515
76.3177,-32.1147
76.8625,-31.487
77.4135,-30.8638
77.9665,-30.2435
78.5273,-29.633
79.1099,-29.047
79.7262,-28.4986
80.3792,-27.9945
81.0648,-27.5366
81.7783,-27.1319
82.5176,-26.7927
83.2761,-26.5208
84.0386,-26.2919
84.7734,-26.0476
85.4488,-25.7227
86.0476,-25.2792
86.5713,-24.7214
87.0294,-24.0806
87.422,-23.3871
87.7327,-22.6596
87.938,-21.9162
88.0056,-21.1866
87.8974,-20.5153
87.5899,-19.9412
87.1051,-19.4713
86.5227,-19.0674
85.9527,-18.655
85.4972,-18.1613
85.2122,-17.5512
85.0946,-16.8379
85.1041,-16.0604
85.2027,-15.2567
85.368,-14.452
85.5858,-13.6558
85.8402,-12.8674
86.1135,-12.0829
86.385,-11.2992
86.6305,-10.5127
86.8187,-9.7199
86.9205,-8.9194
86.923,-8.1138
86.8302,-7.3096
86.654,-6.5142
86.4092,-5.7319
86.1145,-4.9617
85.7885,-4.2005
85.4386,-3.449
85.0571,-2.7152
84.6305,-2.01
84.1497,-1.3425
83.6154,-0.7159
83.0365,-0.12583
82.4281,0.43863
81.8055,0.99077
81.1818,1.5429
80.5653,2.1028
-48.1332,-26.2945