85.7222,-55.2785
84.9201,-54.9614
84.1246,-54.6291
83.3379,-54.2752
82.5561,-53.9066
81.773,-53.5372
80.9846,-53.1766
80.194,-52.8253
79.4078,-52.4749
78.6286,-52.1098
77.862,-51.7198
77.1084,-51.3037
76.3631,-50.8697
75.6206,-50.4282
74.8793,-49.9833
74.1437,-49.529
73.4216,-49.0547
72.7222,-48.5496
72.0572,-48.0052
71.4443,-47.4144
70.915,-46.7698
70.4999,-46.0637
70.2256,-45.2999
70.1057,-44.4953
70.1337,-43.6714
70.2851,-42.8457
70.524,-42.0277
70.8156,-41.2187
71.1335,-40.4158
71.4625,-39.6164
71.7996,-38.8202
72.1467,-38.0282
72.5083,-37.2426
72.8839,-36.4637
73.2685,-35.6891
73.6608,-34.9182
74.061,-34.1515
74.4712,-33.3904
74.8944,-32.6368
75.3334,-31.893
75.7936,-31.1643
76.2856,-30.4616
76.8249,-29.803
77.4247,-29.2088
78.0904,-28.6948
78.8184,-28.2647
79.5873,-27.8975
80.3695,-27.552
81.1337,-27.1792
81.8498,-26.738
82.4951,-26.2072
83.0589,-25.5872
83.5454,-24.8948
83.9701,-24.153
84.352,-23.382
84.7056,-22.5956
85.0331,-21.799
85.3253,-20.9917
85.5571,-20.1728
85.6945,-19.3497
85.6978,-18.5457
85.5262,-17.7963
85.1627,-17.1331
84.6405,-16.5571
84.042,-16.0252
83.4755,-15.4684
83.0372,-14.8344
82.7844,-14.1141
82.7326,-13.3367
82.8642,-12.543
83.1393,-11.7617
83.4952,-11.0001
83.8634,-10.2471
84.1778,-9.4828
84.39,-8.6936
84.4783,-7.8801
84.4444,-7.0532
84.3082,-6.2236
84.107,-5.3953
83.8846,-4.5657
83.5027,-3.0897
83.3722,-2.2667
83.2247,-1.444
83.0411,-0.63234
82.4414,-0.22095
81.6383,-0.011907
-47.6233,-27.8238