83.7041,-53.8951
82.9423,-53.5197
82.1794,-53.1429
81.4166,-52.7627
80.6556,-52.3761
79.8995,-51.9808
79.1555,-51.5795
78.415,-51.1687
77.6775,-50.7498
76.9441,-50.3212
76.2185,-49.8777
75.5051,-49.4133
74.8078,-48.9237
74.1358,-48.4085
73.4964,-47.8624
72.9003,-47.2744
72.3692,-46.636
71.9276,-45.9423
71.5966,-45.1951
71.3799,-44.403
71.2571,-43.5789
71.2046,-42.7418
71.1941,-41.8994
71.2274,-41.0601
71.3232,-40.2307
71.4968,-39.4153
71.7458,-38.6157
72.0555,-37.8322
72.4132,-37.0659
72.8086,-36.3157
73.2228,-35.5742
73.6477,-34.838
74.0807,-34.1067
74.523,-33.3812
74.9775,-32.6643
75.4498,-31.9624
75.9563,-31.2906
76.5104,-30.6665
77.1222,-30.1047
77.7899,-29.6043
78.4975,-29.1491
79.2271,-28.7213
79.9685,-28.3128
80.717,-27.9203
81.4727,-27.537
82.2128,-27.137
82.9176,-26.6903
83.572,-26.1779
84.1675,-25.599
84.6953,-24.9596
85.1372,-24.2682
85.4717,-23.5415
85.6601,-22.8076
85.6516,-22.0944
85.4352,-21.4143
85.0703,-20.7523
84.6656,-20.0741
84.3126,-19.3505
84.044,-18.5757
83.8513,-17.7652
83.7029,-16.9378
83.5973,-16.1096
83.5644,-15.2936
83.6465,-14.4988
83.8588,-13.7267
84.169,-12.969
84.5185,-12.2109
84.854,-11.4398
85.1295,-10.6489
85.321,-9.8403
85.4134,-9.02
85.4031,-8.1932
85.3077,-7.3634
85.1588,-6.5323
84.9903,-5.7014
84.8157,-4.8707
84.6332,-4.0429
84.4291,-3.2275
84.1747,-2.4424
83.8307,-1.7141
83.3483,-0.79277
82.7235,-0.29785
82.0961,0.19562
81.3603,0.48879
80.6073,0.75055
79.8539,1.0188
79.1003,1.2887
-47.3075,-27.9636