86.8042,-55.7972
86.0279,-55.3563
85.2586,-54.9253
84.4876,-54.4911
83.713,-54.0571
82.9299,-53.6322
82.1444,-53.2214
81.3617,-52.8159
80.577,-52.4059
79.7891,-51.9937
79.0008,-51.5758
78.23,-51.1457
77.4747,-50.6899
76.7281,-50.2113
75.9819,-49.7245
75.2307,-49.2415
74.4896,-48.7658
73.7601,-48.2734
73.0631,-47.7461
72.4254,-47.173
71.8759,-46.5564
71.4343,-45.9135
71.0825,-45.2621
70.8192,-44.6023
70.6621,-43.9046
70.6361,-43.1527
70.7441,-42.3611
70.9744,-41.5585
71.3054,-40.7629
71.6929,-39.9755
72.1113,-39.1949
72.5339,-38.4133
72.9586,-37.6327
73.3914,-36.8567
73.8353,-36.0868
74.2993,-35.3279
74.7718,-34.5749
75.2496,-33.8257
75.7276,-33.0778
76.2098,-32.3327
76.7057,-31.603
77.2211,-30.9093
77.7658,-30.2823
78.3538,-29.7559
79.0142,-29.3456
79.7528,-29.0325
80.5478,-28.7831
81.3635,-28.5741
82.1584,-28.3758
82.9007,-28.1271
83.5572,-27.7592
84.1224,-27.2426
84.5961,-26.5935
84.9844,-25.8477
85.3069,-25.0432
85.5641,-24.2048
85.7569,-23.3463
85.8845,-22.4783
85.9406,-21.6122
85.8958,-20.7592
85.7178,-19.9291
85.4181,-19.1268
85.0571,-18.345
84.7356,-17.5675
84.5318,-16.7733
84.4848,-15.9527
84.5783,-15.1106
84.7645,-14.2588
85.0048,-13.4075
85.246,-12.5537
85.4574,-11.6935
85.6216,-10.8241
85.7347,-9.9478
85.7925,-9.0698
85.7703,-8.1949
85.6532,-7.3314
85.4301,-6.4918
85.1038,-5.6933
84.6697,-4.9518
84.1296,-4.2779
83.8043,-3.7953
83.1718,-3.2997
82.5078,-2.8468
81.8297,-2.4159
81.1255,-2.0258
80.4209,-1.6354
79.695,-1.2866
78.9687,-0.94022
-47.6939,-28.4541