82.5906,-53.3522
81.7684,-53.0285
80.9518,-52.6942
80.1488,-52.3364
79.3574,-51.9568
78.5742,-51.566
77.7908,-51.1711
77.0044,-50.7763
76.217,-50.3768
75.4366,-49.9593
74.6744,-49.5136
73.9358,-49.0336
73.2362,-48.5183
72.5899,-47.9587
72.0212,-47.3462
71.543,-46.6778
71.1624,-45.9558
70.8981,-45.1841
70.7642,-44.3666
70.7631,-43.5203
70.8651,-42.6608
71.0416,-41.8005
71.2664,-40.9461
71.5205,-40.0981
71.7935,-39.2549
72.0751,-38.4141
72.3663,-37.5775
72.6702,-36.7461
72.994,-35.9228
73.3434,-35.1104
73.7179,-34.3091
74.1124,-33.5166
74.5187,-32.729
74.9312,-31.9449
75.3475,-31.1628
75.7636,-30.3818
76.1856,-29.6142
76.6334,-28.8929
77.1468,-28.2763
77.7721,-27.8279
78.5213,-27.5703
79.3619,-27.4623
80.2216,-27.4172
81.044,-27.3487
81.812,-27.1907
82.5345,-26.9079
83.2217,-26.4963
83.8575,-25.9666
84.4285,-25.3387
84.9175,-24.6321
85.3119,-23.8685
85.5915,-23.0664
85.7264,-22.2424
85.6969,-21.4169
85.5,-20.6069
85.1709,-19.8223
84.7583,-19.0576
84.3222,-18.2993
83.9235,-17.5303
83.625,-16.7383
83.481,-15.9234
83.5151,-15.0995
83.7196,-14.286
84.0538,-13.4942
84.4692,-12.7235
84.9212,-11.9665
85.3723,-11.2133
85.7904,-10.4543
86.1388,-9.6824
86.3892,-8.895
86.5224,-8.0928
86.5176,-7.2826
86.3586,-6.4797
86.0457,-5.7044
85.6027,-4.9737
85.0649,-4.2916
84.466,-3.6487
83.8392,-3.0293
83.1986,-2.4196
82.5519,-1.8149
81.6851,-0.96992
81.0894,-0.39198
80.4029,0.070131
79.7085,0.5166
79.0112,0.9664
78.3191,1.4337
77.5287,1.6895
-48.5079,-27.4638