92.8432,-58.2167
91.9912,-57.8481
91.1457,-57.4998
90.2948,-57.1525
89.4429,-56.795
88.6005,-56.4146
87.7871,-56.0056
86.9863,-55.5595
86.1884,-55.0957
85.385,-54.647
84.5721,-54.2349
83.7421,-53.8462
82.9127,-53.451
82.1157,-53.0164
81.3619,-52.5206
80.6347,-51.9709
79.9089,-51.4071
79.1701,-50.878
78.3981,-50.3978
77.595,-49.9534
76.7811,-49.5143
75.9923,-49.0582
75.2288,-48.5566
74.4939,-48.0044
73.7876,-47.4102
73.1251,-46.7873
72.5055,-46.1259
71.9576,-45.4134
71.5142,-44.6421
71.1966,-43.818
70.9992,-42.9504
70.9244,-42.0566
70.9698,-41.1553
71.1112,-40.2572
71.3192,-39.3659
71.5832,-38.4878
71.9125,-37.6333
72.2971,-36.8011
72.7251,-35.9891
73.189,-35.1968
73.6956,-34.4282
74.2234,-33.6731
74.7638,-32.9276
75.3164,-32.1923
75.8958,-31.4746
76.4929,-30.7763
77.1203,-30.1143
77.798,-29.5137
78.542,-28.9985
79.3381,-28.5763
80.1756,-28.2526
81.05,-28.0269
81.9501,-27.8736
82.8483,-27.737
83.715,-27.5488
84.5206,-27.2469
85.2181,-26.7852
85.7818,-26.1618
86.2187,-25.4132
86.5566,-24.5895
86.7839,-23.7237
86.8814,-22.842
86.8335,-21.9668
86.6525,-21.1194
86.3478,-20.3025
85.9779,-19.5039
85.636,-18.7045
85.4291,-17.8911
85.4048,-17.0579
85.5527,-16.2088
85.8165,-15.3521
86.1318,-14.4923
86.4461,-13.6279
86.7252,-12.7561
86.95,-11.8759
87.0844,-10.9868
87.0961,-10.0942
86.9767,-9.207
86.7519,-8.3367
86.4346,-7.4863
86.594,-7.6311
86.2137,-6.9108
85.8334,-6.1912
85.4512,-5.4718
85.0684,-4.7514
84.6875,-4.0296
84.0916,-3.5027
83.4159,-3.049
82.7375,-2.5981
82.0415,-2.231
-46.3307,-27.8601