111.113,-333.2461
111.3933,-332.9661
111.6735,-332.6859
111.9538,-332.4058
112.234,-332.1257
112.5143,-331.8455
112.7945,-331.5656
113.0747,-331.2853
113.355,-331.0053
113.6352,-330.7252
113.9155,-330.445
114.1957,-330.165
114.476,-329.8848
114.7562,-329.6048
115.0364,-329.3246
115.3167,-329.0445
115.5969,-328.7645
115.8772,-328.4842
116.1574,-328.2043
116.4377,-327.9241
116.7179,-327.644
116.9981,-327.3639
117.2784,-327.0837
117.5586,-326.8037
117.8389,-326.5235
118.1192,-326.2434
118.3994,-325.9634
118.6796,-325.6832
118.9599,-325.4032
119.2401,-325.123
119.5204,-324.8429
119.8006,-324.5628
120.0809,-324.2826
120.3611,-324.0026
120.6413,-323.7224
120.9216,-323.4424
121.2018,-323.1623
121.4821,-322.8821
121.7623,-322.6021
122.0426,-322.3219
122.3228,-322.0419
122.603,-321.7617
122.8833,-321.4816
123.1635,-321.2016
123.4438,-320.9213
123.724,-320.6413
124.0043,-320.3612
124.2845,-320.081
124.5647,-319.801
124.845,-319.5208
125.1252,-319.2408
125.4055,-318.9606
125.6857,-318.6805
125.966,-318.4005
126.2462,-318.1203
126.5264,-317.8403
126.8067,-317.5601
127.0869,-317.28
127.3672,-317
127.6474,-316.7197
127.9276,-316.4397
128.208,-316.1596
128.4881,-315.8794
128.7685,-315.5994
129.0486,-315.3191
129.3289,-315.0392
129.6092,-314.7591
129.8881,-314.4776
130.1657,-314.195
130.4421,-313.9109
130.7201,-313.6287
131.006,-313.3544
131.2952,-313.0836
131.583,-312.8112
131.8715,-312.5397
132.1494,-312.2578
132.4114,-311.9605
132.6646,-311.656
132.9098,-311.3447
133.155,-311.0334
133.4011,-310.723
133.6452,-310.4107
133.8924,-310.1012
134.1358,-309.7885
134.383,-309.4787
134.6214,-309.1629
134.8295,-308.8254
135.0382,-308.4892
135.2438,-308.1497
135.4549,-307.8152
135.7197,-307.5227
136.0037,-307.2453
136.2794,-306.9617
136.5624,-306.6835
136.8503,-306.4122
137.1469,-306.1491
137.4417,-305.8841
137.7369,-305.6204
138.0323,-305.3558
138.3065,-305.0711
138.5676,-304.7729
138.8299,-304.4757
139.0904,-304.1777
139.3338,-303.8646
139.571,-303.5479
139.8099,-303.2313
140.0473,-302.9142
140.3405,-302.6512
140.6495,-302.4033
140.8865,-302.0902
141.1015,-301.7562
141.3244,-301.4296
141.5619,-301.1131
141.8231,-300.8145
142.076,-300.5102
142.3344,-300.2091
142.5901,-299.9068
142.8369,-299.597
143.0914,-299.2924
143.335,-298.9812
143.5908,-298.6766
143.8074,-298.3519
143.9267,-297.9739
144.0422,-297.5956
144.1566,-297.2152
144.2762,-296.8385
144.5243,-296.5448
144.8235,-296.282
145.0505,-295.9625
145.258,-295.6239
145.4666,-295.2878
145.6703,-294.9475
145.8814,-294.6121
146.0846,-294.2723
146.2847,-293.9299
146.4809,-293.5862
146.6768,-293.2413
146.8763,-292.8992
147.0702,-292.5537
147.2697,-292.2111
147.4656,-291.867
147.6617,-291.5223
147.8616,-291.1805
148.0541,-290.834
148.2561,-290.4931
148.4487,-290.1468
148.6484,-289.8047
148.8953,-289.4977
149.1649,-289.2082
149.4389,-288.9204
149.7066,-288.6299
149.9812,-288.3431
150.2592,-288.0607
150.5334,-287.7765
150.8188,-287.4977
151.0856,-287.2097
151.3771,-286.9343
151.6402,-286.6439
151.7556,-286.2697
151.8418,-285.8784
151.9495,-285.5007
152.0524,-285.1159
152.1945,-284.7474
152.335,-284.3763
152.4723,-284.0044
152.6156,-283.6358
152.7522,-283.2628
152.8944,-282.8939
153.0333,-282.5223
153.1726,-282.1512
153.3145,-281.7821
153.527,-281.4571
153.8085,-281.1773
154.0802,-280.8903
154.3636,-280.6108
154.6278,-280.319
154.8872,-280.0158
155.1287,-279.706
155.2633,-279.3411
155.3986,-278.9691
155.5561,-278.6052
155.6923,-278.2324
155.8477,-277.869
155.9907,-277.4979
156.1417,-277.133
156.2919,-276.7654
156.4356,-276.3961
156.5923,-276.0334
156.7313,-275.6597
156.8899,-275.2997
157.0304,-274.9256
157.1911,-274.5675
157.441,-274.2584
157.7162,-273.9919
158.1005,-273.8658
158.4372,-273.7065
158.4993,-273.3255
158.5217,-272.9176
158.5849,-272.5371
158.6101,-272.1319
158.7025,-271.7567
158.8712,-271.3981
159.0538,-271.0453
159.2311,-270.6928
159.4071,-270.3358
159.5844,-269.9831
159.754,-269.624
159.9287,-269.2685
160.1014,-268.9124
160.2733,-268.5545
160.4512,-268.2014
160.6229,-267.8436
160.8008,-267.4898
160.974,-267.1336
161.1156,-266.7641
161.2377,-266.3881
161.3567,-266.0091
161.4798,-265.6332
161.6209,-265.2633
161.7784,-264.8994
161.9371,-264.537
162.0914,-264.1712
162.2548,-263.8111
162.4494,-263.4661
162.6533,-263.1258
162.8485,-262.7817
163.0507,-262.4402
163.2318,-262.0892
163.3836,-261.7229
163.5341,-261.3564
163.6852,-260.9904
163.8357,-260.6235
163.9781,-260.2542
164.1169,-259.8826
164.2581,-259.5127
164.3967,-259.1415
164.5365,-258.7705
164.6694,-258.3976
164.8033,-258.0243
164.9368,-257.6514
165.0706,-257.2785
165.2336,-256.9176
165.4067,-256.5614
165.5764,-256.2031
165.7509,-255.8475
165.9127,-255.4861
166.0602,-255.1182
166.203,-254.7488
166.3488,-254.3801
166.4939,-254.0117
166.6429,-253.6445
166.8003,-253.2806
166.9517,-252.9149
167.11,-252.551
167.2438,-252.1802
167.3188,-251.7913
167.3883,-251.401
167.4619,-251.0119
167.5327,-250.6218
167.639,-250.2417
167.7733,-249.8687
167.9082,-249.4963
168.0427,-249.1235
168.1775,-248.7509
168.3117,-248.3783
168.4456,-248.0051
168.5799,-247.6325
168.7136,-247.2594
168.8423,-246.8848
168.9645,-246.5079
169.0867,-246.1308
169.2095,-245.7543
169.3309,-245.377
169.4408,-244.9966
169.5358,-244.6119
169.634,-244.228
169.729,-243.8434
169.8364,-243.4625
169.9794,-243.0931
170.1242,-242.7242
170.2674,-242.3547
170.4123,-241.986
170.5381,-241.6105
170.6553,-241.232
170.769,-240.8525
170.8868,-240.474
171.0001,-240.0946
171.0814,-239.707
171.1528,-239.3173
171.2272,-238.9281
171.3,-238.5386
171.3888,-238.1527
171.4875,-237.7688
171.5832,-237.3845
171.6827,-237.0008
171.7715,-236.615
171.8356,-236.224
171.8978,-235.8326
171.9602,-235.4414
172.0242,-235.0504
172.1303,-234.6701
172.2624,-234.2963
172.3891,-233.9211
172.5213,-233.5474
172.6216,-233.1659
172.6739,-232.7734
172.724,-232.3802
172.7744,-231.9872
172.8265,-231.5946
172.9119,-231.2082
173.0147,-230.8255
173.1113,-230.4413
173.2147,-230.0586
173.3112,-229.6745
173.3801,-229.2844
173.4428,-228.8931
173.5101,-228.5027
173.5741,-228.1116
173.6428,-227.7215
173.7177,-227.3323
173.7925,-226.9433
173.8678,-226.5542
173.9428,-226.1651
174.0225,-225.7771
174.1086,-225.3902
174.1915,-225.003
174.2791,-224.6163
174.3607,-224.2288
174.4035,-223.8356
174.4292,-223.4399
174.462,-223.0453
174.4886,-222.6497
174.529,-222.256
174.5957,-221.8655
174.6642,-221.4751
174.7321,-221.0849
174.8,-220.6944
174.8617,-220.3031
174.9219,-219.9114
174.9807,-219.5196
175.0419,-219.1281
175.0962,-218.7357
175.1273,-218.3409
175.1547,-217.9455
175.1851,-217.5505
175.2137,-217.1553
175.262,-216.7622
175.3232,-216.3708
175.3818,-215.9789
175.444,-215.5876
175.4982,-215.1952
175.5355,-214.8008
175.5691,-214.406
175.6054,-214.0114
175.6403,-213.6167
175.6796,-213.2225
175.7267,-212.829
175.7714,-212.4354
175.8194,-212.042
175.8615,-211.6482
175.8784,-211.2524
175.8912,-210.8562
175.9077,-210.4605
175.9212,-210.0643
175.9424,-209.6688
175.968,-209.2734
175.9941,-208.878
176.0204,-208.4827
176.0467,-208.0873
176.0774,-207.6923
176.1077,-207.2972
176.1379,-206.9021
176.1689,-206.5071
176.1928,-206.1116
176.2078,-205.7158
176.2203,-205.3197
176.2354,-204.9238
176.2479,-204.5278
176.2514,-204.1315
176.251,-203.7354
176.2521,-203.3391
176.2518,-202.9429
176.2557,-202.5467
176.2749,-202.151
176.2967,-201.7554
176.3151,-201.3595
176.3375,-200.9639
176.345,-200.5681
176.3292,-200.1723
176.3101,-199.7765
176.2934,-199.3806
176.2754,-198.9848
176.2599,-198.5889
176.2462,-198.1929
176.2313,-197.797
176.2177,-197.4009
176.2033,-197.005
176.1882,-196.609
176.1742,-196.213
176.1577,-195.8172
176.1446,-195.4211
176.1276,-195.0253
176.0922,-194.6307
176.0529,-194.2364
176.0162,-193.8419
175.9779,-193.4475
175.9387,-193.0533
175.8943,-192.6595
175.8494,-192.2658
175.8049,-191.8721
175.7604,-191.4784
175.7243,-191.0839
175.691,-190.689
175.656,-190.2944
175.623,-189.8995
175.5848,-189.5051
175.5384,-189.1117
175.4908,-188.7182
175.444,-188.3248
175.3968,-187.9314
175.3515,-187.5378
175.3071,-187.1441
175.2626,-186.7503
175.2179,-186.3567
175.1744,-185.9628
175.1386,-185.5682
175.1042,-185.1735
175.0685,-184.7788
175.0338,-184.3842
174.9779,-183.9924
174.9002,-183.6039
174.824,-183.2151
174.7454,-182.8267
174.6699,-182.4378
174.6161,-182.0454
174.5718,-181.6517
174.5245,-181.2583
174.4792,-180.8646
174.4331,-180.4711
174.3884,-180.0774
174.3483,-179.6832
174.3056,-179.2893
174.2662,-178.895
174.2231,-178.5012
174.1526,-178.1117
174.069,-177.7244
173.9877,-177.3366
173.9049,-176.9491
173.8323,-176.5597
173.7696,-176.1684
173.7062,-175.7774
173.6438,-175.386
173.578,-174.9954
173.5059,-174.6058
173.433,-174.2163
173.3603,-173.8268
173.2881,-173.4372
173.2234,-173.0464
173.1663,-172.6542
173.1069,-172.2625
173.0502,-171.8703
172.9906,-171.4786
172.9116,-171.0905
172.8257,-170.7037
172.7414,-170.3165
172.6563,-169.9296
172.5711,-169.5426
172.4774,-169.1577
172.3803,-168.7735
172.2849,-168.3889
172.1879,-168.0048
172.0956,-167.6194
172.0065,-167.2334
171.9178,-166.8472
171.8291,-166.461
171.7402,-166.0749
171.657,-165.6875
171.5761,-165.2997
171.4947,-164.9118
171.4142,-164.5239
171.33,-164.1367
171.2409,-163.7506
171.1509,-163.3648
171.0614,-162.9788
170.973,-162.5926
170.8896,-162.2052
170.807,-161.8176
170.7236,-161.4304
170.6408,-161.0428
170.5373,-160.661
170.4118,-160.2852
170.2872,-159.909
170.1611,-159.5334
170.037,-159.1571
169.9291,-158.776
169.8276,-158.393
169.7239,-158.0106
169.6221,-157.6277
169.5149,-157.2462
169.3952,-156.8686
169.2746,-156.4911
169.1546,-156.1135
169.0343,-155.736
168.9266,-155.3548
168.8268,-154.9714
168.726,-154.5882
168.6265,-154.2046
168.5235,-153.8221
168.4146,-153.441
168.3042,-153.0606
168.1949,-152.6796
168.085,-152.299
167.9689,-151.9202
167.8476,-151.543
167.7253,-151.1661
167.6041,-150.7889
167.4821,-150.4119
167.3524,-150.0376
167.2141,-149.6663
167.0751,-149.2953
166.9372,-148.9238
166.798,-148.5528
166.6591,-148.1817
166.5193,-147.811
166.3796,-147.4403
166.2405,-147.0692
166.0998,-146.6988
165.9556,-146.3297
165.8094,-145.9614
165.6653,-145.5924
165.5193,-145.224
165.3845,-144.8518
165.2724,-144.4717
165.161,-144.0915
165.0489,-143.7115
164.9379,-143.331
164.8214,-142.9525
164.7059,-142.5732
164.5869,-142.1956
164.4724,-141.8159
164.3351,-141.4462
164.1419,-141.1007
163.9421,-140.758
163.749,-140.4124
163.5495,-140.0697
163.3652,-139.7194
163.1912,-139.3634
163.0208,-139.0056
162.8481,-138.6491
162.6825,-138.2893
162.5371,-137.9207
162.3918,-137.5521
162.2461,-137.1836
162.1017,-136.8146
161.9668,-136.4424
161.8483,-136.064
161.7243,-135.688
161.607,-135.3091
161.4824,-134.9334
161.3146,-134.575
161.1361,-134.221
160.963,-133.8647
160.7864,-133.5099
160.6235,-133.149
160.4739,-132.782
160.3217,-132.4164
160.1737,-132.0486
160.0202,-131.6835
159.8257,-131.3398
159.6099,-131.0071
159.4011,-130.6707
159.1855,-130.3379
158.9771,-130.0011
158.7913,-129.6513
158.6093,-129.2992
158.4254,-128.9484
158.2411,-128.5975
158.0377,-128.2582
157.8173,-127.9285
157.6047,-127.5947
157.3823,-127.2659
157.1712,-126.9315
157.0295,-126.5637
156.9122,-126.1843
156.7827,-125.8106
156.6646,-125.4317
156.5149,-125.0672
156.3105,-124.7284
156.0991,-124.3929
155.893,-124.0547
155.6832,-123.7185
155.4812,-123.3776
155.2856,-123.0331
155.0892,-122.689
154.8945,-122.3438
154.6976,-122.0001
154.4951,-121.6594
154.2892,-121.321
154.0845,-120.9817
153.8797,-120.6424
153.6708,-120.3059
153.4613,-119.9695
153.2493,-119.6348
153.0398,-119.2984
152.8283,-118.9634
152.5987,-118.6406
152.367,-118.3192
152.1334,-117.999
151.9032,-117.6768
151.7156,-117.3294
151.5498,-116.9693
151.3786,-116.6121
151.2123,-116.2523
151.0252,-115.9041
150.8082,-115.5727
150.59,-115.2419
150.3714,-114.9114
150.1549,-114.5797
149.9581,-114.2358
149.7673,-113.8885
149.5706,-113.5447
149.3801,-113.197
149.1836,-112.8531
148.9679,-112.5208
148.7465,-112.1922
148.527,-111.8624
148.3074,-111.5325
148.0708,-111.216
147.8057,-110.9215
147.5385,-110.629
147.2724,-110.3352
147.0072,-110.0412
146.8013,-109.7083
146.6429,-109.3441
146.4757,-108.9861
146.3189,-108.6209
146.1273,-108.2794
145.8553,-107.9924
145.5767,-107.7098
145.301,-107.4256
145.0265,-107.14
144.8126,-106.8102
144.6283,-106.4585
144.4343,-106.1138
144.2502,-105.7622
144.0461,-105.424
143.8004,-105.1136
143.5518,-104.8048
143.3027,-104.4967
143.0571,-104.186
142.8512,-103.8481
142.6576,-103.5022
142.4563,-103.1611
142.2623,-102.8153
142.0507,-102.4812
141.8179,-102.1604
141.5802,-101.8436
141.3471,-101.5229
141.1094,-101.2062
140.8379,-100.9183
140.5565,-100.6391
140.2802,-100.3555
139.9989,-100.0759
139.7311,-99.7846
139.4721,-99.4846
139.2153,-99.1829
138.9576,-98.8819
138.6995,-98.5811
138.4598,-98.2664
138.2308,-97.9429
138.0039,-97.6182
137.7754,-97.2945
137.5502,-96.9685
137.3385,-96.6336
137.125,-96.2998
136.9144,-95.964
136.7,-95.631
136.4602,-95.3156
136.2156,-95.0039
135.9759,-94.6884
135.7311,-94.3768
135.4706,-94.0788
135.1994,-93.7895
134.9343,-93.4955
134.6626,-93.2065
134.4035,-92.9079
134.1875,-92.5761
133.9771,-92.2401
133.7629,-91.9068
133.5498,-91.573
133.2753,-91.2974
132.948,-91.0724
132.6298,-90.8383
132.2999,-90.6159
131.9867,-90.3766
131.7418,-90.0669
131.5087,-89.7447
131.2663,-89.4326
131.03,-89.1136
130.7774,-88.8089
130.5171,-88.5103
130.2585,-88.2098
129.9976,-87.9119
129.742,-87.6088
129.4876,-87.3052
129.2311,-87.0033
128.9787,-86.6975
128.7158,-86.4021
128.424,-86.1342
128.1262,-85.8726
127.8334,-85.6058
127.5372,-85.3424
127.2555,-85.0645
126.985,-84.7747
126.7132,-84.4867
126.4436,-84.1961
126.1713,-83.9083
125.8901,-83.6296
125.6,-83.3593
125.3137,-83.086
125.0228,-82.8162
124.7374,-82.542
124.4962,-82.2286
124.2668,-81.9049
124.0292,-81.5885
123.7998,-81.2646
123.5516,-80.9572
123.2808,-80.6679
123.0053,-80.383
122.7327,-80.0956
122.4591,-79.8088
122.1762,-79.5317
121.8935,-79.2539
121.6081,-78.9792
121.3259,-78.7008
121.0403,-78.4264
120.7266,-78.1847
120.4085,-77.9483
120.0936,-77.708
119.7758,-77.4712
119.4705,-77.2189
119.1708,-76.9598
118.8715,-76.7002
118.5729,-76.4395
118.2724,-76.1814
117.9649,-75.9318
117.6511,-75.6896
117.3413,-75.4429
117.0278,-75.2001
116.7433,-74.9294
116.51,-74.6089
116.2767,-74.2892
116.045,-73.9671
115.8103,-73.6486
115.5138,-73.3948
115.1797,-73.1806
114.8503,-72.9615
114.5165,-72.747
114.1909,-72.5223
113.883,-72.2731
113.5774,-72.0205
113.27,-71.771
112.9641,-71.5187
112.6673,-71.2569
112.3795,-70.9843
112.0899,-70.7139
111.8024,-70.4414
111.5124,-70.1711
111.2072,-69.9189
110.8988,-69.6698
110.5929,-69.4182
110.2849,-69.169
109.9783,-68.9176
109.6724,-68.6662
109.3669,-68.4136
109.0616,-68.1613
108.7558,-67.9092
108.447,-67.6609
108.1319,-67.4211
107.8165,-67.1808
107.5017,-66.9404
107.186,-66.7009
106.8708,-66.4607
106.5543,-66.2226
106.2386,-65.9828
105.9226,-65.7441
105.6031,-65.5096
105.2802,-65.2801
104.9563,-65.052
104.6333,-64.8221
104.3097,-64.5939
103.9875,-64.363
103.6661,-64.1314
103.3437,-63.9011
103.0227,-63.6685
102.6985,-63.4412
102.3695,-63.22
102.0396,-63.0009
101.7101,-62.7808
101.3803,-62.561
101.0484,-62.3448
100.7174,-62.1266
100.3854,-61.9106
100.0546,-61.6926
99.7381,-61.4548
99.4308,-61.2049
99.1218,-60.9565
98.8148,-60.7063
98.5056,-60.4584
98.186,-60.2244
97.862,-59.9965
97.5398,-59.7655
97.2165,-59.5369
96.8853,-59.3197
96.5441,-59.1184
96.2012,-58.9199
95.8607,-58.717
95.5175,-58.5196
95.1645,-58.3404
94.8026,-58.179
94.4427,-58.0134
94.0812,-57.8508
93.721,-57.6862
93.3787,-57.4878
93.0442,-57.2755
92.7081,-57.0657
92.374,-56.8524
92.0369,-56.6448
91.6932,-56.447
91.3477,-56.2537
91.0033,-56.0573
90.6588,-55.8617
90.3425,-55.6295
90.0631,-55.3467
89.7798,-55.0722
89.5016,-54.7871
89.2174,-54.514
88.8685,-54.35
88.4845,-54.2463
88.1061,-54.1332
87.7234,-54.0267
87.3432,-53.9171
86.9731,-53.7791
86.6134,-53.6126
86.2581,-53.4382
85.8964,-53.2745
85.5432,-53.0968
85.2165,-52.8734
84.8968,-52.6384
84.5719,-52.4124
84.2497,-52.1811
83.9095,-51.9811
83.5522,-51.8084
83.1999,-51.6284
82.8413,-51.4584
82.4894,-51.2773
82.166,-51.0508
81.8532,-50.8064
81.5364,-50.5693
81.2225,-50.3269
80.9009,-50.0967
80.5548,-49.9046
80.2054,-49.7164
79.8601,-49.5233
79.5102,-49.3362
79.1627,-49.1469
78.8103,-48.9651
78.4605,-48.7789
78.1101,-48.5947
77.7581,-48.4113
77.4435,-48.1783
77.1598,-47.9021
76.8799,-47.6209
76.5978,-47.3435
76.3156,-47.0645
76.036,-46.7847
75.7518,-46.5076
75.4788,-46.2211
75.2022,-45.9372
74.9256,-45.6527
74.7023,-45.3327
74.5255,-44.978
74.3678,-44.6148
74.1852,-44.2614
74.0311,-43.8986
74.0146,-43.5087
74.0384,-43.1109
74.0422,-42.7154
74.058,-42.3195
74.0704,-41.9232
74.1431,-41.5372
74.261,-41.1582
74.3666,-40.7764
74.4833,-40.3982
74.6037,-40.0203
74.7458,-39.651
74.895,-39.2838
75.0311,-38.911
75.1952,-38.5519
75.3777,-38.1997
75.5716,-37.8545
75.762,-37.5071
75.9459,-37.155
76.1353,-36.8098
76.2861,-36.4384
76.4693,-36.0923
76.7661,-35.8361
77.0912,-35.6026
77.3956,-35.3525
77.7009,-35.0993
77.9968,-34.835
78.2829,-34.5626
78.5849,-34.3031
78.8691,-34.0294
79.09,-33.7026
79.3013,-33.3667
79.5372,-33.0492
79.7798,-32.7346
80.0094,-32.4132
80.1789,-32.058
80.3149,-31.6849
80.4637,-31.3182
80.6053,-30.9478
80.7436,-30.5767
80.8758,-30.2031
81.0005,-29.8272
81.1329,-29.4534
81.26,-29.0784
81.3934,-28.7053
81.5318,-28.3335
81.6628,-27.9604
81.8026,-27.5885
81.9315,-27.2149
82.0482,-26.8357
82.1682,-26.4581
82.2782,-26.078
82.4039,-25.7011
82.5846,-25.3532
82.797,-25.0156
82.9389,-24.6537
82.9917,-24.2639
83.0421,-23.8674
83.0862,-23.4773
83.1331,-23.0806
83.163,-22.6876
83.0891,-22.3019
82.9866,-21.9155
82.9009,-21.5326
82.8017,-21.1453
82.7125,-20.7617
82.6164,-20.3767
82.5248,-19.9895
82.4303,-19.6084
82.3378,-19.2182
82.2365,-18.8411
82.0524,-18.4864
81.8675,-18.1374
81.6838,-17.7883
81.5502,-17.4247
81.6222,-17.0417
81.6729,-16.6417
81.6721,-16.2549
81.8375,-15.8928
82.035,-15.5473
82.1921,-15.1868
82.3972,-14.8411
82.728,-14.6658
83.1182,-14.5145
83.146,-14.4993
84.2219,-14.4993
84.2219,-14.4993
84.2953,-14.1334
84.3258,-13.714
84.3916,-13.3439
84.4302,-12.9336
84.4878,-12.551
84.5342,-12.1543
84.585,-11.7593
84.6023,-11.3721
84.5428,-10.9733
84.4876,-10.5871
84.4302,-10.1913
84.3715,-9.8002
84.395,-9.4055
84.4047,-9.0076
84.2673,-8.6453
84.0929,-8.2841
83.9402,-7.9212
83.7472,-7.5749
83.5479,-7.2312
83.3415,-6.8959
83.1359,-6.5538
82.9341,-6.2154
82.6828,-5.9081
82.4288,-5.6036
82.2001,-5.2842
82.0097,-4.9362
81.8382,-4.5773
81.6396,-4.2382
81.5038,-3.8571
81.3344,-3.5127
80.9946,-3.3211
80.6439,-3.1316
80.3317,-2.8886
80.0027,-2.6663
79.6833,-2.4332
79.3602,-2.202
79.0367,-1.9751
78.7157,-1.7413
78.3919,-1.5136
78.0701,-1.2828
77.7154,-1.1244
77.3277,-1.0451
76.9397,-0.9621
76.5524,-0.88093
76.1629,-0.80621
75.7729,-0.73762
75.3812,-0.67825
74.9906,-0.60956
74.6024,-0.53581
74.2199,-0.43173
73.8402,-0.31462
73.4571,-0.22257
73.0771,-0.094352
72.6957,-0.014816
