85.1943,-53.2243
84.5005,-52.8579
83.8021,-52.5094
83.1002,-52.1702
82.4048,-51.8214
81.7285,-51.4417
81.0808,-51.0209
80.4579,-50.5584
79.8556,-50.0631
79.2721,-49.5432
78.7127,-49.0012
78.191,-48.4341
77.7302,-47.8328
77.3545,-47.1879
77.0706,-46.4963
76.8637,-45.7652
76.7125,-45.0082
76.6069,-44.2399
76.5463,-43.4669
76.535,-42.6921
76.5727,-41.9166
76.6499,-41.1405
76.7534,-40.3646
76.8747,-39.5898
77.0103,-38.8169
77.1616,-38.0469
77.3234,-37.2788
77.4943,-36.5123
77.6757,-35.7487
77.8708,-34.9893
78.0774,-34.2329
78.2933,-33.4788
78.5139,-32.7258
78.7365,-31.9738
78.9634,-31.2246
79.2044,-30.4834
79.4811,-29.7605
79.8121,-29.0667
80.2073,-28.4104
80.6662,-27.7953
81.1812,-27.2202
81.7319,-26.6726
82.2985,-26.1364
82.8655,-25.5977
83.4246,-25.0499
83.9706,-24.49
84.4947,-23.914
84.9816,-23.3134
85.41,-22.6793
85.7511,-22.0068
85.9806,-21.3004
86.0816,-20.5727
86.0467,-19.8394
85.8823,-19.1154
85.6095,-18.415
85.25,-17.7493
84.826,-17.1232
84.3689,-16.5264
83.9292,-15.9305
83.5663,-15.3027
83.3148,-14.6249
83.1814,-13.901
83.1534,-13.148
83.214,-12.3841
83.3379,-11.6189
83.5038,-10.8567
83.6937,-10.0975
83.8937,-9.34
84.0883,-8.5823
84.2587,-7.822
84.3859,-7.0567
84.4543,-6.2862
84.4526,-5.514
84.376,-4.748
84.2208,-4.0004
83.9769,-3.2842
83.6375,-2.6108
83.2086,-1.985
82.7073,-1.4043
82.1526,-0.86338
-48.4139,-26.2023