83.6691,-52.5371
83.0363,-52.0684
82.4026,-51.6017
81.7641,-51.1417
81.1245,-50.6834
80.4922,-50.2151
79.8766,-49.7263
79.2852,-49.2109
78.727,-48.6638
78.2121,-48.0799
77.7471,-47.4574
77.3354,-46.7989
76.9821,-46.1103
76.6943,-45.3996
76.4873,-44.6736
76.3769,-43.9363
76.3669,-43.1879
76.4407,-42.4294
76.5704,-41.6642
76.7309,-40.8958
76.9038,-40.1263
77.075,-39.3557
77.2377,-38.5833
77.3896,-37.8087
77.5335,-37.0324
77.6758,-36.2556
77.8234,-35.4799
77.9815,-34.7064
78.1535,-33.936
78.3413,-33.1694
78.5451,-32.4068
78.7636,-31.6482
78.9948,-30.8932
79.2367,-30.1414
79.4889,-29.3932
79.756,-28.6523
80.0508,-27.9307
80.3949,-27.2499
80.814,-26.6373
81.3229,-26.1101
81.9093,-25.6551
82.534,-25.2281
83.1505,-24.7777
83.7254,-24.2715
84.2454,-23.7035
84.7105,-23.0842
85.1202,-22.4271
85.4624,-21.7384
85.7188,-21.0193
85.8764,-20.2735
85.9331,-19.511
85.8898,-18.747
85.7474,-17.999
85.5077,-17.2832
85.1773,-16.6103
84.7774,-15.9758
84.35,-15.3593
83.9529,-14.7307
83.6426,-14.066
83.4534,-13.358
83.3886,-12.6146
83.4272,-11.8506
83.5366,-11.0798
83.6862,-10.3079
83.8502,-9.5366
84.0104,-8.7641
84.1518,-7.989
84.2605,-7.2111
84.3209,-6.4324
84.3141,-5.6578
84.2222,-4.8949
84.0348,-4.1522
83.7523,-3.4391
83.3824,-2.7646
82.9347,-2.1372
82.4182,-1.5639
81.8415,-1.0489
81.2144,-0.59055
80.5481,-0.18361
79.853,0.17663
-49.166,-25.4138