86.3215,-53.6212
85.6834,-53.1199
85.045,-52.6185
84.403,-52.1211
83.7578,-51.6276
83.1109,-51.1361
82.4637,-50.6449
81.8193,-50.1506
81.1822,-49.6475
80.5574,-49.1298
79.948,-48.5948
79.3588,-48.0412
78.7968,-47.4674
78.2754,-46.8686
77.8123,-46.2359
77.4221,-45.5618
77.1123,-44.8455
76.8844,-44.0928
76.7336,-43.313
76.647,-42.5156
76.6068,-41.7087
76.598,-40.898
76.6133,-40.0862
76.6505,-39.2753
76.711,-38.466
76.7954,-37.6589
76.9012,-36.8539
77.0229,-36.0507
77.1561,-35.2491
77.2997,-34.4493
77.456,-33.652
77.6279,-32.8581
77.8174,-32.0683
78.0244,-31.2827
78.2462,-30.5012
78.4812,-29.7245
78.7339,-28.9594
79.0195,-28.221
79.3678,-27.5378
79.8107,-26.9429
80.3585,-26.452
80.9866,-26.0506
81.6444,-25.6879
82.2828,-25.2993
82.8782,-24.8404
83.433,-24.3066
83.9579,-23.7197
84.4476,-23.098
84.8744,-22.4423
85.2033,-21.7477
85.407,-21.0136
85.4733,-20.2529
85.4025,-19.4879
85.2024,-18.7395
84.8947,-18.0192
84.522,-17.325
84.1458,-16.6415
83.8392,-15.9488
83.6599,-15.2322
83.6241,-14.4879
83.7043,-13.7212
83.8565,-12.9418
84.0476,-12.1584
84.2586,-11.3758
84.4736,-10.5941
84.675,-9.8107
84.8425,-9.0228
84.9579,-8.2304
85.0054,-7.4369
84.972,-6.6491
84.8473,-5.8762
84.6244,-5.1341
84.313,-4.4381
83.9304,-3.8074
83.5002,-3.2524
83.0461,-2.7622
82.5692,-2.3134
82.046,-1.8928
81.4506,-1.5022
80.7818,-1.1469
-47.3902,-25.7132