86.8921,-53.5095
86.1038,-53.1151
85.3217,-52.7144
84.5372,-52.3177
83.7459,-51.9331
82.9506,-51.557
82.1603,-51.179
81.3767,-50.7892
80.597,-50.3942
79.8116,-50.0133
79.0124,-49.6608
78.2004,-49.3311
77.383,-49.0068
76.5678,-48.676
75.7582,-48.3337
74.9552,-47.9761
74.1599,-47.6011
73.3735,-47.2136
72.593,-46.8153
71.8204,-46.4014
71.06,-45.9638
70.3131,-45.5009
69.5796,-45.0148
68.8632,-44.505
68.175,-43.9669
67.5349,-43.3963
66.9634,-42.7911
66.4865,-42.1534
66.1313,-41.4786
65.9154,-40.7539
65.8318,-39.9723
65.8587,-39.1481
65.9799,-38.3084
66.1926,-37.4772
66.4939,-36.6678
66.8702,-35.8853
67.3094,-35.1347
67.809,-34.4333
68.3802,-33.8102
69.0328,-33.2892
69.7558,-32.8643
70.504,-32.4822
71.2184,-32.0635
71.8501,-31.5449
72.3815,-30.9099
72.828,-30.1845
73.2211,-29.4077
73.5913,-28.6102
73.9588,-27.8087
74.3286,-27.0081
74.7021,-26.2092
75.0815,-25.4134
75.4685,-24.6217
75.8617,-23.8336
76.2552,-23.0463
76.6367,-22.2542
76.9962,-21.4524
77.3275,-20.6413
77.6195,-19.8279
77.8448,-19.0223
77.9473,-18.2335
77.881,-17.4632
77.6588,-16.7027
77.362,-15.9382
77.0957,-15.1571
76.948,-14.3564
76.9593,-13.5408
77.1117,-12.7181
77.35,-11.8953
77.6128,-11.0754
77.8379,-10.2564
77.9671,-9.433
77.9625,-8.6051
77.8244,-7.7791
77.5829,-6.9632
77.2673,-6.1618
76.8926,-5.3813
76.4624,-4.6291
75.9759,-3.915
75.4286,-3.2514
