85.6508,-53.2137
84.8514,-52.8822
84.0557,-52.5464
83.2731,-52.1812
82.502,-51.7855
81.7317,-51.3798
80.9528,-50.9864
80.1619,-50.6148
79.363,-50.2579
78.5655,-49.8977
77.779,-49.5176
77.0108,-49.1073
76.2625,-48.6671
75.5241,-48.2143
74.778,-47.7766
74.0128,-47.3698
73.2317,-46.9857
72.4493,-46.5994
71.6822,-46.1855
70.9423,-45.729
70.239,-45.223
69.5802,-44.6642
68.9771,-44.0507
68.4407,-43.3831
67.9842,-42.6652
67.6257,-41.9004
67.3747,-41.0942
67.2221,-40.2569
67.1515,-39.4005
67.1522,-38.5363
67.2238,-37.6729
67.3661,-36.8171
67.5736,-35.9725
67.8359,-35.1402
68.1402,-34.3218
68.4813,-33.5229
68.8709,-32.7602
69.3346,-32.0608
69.8952,-31.4509
70.5547,-30.9441
71.2909,-30.5327
72.0647,-30.1865
72.8274,-29.8529
73.5229,-29.4622
74.1086,-28.9576
74.5781,-28.3243
74.9574,-27.5892
75.2814,-26.7948
75.5742,-25.9726
75.8461,-25.1394
76.0943,-24.2997
76.3081,-23.4515
76.4815,-22.5945
76.6136,-21.7295
76.7118,-20.8594
76.7939,-19.9896
76.8915,-19.1295
77.0409,-18.29
77.2657,-17.4792
77.5474,-16.6923
77.8235,-15.9102
78.0213,-15.1144
78.0906,-14.3005
78.0151,-13.4792
77.8163,-12.6634
77.5506,-11.8567
77.2969,-11.0522
77.1254,-10.239
77.0627,-9.4097
77.0749,-8.5651
77.0915,-7.7118
77.044,-6.8626
76.8887,-6.0325
76.6137,-5.2345
76.2318,-4.4793
75.7695,-3.7734
75.2455,-3.1289
74.6613,-2.5636
74.0078,-2.0939
73.2808,-1.7245
