84.1046,-52.5423
83.3301,-52.1614
82.5658,-51.7566
81.8037,-51.3443
81.0398,-50.942
80.2679,-50.5537
79.4899,-50.175
78.711,-49.7955
77.9385,-49.4068
77.1741,-49.0029
76.4186,-48.5813
75.6725,-48.1419
74.9348,-47.687
74.2028,-47.2215
73.4747,-46.7515
72.7498,-46.2799
72.0276,-45.8033
71.3126,-45.3155
70.611,-44.8099
69.9316,-44.2808
69.2807,-43.7224
68.676,-43.1281
68.1484,-42.4851
67.735,-41.7804
67.4604,-41.0126
67.3256,-40.1978
67.3051,-39.356
67.3719,-38.5049
67.5058,-37.6567
67.6952,-36.8166
67.9241,-35.9842
68.1756,-35.1571
68.4372,-34.3352
68.7105,-33.5278
69.0167,-32.7576
69.3966,-32.063
69.8907,-31.4814
70.5071,-31.0219
71.2117,-30.6494
71.9397,-30.2903
72.6273,-29.8669
73.2236,-29.3316
73.7119,-28.6815
74.1103,-27.9468
74.4569,-27.1658
74.7885,-26.3694
75.1271,-25.5738
75.4721,-24.7805
75.8154,-23.9863
76.1511,-23.189
76.4797,-22.3893
76.7987,-21.5881
77.0924,-20.7832
77.3326,-19.9687
77.484,-19.1433
77.5164,-18.3169
77.4092,-17.5102
77.1569,-16.7433
76.7827,-16.0164
76.3525,-15.306
75.9512,-14.5786
75.6535,-13.8149
75.502,-13.0188
75.5178,-12.2101
75.6975,-11.4141
76.0193,-10.6525
76.4444,-9.9344
76.9142,-9.2504
77.3391,-8.5723
77.6224,-7.8703
77.7007,-7.1343
77.5693,-6.378
77.2685,-5.6251
76.8515,-4.8941
76.3591,-4.1968
75.8086,-3.5467
75.1975,-2.9613
74.5227,-2.4531
73.794,-2.0182
73.0263,-1.6361
