86.1099,-52.9232
85.2747,-52.6836
84.4372,-52.4518
83.5975,-52.2276
82.7593,-51.9986
81.9278,-51.7475
81.1062,-51.4647
80.293,-51.1548
79.4837,-50.8306
78.6754,-50.5018
77.8693,-50.1673
77.0701,-49.8177
76.2821,-49.4443
75.5069,-49.0466
74.7399,-48.6333
73.9752,-48.2144
73.2129,-47.7923
72.4615,-47.3589
71.7303,-46.8983
71.0264,-46.3988
70.351,-45.8595
69.7047,-45.2853
69.0984,-44.6751
68.5565,-44.0191
68.1082,-43.3077
67.7734,-42.5396
67.5538,-41.7244
67.4326,-40.8777
67.3845,-40.0146
67.3867,-39.1451
67.4275,-38.2756
67.5058,-37.4094
67.6247,-36.5489
67.7895,-35.699
68.0071,-34.8696
68.2936,-34.0811
68.6719,-33.3621
69.1612,-32.7446
69.7659,-32.2523
70.4737,-31.8864
71.2469,-31.6146
72.0333,-31.3783
72.7697,-31.1055
73.394,-30.7253
73.872,-30.1938
74.2257,-29.5213
74.5138,-28.7571
74.7964,-27.9564
75.1109,-27.1555
75.4683,-26.3685
75.8511,-25.5908
76.2298,-24.8101
76.5771,-24.0161
76.8784,-23.2041
77.1381,-22.3772
77.3779,-21.5439
77.6253,-20.7134
77.8923,-19.8904
78.1651,-19.0724
78.4105,-18.2527
78.5954,-17.4261
78.7087,-16.5915
78.7606,-15.7505
78.7654,-14.9052
78.7414,-14.057
78.7159,-13.2065
78.7087,-12.3542
78.7243,-11.5009
78.7506,-10.6483
78.7679,-9.7996
78.7506,-8.9605
78.6664,-8.141
78.4868,-7.3469
78.2039,-6.576
77.8385,-5.8215
77.4205,-5.0823
76.9583,-4.3694
76.4486,-3.6943
75.8877,-3.0641
75.2714,-2.4855
