99.4008,-52.5228
98.7193,-52.076
98.0355,-51.6328
97.3453,-51.1995
96.6484,-50.7768
95.9483,-50.3593
95.2507,-49.9407
94.5565,-49.5158
93.8659,-49.0844
93.178,-48.648
92.4917,-48.2088
91.8057,-47.7686
91.1189,-47.3294
90.4306,-46.8939
89.74,-46.4636
89.0463,-46.0378
88.3509,-45.6146
87.6538,-45.1936
86.9541,-44.777
86.2505,-44.3672
85.5431,-43.9638
84.8355,-43.5615
84.1343,-43.1493
83.4477,-42.7155
82.7844,-42.2501
82.1549,-41.7445
81.5715,-41.1911
81.0487,-40.5855
80.6019,-39.9287
80.2478,-39.2256
79.9975,-38.4819
79.8479,-37.7065
79.7758,-36.9099
79.7486,-36.1018
79.7408,-35.2887
79.7407,-34.4741
79.7469,-33.6596
79.7603,-32.8453
79.7811,-32.031
79.8084,-31.2168
79.8414,-30.4027
79.8812,-29.589
79.9308,-28.776
79.9938,-27.9641
80.0747,-27.1542
80.1794,-26.3488
80.3205,-25.5535
80.5205,-24.78
80.8039,-24.0446
81.1882,-23.3681
81.6729,-22.7649
82.2368,-22.2338
82.8364,-21.7476
83.4129,-21.2545
83.9147,-20.7016
84.3159,-20.064
84.6172,-19.3511
84.8332,-18.5885
84.9796,-17.7982
85.0763,-16.9952
85.1459,-16.1872
85.2138,-15.3782
85.2998,-14.5707
85.4092,-13.7657
85.5317,-12.9623
85.6491,-12.1583
85.7449,-11.3518
85.8122,-10.542
85.8509,-9.7301
85.8598,-8.9181
85.8309,-8.1087
85.7501,-7.3063
85.604,-6.5162
85.3845,-5.7452
85.0914,-4.9998
84.7302,-4.2824
84.3159,-3.5892
83.8663,-2.9158
83.3933,-2.2618
82.8961,-1.6358
