90.8435,-54.9227
90.0737,-54.537
89.3048,-54.1517
88.539,-53.7684
87.7746,-53.3859
87.0073,-53.0015
86.2374,-52.6152
85.4696,-52.2292
84.7055,-51.8432
83.9435,-51.4548
83.1821,-51.0593
82.4254,-50.6506
81.6839,-50.2238
80.9603,-49.7758
80.2457,-49.3157
79.5235,-48.8636
78.7854,-48.4315
78.043,-48.0116
77.3119,-47.5777
76.6054,-47.1061
75.9326,-46.5841
75.3033,-46.0087
74.7367,-45.3832
74.2527,-44.7045
73.8729,-43.9698
73.6091,-43.184
73.4538,-42.3598
73.3878,-41.5168
73.3822,-40.665
73.414,-39.8102
73.4751,-38.9555
73.5654,-38.1028
73.6883,-37.256
73.8407,-36.4137
74.0161,-35.575
74.2146,-34.741
74.4378,-33.9134
74.689,-33.0951
74.9729,-32.2886
75.2965,-31.5046
75.6848,-30.7713
76.1693,-30.1299
76.7699,-29.6167
77.4726,-29.2301
78.2268,-28.9202
78.9754,-28.6098
79.6694,-28.2299
80.2827,-27.7434
80.8108,-27.1459
81.2564,-26.4578
81.6281,-25.7072
81.9353,-24.9179
82.1836,-24.1046
82.3753,-23.2738
82.5107,-22.431
82.5955,-21.5801
82.644,-20.7261
82.6764,-19.8713
82.7174,-19.0178
82.792,-18.1695
82.9212,-17.3296
83.1117,-16.5011
83.3519,-15.682
83.626,-14.871
83.9211,-14.0679
84.222,-13.27
84.5054,-12.4725
84.7318,-11.6663
84.8654,-10.8498
84.8844,-10.0299
84.7797,-9.2165
84.5617,-8.4191
84.2519,-7.6393
83.8801,-6.875
83.4772,-6.1194
83.0644,-5.3695
82.6475,-4.6359
82.1981,-3.945
81.6712,-3.3338
81.0438,-2.8221
80.6952,-2.4888
79.9833,-2.1766
79.2671,-1.8705
78.5391,-1.5934
77.8123,-1.3146
77.0784,-1.0562
76.3233,-0.86019
75.5675,-0.66648
-46.0319,-28.9489