99.1741,-329.0533
99.5115,-328.8405
99.8497,-328.6282
100.1876,-328.4162
100.5046,-328.1741
100.8182,-327.9276
101.1305,-327.6787
101.4444,-327.4326
101.7956,-327.2484
102.1616,-327.0889
102.5263,-326.9271
102.8919,-326.7669
103.2416,-326.5782
103.5707,-326.3523
103.9002,-326.1274
104.229,-325.9009
104.5608,-325.6802
104.9276,-325.523
105.2952,-325.3677
105.6622,-325.2109
106.022,-325.0415
106.3466,-324.8093
106.6707,-324.5763
106.9957,-324.3449
107.3194,-324.1113
107.6217,-323.8538
107.8973,-323.5644
108.1746,-323.2781
108.4504,-322.989
108.7274,-322.7023
109.0036,-322.4138
109.2801,-322.1263
109.5567,-321.8385
109.8329,-321.5503
110.1098,-321.2632
110.3858,-320.9745
110.6628,-320.6877
110.9388,-320.3989
111.2157,-320.112
111.4918,-319.8235
111.7685,-319.5361
112.045,-319.2482
112.3213,-318.9602
112.598,-318.6728
112.8742,-318.3845
113.151,-318.0973
113.4271,-317.8088
113.704,-317.5217
113.9802,-317.2334
114.2568,-316.9459
114.5332,-316.658
114.8097,-316.3701
115.0863,-316.0826
115.3625,-315.7943
115.6393,-315.5071
115.9154,-315.2187
116.1923,-314.9314
116.4684,-314.6431
116.7452,-314.3557
117.0215,-314.0677
117.298,-313.7799
117.5746,-313.4923
117.8507,-313.2041
118.1278,-312.917
118.4017,-312.6266
118.6724,-312.3335
118.9406,-312.0379
119.2118,-311.7451
119.4796,-311.4492
119.7308,-311.1395
119.9742,-310.823
120.222,-310.5103
120.4652,-310.1937
120.7184,-309.8858
121.0049,-309.6086
121.296,-309.335
121.5829,-309.058
121.8734,-308.7841
122.1668,-308.5139
122.4667,-308.2505
122.7648,-307.9851
123.0641,-307.7212
123.3606,-307.4539
123.6525,-307.182
123.9445,-306.9097
124.2362,-306.6375
124.5282,-306.3654
124.8173,-306.0903
125.106,-305.8148
125.395,-305.5394
125.6833,-305.2637
125.9541,-304.9715
126.2038,-304.6603
126.4547,-304.3499
126.7044,-304.0386
126.9618,-303.734
127.2396,-303.4475
127.5177,-303.1613
127.796,-302.8752
128.0735,-302.5885
128.3331,-302.2856
128.5865,-301.9772
128.8423,-301.671
129.0952,-301.3622
129.3567,-301.0612
129.6391,-300.7793
129.9247,-300.5004
130.2073,-300.2186
130.4926,-299.9396
130.7723,-299.6549
131.0521,-299.3704
131.3305,-299.0844
131.6098,-298.7994
131.8886,-298.5138
132.1584,-298.2198
132.4278,-297.9253
132.6967,-297.6304
132.9662,-297.3361
133.2362,-297.0422
133.5086,-296.7505
133.7801,-296.458
134.0525,-296.1663
134.324,-295.8739
134.5801,-295.5679
134.8322,-295.2586
135.0851,-294.9498
135.3372,-294.6405
135.5902,-294.3318
135.8428,-294.0228
136.0958,-293.7142
136.3485,-293.4053
136.6009,-293.0962
136.8464,-292.7815
137.0913,-292.4664
137.337,-292.1519
137.5817,-291.8367
137.8262,-291.5212
138.0691,-291.2046
138.3133,-290.8889
138.5562,-290.5723
138.8041,-290.2596
139.055,-289.9492
139.3064,-289.6394
139.5578,-289.3292
139.8099,-289.02
140.0685,-288.7159
140.3262,-288.4113
140.585,-288.1074
140.8427,-287.8027
141.085,-287.4862
141.3144,-287.1595
141.5443,-286.8334
141.7739,-286.5069
142.0068,-286.1829
142.2492,-285.8658
142.4909,-285.5483
142.7335,-285.2314
142.9751,-284.9137
143.2086,-284.5903
143.4368,-284.2628
143.6658,-283.936
143.8942,-283.6086
144.1288,-283.2862
144.3812,-282.9769
144.6332,-282.6675
144.8858,-282.3585
145.1376,-282.0489
145.3712,-281.7256
145.5997,-281.3983
145.8294,-281.072
146.058,-280.7447
146.2813,-280.4142
146.4975,-280.0786
146.7144,-279.7437
146.9307,-279.4083
147.1487,-279.074
147.3738,-278.7445
147.5991,-278.4151
147.8244,-278.0857
148.0496,-277.7562
148.2679,-277.4222
148.4829,-277.0859
148.6981,-276.7499
148.9131,-276.4137
149.1281,-276.0774
149.3426,-275.7409
149.5571,-275.4043
149.7716,-275.0678
149.986,-274.7311
150.1968,-274.3924
150.4035,-274.0509
150.611,-273.7101
150.8175,-273.3685
151.0252,-273.0277
151.2413,-272.6923
151.4593,-272.3579
151.6758,-272.0228
151.8937,-271.6883
152.1086,-271.3521
152.3214,-271.0144
152.5337,-270.6766
152.7459,-270.3386
152.9588,-270.001
153.1796,-269.6687
153.4063,-269.3401
153.631,-269.0105
153.858,-268.6821
154.0745,-268.3473
154.2725,-268.0007
154.4684,-267.653
154.666,-267.3063
154.8624,-266.9588
155.0629,-266.6138
155.264,-266.2691
155.4645,-265.9241
155.6662,-265.5796
155.8655,-265.234
156.0659,-264.8887
156.2638,-264.5423
156.4643,-264.1971
156.6622,-263.8506
156.8402,-263.4936
157.0144,-263.1344
157.1907,-262.7765
157.365,-262.4173
157.5414,-262.0595
157.716,-261.7005
157.8927,-261.3428
158.0671,-260.9837
158.2442,-260.6261
158.4463,-260.2823
158.6556,-259.9423
158.8611,-259.6004
159.0706,-259.2605
159.2662,-258.9131
159.4476,-258.5576
159.6256,-258.2004
159.8065,-257.8447
159.9852,-257.4878
160.1481,-257.1237
160.3048,-256.7566
160.4611,-256.3894
160.6185,-256.0227
160.7954,-255.6656
160.9909,-255.3176
161.184,-254.9684
161.3795,-254.6205
161.5729,-254.2713
161.752,-253.9148
161.9294,-253.5572
162.1073,-253.2001
162.2853,-252.8428
162.4596,-252.4839
162.6306,-252.1232
162.7999,-251.7619
162.9713,-251.4014
163.1402,-251.0399
163.2848,-250.6682
163.4237,-250.2939
163.5652,-249.9209
163.704,-249.5465
163.8438,-249.1729
163.9776,-248.7967
164.1148,-248.4221
164.2481,-248.0458
164.3858,-247.6714
164.5608,-247.3139
164.7553,-246.9651
164.9442,-246.6139
165.1391,-246.2652
165.321,-245.9108
165.4647,-245.5386
165.6027,-245.164
165.7459,-244.7916
165.8846,-244.4172
166.0218,-244.0427
166.152,-243.6652
166.2845,-243.2889
166.4153,-242.9118
166.5475,-242.5353
166.6945,-242.1642
166.8426,-241.7936
166.9894,-241.4226
167.1378,-241.052
167.2825,-240.6803
167.4181,-240.3048
167.5508,-239.9285
167.6866,-239.5532
167.8192,-239.1768
167.9447,-238.798
168.0628,-238.4168
168.1835,-238.0364
168.3023,-237.6554
168.4246,-237.2756
168.5604,-236.9002
168.6956,-236.5249
168.8322,-236.1498
168.9669,-235.7742
169.0839,-235.393
169.1861,-235.0071
169.2905,-234.622
169.3928,-234.2362
169.5062,-233.8541
169.6498,-233.4817
169.7944,-233.1098
169.9382,-232.7374
170.0828,-232.3655
170.2181,-231.9901
170.3513,-231.6138
170.4828,-231.2371
170.6165,-230.861
170.7431,-230.4828
170.8519,-230.0987
170.9569,-229.7138
171.0659,-229.3298
171.171,-228.9448
171.2717,-228.5587
171.3672,-228.1712
171.4643,-227.7841
171.5612,-227.3969
171.6652,-227.0119
171.7904,-226.6328
171.9117,-226.2528
172.038,-225.874
172.1573,-225.4934
172.2341,-225.102
172.3048,-224.709
172.3812,-224.3175
172.4528,-223.9247
172.5398,-223.5356
172.6448,-223.1505
172.7509,-222.7659
172.8571,-222.3811
172.9621,-221.9962
173.0538,-221.608
173.1337,-221.2169
173.2157,-220.8264
173.2959,-220.4353
173.3843,-220.0465
173.4986,-219.664
173.6123,-219.2817
173.7275,-218.8994
173.8406,-218.5168
173.9197,-218.1264
173.9816,-217.732
174.046,-217.3383
174.1083,-216.944
174.1762,-216.5509
174.2581,-216.1602
174.3403,-215.7697
174.4227,-215.3792
174.5046,-214.9886
174.5833,-214.5974
174.6609,-214.2059
174.7375,-213.8143
174.8163,-213.423
174.9071,-213.0349
175.0217,-212.6522
175.1294,-212.2685
175.2456,-211.886
175.352,-211.502
175.3829,-211.1051
175.3983,-210.7057
175.4247,-210.308
175.4408,-209.9087
175.4781,-209.5123
175.5509,-209.12
175.6297,-208.7287
175.7042,-208.3367
175.7813,-207.945
175.8449,-207.5511
175.9061,-207.1567
175.9686,-206.7626
176.0294,-206.3681
176.0831,-205.9729
176.1217,-205.5756
176.1618,-205.1786
176.201,-204.7814
176.2404,-204.3843
176.2826,-203.9874
176.3242,-203.5905
176.3664,-203.1937
176.4082,-202.7967
176.4571,-202.4008
176.5163,-202.006
176.574,-201.6113
176.6338,-201.2165
176.6803,-200.8209
176.6858,-200.4219
176.6878,-200.0227
176.6932,-199.6238
176.6956,-199.2245
176.7198,-198.8264
176.7479,-198.4282
176.7761,-198.0303
176.8053,-197.6321
176.8235,-197.2337
176.8308,-196.8347
176.8348,-196.4355
176.8422,-196.0366
176.8463,-195.6374
176.8457,-195.2385
176.8436,-194.8393
176.8418,-194.4403
176.841,-194.0412
176.8538,-193.6425
176.8816,-193.2444
176.9051,-192.846
176.9334,-192.4479
176.9535,-192.0494
176.9434,-191.6507
176.9291,-191.2517
176.9181,-190.8529
176.905,-190.4539
176.9048,-190.0551
176.919,-189.6562
176.9313,-189.2573
176.9467,-188.8585
176.9581,-188.4596
176.9313,-188.0621
176.8901,-187.6649
176.8538,-187.2677
176.8129,-186.8706
176.7838,-186.4728
176.7689,-186.074
176.7571,-185.675
176.7427,-185.2763
176.7305,-184.8773
176.7243,-184.4784
176.7248,-184.0792
176.7235,-183.6802
176.7241,-183.2811
176.7165,-182.8823
176.6763,-182.4854
176.6338,-182.0884
176.5936,-181.6915
176.5512,-181.2945
176.5193,-180.8969
176.4871,-180.499
176.456,-180.1012
176.4243,-179.7033
176.3926,-179.3055
176.3615,-178.9076
176.3293,-178.5098
176.2984,-178.112
176.2661,-177.7141
176.2268,-177.3171
176.1826,-176.9204
176.1393,-176.5237
176.0955,-176.127
176.0516,-175.7303
176.0023,-175.3344
175.9522,-174.9384
175.9032,-174.5424
175.853,-174.1464
175.8009,-173.7508
175.7449,-173.3556
175.6897,-172.9604
175.634,-172.5652
175.5773,-172.1702
175.5092,-171.777
175.4405,-171.3838
175.3726,-170.9906
175.3039,-170.5974
175.253,-170.2017
175.2052,-169.8054
175.1575,-169.4092
175.11,-169.0129
175.053,-168.6181
174.9836,-168.2251
174.9129,-167.8323
174.8437,-167.4393
174.7729,-167.0465
174.7143,-166.6518
174.6562,-166.257
174.5992,-165.862
174.5414,-165.4671
174.464,-165.0759
174.3722,-164.6876
174.2805,-164.2991
174.1889,-163.9108
174.0999,-163.5217
174.0283,-163.1292
173.9569,-162.7365
173.8851,-162.3439
173.8139,-161.9512
173.7299,-161.5611
173.644,-161.1714
173.5571,-160.7819
173.4713,-160.3922
173.3792,-160.0039
173.2765,-159.6183
173.1731,-159.2328
173.07,-158.8473
172.967,-158.4617
172.8676,-158.0752
172.7729,-157.6875
172.6772,-157.3001
172.5827,-156.9124
172.4852,-156.5253
172.3818,-156.1399
172.2769,-155.7548
172.1732,-155.3695
172.0686,-154.9844
171.9564,-154.6014
171.8421,-154.219
171.7281,-153.8365
171.6139,-153.4542
171.4998,-153.0717
171.3852,-152.6895
171.2708,-152.3071
171.1561,-151.9249
171.0419,-151.5425
170.9296,-151.1595
170.8199,-150.7758
170.709,-150.3924
170.5994,-150.0087
170.4856,-149.6262
170.3614,-149.247
170.2356,-148.8682
170.1113,-148.489
169.9857,-148.1102
169.8569,-147.7324
169.7252,-147.3557
169.5941,-146.9788
169.4626,-146.602
169.3333,-146.2244
169.2128,-145.844
169.0923,-145.4635
168.9719,-145.083
168.8513,-144.7026
168.7154,-144.3275
168.5719,-143.9552
168.4287,-143.5826
168.2851,-143.2103
168.1424,-142.8375
168.0026,-142.4638
167.8635,-142.0897
167.7236,-141.716
167.5845,-141.3419
167.4429,-140.9688
167.3008,-140.5959
167.158,-140.2232
167.0158,-139.8503
166.8731,-139.4776
166.727,-139.1062
166.5808,-138.7349
166.4344,-138.3636
166.2884,-137.9922
166.1405,-137.6215
165.9917,-137.2512
165.842,-136.8812
165.6933,-136.5109
165.5437,-136.1409
165.3873,-135.7738
165.229,-135.4074
165.0708,-135.041
164.9129,-134.6745
164.7547,-134.3081
164.5984,-133.9409
164.4408,-133.5743
164.2848,-133.207
164.1269,-132.8404
163.9515,-132.4821
163.7703,-132.1265
163.5909,-131.77
163.4098,-131.4144
163.2336,-131.0564
163.0684,-130.6931
162.9039,-130.3294
162.7392,-129.966
162.5735,-129.6029
162.3919,-129.2476
162.2093,-128.8926
162.028,-128.5372
161.8452,-128.1824
161.6688,-127.8244
161.4926,-127.4664
161.3178,-127.1075
161.1417,-126.7494
160.9667,-126.3907
160.7936,-126.0312
160.6208,-125.6714
160.448,-125.3117
160.2749,-124.9521
160.093,-124.5971
159.8956,-124.2503
159.6995,-123.9027
159.502,-123.5559
159.3085,-123.2069
159.1318,-122.8491
158.9566,-122.4905
158.7801,-122.1326
158.6046,-121.7742
158.4164,-121.4226
158.2132,-121.0792
158.0101,-120.7356
157.8065,-120.3924
157.6037,-120.0486
157.4109,-119.6992
157.2204,-119.3485
157.0287,-118.9985
156.8381,-118.6478
156.6416,-118.3006
156.4353,-117.959
156.2282,-117.6178
156.0217,-117.2763
155.8149,-116.935
155.609,-116.5931
155.4034,-116.2511
155.1977,-115.9091
154.992,-115.5671
154.7844,-115.2263
154.569,-114.8903
154.3538,-114.5542
154.1383,-114.2184
153.9232,-113.8821
153.7175,-113.5402
153.5125,-113.1977
153.307,-112.8557
153.102,-112.5133
152.8865,-112.1777
152.6545,-111.853
152.4228,-111.528
152.1905,-111.2036
151.959,-110.8784
151.7493,-110.539
151.5416,-110.1981
151.3325,-109.8583
151.1249,-109.5174
150.9047,-109.1846
150.681,-108.8542
150.4561,-108.5245
150.2321,-108.1942
150.0074,-107.8643
149.779,-107.5371
149.5505,-107.2099
149.3217,-106.883
149.0934,-106.5556
148.8631,-106.2297
148.6305,-105.9054
148.3968,-105.5818
148.1644,-105.2575
147.9306,-104.934
147.6841,-104.6206
147.426,-104.316
147.1697,-104.0102
146.9115,-103.7058
146.6621,-103.3948
146.4391,-103.064
146.2181,-102.7315
145.9951,-102.4007
145.7742,-102.0682
145.536,-101.7485
145.2857,-101.4377
145.0338,-101.1282
144.7833,-100.8175
144.5316,-100.5077
144.2748,-100.2023
144.0169,-99.8977
143.7594,-99.5928
143.5017,-99.2881
143.2471,-98.9809
142.9987,-98.6684
142.7508,-98.3557
142.5022,-98.0435
142.2546,-97.7305
142.0091,-97.4159
141.7666,-97.0989
141.522,-96.7836
141.2797,-96.4664
141.0279,-96.1573
140.7537,-95.8675
140.4775,-95.5793
140.2028,-95.2899
139.9272,-95.0012
139.6692,-94.6972
139.4206,-94.3849
139.1705,-94.074
138.9228,-93.7609
138.6703,-93.4522
138.4074,-93.1518
138.1402,-92.8554
137.8775,-92.5549
137.6103,-92.2585
137.3247,-91.9804
137.031,-91.7098
136.7407,-91.4362
136.4478,-91.1649
136.1761,-90.875
135.9433,-90.5509
135.7106,-90.2267
135.4786,-89.9019
135.2454,-89.5781
134.9774,-89.2837
134.6969,-88.9995
134.4185,-88.7138
134.1381,-88.4296
133.8594,-88.1441
133.5799,-87.8591
133.3014,-87.5734
133.0222,-87.2882
132.7433,-87.0027
132.4635,-86.7182
132.1821,-86.4351
131.901,-86.1519
131.6196,-85.8688
131.3385,-85.5857
131.0567,-85.303
130.7749,-85.0205
130.4932,-84.7378
130.2112,-84.4553
129.9305,-84.1717
129.6514,-83.8863
129.3727,-83.6008
129.0936,-83.3154
128.8148,-83.03
128.5391,-82.7414
128.2632,-82.4531
127.9877,-82.1643
127.7116,-81.8761
127.4258,-81.5977
127.1368,-81.3224
126.849,-81.046
126.5599,-80.7707
126.2661,-80.501
125.9664,-80.2373
125.6679,-79.9724
125.3683,-79.7088
125.0698,-79.4439
124.7794,-79.1702
124.49,-78.8952
124.1997,-78.6216
123.9103,-78.3466
123.623,-78.0698
123.3412,-77.7871
123.0582,-77.5058
122.7763,-77.2232
122.4933,-76.9418
122.1976,-76.674
121.8997,-76.4083
121.6028,-76.1417
121.3049,-75.876
121.009,-75.6084
120.7144,-75.3391
120.4206,-75.069
120.126,-74.7998
119.8322,-74.5296
119.541,-74.2569
119.2505,-73.983
118.9592,-73.7105
118.6689,-73.4364
118.3796,-73.1617
118.0939,-72.8828
117.8064,-72.6062
117.5209,-72.3272
117.2332,-72.0507
116.923,-71.8
116.6095,-71.5528
116.2983,-71.3032
115.9848,-71.0559
115.6742,-70.8056
115.3623,-70.5564
115.052,-70.3055
114.7405,-70.0561
114.4282,-69.8075
114.1119,-69.5643
113.7959,-69.3204
113.4798,-69.077
113.1636,-68.8333
112.8571,-68.5779
112.552,-68.3205
112.2471,-68.0631
111.9422,-67.8057
111.6379,-67.5473
111.3348,-67.2879
111.031,-67.0289
110.7281,-66.7692
110.424,-66.5105
110.1178,-66.2548
109.8098,-66.0009
109.5037,-65.7449
109.1955,-65.4914
108.8751,-65.2546
108.5386,-65.04
108.2043,-64.822
107.8678,-64.6075
107.5366,-64.3854
107.2379,-64.1212
106.9411,-63.854
106.6426,-63.5894
106.3456,-63.3227
106.0333,-63.0746
105.716,-62.8326
105.398,-62.5913
105.0805,-62.3498
104.7558,-62.1178
104.4222,-61.899
104.0888,-61.6795
103.755,-61.4608
103.4218,-61.2413
103.0944,-61.0129
102.7683,-60.7831
102.4415,-60.5537
102.1154,-60.324
101.7833,-60.1024
101.4491,-59.8845
101.1149,-59.6662
100.7805,-59.4484
100.4467,-59.2299
100.114,-59.0091
99.7822,-58.7878
99.4494,-58.5671
99.1176,-58.3458
98.7853,-58.1245
98.4544,-57.9015
98.1229,-57.6792
97.7919,-57.4563
97.4605,-57.234
97.1223,-57.0222
96.7799,-56.8175
96.4375,-56.612
96.0952,-56.4072
95.7529,-56.2017
95.4131,-55.9928
95.0731,-55.7836
94.7332,-55.5744
94.3932,-55.3656
94.0472,-55.1669
93.694,-54.9815
93.3411,-54.7946
92.9878,-54.6096
92.636,-54.4207
92.2969,-54.2107
91.9592,-53.9979
91.6198,-53.788
91.2823,-53.5751
90.9416,-53.367
90.5955,-53.1689
90.247,-52.9737
89.9008,-52.7758
89.5525,-52.5804
89.2018,-52.3905
88.8479,-52.2058
88.4952,-52.0191
88.1416,-51.8341
87.7886,-51.6476
87.4422,-51.4501
87.0958,-51.2512
86.7495,-51.0535
86.4032,-50.8546
86.0539,-50.6623
85.698,-50.4813
85.3418,-50.3015
84.9862,-50.1205
84.6297,-49.9407
84.2744,-49.7595
83.9181,-49.579
83.563,-49.3977
83.2067,-49.217
82.8513,-49.0361
82.495,-48.8559
82.1389,-48.676
81.7831,-48.4954
81.4264,-48.3159
81.0702,-48.1366
80.7119,-47.9598
80.3556,-47.7813
79.9972,-47.6046
79.6408,-47.426
79.2914,-47.2326
78.9433,-47.0376
78.5945,-46.8438
78.2458,-46.6492
77.8925,-46.4646
77.5363,-46.2834
77.1819,-46.1012
76.8253,-45.9205
76.4712,-45.7379
76.1197,-45.5479
75.7706,-45.3551
75.4195,-45.1652
75.0698,-44.9724
74.718,-44.7853
74.358,-44.6113
73.9989,-44.4393
73.6584,-44.2335
73.3458,-43.9872
73.0307,-43.7408
72.7181,-43.4937
72.3987,-43.254
72.078,-43.0163
71.8008,-42.7328
71.5386,-42.4303
71.2772,-42.1309
71.0561,-41.8008
70.8877,-41.4412
70.7611,-41.0641
70.6902,-40.6729
70.6131,-40.28
70.5641,-39.8879
70.6219,-39.4934
70.6865,-39.099
70.7449,-38.7049
70.8086,-38.3101
70.8676,-37.9162
70.9293,-37.5212
70.9893,-37.1272
71.0496,-36.7323
71.1109,-36.3381
71.2083,-35.9515
71.3138,-35.5662
71.4157,-35.181
71.5216,-34.7955
71.6177,-34.4092
71.6653,-34.0127
71.7504,-33.6307
71.9681,-33.2958
72.1836,-32.9599
72.4008,-32.6257
72.6676,-32.3289
72.9422,-32.0405
73.2151,-31.7478
73.4902,-31.4603
73.7587,-31.1639
73.9871,-30.8384
74.2103,-30.5061
74.4401,-30.1808
74.6435,-29.8389
74.7902,-29.469
74.9274,-29.0934
75.0743,-28.7226
75.2119,-28.3482
75.3579,-27.9761
75.497,-27.6029
75.641,-27.2296
75.7824,-26.8575
75.9534,-26.4967
76.1408,-26.1448
76.323,-25.7899
76.5127,-25.4379
76.693,-25.0832
76.8751,-24.7264
77.0468,-24.3679
77.2281,-24.0105
77.4014,-23.6526
77.5748,-23.2921
77.7366,-22.9278
77.897,-22.5626
78.0629,-22.1985
78.2211,-21.8342
78.419,-21.4838
78.5999,-21.1326
78.8007,-20.782
78.9795,-20.431
79.1966,-20.089
79.3911,-19.7471
79.3193,-19.365
79.1975,-18.9814
79.0862,-18.602
78.981,-18.2138
78.8886,-17.8286
78.7866,-17.4398
78.7821,-17.0435
78.7778,-16.642
78.7817,-16.2453
78.7851,-15.844
78.788,-15.4469
78.9217,-15.0897
79.159,-14.7702
79.3967,-14.449
79.6213,-14.1202
79.7827,-13.7599
79.8084,-13.361
79.8313,-12.9633
79.8575,-12.5643
79.8321,-12.1675
79.7918,-11.7705
79.7147,-11.3789
79.6275,-10.9904
79.5393,-10.5999
79.4291,-10.2189
79.2888,-9.8437
79.1276,-9.4809
78.9397,-9.1279
78.7486,-8.778
78.5594,-8.4268
78.3439,-8.09
78.1307,-7.7541
77.9162,-7.4156
77.7017,-7.0814
77.4648,-6.7598
77.1911,-6.4713
76.9219,-6.1753
76.6466,-5.8868
76.379,-5.5912
76.1635,-5.2562
75.965,-4.9108
75.756,-4.569
75.5579,-4.2249
75.3481,-3.8826
75.1049,-3.57
74.852,-3.2578
74.6077,-2.9446
74.3562,-2.6337
74.0758,-2.3511
73.7771,-2.0886
73.4806,-1.8172
73.1624,-1.5831
72.8379,-1.343
72.5036,-1.1404
72.1194,-1.0218
71.7371,-0.91651
71.3535,-0.80039
70.9699,-0.69122
70.5909,-0.57157
70.2112,-0.437
69.8382,-0.31353
69.4556,-0.17186
69.0856,-0.055299
68.6838,-0.0012979
68.2944,-0.017129
67.8848,0.0073392
