93.049,-56.1664
92.3059,-55.7601
91.5536,-55.3541
90.81,-54.9575
90.0483,-54.5525
89.2977,-54.155
88.5309,-53.7465
87.7733,-53.3413
87.0124,-52.9306
86.2457,-52.5125
85.4917,-52.0985
84.7256,-51.6743
83.9751,-51.2579
83.2146,-50.8353
82.4659,-50.4216
81.7179,-50.0117
80.9655,-49.6036
80.2255,-49.208
79.473,-48.8093
78.7335,-48.4215
77.983,-48.027
77.2413,-47.6336
76.5014,-47.2317
75.7599,-46.8125
75.0367,-46.3806
74.3132,-45.9167
73.6191,-45.4306
72.9387,-44.9048
72.2957,-44.3467
71.6927,-43.7508
71.1303,-43.114
70.6346,-42.4475
70.1913,-41.7423
69.8314,-41.0173
69.5414,-40.2666
69.3407,-39.5065
69.2308,-38.7419
69.2041,-37.9767
69.2795,-37.227
69.4324,-36.4879
69.6818,-35.7768
70.0033,-35.0865
70.4003,-34.4265
70.8647,-33.7949
71.3738,-33.1864
71.9364,-32.6054
72.5176,-32.0374
73.1285,-31.4877
73.7395,-30.9405
74.349,-30.3955
74.9506,-29.8451
75.5212,-29.2795
76.0747,-28.7007
76.5817,-28.0956
77.0617,-27.4707
77.4946,-26.816
77.8883,-26.1362
78.2491,-25.431
78.5631,-24.6988
78.8564,-23.9481
79.1086,-23.1745
79.3491,-22.39
79.5649,-21.5914
79.7688,-20.787
79.9725,-19.9796
80.1622,-19.1704
80.3648,-18.3669
80.5567,-17.5656
80.7634,-16.775
80.9662,-15.9905
81.1688,-15.2161
81.3762,-14.4507
81.5637,-13.6919
81.7489,-12.9416
81.8988,-12.1936
82.0303,-11.451
82.1172,-10.7071
82.1563,-9.963
82.15,-9.2159
82.0712,-8.4643
81.9383,-7.7103
81.7221,-6.9521
81.4456,-6.1961
81.091,-5.443
80.665,-4.7011
80.1827,-3.9768
79.6301,-3.279
79.0385,-2.6194
78.393,-2.0076
77.7279,-1.458
78.1773,-1.8002
77.6504,-1.3826
77.1125,-1.0102
76.569,-0.68879
76.025,-0.42352
75.4855,-0.2192
74.9552,-0.079944
74.4381,-0.009043
-44.3027,-30.988