97.3484,-56.675
96.6071,-56.2996
95.8591,-55.9227
95.1114,-55.547
94.3626,-55.1708
93.6137,-54.7943
92.8686,-54.4199
92.1224,-54.0451
91.3836,-53.6765
90.6413,-53.3085
89.9083,-52.9508
89.1678,-52.5945
88.437,-52.2514
87.6935,-51.9087
86.9594,-51.5795
86.2089,-51.2474
85.4655,-50.9243
84.7052,-50.5924
83.9527,-50.2619
83.1862,-49.9139
82.4324,-49.5576
81.6724,-49.1743
80.9353,-48.7732
80.2046,-48.3365
79.5121,-47.8748
78.8426,-47.3723
78.2294,-46.8419
77.6578,-46.2699
77.1612,-45.6722
76.7234,-45.0371
76.3764,-44.3828
76.1011,-43.6991
75.9263,-43.0059
75.83,-42.2936
75.8333,-41.5804
75.9148,-40.8587
76.0859,-40.143
76.3262,-39.4266
76.6384,-38.7198
77.0039,-38.0163
77.4181,-37.3218
77.8659,-36.6309
78.337,-35.9455
78.8215,-35.2611
79.3055,-34.5768
79.7858,-33.89
80.2463,-33.1981
80.6915,-32.5007
81.1039,-31.7944
81.4964,-31.0817
81.8501,-30.3586
82.1858,-29.63
82.4828,-28.8914
82.7693,-28.1501
83.0228,-27.4008
83.2736,-26.6511
83.5007,-25.8959
83.7337,-25.1424
83.9518,-24.385
84.1834,-23.6304
84.4068,-22.8725
84.6487,-22.1174
84.8856,-21.3587
85.1424,-20.6024
85.3939,-19.8417
85.6631,-19.0832
85.9228,-18.32
86.1947,-17.5591
86.4499,-16.7937
86.7093,-16.0311
86.9425,-15.2646
87.1701,-14.5015
87.3619,-13.735
87.5346,-12.9713
87.663,-12.2043
87.759,-11.4388
87.8027,-10.6694
87.8021,-9.9
87.7429,-9.1263
87.6299,-8.3522
87.4551,-7.5755
87.2204,-6.8011
86.9247,-6.0296
86.5673,-5.2682
86.1544,-4.5209
85.6831,-3.7973
85.1666,-3.105
84.5993,-2.4557
84.0016,-1.8596
83.364,-1.329
83.2775,-1.2409
82.7482,-0.87706
82.2091,-0.56985
81.6647,-0.32447
81.1193,-0.14542
80.5769,-0.036386
80.0415,0
-47.477,-35.3246