91.4489,-56.6663
90.748,-56.2384
90.0556,-55.8141
89.361,-55.3878
88.6625,-54.96
87.9759,-54.5422
87.2772,-54.1218
86.5894,-53.715
85.8956,-53.313
85.2016,-52.9208
84.5163,-52.5446
83.8167,-52.1698
83.1249,-51.8092
82.4195,-51.4468
81.7165,-51.0896
81.0155,-50.7326
80.3026,-50.3618
79.6,-49.9848
78.8894,-49.5834
78.1934,-49.1641
77.5101,-48.7191
76.8397,-48.2409
76.2051,-47.7374
75.5931,-47.1951
75.0323,-46.6261
74.5187,-46.0255
74.0633,-45.3964
73.6844,-44.7502
73.369,-44.0789
73.1434,-43.3994
72.9937,-42.7076
72.9332,-42.0125
72.9652,-41.3231
73.07,-40.631
73.2623,-39.9501
73.5147,-39.2714
73.8363,-38.6024
74.2095,-37.9416
74.615,-37.2807
75.0554,-36.6264
75.4975,-35.9655
75.949,-35.303
76.3859,-34.6328
76.7992,-33.9497
77.1911,-33.2591
77.5365,-32.5502
77.8525,-31.8309
78.1214,-31.097
78.3537,-30.3507
78.5586,-29.5996
78.7243,-28.8373
78.8788,-28.0751
79.0101,-27.3099
79.1459,-26.5482
79.2908,-25.7946
79.4423,-25.0445
79.6263,-24.3065
79.8278,-23.5748
80.0718,-22.8536
80.3503,-22.1421
80.6603,-21.4353
81.0136,-20.7374
81.3848,-20.0403
81.7899,-19.3468
82.2055,-18.6537
82.6284,-17.9578
83.0573,-17.2627
83.4623,-16.5618
83.8557,-15.859
84.2078,-15.1519
84.5238,-14.4403
84.7987,-13.7283
85.0081,-13.0102
85.1686,-12.2907
85.2545,-11.5669
85.2834,-10.8395
85.2479,-10.1102
85.1396,-9.3752
84.9777,-8.6384
84.7424,-7.8976
84.4581,-7.1551
84.1171,-6.4142
83.7225,-5.676
83.2924,-4.9483
82.8101,-4.2347
82.3023,-3.544
81.7583,-2.8855
81.1899,-2.2679
80.6115,-1.7044
80.0071,-1.2042
80.1325,-1.2823
79.6291,-0.90902
79.1223,-0.59256
78.6154,-0.33873
78.1113,-0.15269
77.6129,-0.038702
77.1229,0
-46.5889,-36.0726