94.144,-56.6834
93.4706,-56.2708
92.7812,-55.8456
92.1029,-55.4237
91.4351,-55.0046
90.7541,-54.5749
90.1036,-54.1621
89.4424,-53.7432
88.7798,-53.3257
88.1314,-52.9214
87.4618,-52.5112
86.8022,-52.1157
86.1302,-51.7228
85.4359,-51.327
84.7539,-50.9487
84.0432,-50.5615
83.3284,-50.1773
82.6106,-49.7926
81.8722,-49.3914
81.1586,-48.9942
80.4402,-48.576
79.7347,-48.1395
79.0671,-47.6911
78.4166,-47.2107
77.8232,-46.7141
77.278,-46.1892
76.7817,-45.6314
76.375,-45.0591
76.026,-44.452
75.7607,-43.8243
75.5811,-43.177
75.4671,-42.5019
75.4552,-41.8228
75.5087,-41.1241
75.6312,-40.4148
75.8332,-39.7054
76.0781,-38.9845
76.3866,-38.27
76.7338,-37.5542
77.1019,-36.8363
77.516,-36.1318
77.9297,-35.4239
78.356,-34.7232
78.7885,-34.0275
79.1992,-33.3276
79.6207,-32.6388
80.0153,-31.9443
80.3871,-31.2474
80.751,-30.5518
81.0746,-29.8451
81.3862,-29.1376
81.6684,-28.4205
81.9116,-27.6911
82.151,-26.9597
82.3481,-26.2131
82.5257,-25.4596
82.6857,-24.6982
82.8081,-23.9244
82.935,-23.1517
83.0343,-22.3705
83.1179,-21.5873
83.2072,-20.8077
83.2745,-20.0272
83.3546,-19.2568
83.4328,-18.4935
83.5026,-17.7389
83.602,-17.0016
83.6916,-16.2745
83.7937,-15.5637
83.9072,-14.8673
84.0069,-14.1808
84.1294,-13.5097
84.2338,-12.8436
84.323,-12.1822
84.4082,-11.5226
84.4504,-10.857
84.4736,-10.1863
84.4523,-9.5034
84.371,-8.8062
84.2591,-8.0964
84.0721,-7.3705
83.8291,-6.6338
83.5284,-5.8892
83.1488,-5.1421
82.732,-4.4043
82.2471,-3.6824
81.7095,-2.9901
81.1428,-2.3403
80.5264,-1.7453
79.8994,-1.2207
79.2939,-0.78137
78.7466,-0.47486
78.2023,-0.24049
77.6666,-0.083288
77.1448,-0.0070108
-46.6697,-34.6323