83.4961,-55.7823
82.6971,-55.4557
81.9039,-55.1274
81.1087,-54.8055
80.3025,-54.5089
79.484,-54.2417
78.6642,-53.9855
77.8492,-53.7084
77.0491,-53.3964
76.2587,-53.0517
75.4705,-52.6934
74.6815,-52.3382
73.8948,-51.9825
73.1196,-51.6084
72.3723,-51.1928
71.6647,-50.7168
71.0026,-50.179
70.3853,-49.5962
69.8015,-48.9869
69.2538,-48.3677
68.7697,-47.7349
68.3947,-47.0725
68.1493,-46.3721
68.031,-45.6366
68.0131,-44.8623
68.0694,-44.0563
68.1618,-43.2335
68.29,-42.4192
68.4962,-41.6374
68.8125,-40.8986
69.2266,-40.1895
69.6992,-39.5005
70.2039,-38.8413
70.7492,-38.2483
71.352,-37.7562
72.0086,-37.3522
72.7084,-36.9925
73.4374,-36.6372
74.1756,-36.26
74.8984,-35.8396
75.5823,-35.3604
76.1923,-34.8044
76.7109,-34.1613
77.1324,-33.4379
77.4747,-32.6586
77.757,-31.8464
77.9906,-31.0175
78.1773,-30.1778
78.3327,-29.3356
78.4883,-28.5043
78.6963,-27.7016
79.0006,-26.9427
79.399,-26.2235
79.8488,-25.5219
80.2987,-24.8133
80.7027,-24.0794
81.0283,-23.3093
81.2681,-22.5026
81.4381,-21.6672
81.5762,-20.8166
81.7058,-19.9605
81.8415,-19.1044
81.9884,-18.2502
82.152,-17.4005
82.331,-16.5539
82.5303,-15.7116
82.7416,-14.8732
82.9486,-14.037
83.1271,-13.2024
83.2537,-12.3704
83.3097,-11.5417
83.2942,-10.7171
83.2138,-9.8965
83.0681,-9.0872
82.8365,-8.3044
82.4989,-7.555
82.0737,-6.8346
81.5839,-6.1417
81.0365,-5.4893
80.4268,-4.8975
80.3234,-4.6031
79.6704,-4.1604
78.9451,-3.8306
78.2191,-3.4989
77.5527,-3.0593
76.8886,-2.6178
76.1686,-2.2942
75.4095,-2.0518
-48.312,-36.6024