80.805,-54.8373
80.0466,-54.4703
79.2929,-54.1008
78.5348,-53.7406
77.7683,-53.3963
76.9957,-53.0644
76.2245,-52.7355
75.456,-52.3977
74.693,-52.0455
73.938,-51.6753
73.1945,-51.2828
72.4723,-50.8614
71.7843,-50.4036
71.1511,-49.9011
70.5909,-49.3456
70.1054,-48.7364
69.6878,-48.0791
69.3361,-47.38
69.0554,-46.6394
68.8578,-45.8622
68.7471,-45.0606
68.7251,-44.2536
68.8042,-43.4616
68.9996,-42.7086
69.3266,-42.0207
69.7889,-41.4174
70.3619,-40.895
71.0016,-40.4202
71.6522,-39.9417
72.2679,-39.4151
72.8258,-38.8206
73.3234,-38.1639
73.772,-37.4638
74.1808,-36.7369
74.5538,-35.9923
74.8966,-35.2352
75.2199,-34.4686
75.53,-33.694
75.8289,-32.9119
76.1193,-32.1241
76.4135,-31.3376
76.7242,-30.5581
77.0642,-29.7924
77.4422,-29.0455
77.8555,-28.3167
78.2905,-27.5995
78.7253,-26.8829
79.1369,-26.1548
79.5081,-25.4068
79.828,-24.6357
80.1019,-23.8451
80.3491,-23.0436
80.5929,-22.2403
80.8521,-21.442
81.1365,-20.6524
81.4424,-19.8705
81.7537,-19.0908
82.0485,-18.3061
82.3064,-17.5108
82.5166,-16.7023
82.6706,-15.8812
82.7695,-15.0504
82.8178,-14.2138
82.8217,-13.3766
82.7777,-12.541
82.6832,-11.7106
82.5364,-10.8879
82.3393,-10.0747
82.0988,-9.2712
81.8231,-8.4772
81.5183,-7.6938
81.1841,-6.9244
80.8125,-6.1755
80.3939,-5.456
79.9234,-4.7736
79.4016,-4.1282
78.8388,-3.5125
78.2502,-2.9168
77.6443,-2.3379
77.0196,-1.7808
-50.4003,-40.5205