85.8874,-52.9127
85.0878,-52.539
84.2877,-52.1653
83.4881,-51.7893
82.6883,-51.4129
81.8865,-51.0394
81.0823,-50.6702
80.2769,-50.3026
79.4725,-49.9318
78.6709,-49.5542
77.8744,-49.1699
77.0819,-48.7795
76.2913,-48.384
75.5034,-47.9848
74.7177,-47.5834
73.9319,-47.1814
73.1462,-46.779
72.3637,-46.3703
71.5906,-45.9451
70.8332,-45.4935
70.0972,-45.0084
69.3874,-44.4862
68.7089,-43.9247
68.0718,-43.3214
67.4978,-42.6735
67.0149,-41.974
66.6564,-41.2188
66.4412,-40.4127
66.3522,-39.5682
66.3515,-38.7022
66.4057,-37.8294
66.5072,-36.9634
66.6781,-36.1212
66.9539,-35.3242
67.3569,-34.5922
67.8814,-33.9348
68.4973,-33.3442
69.1667,-32.8002
69.8615,-32.2866
70.5622,-31.7913
71.2464,-31.2896
71.8811,-30.7401
72.4353,-30.1099
72.9073,-29.3995
73.3206,-28.6349
73.7099,-27.8475
74.1081,-27.0635
74.5347,-26.2961
74.9843,-25.5429
75.4266,-24.7899
75.8139,-24.0193
76.103,-23.2206
76.274,-22.3945
76.3474,-21.551
76.389,-20.7053
76.4795,-19.8746
76.6752,-19.0812
76.9899,-18.3511
77.3901,-17.7017
77.7925,-17.1123
78.1012,-16.5204
78.2685,-15.8633
78.3218,-15.1224
78.3209,-14.3215
78.2965,-13.493
78.2466,-12.6561
78.168,-11.8143
78.0689,-10.9646
77.9554,-10.1091
77.816,-9.2537
77.6371,-8.4057
77.4038,-7.5723
77.1015,-6.7621
76.7292,-5.9813
76.2981,-5.2345
75.8168,-4.526
75.2974,-3.8563
74.7513,-3.2279
74.1708,-2.6571
73.5326,-2.1702
72.3002,-1.5347
71.4622,-1.3991
70.7477,-0.9361
70.0196,-0.50816
69.1686,-0.43247
68.317,-0.35606
-43.5,-31.592