85.7561,-53.0163
84.9402,-52.5805
84.1228,-52.1448
83.2992,-51.7255
82.4678,-51.327
81.6275,-50.9436
80.7802,-50.5772
79.9244,-50.2374
79.0569,-49.9232
78.1837,-49.6181
77.3179,-49.2993
76.4656,-48.9485
75.6254,-48.5625
74.7948,-48.1548
73.9679,-47.741
73.1408,-47.3269
72.3198,-46.9032
71.5209,-46.4512
70.7493,-45.9542
70.0021,-45.4141
69.2728,-44.8478
68.5525,-44.2693
67.8449,-43.6774
67.1716,-43.0558
66.5668,-42.386
66.0539,-41.6521
65.6461,-40.8553
65.3473,-40.0125
65.1616,-39.1437
65.1055,-38.266
65.1937,-37.3934
65.4216,-36.5387
65.7516,-35.6997
66.1415,-34.8716
66.5695,-34.0613
67.0382,-33.2951
67.5823,-32.625
68.241,-32.1095
69.0203,-31.7691
69.871,-31.5578
70.7173,-31.3872
71.5026,-31.1625
72.2003,-30.8095
72.8173,-30.2998
73.3732,-29.6556
73.8905,-28.9267
74.396,-28.163
74.9178,-27.4041
75.4722,-26.6697
76.0479,-25.9588
76.6112,-25.2517
77.1189,-24.521
77.5463,-23.7488
77.8904,-22.9364
78.1538,-22.096
78.321,-21.2433
78.3588,-20.3963
78.2446,-19.5685
77.9835,-18.7646
77.6223,-17.9774
77.2406,-17.1899
76.9303,-16.3806
76.7627,-15.5419
76.7654,-14.6915
76.9387,-13.8653
77.2688,-13.0974
77.7012,-12.3819
78.133,-11.6701
78.456,-10.9099
78.6043,-10.0872
78.5675,-9.2257
78.3723,-8.3569
78.0614,-7.5065
77.6619,-6.6874
77.1855,-5.9115
76.6363,-5.1902
76.0178,-4.5236
75.3449,-3.9024
74.6327,-3.3205
73.8898,-2.7834
72.8179,-2.0133
72.0133,-1.7011
71.2251,-1.3518
70.4542,-0.96277
69.683,-0.57349
68.8582,-0.32041
68.0256,-0.086594
-43.0651,-31.5228