89.2214,-54.5428
88.4186,-54.1566
87.6109,-53.7791
86.8061,-53.3951
86.0132,-52.9965
85.228,-52.5812
84.4442,-52.1598
83.655,-51.7459
82.8588,-51.3497
82.0525,-50.9752
81.2361,-50.6216
80.4143,-50.2797
79.5948,-49.9332
78.7854,-49.5665
77.9893,-49.1767
77.1998,-48.7792
76.403,-48.3944
75.5937,-48.0323
74.7779,-47.6821
73.9689,-47.3219
73.173,-46.9333
72.3914,-46.5163
71.6226,-46.0821
70.869,-45.6393
70.1471,-45.1745
69.4817,-44.6587
68.8854,-44.0663
68.3625,-43.3958
67.9172,-42.6606
67.5581,-41.8746
67.2781,-41.0501
67.0569,-40.2006
66.8808,-39.3354
66.7477,-38.4604
66.6601,-37.5782
66.6189,-36.6932
66.6311,-35.8148
66.7195,-34.9613
66.926,-34.1674
67.2914,-33.479
67.83,-32.9303
68.5096,-32.5153
69.2662,-32.1754
70.0245,-31.8204
70.7211,-31.3731
71.321,-30.8013
71.8245,-30.12
72.2526,-29.3652
72.6277,-28.571
72.9523,-27.7553
73.2143,-26.9202
73.4084,-26.0664
73.5545,-25.1993
73.6986,-24.3314
73.891,-23.4785
74.1678,-22.6606
74.5499,-21.902
75.0445,-21.2239
75.6328,-20.6223
76.2643,-20.0568
76.8704,-19.466
77.3954,-18.8062
77.801,-18.0707
78.07,-17.2792
78.2001,-16.4573
78.2245,-15.6253
78.2204,-14.7959
78.2754,-13.9792
78.4212,-13.1774
78.6108,-12.3792
78.7598,-11.5672
78.8092,-10.7337
78.7426,-9.8885
78.5615,-9.0518
78.2691,-8.2417
77.8771,-7.4675
77.412,-6.7247
76.9028,-6.0044
76.366,-5.3058
75.7993,-4.6336
74.7392,-3.3068
74.0127,-2.8806
73.2676,-2.4734
72.5799,-1.9744
71.7645,-1.811
70.9355,-1.6315
-45.2171,-32.2109