80.7691,-51.9875
80.0176,-51.5638
79.2715,-51.1301
78.5325,-50.6839
77.8,-50.2258
77.0716,-49.7605
76.3467,-49.2932
75.623,-48.8243
74.9061,-48.348
74.2082,-47.8498
73.5464,-47.3118
72.9399,-46.7199
72.4051,-46.0691
71.9595,-45.363
71.6182,-44.6086
71.3883,-43.8158
71.2702,-42.9965
71.2555,-42.162
71.3299,-41.3215
71.476,-40.4819
71.6758,-39.6481
71.9185,-38.8226
72.1907,-38.0046
72.4845,-37.1934
72.7972,-36.3891
73.1281,-35.592
73.4765,-34.8024
73.8413,-34.0201
74.2223,-33.2457
74.6231,-32.4831
75.0522,-31.7421
75.5255,-31.0433
76.0661,-30.4201
76.6958,-29.9103
77.4184,-29.5388
78.22,-29.3057
79.0671,-29.1815
79.9155,-29.1083
80.732,-29.0128
81.5032,-28.8273
82.2252,-28.5118
82.8919,-28.0611
83.4988,-27.4984
84.0494,-26.8568
84.5455,-26.163
84.9873,-25.4311
85.3757,-24.6701
85.6998,-23.8907
85.93,-23.1105
86.0153,-22.3567
85.9016,-21.66
85.5741,-21.033
85.0824,-20.4538
84.5247,-19.8757
84.0072,-19.2531
83.6101,-18.5611
83.3757,-17.8007
83.305,-16.9938
83.3755,-16.168
83.5612,-15.3463
83.8344,-14.5405
84.1704,-13.7532
84.543,-12.9789
84.924,-12.2076
85.2891,-11.4304
85.6197,-10.6416
85.9068,-9.8403
86.1462,-9.0292
86.3243,-8.2123
86.4209,-7.3919
86.4146,-6.5707
86.2976,-5.7528
86.0805,-4.9433
85.7832,-4.1473
85.4266,-3.3713
85.0154,-2.6225
84.5495,-1.9069
84.0331,-1.2246
83.4768,-0.57028
82.8929,0.063313
