97.3895,-61.5278
96.6499,-60.9164
95.9124,-60.3163
95.1678,-59.7232
94.4096,-59.1332
93.6589,-58.5546
92.9036,-57.9707
92.1504,-57.3772
91.4148,-56.7802
90.6759,-56.1716
89.9386,-55.5654
89.1987,-54.9699
88.4407,-54.3819
87.6809,-53.8113
86.9113,-53.2501
86.1273,-52.6966
85.3446,-52.1619
84.5486,-51.6342
83.7462,-51.1107
82.9514,-50.5932
82.1501,-50.0691
81.353,-49.5448
80.5588,-49.022
79.7553,-48.4978
78.9561,-47.984
78.1504,-47.4751
77.3354,-46.9692
76.5259,-46.4748
75.706,-45.9849
74.8795,-45.5021
74.058,-45.0274
73.2314,-44.5451
72.4187,-44.0497
71.631,-43.5245
70.8813,-42.9478
70.2172,-42.3122
69.6666,-41.5989
69.2555,-40.8061
68.9977,-39.958
68.8779,-39.0768
68.9123,-38.1856
69.0973,-37.2941
69.3702,-36.3991
69.6983,-35.5095
70.0572,-34.6267
70.4289,-33.7487
70.8287,-32.8841
71.2481,-32.0288
71.6907,-31.1866
72.1691,-30.3623
72.6595,-29.5447
73.1577,-28.7324
73.6667,-27.9243
74.1713,-27.1151
74.6849,-26.3119
75.2149,-25.5226
75.7744,-24.777
76.4108,-24.1403
77.1428,-23.6788
77.9775,-23.4319
78.9066,-23.3785
79.8736,-23.4391
80.8296,-23.5214
81.7378,-23.5279
82.5856,-23.3901
83.4049,-23.0972
84.1872,-22.6636
84.9063,-22.1162
85.5803,-21.5009
86.2151,-20.859
86.8026,-20.1945
87.3038,-19.4706
87.6557,-18.6559
87.8729,-17.7666
88.0058,-16.8353
88.0812,-15.8879
88.1149,-14.9437
88.0787,-14.0091
87.945,-13.0923
87.7359,-12.1997
