83.2091,-53.4997
82.4724,-53.188
81.7352,-52.8763
80.9969,-52.5662
80.2565,-52.2607
79.5131,-51.9632
78.7681,-51.6756
78.0234,-51.389
77.2867,-51.0869
76.5675,-50.7504
75.8739,-50.3667
75.2092,-49.9331
74.5727,-49.4555
73.9656,-48.9421
73.3944,-48.395
72.875,-47.8077
72.4321,-47.172
72.0885,-46.4846
71.8559,-45.7522
71.7363,-44.9901
71.7264,-44.2152
71.8229,-43.4448
72.0196,-42.6932
72.3125,-41.9728
72.6927,-41.2892
73.1391,-40.6382
73.6222,-40.007
74.1119,-39.3788
74.5803,-38.7376
75.0075,-38.0713
75.3823,-37.3745
75.7072,-36.6504
75.9921,-35.9065
76.2471,-35.1497
76.4812,-34.3851
76.7012,-33.6159
76.9127,-32.844
77.115,-32.0696
77.304,-31.2921
77.4767,-30.511
77.6339,-29.7269
77.7833,-28.9417
77.9413,-28.1592
78.1263,-27.3849
78.3556,-26.6254
78.6373,-25.8856
78.9739,-25.169
79.3578,-24.4743
79.771,-23.7941
80.1916,-23.1175
80.6029,-22.435
81.0031,-21.745
81.4024,-21.053
81.81,-20.3652
82.2282,-19.6836
82.6478,-19.0041
83.05,-18.3179
83.4103,-17.6146
83.7087,-16.8865
83.9409,-16.1337
84.1136,-15.3607
84.2406,-14.5749
84.3327,-13.7822
84.3933,-12.9866
84.4201,-12.1911
84.4025,-11.399
84.3263,-10.6152
84.1804,-9.8455
83.9563,-9.0972
83.6529,-8.3765
83.2788,-7.6844
82.8539,-7.0146
82.4025,-6.3567
81.942,-5.7023
81.4827,-5.0476
81.025,-4.3922
80.5653,-3.7381
80.1004,-3.0878
79.6241,-2.448
79.1236,-1.8327
