123.5027,-329.2641
123.7132,-328.9387
123.9238,-328.6133
124.1344,-328.2878
124.3449,-327.9625
124.5555,-327.637
124.766,-327.3116
124.9766,-326.9862
125.1872,-326.6608
125.3977,-326.3354
125.6083,-326.01
125.8188,-325.6845
126.0294,-325.3592
126.24,-325.0337
126.4505,-324.7083
126.6611,-324.3829
126.8716,-324.0575
127.0822,-323.7321
127.2928,-323.4066
127.5033,-323.0812
127.7139,-322.7558
127.9245,-322.4304
128.135,-322.105
128.3456,-321.7796
128.5561,-321.4542
128.7667,-321.1288
128.9773,-320.8033
129.1878,-320.4779
129.3984,-320.1525
129.6089,-319.8271
129.8195,-319.5017
130.0301,-319.1763
130.2406,-318.8509
130.4512,-318.5255
130.6618,-318.2
130.8722,-317.8746
131.0829,-317.5492
131.2934,-317.2238
131.504,-316.8984
131.7146,-316.573
131.925,-316.2475
132.1357,-315.9221
132.3463,-315.5968
132.5567,-315.2713
132.7675,-314.946
132.9778,-314.6205
133.1884,-314.295
133.3994,-313.9698
133.609,-313.6439
133.821,-313.3193
134.0298,-312.9929
134.2212,-312.6562
134.4019,-312.3132
134.5848,-311.9716
134.7669,-311.6293
134.9485,-311.2869
135.1314,-310.9452
135.3128,-310.6026
135.4952,-310.2607
135.6775,-309.9186
135.8591,-309.5762
136.0418,-309.2344
136.2235,-308.892
136.4057,-308.5499
136.5881,-308.2079
136.7697,-307.8655
136.9523,-307.5237
137.1342,-307.1813
137.3161,-306.8391
137.4988,-306.4973
137.6802,-306.1547
137.8628,-305.8129
138.0449,-305.4706
138.2266,-305.1283
138.4095,-304.7866
138.5908,-304.444
138.7733,-304.1021
138.9557,-303.76
139.137,-303.4175
139.3201,-303.0759
139.5015,-302.7333
139.6837,-302.3913
139.8665,-302.0495
140.0473,-301.7066
140.2308,-301.3653
140.4122,-301.0226
140.5939,-300.6803
140.7776,-300.3391
140.9573,-299.9955
141.1416,-299.6547
141.3231,-299.3121
141.5031,-298.9688
141.6906,-298.6298
141.8521,-298.2767
142.0139,-297.9264
142.2429,-297.6177
142.5056,-297.3303
142.751,-297.0317
142.9707,-296.7136
143.1687,-296.3803
143.3688,-296.0484
143.5691,-295.7165
143.77,-295.3851
143.995,-295.0696
144.2248,-294.7573
144.4473,-294.4402
144.6784,-294.1286
144.8981,-293.8097
145.093,-293.4749
145.2832,-293.137
145.4764,-292.8011
145.6676,-292.4638
145.8649,-292.1305
146.0774,-291.8064
146.2934,-291.4844
146.5058,-291.1603
146.7211,-290.8379
146.9364,-290.5157
147.1516,-290.1933
147.3684,-289.8719
147.5833,-289.5495
147.7975,-289.2264
148.0073,-288.9005
148.2144,-288.5729
148.426,-288.2481
148.6323,-287.9201
148.824,-287.5833
149.0094,-287.2429
149.1966,-286.9035
149.3837,-286.5641
149.5702,-286.2243
149.7596,-285.8861
149.9486,-285.5478
150.1371,-285.2091
150.3268,-284.8711
150.4991,-284.5244
150.6529,-284.1686
150.8082,-283.8136
150.9602,-283.4569
151.117,-283.1025
151.3007,-282.7619
151.4969,-282.4273
151.6907,-282.0919
151.8842,-281.756
152.0808,-281.4219
152.2934,-281.0982
152.5129,-280.7783
152.7263,-280.455
152.9443,-280.1345
153.1601,-279.8124
153.3695,-279.4865
153.5801,-279.1608
153.7855,-278.8324
153.9975,-278.5075
154.2022,-278.1788
154.3601,-277.8265
154.4959,-277.4632
154.6375,-277.1025
154.7746,-276.7399
154.9147,-276.3785
155.0602,-276.0193
155.2057,-275.66
155.3526,-275.3014
155.4972,-274.9418
155.6492,-274.5853
155.814,-274.2345
155.9805,-273.8845
156.1459,-273.5339
156.312,-273.1838
156.4877,-272.8385
156.6721,-272.4974
156.8533,-272.155
157.0394,-271.8147
157.2168,-271.4705
157.3627,-271.1117
157.5013,-270.7493
157.6463,-270.3902
157.7866,-270.0287
157.9306,-269.6688
158.0788,-269.3108
158.2268,-268.9524
158.375,-268.5944
158.5241,-268.2366
158.6968,-267.8903
158.8894,-267.5539
159.0756,-267.214
159.2694,-266.8781
159.4543,-266.5379
159.6003,-266.1788
159.7395,-265.8172
159.8845,-265.4576
160.0244,-265.0961
160.1577,-264.7328
160.2755,-264.3626
160.3989,-263.9965
160.5164,-263.6256
160.6396,-263.2596
160.8747,-262.9616
161.152,-262.6907
161.31,-262.353
161.4058,-261.9772
161.5079,-261.6039
161.6026,-261.2273
161.707,-260.8547
161.7999,-260.4777
161.9057,-260.1053
162.0802,-259.7605
162.2695,-259.4211
162.4457,-259.0766
162.6336,-258.737
162.8024,-258.3889
162.9394,-258.0267
163.0723,-257.6623
163.2066,-257.2988
163.3417,-256.9356
163.4906,-256.5778
163.6488,-256.224
163.8031,-255.8684
163.9614,-255.5145
164.1147,-255.1587
164.2471,-254.7944
164.376,-254.4289
164.5081,-254.0646
164.6376,-253.6991
164.7627,-253.3325
164.877,-252.9621
164.9902,-252.5913
165.1056,-252.2214
165.2184,-251.8505
165.3412,-251.483
165.4709,-251.1177
165.5999,-250.7522
165.731,-250.3875
165.8596,-250.0218
165.9879,-249.6561
166.1148,-249.2899
166.2396,-248.9229
166.3687,-248.5574
166.4885,-248.189
166.5901,-247.815
166.6876,-247.4398
166.787,-247.0651
166.8865,-246.6906
166.9877,-246.3165
167.093,-245.9434
167.1991,-245.5707
167.3017,-245.1968
167.4104,-244.8249
167.5358,-244.4583
167.6683,-244.0938
167.7959,-243.7279
167.9252,-243.3626
168.0628,-243.0002
168.2074,-242.6408
168.3552,-242.2823
168.4799,-241.9162
168.5741,-241.5404
168.6735,-241.1654
168.7657,-240.7894
168.8211,-240.4058
168.8694,-240.0214
168.919,-239.6367
168.971,-239.253
169.0777,-238.8847
169.2384,-238.5314
169.3959,-238.1775
169.5528,-237.8233
169.7147,-237.4705
169.8197,-237.1032
169.8541,-236.718
169.8793,-236.3304
169.9108,-235.9446
169.9399,-235.5579
169.9896,-235.1739
170.0567,-234.7922
170.1193,-234.4096
170.1852,-234.0278
170.2812,-233.6538
170.4134,-233.2898
170.5494,-232.9265
170.6807,-232.5621
170.8161,-232.1988
170.9132,-231.8255
170.9683,-231.4419
171.0272,-231.059
171.0797,-230.6745
171.1405,-230.2922
171.2492,-229.9204
171.3668,-229.5508
171.4777,-229.1796
171.593,-228.8094
171.6538,-228.4308
171.6553,-228.043
171.6587,-227.6557
171.6598,-227.2679
171.6626,-226.8804
171.7166,-226.4996
171.813,-226.1242
171.9109,-225.7491
172.0075,-225.3739
172.1041,-224.9984
172.1913,-224.6208
172.2745,-224.2422
172.363,-223.8647
172.4459,-223.4863
172.4997,-223.1034
172.5289,-222.7169
172.5604,-222.3305
172.5902,-221.9441
172.6222,-221.5579
172.6854,-221.1759
172.7637,-220.7963
172.8361,-220.4156
172.9141,-220.0358
172.9963,-219.6572
173.086,-219.2801
173.1783,-218.9035
173.266,-218.5262
173.3582,-218.1495
173.4181,-217.7681
173.4399,-217.3808
173.4686,-216.9948
173.4868,-216.6069
173.5167,-216.2211
173.612,-215.8476
173.7315,-215.4787
173.8503,-215.1096
173.9655,-214.7399
174.0449,-214.3616
174.1008,-213.9778
174.1571,-213.5947
174.2186,-213.2115
174.2642,-212.8275
174.2566,-212.4408
174.2334,-212.0529
174.2244,-211.6661
174.2044,-211.2785
174.2054,-210.8918
174.2473,-210.5067
174.2912,-210.1214
174.3331,-209.7362
174.3781,-209.3511
174.4084,-208.965
174.42,-208.5778
174.4263,-208.1901
174.4369,-207.8027
174.4448,-207.4152
174.444,-207.0275
174.4415,-206.6401
174.4391,-206.2524
174.4359,-205.8648
174.4476,-205.478
174.4856,-205.0922
174.5272,-204.7069
174.5654,-204.3212
174.6061,-203.9357
174.6136,-203.5497
174.584,-203.1631
174.556,-202.7767
174.5251,-202.3902
174.498,-202.0036
174.5024,-201.6166
174.519,-201.2291
174.5314,-200.8419
174.5472,-200.4545
174.5595,-200.0671
174.5671,-199.6797
174.5756,-199.2921
174.5821,-198.9046
174.5912,-198.5171
174.6119,-198.1301
174.6375,-197.7434
174.6605,-197.3564
174.6862,-196.9697
174.7078,-196.5828
174.7139,-196.1952
174.7158,-195.8077
174.7215,-195.42
174.7247,-195.0325
174.71,-194.6459
174.668,-194.2606
174.6227,-193.8756
174.5812,-193.4903
174.5371,-193.1052
174.5304,-192.7192
174.5573,-192.332
174.576,-191.9456
174.606,-191.5583
174.6234,-191.1718
174.577,-190.7889
174.5059,-190.4073
174.4407,-190.0256
174.3728,-189.6438
174.299,-189.2635
174.2114,-188.8859
174.1252,-188.5082
174.035,-188.1308
173.952,-187.7529
173.9452,-187.3696
173.986,-186.9832
174.0133,-186.5974
174.0543,-186.2111
174.0772,-185.8252
174.0387,-185.4401
173.9898,-185.055
173.9497,-184.6699
173.9026,-184.2849
173.8694,-183.8991
173.856,-183.5117
173.8432,-183.1243
173.832,-182.7369
173.8173,-182.3496
173.7727,-181.9651
173.7136,-181.5819
173.6603,-181.1981
173.6021,-180.8148
173.5738,-180.4297
173.5873,-180.0423
173.5991,-179.6551
173.6153,-179.2675
173.6249,-178.8804
173.5886,-178.4953
173.5344,-178.1112
173.4866,-177.7269
173.4348,-177.3425
173.3782,-176.9593
173.3135,-176.5772
173.246,-176.1953
173.1819,-175.8133
173.1148,-175.4313
173.0455,-175.0501
172.9757,-174.6689
172.9054,-174.2876
172.8359,-173.9064
172.7689,-173.5246
172.7083,-173.1418
172.6485,-172.7589
172.5879,-172.3759
172.5275,-171.9932
172.4527,-171.6131
172.3633,-171.2359
172.2765,-170.8583
172.1868,-170.481
172.0999,-170.1035
172.0467,-169.7204
172.0153,-169.334
171.981,-168.9482
171.9504,-168.5614
171.8976,-168.1788
171.8025,-167.8033
171.7014,-167.4288
171.6055,-167.0535
171.5059,-166.6787
171.4051,-166.3046
171.2984,-165.932
171.192,-165.5592
171.0845,-165.1869
170.9799,-164.8136
170.9036,-164.434
170.8374,-164.0519
170.7634,-163.6714
170.6967,-163.2897
170.6222,-162.9092
170.5317,-162.5325
170.4402,-162.1559
170.3482,-161.7792
170.2572,-161.4026
170.1625,-161.0267
170.059,-160.6531
169.9564,-160.2796
169.853,-159.9057
169.7495,-159.5325
169.6475,-159.1584
169.5428,-158.7851
169.4421,-158.4112
169.3367,-158.0377
169.2362,-157.6639
169.1741,-157.2814
169.1213,-156.8973
169.0643,-156.5142
169.0105,-156.1301
168.8758,-155.7768
168.6598,-155.4543
168.4508,-155.1291
168.2291,-154.809
168.04,-154.476
167.9659,-154.0981
167.9144,-153.7111
167.8427,-153.3322
167.786,-152.9474
167.6946,-152.5723
167.5696,-152.2057
167.4477,-151.8374
167.321,-151.4714
167.1978,-151.1037
167.0699,-150.7379
166.9353,-150.3744
166.8069,-150.0086
166.6719,-149.6453
166.5416,-149.2803
166.4255,-148.9106
166.3135,-148.5397
166.2061,-148.1671
166.0942,-147.7961
165.9856,-147.4241
165.8861,-147.0492
165.782,-146.6763
165.684,-146.3008
165.5805,-145.9276
165.4368,-145.5698
165.2609,-145.2246
165.0823,-144.8804
164.9069,-144.5349
164.7301,-144.1899
164.5671,-143.8383
164.4116,-143.4833
164.2476,-143.132
164.0916,-142.7772
163.9167,-142.4321
163.7127,-142.1018
163.5178,-141.7681
163.3077,-141.4404
163.1161,-141.1051
163.0075,-140.7349
162.9171,-140.3568
162.8175,-139.9828
162.7215,-139.6072
162.5814,-139.248
162.4079,-138.9012
162.236,-138.5539
162.0651,-138.206
161.8887,-137.861
161.6899,-137.5285
161.4852,-137.1991
161.2849,-136.8674
161.0828,-136.5367
160.9086,-136.1914
160.7556,-135.8351
160.5995,-135.4806
160.4454,-135.1248
160.2915,-134.7691
160.1504,-134.4083
160.0184,-134.0436
159.8803,-133.6818
159.7486,-133.3168
159.5965,-132.9616
159.4066,-132.6239
159.2134,-132.2877
159.022,-131.9509
158.8303,-131.6137
158.6275,-131.2844
158.3925,-130.9763
158.1535,-130.6709
157.9189,-130.3627
157.6806,-130.0567
157.488,-129.7241
157.3393,-129.366
157.1863,-129.0103
157.0403,-128.6506
156.8858,-128.2958
156.6777,-127.9718
156.4417,-127.6639
156.2095,-127.3537
155.9761,-127.0443
155.7435,-126.7342
155.514,-126.4218
155.2854,-126.1089
155.0531,-125.7983
154.835,-125.4791
154.6618,-125.133
154.501,-124.7794
154.3272,-124.4338
154.1658,-124.0805
153.9777,-123.7443
153.7296,-123.4474
153.4734,-123.1558
153.2243,-122.8594
152.9688,-122.5674
152.7332,-122.2609
152.5229,-121.9355
152.3158,-121.6077
152.1075,-121.281
151.8984,-120.9545
151.6795,-120.6348
151.4548,-120.319
151.2331,-120.001
151.0092,-119.6846
150.7885,-119.3661
150.5757,-119.042
150.3621,-118.7188
150.1493,-118.3947
149.9363,-118.0709
149.7284,-117.744
149.53,-117.4106
149.3263,-117.0815
149.1303,-116.7461
148.9241,-116.4192
148.6511,-116.1484
148.351,-115.9006
148.0664,-115.6394
147.7663,-115.3917
147.4872,-115.1256
147.263,-114.8104
147.0475,-114.4874
146.8267,-114.1694
146.6085,-113.8488
146.3869,-113.5309
146.1653,-113.2129
145.9416,-112.8964
145.7218,-112.5769
145.4965,-112.2618
145.2405,-111.9715
144.9741,-111.6897
144.712,-111.4043
144.4479,-111.1207
144.2034,-110.8207
143.9775,-110.5057
143.7493,-110.1925
143.5226,-109.878
143.296,-109.5636
143.064,-109.2532
142.8266,-108.9468
142.5856,-108.6433
142.3475,-108.3374
142.108,-108.0327
141.8659,-107.73
141.6253,-107.4261
141.3815,-107.1249
141.1413,-106.8205
140.8975,-106.5193
140.6343,-106.235
140.3662,-105.955
140.1008,-105.6726
139.8329,-105.3924
139.5674,-105.1101
139.303,-104.8266
139.0395,-104.5424
138.7762,-104.258
138.5116,-103.9747
138.2497,-103.689
137.9891,-103.4021
137.7304,-103.1136
137.4701,-102.8262
137.211,-102.5381
136.9758,-102.231
136.7575,-101.9106
136.5373,-101.5918
136.3197,-101.2709
136.0885,-100.9607
135.8331,-100.6692
135.575,-100.3799
135.3188,-100.0892
135.0616,-99.7991
134.8085,-99.5056
134.5572,-99.2106
134.3059,-98.9155
134.0543,-98.6207
133.7959,-98.3318
133.5307,-98.0492
133.2658,-97.7662
133.0008,-97.4833
132.736,-97.2004
132.4796,-96.9098
132.2267,-96.616
131.9715,-96.3244
131.7196,-96.0297
131.4638,-95.7386
131.1958,-95.4586
130.9249,-95.1814
130.6557,-94.9026
130.3859,-94.6242
130.1319,-94.3327
129.9038,-94.0193
129.6772,-93.7048
129.4477,-93.3927
129.222,-93.0771
128.9609,-92.7951
128.6609,-92.5499
128.3608,-92.3049
128.0575,-92.0628
127.7733,-91.8026
127.5399,-91.4942
127.3159,-91.1767
127.0832,-90.8676
126.8575,-90.5519
126.6089,-90.2564
126.3286,-89.989
126.047,-89.7225
125.7661,-89.4556
125.4844,-89.1892
125.2199,-88.9067
124.9697,-88.6108
124.72,-88.3143
124.4707,-88.0175
124.2089,-87.7326
123.9253,-87.4686
123.6387,-87.2075
123.3548,-86.9438
123.069,-86.6819
122.7935,-86.4095
122.528,-86.1271
122.2616,-85.8456
121.9963,-85.563
121.7301,-85.2813
121.4543,-85.0093
121.1716,-84.7441
120.8893,-84.4785
120.6062,-84.2137
120.3323,-83.9401
120.078,-83.6476
119.8258,-83.3534
119.572,-83.0603
119.3186,-82.7672
119.0314,-82.5106
118.7159,-82.2848
118.406,-82.0528
118.0885,-81.8292
117.7809,-81.5948
117.5209,-81.3084
117.2717,-81.0102
117.012,-80.7236
116.7618,-80.4266
116.4934,-80.1488
116.1906,-79.9075
115.884,-79.6699
115.5792,-79.4308
115.2742,-79.1916
114.9876,-78.9317
114.7161,-78.6551
114.4432,-78.3798
114.1716,-78.1034
113.8981,-77.8287
113.6135,-77.5656
113.3267,-77.3049
113.0428,-77.0409
112.7555,-76.7809
112.4586,-76.5323
112.1527,-76.2937
111.8507,-76.0515
111.5446,-75.8127
111.2433,-75.57
110.9963,-75.276
110.7807,-74.9526
110.5551,-74.6392
110.3411,-74.3137
110.0945,-74.022
109.7757,-73.8037
109.4483,-73.5945
109.1257,-73.3805
108.8026,-73.1665
108.5299,-72.8984
108.295,-72.5887
108.0531,-72.2871
107.8178,-71.9781
107.5774,-71.6749
107.274,-71.454
106.9162,-71.3049
106.5597,-71.1523
106.2014,-71.0045
105.8462,-70.8501
105.5344,-70.6268
105.2441,-70.3688
104.9483,-70.119
104.6569,-69.8631
104.3619,-69.6117
104.0622,-69.3661
103.7638,-69.1185
103.4633,-68.8739
103.1646,-68.6268
102.8651,-68.3807
102.5652,-68.1355
102.2668,-67.8878
101.9663,-67.6431
101.6676,-67.3962
101.3682,-67.1499
101.0681,-66.9047
100.7698,-66.6571
100.4693,-66.4123
100.1705,-66.1655
99.8712,-65.9191
99.5711,-65.674
99.2726,-65.4265
98.9726,-65.1813
98.6849,-64.9219
98.4057,-64.6526
98.1226,-64.3887
97.8456,-64.1165
97.5512,-63.8673
97.2212,-63.6653
96.8848,-63.4716
96.5529,-63.272
96.2186,-63.0757
95.8769,-62.8935
95.5271,-62.7268
95.1774,-62.5595
94.8271,-62.3935
94.4796,-62.2222
94.1379,-62.0392
93.7962,-61.856
93.4562,-61.6706
93.1127,-61.49
92.7804,-61.293
92.4769,-61.0524
92.1774,-60.8058
91.876,-60.5625
91.574,-60.3195
91.2497,-60.1086
90.9157,-59.9113
90.586,-59.7078
90.2531,-59.5093
89.9217,-59.3082
89.5905,-59.107
89.2578,-58.9079
88.9271,-58.7059
88.5948,-58.5063
88.2631,-58.3057
87.9319,-58.1046
87.5995,-57.905
87.2683,-57.7037
86.9365,-57.5035
86.6046,-57.3031
86.2732,-57.1023
85.9413,-56.9019
85.6038,-56.7123
85.2554,-56.5427
84.9052,-56.376
84.5573,-56.2057
84.2073,-56.0388
83.8586,-55.8695
83.5097,-55.701
83.16,-55.5334
82.8117,-55.3638
82.4621,-55.1963
82.1131,-55.0274
81.7644,-54.8587
81.4147,-54.6911
81.0662,-54.5217
80.7168,-54.354
80.3676,-54.1853
80.019,-54.0165
79.6693,-53.8489
79.3207,-53.6795
78.9714,-53.5117
78.6222,-53.3431
78.2736,-53.1743
77.924,-53.0065
77.5752,-52.8376
77.2262,-52.6691
76.8765,-52.5014
76.5196,-52.3524
76.1543,-52.2217
75.7917,-52.0852
75.4263,-51.956
75.0639,-51.8183
74.7218,-51.6376
74.3842,-51.4463
74.0413,-51.2652
73.7043,-51.0749
73.3898,-50.8521
73.1028,-50.5921
72.8149,-50.3319
72.5242,-50.0759
72.2398,-49.8127
71.947,-49.5579
71.6678,-49.2902
71.4037,-49.0063
71.138,-48.7237
70.8811,-48.4346
70.6087,-48.1563
70.3597,-47.8626
70.1909,-47.5151
70.0382,-47.1575
69.9082,-46.7972
69.8495,-46.4134
69.7996,-46.029
69.7357,-45.6467
69.6865,-45.2622
69.6907,-44.8817
69.7755,-44.5036
69.8679,-44.126
69.9433,-43.7468
70.0426,-43.3716
70.1335,-42.9943
70.252,-42.6267
70.4595,-42.3013
70.688,-41.9882
70.9064,-41.6673
71.1577,-41.3741
71.4281,-41.0965
71.6961,-40.8158
71.9676,-40.5401
72.2355,-40.2592
72.4996,-39.9758
72.7631,-39.692
73.0244,-39.405
73.2915,-39.1244
73.5334,-38.8243
73.7157,-38.4834
73.8832,-38.1334
74.0652,-37.7908
74.2355,-37.4431
74.3899,-37.0878
74.5325,-36.7274
74.6713,-36.3657
74.8172,-36.0062
74.9551,-35.6443
75.0785,-35.2769
75.1972,-34.9077
75.3168,-34.5394
75.4378,-34.1708
75.5572,-33.8023
75.6795,-33.4345
75.8014,-33.0663
75.9226,-32.6985
76.0447,-32.3303
76.1515,-31.958
76.2513,-31.5835
76.3536,-31.2095
76.4535,-30.8352
76.5538,-30.4607
76.631,-30.0813
76.6942,-29.6985
76.7686,-29.3185
76.8299,-28.9352
76.9091,-28.5566
77.0375,-28.1912
77.1695,-27.8266
77.293,-27.4594
77.4107,-27.0897
77.5362,-26.7236
77.7123,-26.3811
77.9212,-26.0546
78.1288,-25.7272
78.334,-25.3983
78.5483,-25.076
78.7921,-24.7746
79.0438,-24.48
79.2878,-24.1788
79.5388,-23.883
79.7635,-23.5698
79.9491,-23.229
80.1328,-22.8883
80.3159,-22.5463
80.5021,-22.2062
80.7131,-21.8824
80.9347,-21.5632
81.1515,-21.2428
81.3709,-20.923
81.5948,-20.6061
81.8264,-20.2967
82.0624,-19.9878
82.2946,-19.6782
82.5281,-19.3691
82.7489,-19.0496
82.9585,-18.7251
83.1761,-18.4029
83.3467,-18.0602
83.4462,-17.687
83.5407,-17.3094
83.6381,-16.9357
83.72,-16.5562
83.7984,-16.1764
83.8728,-15.797
83.9531,-15.4165
84.0263,-15.0369
84.0703,-14.6518
84.1079,-14.2654
84.1489,-13.8811
84.1885,-13.4944
84.2266,-13.1092
84.2556,-12.7231
84.2857,-12.3355
84.3143,-11.9505
84.295,-11.5673
84.1983,-11.1928
84.0931,-10.8194
84.0505,-10.435
83.9963,-10.0568
83.8728,-9.6899
83.7276,-9.3295
83.5496,-8.9903
83.3291,-8.6695
83.112,-8.3491
82.8971,-8.027
82.6801,-7.7048
82.4719,-7.3791
82.2614,-7.0526
82.0501,-6.7281
81.842,-6.4013
81.638,-6.0712
81.444,-5.7365
81.2478,-5.4015
81.0387,-5.0755
80.8264,-4.7515
80.6163,-4.4251
80.4031,-4.1023
80.1927,-3.776
79.9874,-3.4475
79.7843,-3.1181
79.5905,-2.7807
79.3826,-2.4557
79.1335,-2.1588
78.8698,-1.874
78.6145,-1.5836
78.3595,-1.2894
78.0714,-1.0427
77.7221,-0.88232
77.3553,-0.74661
77.0032,-0.58916
76.6428,-0.44472
76.2831,-0.29989
75.9288,-0.14183
75.5585,-0.045516
75.1731,-0.01291
