103.7106,-324.098
104.031,-323.8686
104.3517,-323.6398
104.6723,-323.4109
104.9927,-323.1816
105.3135,-322.9531
105.6339,-322.7236
105.9546,-322.495
106.2752,-322.2659
106.5956,-322.0367
106.9165,-321.8082
107.2367,-321.5786
107.5576,-321.3502
107.8781,-321.1209
108.1983,-320.8917
108.5197,-320.6637
108.839,-320.433
109.1613,-320.2064
109.4798,-319.9745
109.7776,-319.7172
110.0699,-319.4527
110.3662,-319.1932
110.6593,-318.93
110.9544,-318.6689
111.2488,-318.4073
111.5428,-318.1448
111.838,-317.8841
112.1316,-317.6214
112.4268,-317.3604
112.7208,-317.0983
113.0153,-316.8364
113.3101,-316.5753
113.6039,-316.3127
113.8991,-316.0519
114.1929,-315.7895
114.4878,-315.5281
114.7821,-315.2665
115.0763,-315.0042
115.3714,-314.7433
115.6649,-314.4805
115.9604,-314.2198
116.2539,-313.9573
116.549,-313.6961
116.8431,-313.4341
117.1227,-313.1568
117.3957,-312.8729
117.6687,-312.5889
117.9418,-312.3048
118.215,-312.0211
118.4878,-311.7366
118.7612,-311.4533
119.0338,-311.1687
119.3072,-310.8851
119.5801,-310.6011
119.8531,-310.3168
120.1265,-310.0334
120.399,-309.7487
120.6726,-309.4654
120.9452,-309.181
121.2185,-308.8971
121.4916,-308.6134
121.7644,-308.3289
122.0379,-308.0456
122.3104,-307.7609
122.5839,-307.4774
122.8568,-307.1934
123.1297,-306.909
123.4032,-306.6258
123.6756,-306.3409
123.9364,-306.0463
124.1819,-305.7381
124.4283,-305.4307
124.6746,-305.1234
124.9201,-304.8149
125.1672,-304.5085
125.4122,-304.1997
125.6594,-303.8931
125.9047,-303.5849
126.1511,-303.2772
126.3976,-302.9703
126.6429,-302.6616
126.8902,-302.3553
127.135,-302.0465
127.3822,-301.7396
127.6277,-301.4319
127.8739,-301.1238
128.1206,-300.8171
128.3657,-300.5083
128.6132,-300.2019
128.8578,-299.8933
129.1207,-299.5997
129.3907,-299.3138
129.6634,-299.0285
129.9334,-298.7424
130.1354,-298.4075
130.3238,-298.0617
130.5547,-297.7434
130.7804,-297.4192
131.0118,-297.1018
131.2701,-296.8043
131.5425,-296.5201
131.8125,-296.2332
132.0821,-295.9456
132.3552,-295.6623
132.6337,-295.3832
132.9225,-295.1155
133.2029,-294.8387
133.4903,-294.5689
133.7507,-294.2771
133.9582,-293.9407
134.1713,-293.6119
134.374,-293.2708
134.5926,-292.9464
134.8756,-292.6737
135.1738,-292.4133
135.4599,-292.1462
135.7531,-291.8781
136.0342,-291.6108
136.2207,-291.2555
136.4177,-290.9237
136.739,-290.754
137.0214,-290.5209
137.2381,-290.1857
137.4649,-289.8676
137.6928,-289.5449
137.9537,-289.2499
138.2176,-288.9583
138.4763,-288.6595
138.7405,-288.3691
138.9772,-288.0526
139.2113,-287.7368
139.449,-287.4223
139.6791,-287.102
139.8788,-286.766
140.0465,-286.4069
140.2259,-286.0581
140.3956,-285.7015
140.5721,-285.3492
140.7837,-285.0181
140.9945,-284.6836
141.2084,-284.3547
141.4185,-284.0198
141.663,-283.7183
141.9771,-283.4803
142.2888,-283.2397
142.6063,-283.0057
142.9149,-282.7618
143.1454,-282.4452
143.3608,-282.1132
143.5882,-281.7929
143.8049,-281.463
144.0111,-281.1285
144.1928,-280.7789
144.3786,-280.4311
144.562,-280.083
144.7469,-279.7346
144.9788,-279.418
145.2257,-279.111
145.4705,-278.8021
145.7183,-278.4961
145.9608,-278.1854
146.2066,-277.8775
146.4476,-277.5662
146.6937,-277.2578
146.9142,-276.935
147.069,-276.5726
147.2196,-276.2088
147.3733,-275.8458
147.5257,-275.4828
147.7555,-275.1708
148.0336,-274.8904
148.3039,-274.6058
148.5854,-274.3273
148.8106,-274.0162
148.9304,-273.6433
149.0339,-273.2605
149.1521,-272.8869
149.2589,-272.5061
149.447,-272.1763
149.7397,-271.9125
150.0279,-271.645
150.3258,-271.385
150.6102,-271.1146
150.7929,-270.7697
150.9524,-270.407
151.1262,-270.0554
151.2883,-269.6948
151.4642,-269.3432
151.6408,-268.9907
151.8215,-268.6406
151.9986,-268.2889
152.1801,-267.9391
152.4201,-267.6289
152.6785,-267.3305
152.926,-267.0249
153.186,-266.7279
153.422,-266.4142
153.6141,-266.0713
153.7961,-265.721
153.9853,-265.3759
154.1706,-265.0281
154.3519,-264.6782
154.5334,-264.329
154.7121,-263.9773
154.8939,-263.6282
155.0698,-263.2756
155.2354,-262.9181
155.4012,-262.561
155.5659,-262.2027
155.7319,-261.8459
155.9,-261.4892
156.0687,-261.1334
156.239,-260.7782
156.4067,-260.4214
156.5788,-260.0676
156.7609,-259.7177
156.9441,-259.3694
157.1282,-259.0208
157.309,-258.6708
157.4489,-258.3051
157.5554,-257.9246
157.6697,-257.5487
157.7772,-257.1688
157.941,-256.8202
158.2027,-256.5254
158.4605,-256.2284
158.7265,-255.9362
158.9805,-255.637
159.1155,-255.2729
159.216,-254.8898
159.3323,-254.5151
159.4345,-254.1332
159.5708,-253.7655
159.7381,-253.4091
159.9106,-253.0545
160.0806,-252.6994
160.2511,-252.3441
160.4369,-251.9967
160.6223,-251.6492
160.8079,-251.3015
160.9942,-250.9546
161.1637,-250.5993
161.3169,-250.2365
161.4664,-249.872
161.6202,-249.5092
161.7694,-249.1447
161.9044,-248.7746
162.0331,-248.4023
162.1664,-248.0316
162.2953,-247.6591
162.4433,-247.2955
162.6391,-246.9537
162.838,-246.6137
163.0343,-246.272
163.2326,-245.9316
163.391,-245.5726
163.5251,-245.202
163.6589,-244.8317
163.7926,-244.4609
163.9267,-244.0906
164.0557,-243.7183
164.1851,-243.3462
164.3138,-242.974
164.4434,-242.6017
164.5648,-242.2274
164.6656,-241.8464
164.7648,-241.4652
164.8657,-241.0844
164.9649,-240.703
165.1001,-240.3356
165.2813,-239.9857
165.4627,-239.6362
165.6447,-239.2866
165.8253,-238.9366
165.9629,-238.569
166.0787,-238.1921
166.1969,-237.8166
166.3128,-237.4398
166.4271,-237.0631
166.5315,-236.6831
166.6368,-236.3034
166.7413,-235.9237
166.8468,-235.544
166.9802,-235.174
167.1284,-234.8088
167.2735,-234.4427
167.4226,-234.078
167.5532,-233.7071
167.6473,-233.3249
167.7365,-232.9408
167.83,-232.5584
167.92,-232.1747
168.0203,-231.7938
168.1251,-231.4141
168.2308,-231.0344
168.3359,-230.6549
168.4417,-230.2753
168.5661,-229.9017
168.6955,-229.5296
168.8221,-229.1564
168.9522,-228.7847
169.069,-228.4086
169.1664,-228.0271
169.2598,-227.6442
169.3567,-227.2624
169.4509,-226.88
169.5422,-226.4966
169.6325,-226.1133
169.7223,-225.7295
169.8135,-225.3464
169.9132,-224.9654
170.0243,-224.5873
170.1321,-224.2086
170.2437,-223.8305
170.3501,-223.4514
170.4247,-223.0647
170.4949,-222.6769
170.5694,-222.2902
170.6401,-221.9024
170.7258,-221.5183
170.8227,-221.1363
170.9206,-220.7548
171.0187,-220.3732
171.1153,-219.9912
171.2036,-219.6075
171.2859,-219.2221
171.3715,-218.8376
171.454,-218.4523
171.5428,-218.0686
171.6476,-217.6889
171.7527,-217.3092
171.8586,-216.9298
171.9629,-216.5499
172.035,-216.1638
172.0791,-215.7722
172.1259,-215.381
172.1703,-214.9897
172.2166,-214.5983
172.2831,-214.2104
172.3578,-213.8235
172.4322,-213.4366
172.5065,-213.0498
172.5719,-212.6613
172.6272,-212.2714
172.6837,-211.8814
172.7387,-211.4913
172.7956,-211.1015
172.872,-210.7151
172.9535,-210.3297
173.0323,-209.9437
173.1138,-209.5582
173.1876,-209.1713
173.2571,-208.7835
173.3254,-208.3956
173.3941,-208.0075
173.4632,-207.6198
173.5329,-207.232
173.6043,-206.8446
173.674,-206.4569
173.7451,-206.0693
173.7919,-205.6792
173.8054,-205.2854
173.8203,-204.8919
173.8326,-204.4979
173.8487,-204.1044
173.9025,-203.7151
173.9759,-203.3277
174.0436,-202.9399
174.1171,-202.5526
174.1842,-202.1646
174.225,-201.7729
174.2613,-201.3804
174.3014,-200.9887
174.3386,-200.5963
174.3768,-200.2043
174.4125,-199.8119
174.4487,-199.4196
174.4851,-199.0274
174.5207,-198.635
174.5568,-198.2428
174.5909,-197.8502
174.6267,-197.458
174.661,-197.0655
174.6978,-196.6732
174.7428,-196.2819
174.7878,-195.8905
174.8336,-195.4992
174.8779,-195.1078
174.9056,-194.7151
174.9193,-194.3214
174.9344,-193.9276
174.9488,-193.534
174.9686,-193.1406
175.0018,-192.748
175.0323,-192.3553
175.0665,-191.9627
175.0962,-191.5701
175.0915,-191.1765
175.0731,-190.783
175.0597,-190.3893
175.0417,-189.9957
175.0338,-189.6021
175.0471,-189.2083
175.0629,-188.8147
175.0768,-188.4209
175.0922,-188.0273
175.0904,-187.6337
175.0706,-187.2402
175.0503,-186.8469
175.03,-186.4534
175.0104,-186.06
175.0023,-185.6662
175.0018,-185.2721
174.9977,-184.8783
174.9981,-184.4842
174.9922,-184.0905
174.9598,-183.6979
174.9225,-183.3057
174.8893,-182.9132
174.8531,-182.5208
174.8362,-182.1278
174.8408,-181.7337
174.8452,-181.3399
174.8502,-180.9459
174.8547,-180.552
174.8566,-180.1581
174.8593,-179.764
174.8591,-179.3703
174.8633,-178.9761
174.8545,-178.5828
174.8082,-178.1918
174.7552,-177.8011
174.7082,-177.4102
174.6566,-177.0194
174.6153,-176.6279
174.582,-176.2352
174.547,-175.8429
174.5155,-175.4502
174.4762,-175.0582
174.4152,-174.6692
174.3496,-174.2806
174.2873,-173.8917
174.2236,-173.5029
174.1807,-173.1116
174.1515,-172.7187
174.1168,-172.3263
174.089,-171.9332
174.0466,-171.542
173.9681,-171.1562
173.8834,-170.7713
173.8034,-170.3856
173.7205,-170.0005
173.6522,-169.6126
173.5983,-169.2224
173.5431,-168.8324
173.4893,-168.442
173.4346,-168.052
173.3821,-167.6615
173.3315,-167.2708
173.2777,-166.8806
173.2284,-166.4896
173.1602,-166.1024
173.0568,-165.7224
172.9486,-165.3435
172.8439,-164.9637
172.7375,-164.5844
172.6523,-164.2003
172.5871,-163.8117
172.5189,-163.4238
172.4541,-163.035
172.3659,-162.6525
172.2327,-162.2818
172.0988,-161.9113
171.9638,-161.5412
171.8318,-161.17
171.7369,-160.7879
171.6474,-160.404
171.5521,-160.0219
171.4623,-159.6382
171.3634,-159.257
171.2584,-158.8773
171.1509,-158.4982
171.0449,-158.1189
170.9381,-157.7396
170.8187,-157.3643
170.6922,-156.9912
170.5659,-156.618
170.4393,-156.245
170.315,-155.8711
170.1967,-155.4954
170.0786,-155.1196
169.9608,-154.7436
169.8421,-154.368
169.7071,-153.998
169.5646,-153.6308
169.424,-153.2627
169.2814,-152.8955
169.1407,-152.5275
168.9989,-152.1599
168.8582,-151.792
168.7167,-151.4243
168.5769,-151.0561
168.4484,-150.6836
168.3208,-150.3109
168.1921,-149.9386
168.0648,-149.5657
167.9445,-149.1908
167.8359,-148.812
167.726,-148.4337
167.6171,-148.0551
167.5075,-147.6767
167.3907,-147.3005
167.2726,-146.9246
167.1554,-146.5485
167.0369,-146.1728
166.8972,-145.805
166.7403,-145.4436
166.5865,-145.0809
166.4294,-144.7196
166.2794,-144.3554
166.143,-143.9858
166.0081,-143.6157
165.8728,-143.2457
165.7369,-142.8759
165.5968,-142.5077
165.4505,-142.142
165.3042,-141.7762
165.1594,-141.4098
165.0111,-141.0448
164.8495,-140.6857
164.679,-140.3303
164.5178,-139.9711
164.3466,-139.6159
164.1852,-139.2569
164.0745,-138.8792
163.9721,-138.4986
163.8644,-138.1197
163.76,-137.7398
163.6145,-137.3759
163.4328,-137.0264
163.251,-136.6769
163.0694,-136.3272
162.8868,-135.9782
162.7033,-135.6296
162.5186,-135.2816
162.3347,-134.9332
162.1509,-134.5847
161.9869,-134.2272
161.8411,-133.861
161.6906,-133.4972
161.5462,-133.1303
161.391,-132.7687
161.2004,-132.4242
161.0045,-132.0821
160.812,-131.7386
160.6185,-131.3953
160.4422,-131.0433
160.275,-130.6865
160.1032,-130.332
159.9362,-129.9751
159.7605,-129.6228
159.5614,-129.2829
159.3615,-128.9434
159.1602,-128.6046
158.9625,-128.2641
158.8025,-127.9049
158.6576,-127.5382
158.5054,-127.1752
158.3604,-126.8085
158.1872,-126.457
157.9638,-126.1329
157.7352,-125.8117
157.511,-125.488
157.2832,-125.1664
157.0722,-124.8341
156.8711,-124.4953
156.6697,-124.1568
156.4705,-123.8168
156.2669,-123.4796
156.0444,-123.1554
155.8042,-122.8423
155.5746,-122.523
155.3332,-122.2105
155.1071,-121.8894
154.9581,-121.5256
154.8191,-121.1562
154.6723,-120.7912
154.5309,-120.423
154.3507,-120.0737
154.1576,-119.7301
153.9651,-119.3867
153.7713,-119.0434
153.5733,-118.7033
153.3495,-118.379
153.1251,-118.0551
152.9023,-117.7304
152.6773,-117.4068
152.4627,-117.0767
152.2496,-116.7452
152.0378,-116.4131
151.8257,-116.0811
151.6119,-115.7501
151.3948,-115.4215
151.1755,-115.0941
150.9584,-114.7655
150.7395,-114.4378
150.5233,-114.1085
150.3076,-113.7789
150.0915,-113.4494
149.8763,-113.1195
149.66,-112.7902
149.4477,-112.4584
149.2366,-112.1257
149.0257,-111.793
148.8152,-111.4601
148.6039,-111.1274
148.3922,-110.7953
148.1793,-110.4637
147.9666,-110.1322
147.7542,-109.8004
147.5411,-109.469
147.322,-109.1418
147.1002,-108.8159
146.8785,-108.4905
146.6575,-108.1641
146.4242,-107.8479
146.157,-107.5587
145.8864,-107.2719
145.6195,-106.9826
145.3489,-106.6958
145.0954,-106.3946
144.8421,-106.0926
144.5913,-105.7891
144.3384,-105.4868
144.0903,-105.1812
143.8824,-104.8467
143.6767,-104.5105
143.468,-104.1766
143.2631,-103.8398
143.039,-103.5162
142.8135,-103.193
142.5827,-102.8739
142.3569,-102.5508
142.1262,-102.2318
141.8574,-101.9438
141.5868,-101.6576
141.3167,-101.3706
141.0473,-101.0834
140.8142,-100.767
140.5954,-100.4392
140.3741,-100.1135
140.1555,-99.7855
139.9128,-99.4771
139.6414,-99.1915
139.3682,-98.9077
139.0964,-98.6225
138.8235,-98.3383
138.5541,-98.0511
138.2851,-97.763
138.0163,-97.4752
137.7476,-97.187
137.478,-96.8998
137.2073,-96.6136
136.9365,-96.3274
136.6653,-96.0418
136.3951,-95.7549
136.1367,-95.4578
135.8838,-95.1556
135.6273,-94.8567
135.3749,-94.5542
135.1174,-94.256
134.8441,-93.9725
134.5675,-93.6918
134.2934,-93.4089
134.0177,-93.1275
133.742,-92.846
133.465,-92.5659
133.1882,-92.2855
132.911,-92.0057
132.6348,-91.7248
132.3755,-91.4286
132.1253,-91.1243
131.8723,-90.8223
131.622,-90.518
131.3588,-90.2254
131.0799,-89.9472
130.8013,-89.6687
130.5208,-89.3919
130.2438,-89.1121
129.986,-88.8143
129.736,-88.5097
129.4801,-88.2103
129.2298,-87.9059
128.9708,-87.6095
128.6891,-87.3342
128.4048,-87.0614
128.1221,-86.7871
127.8386,-86.5135
127.5618,-86.2333
127.2901,-85.948
127.0184,-85.6628
126.7465,-85.3776
126.475,-85.0923
126.2012,-84.8089
125.9274,-84.5257
125.6535,-84.2426
125.3794,-83.9595
125.1013,-83.6808
124.8137,-83.4113
124.5273,-83.141
124.2397,-82.8716
123.9532,-82.6013
123.6815,-82.3162
123.4129,-82.0278
123.1431,-81.741
122.8748,-81.4522
122.5997,-81.1706
122.3158,-80.8975
122.0293,-80.627
121.7452,-80.3542
121.4593,-80.083
121.172,-79.8137
120.8844,-79.5441
120.5949,-79.2772
120.3089,-79.006
120.0119,-78.7483
119.6863,-78.5276
119.3548,-78.3135
119.0289,-78.093
118.6983,-77.8781
118.3933,-77.6324
118.1221,-77.3473
117.8516,-77.0604
117.5812,-76.7742
117.3103,-76.488
117.0299,-76.2115
116.7452,-75.9392
116.4603,-75.667
116.1763,-75.3942
115.8846,-75.1294
115.5832,-74.876
115.28,-74.6243
114.9785,-74.3707
114.6756,-74.119
114.3654,-73.8758
114.054,-73.6348
113.7437,-73.3919
113.4321,-73.1509
113.1229,-72.9069
112.8159,-72.6597
112.5107,-72.411
112.204,-72.1634
111.8983,-71.9152
111.6004,-71.6573
111.3052,-71.3965
111.0103,-71.1354
110.715,-70.8743
110.421,-70.6125
110.13,-70.3465
109.8365,-70.0841
109.5469,-69.8166
109.2513,-69.5566
108.9285,-69.3317
108.5995,-69.1139
108.2761,-68.8897
107.9483,-68.6706
107.6239,-68.4472
107.2995,-68.2239
106.9746,-68.0006
106.6512,-67.7763
106.326,-67.5534
106.0129,-67.315
105.7079,-67.0656
105.4017,-66.8175
105.0981,-66.5667
104.7865,-66.3258
104.4604,-66.1055
104.131,-65.8889
103.8037,-65.6697
103.4759,-65.4515
103.16,-65.2164
102.8557,-64.9666
102.5481,-64.72
102.2439,-64.4699
101.937,-64.2229
101.6162,-63.9948
101.2878,-63.7776
100.9583,-63.561
100.6307,-63.3429
100.3011,-63.1265
99.9703,-62.9129
99.6386,-62.7005
99.3062,-62.4884
98.9754,-62.2752
98.6356,-62.076
98.2849,-61.8972
97.9336,-61.7187
97.5816,-61.5414
97.2319,-61.3612
96.9008,-61.1481
96.5803,-60.9194
96.2551,-60.6967
95.9339,-60.4685
95.6001,-60.2616
95.2463,-60.0874
94.8932,-59.9142
94.5385,-59.7412
94.1854,-59.5676
93.8372,-59.3831
93.4896,-59.1971
93.1448,-59.008
92.7954,-58.8239
92.4523,-58.6323
92.134,-58.3998
91.8203,-58.1616
91.5042,-57.9267
91.1876,-57.6919
90.8414,-57.5082
90.481,-57.346
90.1284,-57.173
89.7675,-57.0124
89.414,-56.8395
89.0774,-56.6367
88.7472,-56.4203
88.4172,-56.2068
88.0843,-55.9947
87.7562,-55.7773
87.4414,-55.5418
87.1391,-55.2875
86.8311,-55.044
86.528,-54.7901
86.2172,-54.551
85.864,-54.3767
85.5069,-54.2093
85.154,-54.0359
84.7963,-53.868
84.4395,-53.705
84.0697,-53.5648
83.705,-53.4189
83.3363,-53.2784
82.9701,-53.133
82.6349,-52.9321
82.3116,-52.7048
81.9892,-52.4804
81.6662,-52.2534
81.3407,-52.0323
81.0044,-51.8277
80.6645,-51.6268
80.3296,-51.4217
79.9891,-51.221
79.6436,-51.035
79.2851,-50.8705
78.9276,-50.7042
78.5717,-50.538
78.212,-50.3731
77.8696,-50.1828
77.5316,-49.9782
77.1963,-49.7725
76.8611,-49.5659
76.5224,-49.3626
76.1763,-49.1788
75.8199,-49.0057
75.4718,-48.8252
75.1174,-48.6508
74.7657,-48.4731
74.4098,-48.3073
74.0472,-48.1469
73.6948,-47.9776
73.3306,-47.8197
72.9906,-47.6273
72.6708,-47.398
72.3526,-47.1633
72.0392,-46.9281
71.715,-46.6999
71.3746,-46.527
70.9824,-46.4477
70.6436,-46.2874
70.3893,-45.9919
70.1386,-45.6817
69.8917,-45.3811
69.5537,-45.1693
69.2265,-44.9598
69.0344,-44.6278
68.8856,-44.2618
68.7352,-43.8993
68.5822,-43.5354
68.4943,-43.1497
68.3207,-42.808
68.0785,-42.5152
68.0529,-42.1334
68.0765,-41.7274
68.055,-41.344
68.0386,-40.9437
67.9922,-40.5561
68.0086,-40.1611
68.0269,-39.7662
68.0361,-39.3755
68.0597,-38.9784
68.0613,-38.5874
68.0843,-38.1923
68.0875,-37.7979
68.1072,-37.4068
68.1514,-37.0118
68.2081,-36.6269
68.4056,-36.3102
68.7054,-36.058
69.0016,-35.7957
69.3111,-35.5556
69.6604,-35.3763
70.0168,-35.2031
70.3645,-35.0239
70.7221,-34.8516
71.0572,-34.6509
71.3839,-34.4288
71.6956,-34.1894
71.9463,-33.8887
72.1877,-33.5739
72.4377,-33.2725
72.684,-32.9628
72.9386,-32.6631
73.186,-32.3567
73.4405,-32.0546
73.6794,-31.7446
73.8593,-31.3928
74.0312,-31.0395
74.2114,-30.6883
74.3833,-30.3341
74.5631,-29.9839
74.7358,-29.6289
74.9144,-29.2789
75.0797,-28.9209
75.1954,-28.5454
75.3088,-28.1676
75.4238,-27.7906
75.5374,-27.4142
75.6976,-27.0538
75.8679,-26.7003
75.9451,-26.3223
75.9468,-25.9288
75.9521,-25.5349
75.9434,-25.1407
75.9231,-24.748
75.9033,-24.3538
75.8812,-23.961
75.8624,-23.5675
75.8146,-23.1761
75.7567,-22.7876
75.7023,-22.396
75.6216,-22.0132
75.4792,-21.6477
75.3111,-21.2873
75.1764,-20.922
75.0024,-20.5609
74.8709,-20.1966
74.8741,-19.806
74.9248,-19.4132
75.0546,-19.0472
75.2137,-18.6825
75.3554,-18.3173
75.5642,-17.9849
75.8007,-17.6702
76.0354,-17.3544
76.2743,-17.0402
76.5003,-16.7184
76.719,-16.3904
76.9349,-16.061
77.1525,-15.7324
77.3689,-15.4037
77.5826,-15.0719
77.7933,-14.7402
78.0069,-14.4078
78.2173,-14.0757
78.4341,-13.7468
78.6677,-13.4285
78.8989,-13.1119
79.1359,-12.7936
79.3639,-12.4764
79.5795,-12.1447
79.7578,-11.7948
79.8681,-11.4183
79.9723,-11.0352
80.0781,-10.6599
80.1898,-10.2776
80.2973,-9.9024
80.319,-9.5153
80.2751,-9.1221
80.2309,-8.7344
80.1071,-8.3802
79.8091,-8.1186
79.5534,-7.8317
79.488,-7.4491
79.4559,-7.0513
79.3928,-6.6648
79.2219,-6.327
78.9764,-6.0144
78.8116,-5.6635
78.6855,-5.2869
78.5367,-4.9246
78.3081,-4.6122
78.0292,-4.3261
77.7803,-4.0263
77.5079,-3.7374
77.2005,-3.4984
76.8705,-3.2848
76.5367,-3.0692
76.2128,-2.8535
75.8762,-2.6394
75.534,-2.4532
75.1797,-2.2767
74.8288,-2.0957
74.4798,-1.9201
74.1249,-1.7385
73.7775,-1.5636
73.4225,-1.3837
73.0725,-1.2069
72.7214,-1.0302
72.3674,-0.84934
72.0192,-0.67733
71.6639,-0.49254
71.3146,-0.32343
70.9627,-0.13791
70.5997,-0.0031219
70.2115,-0.0026166
