97.8342,-339.2545
98.15,-338.9996
98.4705,-338.75
98.7873,-338.4963
99.1065,-338.2452
99.4246,-337.9929
99.7428,-337.7407
100.0614,-337.489
100.3796,-337.2368
100.6979,-336.9847
101.0165,-336.7331
101.3345,-336.4806
101.6531,-336.2288
101.9787,-335.9864
102.3074,-335.7482
102.6384,-335.5128
102.9659,-335.2732
103.2639,-334.9995
103.5439,-334.7051
103.828,-334.4152
104.1092,-334.1223
104.3917,-333.8306
104.6746,-333.5395
104.9558,-333.2464
105.2393,-332.9559
105.5207,-332.6631
105.8033,-332.3716
106.086,-332.0802
106.3673,-331.7874
106.6508,-331.4968
106.9321,-331.2039
107.2149,-330.9126
107.4973,-330.6209
107.7788,-330.3283
108.0624,-330.0377
108.3433,-329.7446
108.6267,-329.4537
108.9086,-329.1616
109.1903,-328.8692
109.4742,-328.5787
109.7542,-328.2849
110.0392,-327.9953
110.3188,-327.7014
110.6032,-327.4111
110.8845,-327.1188
111.1098,-326.784
111.3112,-326.4323
111.5066,-326.0751
111.7115,-325.7261
112.0014,-325.448
112.3212,-325.1943
112.6256,-324.9286
112.9441,-324.6738
113.2519,-324.4108
113.5782,-324.1694
113.9175,-323.9443
114.2465,-323.711
114.5942,-323.4925
114.8713,-323.2175
115.0379,-322.8538
115.1701,-322.4617
115.3366,-322.0989
115.6306,-321.8536
116.0053,-321.6833
116.3595,-321.4914
116.7282,-321.3168
117.0875,-321.1289
117.3876,-320.8617
117.6718,-320.5698
117.9588,-320.2839
118.2429,-319.9931
118.5309,-319.7071
118.8241,-319.4266
119.1214,-319.1495
119.4149,-318.8694
119.7116,-318.5919
120.0241,-318.3328
120.339,-318.0768
120.6526,-317.8185
120.9673,-317.5623
121.2623,-317.2845
121.5373,-316.986
121.8122,-316.6872
122.0866,-316.3877
122.3621,-316.0897
122.6459,-315.7992
122.9317,-315.5108
123.2157,-315.2207
123.501,-314.9317
123.7783,-314.6356
124.0423,-314.3269
124.307,-314.0192
124.5707,-313.7104
124.8354,-313.4025
125.1166,-313.1101
125.4054,-312.8246
125.6941,-312.5392
125.9831,-312.2539
126.2734,-311.9702
126.5692,-311.6919
126.8631,-311.4118
127.1591,-311.1339
127.453,-310.8538
127.7309,-310.5581
128.0038,-310.2574
128.2766,-309.9567
128.5503,-309.6567
128.8223,-309.3554
129.0831,-309.0442
129.3422,-308.7315
129.603,-308.4204
129.8619,-308.1075
130.1259,-307.7993
130.4006,-307.5003
130.6786,-307.2043
130.9531,-306.9052
131.2308,-306.6089
131.4937,-306.3003
131.7347,-305.9735
131.976,-305.647
132.2158,-305.3193
132.4774,-305.0107
132.7726,-304.7321
133.0673,-304.4528
133.3648,-304.1762
133.6571,-303.8948
133.9191,-303.585
134.1738,-303.2684
134.4344,-302.9573
134.6917,-302.643
134.9601,-302.3388
135.2398,-302.0439
135.5119,-301.7432
135.7934,-301.4498
136.0569,-301.1427
136.2624,-300.7931
136.4634,-300.4401
136.6651,-300.0876
136.8704,-299.7378
137.1305,-299.4263
137.3969,-299.1195
137.6575,-298.8085
137.9222,-298.5003
138.1444,-298.1615
138.3552,-297.8143
138.5697,-297.4698
138.7788,-297.1215
138.9961,-296.7787
139.2079,-296.432
139.4264,-296.0902
139.6386,-295.7435
139.8593,-295.4036
140.1342,-295.1049
140.413,-294.8097
140.6894,-294.5122
140.9664,-294.2155
141.1896,-293.8789
141.3901,-293.5254
141.594,-293.1748
141.7947,-292.8214
142.0266,-292.4897
142.2812,-292.1733
142.5318,-291.854
142.7897,-291.5401
143.0376,-291.2189
143.2431,-290.8696
143.436,-290.5116
143.6389,-290.1602
143.8343,-289.8043
144.044,-289.4568
144.275,-289.1232
144.5048,-288.7883
144.7371,-288.4552
144.9669,-288.1207
145.1902,-287.7813
145.4122,-287.4416
145.6329,-287.1007
145.8556,-286.7612
146.0709,-286.4172
146.2765,-286.0668
146.4835,-285.7178
146.6868,-285.366
146.8959,-285.0182
147.1351,-284.6908
147.3846,-284.3698
147.6266,-284.0444
147.8748,-283.7226
148.0884,-283.3806
148.2488,-283.0078
148.4085,-282.6343
148.5674,-282.2608
148.7282,-281.8879
148.9283,-281.536
149.1474,-281.194
149.3631,-280.85
149.5823,-280.5083
149.7935,-280.1617
149.987,-279.8048
150.1773,-279.4461
150.3702,-279.0888
150.5613,-278.7306
150.7594,-278.3761
150.9581,-278.0221
151.1558,-277.6675
151.3548,-277.3135
151.5312,-276.9484
151.693,-276.5759
151.8559,-276.2041
152.0165,-275.8311
152.1817,-275.4603
152.3495,-275.0906
152.5206,-274.7223
152.6891,-274.3529
152.8593,-273.9843
153.0494,-273.6255
153.2426,-273.2685
153.4344,-272.9106
153.6288,-272.5541
153.8345,-272.2047
154.0605,-271.8668
154.2796,-271.5256
154.5057,-271.1877
154.7258,-270.847
154.8843,-270.4759
155.0175,-270.0922
155.1497,-269.7084
155.285,-269.3256
155.4595,-268.96
155.6502,-268.6012
155.8369,-268.2408
156.0262,-267.8816
156.2024,-267.5159
156.3668,-267.1448
156.5315,-266.7736
156.6962,-266.4025
156.86,-266.0311
157.0231,-265.6591
157.184,-265.2865
157.3473,-264.9146
157.5086,-264.5421
157.6502,-264.1619
157.7807,-263.7774
157.911,-263.3929
158.0415,-263.0083
158.178,-262.626
158.3178,-262.2448
158.4603,-261.8646
158.5994,-261.4831
158.7505,-261.1068
158.9316,-260.7433
159.1132,-260.3803
159.2963,-260.0177
159.4762,-259.654
159.6177,-259.2741
159.7443,-258.8881
159.8747,-258.5039
160.0027,-258.1183
160.1389,-257.736
160.2819,-257.356
160.4245,-256.9758
160.567,-256.5957
160.7147,-256.2174
160.8693,-255.8421
161.0269,-255.4678
161.1821,-255.0926
161.3382,-254.718
161.4994,-254.3449
161.6543,-253.9702
161.8188,-253.5982
161.9716,-253.2227
162.0618,-252.8277
162.1393,-252.4285
162.2235,-252.0316
162.3054,-251.6339
162.4366,-251.2511
162.592,-250.8757
162.7404,-250.498
162.8956,-250.1226
163.0448,-249.7451
163.1954,-249.368
163.3461,-248.9909
163.4948,-248.6132
163.6457,-248.2362
163.7859,-247.8552
163.9268,-247.4744
164.0689,-247.094
164.2082,-246.7127
164.3467,-246.331
164.4745,-245.9456
164.6037,-245.5607
164.7334,-245.176
164.8606,-244.7904
164.9913,-244.4059
165.1177,-244.0201
165.2478,-243.6355
165.3755,-243.25
165.4895,-242.8604
165.6018,-242.4702
165.7125,-242.0796
165.8254,-241.6896
165.9577,-241.3062
166.1076,-240.9289
166.2564,-240.5511
166.4056,-240.1735
166.5441,-239.7922
166.6542,-239.4014
166.7652,-239.0109
166.8751,-238.62
166.9861,-238.2295
167.1291,-237.8495
167.2734,-237.47
167.4183,-237.0906
167.5611,-236.7107
167.6604,-236.3174
167.7501,-235.9212
167.8461,-235.5269
167.9356,-235.1306
168.0355,-234.7372
168.1387,-234.3445
168.243,-233.9521
168.3492,-233.5602
168.451,-233.1671
168.5418,-232.7717
168.6198,-232.3731
168.7015,-231.9754
168.7822,-231.5776
168.8716,-231.1815
168.9766,-230.7893
169.0755,-230.3956
169.1806,-230.0033
169.2785,-229.6094
169.3533,-229.2103
169.4276,-228.8112
169.501,-228.4118
169.5753,-228.0126
169.6338,-227.6113
169.6753,-227.2069
169.724,-226.8045
169.7623,-226.3994
169.8258,-226.0002
169.9528,-225.6153
170.0904,-225.2326
170.2211,-224.8486
170.354,-224.4648
170.4719,-224.0763
170.5821,-223.6856
170.7002,-223.2969
170.8104,-222.9063
170.898,-222.5101
170.9768,-222.1117
171.0561,-221.7136
171.1371,-221.3156
171.2054,-220.9158
171.2475,-220.512
171.2883,-220.108
171.3285,-219.704
171.371,-219.3003
171.4497,-218.9026
171.5427,-218.5072
171.6334,-218.1115
171.7246,-217.7159
171.7858,-217.3151
171.8299,-216.9113
171.8791,-216.5084
171.9225,-216.1045
171.9835,-215.7038
172.0786,-215.3092
172.1788,-214.9156
172.2743,-214.5211
172.3742,-214.1274
172.4504,-213.7298
172.487,-213.3255
172.5202,-212.9207
172.5559,-212.5164
172.5905,-212.1118
172.665,-211.7142
172.7711,-211.3221
172.8724,-210.9291
172.98,-210.5373
173.0717,-210.1425
173.1211,-209.7398
173.165,-209.3359
173.2127,-208.9329
173.2586,-208.5294
173.3237,-208.1288
173.397,-207.7294
173.4674,-207.3295
173.5413,-206.9303
173.6105,-206.5302
173.6717,-206.1288
173.7294,-205.727
173.7905,-205.3255
173.8482,-204.9237
173.8846,-204.5195
173.9113,-204.1143
173.9411,-203.7094
173.9685,-203.3042
174.0016,-202.8996
174.0423,-202.4957
174.082,-202.0916
174.1236,-201.6877
174.161,-201.2834
174.1835,-200.878
174.2045,-200.4726
174.2257,-200.067
174.2483,-199.6618
174.3013,-199.2598
174.3718,-198.8598
174.4372,-198.4593
174.5083,-198.0592
174.5491,-197.657
174.542,-197.2512
174.5305,-196.8452
174.5225,-196.4394
174.512,-196.0334
174.5034,-195.6276
174.4941,-195.2215
174.4847,-194.8157
174.4761,-194.4098
174.4901,-194.0046
174.5288,-193.6005
174.5652,-193.196
174.6042,-192.7919
174.6318,-192.3872
174.6301,-191.9812
174.6256,-191.5752
174.6239,-191.1691
174.6193,-190.7631
174.6113,-190.3573
174.5982,-189.9513
174.5889,-189.5456
174.5754,-189.1396
174.5697,-188.7339
174.5941,-188.3287
174.623,-187.9235
174.6479,-187.5184
174.6761,-187.1132
174.6825,-186.7079
174.6653,-186.3023
174.6477,-185.8966
174.6295,-185.491
174.613,-185.0853
174.6245,-184.6801
174.6563,-184.2752
174.6828,-183.8702
174.7158,-183.4653
174.7413,-183.0603
174.7316,-182.6548
174.7099,-182.2491
174.6957,-181.8434
174.6754,-181.4379
174.6313,-181.0347
174.5708,-180.6334
174.5113,-180.2316
174.4517,-179.83
174.3971,-179.4278
174.3533,-179.024
174.3119,-178.6203
174.2664,-178.2166
174.2278,-177.8126
174.2136,-177.407
174.2049,-177.0009
174.1925,-176.5952
174.1812,-176.1892
174.1463,-175.785
174.1002,-175.3816
174.0595,-174.9775
174.0134,-174.5742
173.9745,-174.17
173.9412,-173.7654
173.9078,-173.3608
173.8766,-172.9558
173.8419,-172.5515
173.8074,-172.1467
173.7709,-171.7424
173.7345,-171.3381
173.7001,-170.9334
173.6721,-170.5286
173.6527,-170.1228
173.6292,-169.7176
173.6083,-169.3121
173.5535,-168.9119
173.4439,-168.521
173.3374,-168.1293
173.2269,-167.7384
173.1206,-167.3467
173.0627,-166.9455
173.0167,-166.542
172.9674,-166.139
172.9215,-165.7355
172.8815,-165.3318
172.8557,-164.9262
172.8263,-164.5216
172.7995,-164.1162
172.771,-163.7113
172.7346,-163.3071
172.7005,-162.9021
172.6633,-162.4982
172.6286,-162.0934
172.5207,-161.7118
172.3158,-161.3604
172.1183,-161.0069
171.9095,-160.6569
171.7148,-160.3024
171.6405,-159.9104
171.6123,-159.5037
171.5733,-159.1008
171.5409,-158.6953
171.474,-158.296
171.3827,-157.9004
171.294,-157.504
171.2029,-157.1085
171.1126,-156.7125
171.0129,-156.3191
170.9082,-155.9266
170.8073,-155.5335
170.7038,-155.1408
170.5998,-154.7483
170.4801,-154.3606
170.3536,-153.9744
170.2362,-153.5861
170.1093,-153.2
170.0231,-152.8061
170.0005,-152.4008
169.977,-151.9958
169.9594,-151.5894
169.9154,-151.1885
169.7894,-150.8033
169.6497,-150.4212
169.5231,-150.0361
169.3847,-149.6538
169.229,-149.2798
169.055,-148.9123
168.8905,-148.5416
168.7158,-148.1745
168.563,-147.8003
168.4968,-147.4007
168.4426,-146.9974
168.3775,-146.5973
168.3211,-146.1947
168.2172,-145.8041
168.0827,-145.421
167.9483,-145.038
167.8124,-144.6552
167.678,-144.2723
167.5146,-143.9012
167.3323,-143.5383
167.1542,-143.1737
166.9699,-142.8114
166.8035,-142.4421
166.6691,-142.059
166.5407,-141.6737
166.408,-141.2901
166.2775,-140.9055
166.1465,-140.5213
166.0144,-140.1373
165.884,-139.7528
165.7521,-139.3689
165.6266,-138.9826
165.5071,-138.5947
165.3849,-138.2075
165.2669,-137.8189
165.1363,-137.435
164.9759,-137.062
164.809,-136.6919
164.6482,-136.319
164.4799,-135.9495
164.3001,-135.5856
164.118,-135.2226
163.9367,-134.8594
163.7558,-134.4958
163.5825,-134.1288
163.4153,-133.7588
163.2471,-133.3892
163.0793,-133.0195
162.9097,-132.6505
162.7341,-132.2845
162.5593,-131.918
162.3839,-131.5518
162.2087,-131.1856
162.0551,-130.8102
161.919,-130.4278
161.783,-130.0452
161.6478,-129.6622
161.4981,-129.2855
161.3257,-128.9178
161.1491,-128.5523
160.977,-128.1845
160.8008,-127.8186
160.6072,-127.4623
160.4014,-127.1122
160.1955,-126.7623
159.9907,-126.4117
159.7918,-126.0577
159.5975,-125.7013
159.4035,-125.3446
159.2077,-124.9889
159.0167,-124.6307
158.842,-124.2642
158.6712,-123.8958
158.4974,-123.5288
158.325,-123.1613
158.1422,-122.7988
157.9527,-122.4397
157.7664,-122.079
157.5769,-121.7198
157.3803,-121.3648
157.1772,-121.0132
156.9725,-120.6624
156.7711,-120.31
156.5648,-119.9602
156.3448,-119.6191
156.1211,-119.2802
155.8997,-118.9398
155.6778,-118.5999
155.4676,-118.2526
155.2665,-117.8999
155.0627,-117.5488
154.8613,-117.1961
154.6577,-116.845
154.4501,-116.4959
154.2427,-116.1469
154.0346,-115.7983
153.8273,-115.4491
153.6058,-115.1094
153.3682,-114.7799
153.1312,-114.4504
152.8933,-114.1213
152.6589,-113.7898
152.433,-113.4525
152.2066,-113.1154
151.9819,-112.7773
151.7542,-112.4411
151.5064,-112.1198
151.2489,-111.8058
150.996,-111.4882
150.7391,-111.1738
150.4882,-110.8547
150.2518,-110.5246
150.0158,-110.1943
149.7801,-109.8635
149.544,-109.5333
149.3077,-109.2031
149.073,-108.8717
148.8348,-108.5432
148.6019,-108.21
148.3524,-107.8914
148.0637,-107.6064
147.7679,-107.3278
147.4778,-107.0441
147.184,-106.7635
146.8916,-106.4819
146.6001,-106.1994
146.306,-105.9192
146.0153,-105.6361
145.7427,-105.3358
145.4844,-105.0226
145.2248,-104.7103
144.9655,-104.398
144.7065,-104.0852
144.4473,-103.7727
144.1876,-103.4607
143.9295,-103.1471
143.6685,-102.8362
143.3859,-102.5455
143.0915,-102.2655
142.8009,-101.9821
142.5076,-101.7012
142.2162,-101.4186
141.9264,-101.1342
141.6352,-100.8512
141.3462,-100.5661
141.0539,-100.2842
140.7562,-100.0082
140.457,-99.7337
140.1584,-99.4585
139.8601,-99.1832
139.5741,-98.8955
139.3039,-98.5925
139.0314,-98.2916
138.7615,-97.988
138.4887,-97.6875
138.192,-97.4107
137.8893,-97.14
137.5894,-96.8664
137.2874,-96.5949
136.9913,-96.3171
136.6965,-96.038
136.4004,-95.76
136.1061,-95.4804
135.8102,-95.2023
135.5148,-94.9238
135.2205,-94.6441
134.923,-94.3676
134.6308,-94.086
134.3626,-93.7816
134.1038,-93.4684
133.8385,-93.1613
133.578,-92.8497
133.2999,-92.555
132.9971,-92.2845
132.6965,-92.0117
132.3925,-91.7423
132.0968,-91.4647
131.8252,-91.163
131.5558,-90.8591
131.2853,-90.5564
131.0154,-90.2531
130.7445,-89.9507
130.4758,-89.646
130.203,-89.3457
129.9364,-89.0388
129.6618,-88.7405
129.3474,-88.485
129.0207,-88.2429
128.7017,-87.9924
128.3771,-87.748
128.0514,-87.5058
127.7233,-87.2667
127.3936,-87.0295
127.0665,-86.7893
126.7367,-86.5521
126.4088,-86.3129
126.0806,-86.0738
125.7507,-85.8369
125.4256,-85.5941
125.1067,-85.3426
124.7936,-85.0843
124.4744,-84.8329
124.161,-84.5752
123.8772,-84.2858
123.6039,-83.9853
123.3277,-83.6878
123.0535,-83.3883
122.778,-83.0901
122.5033,-82.7911
122.2282,-82.4925
121.9531,-82.1938
121.6783,-81.8949
121.4029,-81.5966
121.1286,-81.2972
120.8526,-80.9996
120.5789,-80.6994
120.291,-80.4147
119.9733,-80.1622
119.6519,-79.9137
119.3342,-79.6612
119.0132,-79.4122
118.6947,-79.1606
118.3748,-78.9106
118.0551,-78.6601
117.7362,-78.409
117.4159,-78.1593
117.0971,-77.9079
116.7772,-77.658
116.4577,-77.4073
116.1385,-77.1564
115.8185,-76.9065
115.4996,-76.6552
115.1796,-76.4053
114.8603,-76.1545
114.541,-75.9038
114.221,-75.6537
113.9021,-75.4025
113.582,-75.1526
113.2628,-74.9017
112.9434,-74.6511
112.6234,-74.4011
112.3046,-74.1497
111.9844,-73.9001
111.6654,-73.6487
111.3491,-73.3944
111.0336,-73.1387
110.7185,-72.8826
110.4028,-72.6274
110.0881,-72.3707
109.7735,-72.1142
109.4585,-71.8578
109.1444,-71.6006
108.8294,-71.3446
108.5147,-71.0877
108.2007,-70.8307
107.8849,-70.5751
107.5718,-70.3168
107.2727,-70.043
106.9848,-69.7563
106.6948,-69.4724
106.4055,-69.1874
106.1169,-68.9017
105.8262,-68.6186
105.5378,-68.3323
105.2477,-68.0487
104.9579,-67.7641
104.6696,-67.478
104.3679,-67.2076
104.0481,-66.9573
103.7236,-66.7134
103.4029,-66.4642
103.0805,-66.2175
102.7581,-65.9708
102.4376,-65.7212
102.1144,-65.476
101.7934,-65.2268
101.4709,-64.9804
101.1472,-64.7354
100.8268,-64.4854
100.5007,-64.2446
100.1707,-64.0069
99.8378,-63.7753
99.5054,-63.5419
99.1754,-63.3047
98.8385,-63.0799
98.5057,-62.8441
98.1689,-62.6216
97.8325,-62.389
97.5011,-62.1598
97.1043,-62.1208
96.7083,-62.1217
96.4743,-61.8539
96.3197,-61.4685
96.0709,-61.1772
95.7283,-60.9619
95.3706,-60.7669
95.0224,-60.5597
94.6672,-60.3618
94.3095,-60.1706
93.9542,-59.9733
93.5958,-59.783
93.2399,-59.5874
92.8829,-59.3938
92.5255,-59.2016
92.1698,-59.0053
91.8118,-58.8141
91.4558,-58.6185
91.0988,-58.4253
90.7416,-58.2324
90.3856,-58.0367
90.0278,-57.8452
89.6719,-57.6495
89.3146,-57.4567
88.9577,-57.2633
88.6016,-57.0678
88.2436,-56.8767
87.8883,-56.68
87.53,-56.4888
87.1844,-56.2781
86.8641,-56.0282
86.5438,-55.7795
86.2251,-55.5268
85.9033,-55.2802
85.552,-55.0787
85.1901,-54.8934
84.8325,-54.7024
84.4717,-54.5151
84.1126,-54.3262
83.7532,-54.1371
83.393,-53.9494
83.0343,-53.7599
82.674,-53.5718
82.3148,-53.3833
81.9554,-53.1941
81.5952,-53.0064
81.2364,-52.817
80.8762,-52.6288
80.5169,-52.4405
80.1577,-52.2509
79.7973,-52.0637
79.4387,-51.8738
79.0784,-51.6858
78.7189,-51.4978
78.3602,-51.3073
77.9988,-51.1217
77.6417,-50.9295
77.2797,-50.7442
76.9251,-50.5486
76.609,-50.2933
76.2914,-50.0411
75.9389,-49.8409
75.5771,-49.6538
75.2266,-49.4518
74.9133,-49.1984
74.6276,-48.9091
74.3355,-48.6273
74.0449,-48.3439
73.7377,-48.0811
73.3958,-47.8599
73.0647,-47.6273
72.7817,-47.3382
72.5158,-47.0306
72.243,-46.7306
72.0096,-46.3994
71.8011,-46.0519
71.5934,-45.7026
71.4407,-45.3267
71.2869,-44.9508
71.1308,-44.5756
71.0807,-44.1787
71.0649,-43.7729
71.0671,-43.3678
71.1657,-42.975
71.2806,-42.585
71.3815,-42.1917
71.484,-41.7991
71.5796,-41.4044
71.7685,-41.0594
72.0463,-40.7632
72.2732,-40.432
72.4461,-40.0652
72.6192,-39.6978
72.789,-39.3285
72.9954,-38.9837
73.2609,-38.6768
73.5348,-38.3768
73.8017,-38.071
74.0726,-37.7684
74.3435,-37.4662
74.5887,-37.1448
74.7844,-36.7906
74.9714,-36.4287
75.1668,-36.0737
75.3555,-35.714
75.5483,-35.3561
75.74,-34.9992
75.9302,-34.6394
76.0745,-34.2653
76.1545,-33.8666
76.2386,-33.4691
76.3185,-33.0721
76.4031,-32.6735
76.538,-32.2924
76.6828,-31.912
76.789,-31.5225
76.8345,-31.1214
76.8685,-30.7139
76.8956,-30.3127
76.8614,-29.9059
76.8301,-29.5016
76.7997,-29.0979
76.7663,-28.691
76.8312,-28.2994
76.955,-27.9106
77.039,-27.5183
77.0435,-27.1149
77.0235,-26.7042
77.0334,-26.3044
76.9963,-25.8923
76.992,-25.4926
77.1598,-25.145
77.4144,-24.8249
77.6574,-24.5018
77.8725,-24.1578
78.0728,-23.8047
78.2689,-23.4497
78.4688,-23.0953
78.6649,-22.7411
78.8286,-22.3681
78.9969,-22
79.159,-21.6265
79.3277,-21.258
79.5944,-20.9604
79.8965,-20.6876
80.1919,-20.4108
80.4963,-20.1397
80.7871,-19.8589
81.088,-19.5835
81.3406,-19.2712
81.5361,-18.9191
81.7171,-18.551
81.917,-18.2074
82.2743,-18.005
82.6198,-17.8059
82.7083,-17.4389
82.7133,-17.0285
82.7437,-16.6287
82.7738,-16.2195
82.8372,-15.8221
82.8964,-15.418
82.9514,-15.0166
83.0301,-14.6191
83.1277,-14.2238
83.2341,-13.8341
83.3375,-13.4388
83.4366,-13.0478
83.4479,-12.6536
83.343,-12.2588
83.2552,-11.8653
83.2367,-11.4595
83.2387,-11.054
83.2349,-10.6481
83.2235,-10.2415
83.2033,-9.8374
83.1174,-9.4455
82.9521,-9.077
82.7819,-8.7069
82.6082,-8.3406
82.4091,-7.9872
82.2119,-7.6312
82.0134,-7.2781
81.8152,-6.9229
81.6081,-6.5746
81.3817,-6.2366
81.1662,-5.894
80.933,-5.5586
80.7248,-5.2138
80.6779,-4.8237
80.7023,-4.4119
80.5756,-4.0643
80.2787,-3.8019
79.9497,-3.5505
79.6456,-3.2884
79.3402,-3.0192
79.0422,-2.741
78.7445,-2.4699
78.4408,-2.1947
78.141,-1.9252
77.8303,-1.6623
77.5267,-1.3902
77.2198,-1.1302
76.8927,-0.88225
76.5662,-0.64842
76.2324,-0.41333
75.9061,-0.16828
75.5549,-0.019333
