99.2832,-336.9076
99.6167,-336.678
99.9503,-336.4492
100.2833,-336.2189
100.6246,-336.0028
100.9842,-335.817
101.3424,-335.6291
101.7042,-335.4466
102.06,-335.2553
102.3705,-334.9974
102.6699,-334.7237
102.9788,-334.4635
103.2791,-334.1908
103.6158,-333.9855
104.0076,-333.8875
104.4015,-333.7946
104.7488,-333.6082
105.0531,-333.343
105.3606,-333.0783
105.664,-332.8119
105.9318,-332.5085
106.1903,-332.1972
106.4534,-331.8899
106.7122,-331.5783
106.9793,-331.2749
107.258,-330.9811
107.5387,-330.6898
107.8184,-330.3973
108.0983,-330.1048
108.3786,-329.8131
108.6582,-329.5203
108.9384,-329.2285
109.2183,-328.9362
109.4982,-328.6437
109.7784,-328.3519
110.0581,-328.0592
110.3383,-327.7673
110.6182,-327.475
110.8981,-327.1825
111.1783,-326.8907
111.458,-326.598
111.7382,-326.3061
112.0181,-326.0138
112.2979,-325.7213
112.5782,-325.4295
112.8579,-325.1368
113.1381,-324.8449
113.418,-324.5526
113.6978,-324.2601
113.9782,-323.9684
114.2577,-323.6757
114.538,-323.3837
114.8179,-323.0915
115.0977,-322.7989
115.3781,-322.5072
115.6576,-322.2145
115.9379,-321.9225
116.2179,-321.6304
116.4975,-321.3377
116.778,-321.0461
117.0575,-320.7533
117.3377,-320.4613
117.6178,-320.1692
117.8973,-319.8764
118.178,-319.585
118.4573,-319.2921
118.7376,-319.0001
119.0178,-318.7081
119.297,-318.4151
119.5781,-318.124
119.857,-317.8308
120.1375,-317.5389
120.4178,-317.2471
120.6965,-316.9536
120.9786,-316.6633
121.2461,-316.3603
121.4949,-316.0413
121.7409,-315.7199
121.9873,-315.3986
122.2362,-315.0799
122.4798,-314.7562
122.7338,-314.4419
123.0226,-314.1591
123.3194,-313.8831
123.6094,-313.6013
123.8981,-313.3176
124.182,-313.029
124.4692,-312.7442
124.7532,-312.4554
125.0436,-312.1744
125.3598,-311.9219
125.6803,-311.6745
125.9967,-311.4224
126.3166,-311.1742
126.6396,-310.9307
126.9655,-310.6905
127.2896,-310.4483
127.6158,-310.2085
127.9203,-309.9451
128.1858,-309.6402
128.4476,-309.3311
128.7129,-309.0259
128.9788,-308.7206
129.2583,-308.4281
129.5385,-308.136
129.817,-307.8423
130.0905,-307.5444
130.3498,-307.2335
130.6088,-306.9226
130.8699,-306.6134
131.1274,-306.3011
131.3767,-305.9825
131.6192,-305.6584
131.8644,-305.3365
132.1084,-305.0136
132.3659,-304.7022
132.6465,-304.4106
132.928,-304.1198
133.2071,-303.8267
133.4903,-303.5376
133.7832,-303.2588
134.084,-302.9876
134.3804,-302.7122
134.6788,-302.4388
134.9677,-302.1557
135.2412,-301.8574
135.5199,-301.564
135.7935,-301.2656
136.0712,-300.9715
136.3691,-300.6971
136.6638,-300.4206
136.9648,-300.1488
137.2577,-299.8706
137.4945,-299.5461
137.7042,-299.1993
137.919,-298.8568
138.1312,-298.5119
138.3642,-298.1823
138.6239,-297.8718
138.8817,-297.5599
139.1416,-297.2496
139.3994,-296.9376
139.6291,-296.6051
139.8486,-296.2649
140.071,-295.9269
140.2902,-295.5866
140.5356,-295.2664
140.8085,-294.9677
141.0814,-294.6688
141.3565,-294.3718
141.6202,-294.0657
141.8571,-293.7377
142.0869,-293.4044
142.3237,-293.0762
142.5543,-292.7437
142.7568,-292.3944
142.9409,-292.0339
143.1274,-291.6747
143.312,-291.3146
143.4999,-290.9562
143.6976,-290.603
143.8976,-290.2512
144.0951,-289.8979
144.295,-289.5461
144.5246,-289.2148
144.7835,-288.9036
145.0415,-288.5919
145.2996,-288.2802
145.5585,-287.969
145.8167,-287.6575
146.0784,-287.3486
146.3356,-287.0363
146.5986,-286.7284
146.8547,-286.4153
147.0744,-286.076
147.2851,-285.7301
147.5022,-285.3888
147.7146,-285.0442
147.9321,-284.7029
148.1504,-284.3622
148.3678,-284.0207
148.587,-283.6805
148.7917,-283.3317
148.9843,-282.9758
149.1761,-282.6195
149.3682,-282.2632
149.5602,-281.907
149.7481,-281.5485
149.9351,-281.1896
150.1232,-280.8313
150.31,-280.4722
150.4979,-280.1138
150.6852,-279.755
150.8725,-279.3962
151.0604,-279.0378
151.2473,-278.6788
151.4352,-278.3204
151.6224,-277.9616
151.8098,-277.6029
151.9977,-277.2444
152.1844,-276.8854
152.3727,-276.5271
152.5593,-276.1681
152.7476,-275.8097
152.9343,-275.4507
153.1058,-275.0843
153.2702,-274.7145
153.4346,-274.3448
153.6002,-273.9753
153.7523,-273.6011
153.8697,-273.2138
153.984,-272.8256
154.1,-272.4377
154.2172,-272.0507
154.4104,-271.7014
154.6566,-271.3787
154.8875,-271.0481
155.1375,-270.7273
155.3667,-270.3957
155.5152,-270.0211
155.6441,-269.6361
155.7858,-269.2578
155.9196,-268.8754
156.0358,-268.4882
156.1382,-268.0969
156.2419,-267.7054
156.3429,-267.3136
156.463,-266.9282
156.6286,-266.5593
156.8026,-266.1936
156.9686,-265.8247
157.1406,-265.4583
157.3145,-265.0929
157.4928,-264.7296
157.6728,-264.367
157.8507,-264.0036
158.0295,-263.6405
158.2002,-263.2735
158.3671,-262.9049
158.5395,-262.5386
158.7058,-262.1697
158.8536,-261.7934
158.9905,-261.4124
159.1291,-261.0322
159.2677,-260.652
159.4093,-260.2728
159.5599,-259.8972
159.7103,-259.5215
159.8598,-259.1454
160.0112,-258.7701
160.1612,-258.3942
160.3129,-258.019
160.4639,-257.6435
160.6144,-257.2679
160.7689,-256.8938
160.9235,-256.5198
161.0789,-256.1461
161.2347,-255.7726
161.3812,-255.3955
161.5157,-255.0139
161.6471,-254.631
161.7814,-254.2492
161.9137,-253.8668
162.0441,-253.4836
162.1744,-253.1005
162.3033,-252.7168
162.4341,-252.3339
162.5609,-251.9496
162.6798,-251.5627
162.7966,-251.1753
162.9154,-250.7883
163.0324,-250.4009
163.1294,-250.0085
163.2112,-249.612
163.2942,-249.216
163.3763,-248.8196
163.4892,-248.4329
163.6449,-248.0593
163.801,-247.6859
163.9565,-247.3123
164.1129,-246.9389
164.2466,-246.5575
164.3672,-246.1712
164.4868,-245.7845
164.6069,-245.3981
164.7261,-245.0113
164.8393,-244.6228
164.9535,-244.2345
165.0667,-243.8459
165.1806,-243.4576
165.3033,-243.0719
165.4275,-242.6868
165.5523,-242.3018
165.6763,-241.9165
165.8079,-241.5341
165.9576,-241.1579
166.1074,-240.7821
166.2574,-240.4061
166.4068,-240.03
166.5303,-239.6452
166.6382,-239.2551
166.748,-238.8656
166.8557,-238.4755
166.9707,-238.0875
167.095,-237.7024
167.2193,-237.3172
167.3451,-236.9326
167.4679,-236.547
167.5762,-236.1571
167.6783,-235.7655
167.7848,-235.375
167.8883,-234.9837
167.9962,-234.5937
168.1132,-234.2062
168.2276,-233.8181
168.3455,-233.4309
168.4595,-233.0426
168.5566,-232.6498
168.6515,-232.2563
168.7478,-231.8633
168.8432,-231.4699
168.9423,-231.0776
169.0433,-230.6857
169.1455,-230.294
169.2465,-229.9022
169.3483,-229.5105
169.4524,-229.1194
169.5561,-228.7282
169.6605,-228.3371
169.7646,-227.9461
169.8795,-227.5581
170.003,-227.1726
170.1214,-226.7858
170.2465,-226.4006
170.3582,-226.0122
170.4341,-225.6148
170.5054,-225.2163
170.579,-224.8185
170.6525,-224.4204
170.7433,-224.0262
170.8417,-223.6336
170.9386,-223.2407
171.0362,-222.848
171.1402,-222.4569
171.2547,-222.0687
171.3682,-221.6803
171.4842,-221.2924
171.596,-220.9037
171.6833,-220.5086
171.7628,-220.1117
171.847,-219.7159
171.9282,-219.3194
172.0073,-218.9225
172.0818,-218.5247
172.1555,-218.1268
172.2293,-217.7289
172.3091,-217.3322
172.4088,-216.9401
172.512,-216.5487
172.6124,-216.1567
172.7135,-215.7648
172.7909,-215.3678
172.8569,-214.9684
172.9298,-214.5704
172.9959,-214.171
173.0791,-213.7754
173.1838,-213.3842
173.2835,-212.9924
173.3926,-212.6021
173.4896,-212.2096
173.5398,-211.8086
173.579,-211.4053
173.6251,-211.0035
173.6683,-210.601
173.7213,-210.1998
173.7812,-209.7996
173.8385,-209.3989
173.8971,-208.9985
173.961,-208.599
174.0353,-208.2011
174.1129,-207.804
174.1872,-207.4061
174.2639,-207.0087
174.3417,-206.6116
174.4188,-206.2143
174.4976,-205.8173
174.5745,-205.4199
174.6484,-205.0221
174.7201,-204.6238
174.7923,-204.2255
174.8642,-203.8273
174.9225,-203.427
174.9682,-203.0249
175.0156,-202.623
175.0608,-202.2207
175.1084,-201.8189
175.1712,-201.4191
175.2363,-201.0197
175.3,-200.62
175.3654,-200.2206
175.4165,-199.8195
175.4488,-199.4161
175.4758,-199.0123
175.5094,-198.6089
175.5331,-198.2051
175.5237,-197.8007
175.5079,-197.3961
175.4968,-196.9916
175.4833,-196.5872
175.5109,-196.1852
175.5762,-195.7856
175.637,-195.3858
175.7039,-194.9863
175.7558,-194.5857
175.7634,-194.1812
175.7643,-193.7763
175.7706,-193.3719
175.7735,-192.967
175.7979,-192.5635
175.8393,-192.1608
175.8766,-191.7579
175.9198,-191.3554
175.9549,-190.9523
175.9589,-190.5479
175.956,-190.143
175.959,-189.7384
175.9575,-189.3337
175.9697,-188.9293
175.9997,-188.5258
176.0288,-188.1221
176.0606,-187.7186
176.0878,-187.315
176.0912,-186.9102
176.0888,-186.5056
176.0916,-186.1009
176.0908,-185.6961
176.1064,-185.292
176.138,-184.8884
176.1646,-184.4848
176.1987,-184.0812
176.224,-183.6775
176.2146,-183.2733
176.1962,-182.8687
176.1832,-182.4644
176.1671,-182.0599
176.1376,-181.6565
176.0913,-181.2546
176.0455,-180.8524
175.998,-180.4505
175.9538,-180.0483
175.9391,-179.6442
175.9376,-179.2395
175.9316,-178.8348
175.9285,-178.4301
175.9276,-178.0254
175.9299,-177.6207
175.934,-177.216
175.9368,-176.8113
175.9389,-176.4067
175.9307,-176.0019
175.9143,-175.5978
175.909,-175.1926
175.8903,-174.7889
175.8058,-174.3958
175.6876,-174.0079
175.5807,-173.618
175.4654,-173.2299
175.3826,-172.8358
175.3585,-172.432
175.3357,-172.0279
175.3126,-171.6238
175.2895,-171.2198
175.2435,-170.8178
175.1945,-170.416
175.1451,-170.0145
175.0958,-169.6126
175.042,-169.2118
174.9688,-168.8136
174.8971,-168.4154
174.8235,-168.0174
174.7521,-167.619
174.7176,-167.2164
174.6967,-166.8121
174.6716,-166.4083
174.6515,-166.004
174.6077,-165.6025
174.5308,-165.2054
174.4492,-164.8089
174.3706,-164.4118
174.2917,-164.015
174.2238,-163.6159
174.1592,-163.2165
174.0908,-162.8176
174.0255,-162.4181
173.9373,-162.0239
173.8251,-161.6348
173.715,-161.2456
173.6025,-160.8568
173.4912,-160.4676
173.3691,-160.0822
173.2322,-159.7008
173.1032,-159.3178
172.9643,-158.937
172.8355,-158.5538
172.7519,-158.1589
172.6835,-157.7596
172.6137,-157.3612
172.5426,-156.9626
172.5073,-156.5618
172.5265,-156.1574
172.5433,-155.7536
172.5665,-155.3486
172.5799,-154.9452
172.5051,-154.5523
172.3848,-154.165
172.2709,-153.7774
172.1557,-153.3889
172.0358,-153.0027
171.8916,-152.6248
171.7384,-152.2497
171.5929,-151.8726
171.4429,-151.4963
171.285,-151.1241
171.11,-150.7593
170.9319,-150.3956
170.7556,-150.0316
170.5806,-149.6665
170.4413,-149.2872
170.3151,-148.9023
170.1793,-148.5212
170.0517,-148.1371
169.9052,-147.76
169.7416,-147.3899
169.5836,-147.0175
169.4165,-146.6485
169.2617,-146.2751
169.1399,-145.8892
169.0251,-145.5011
168.9064,-145.1142
168.789,-144.7268
168.6613,-144.3432
168.5168,-143.965
168.3709,-143.5876
168.2281,-143.2089
168.0808,-142.8318
167.926,-142.4582
167.7645,-142.0869
167.6054,-141.7149
167.4457,-141.343
167.2879,-140.9702
167.1429,-140.5926
166.997,-140.2149
166.8509,-139.8376
166.7063,-139.4596
166.5473,-139.0874
166.3817,-138.7184
166.2145,-138.3496
166.0474,-137.9812
165.8816,-137.612
165.7104,-137.245
165.5436,-136.8767
165.372,-136.5097
165.2049,-136.1415
165.0765,-135.7582
164.9589,-135.3708
164.8391,-134.9844
164.7209,-134.5971
164.56,-134.2284
164.3625,-133.8752
164.1641,-133.5223
163.9665,-133.1693
163.768,-132.8165
163.5623,-132.468
163.3545,-132.1208
163.1484,-131.7723
162.9404,-131.4253
162.7392,-131.0742
162.5418,-130.7207
162.3472,-130.3662
162.1491,-130.0128
161.9556,-129.6579
161.8044,-129.2832
161.67,-128.901
161.5259,-128.5236
161.3925,-128.1404
161.2164,-127.781
160.9715,-127.4596
160.7203,-127.1416
160.4721,-126.8224
160.2241,-126.5024
160.0084,-126.1614
159.8134,-125.8065
159.6152,-125.4537
159.4188,-125.1
159.2317,-124.7411
159.0538,-124.3779
158.8774,-124.0134
158.7004,-123.6495
158.5181,-123.2884
158.3191,-122.9358
158.117,-122.5855
157.9172,-122.2333
157.7172,-121.8816
157.5464,-121.5154
157.3914,-121.141
157.2286,-120.7712
157.0734,-120.3967
156.8751,-120.0485
156.6164,-119.7374
156.3604,-119.4242
156.0979,-119.1156
155.8441,-118.801
155.6463,-118.4493
155.462,-118.0886
155.2745,-117.7301
155.0864,-117.3718
154.8666,-117.0326
154.6353,-116.7001
154.4095,-116.3645
154.1795,-116.0314
153.9519,-115.6968
153.7235,-115.3628
153.4947,-115.0288
153.2667,-114.6946
153.0381,-114.3605
152.8264,-114.0161
152.6305,-113.662
152.4346,-113.3077
152.2384,-112.9539
152.0425,-112.5997
151.8441,-112.247
151.6454,-111.8945
151.4483,-111.5408
151.2481,-111.1894
151.0358,-110.8449
150.813,-110.507
150.594,-110.1667
150.3728,-109.8277
150.1204,-109.5138
149.8392,-109.2231
149.5566,-108.9329
149.2746,-108.643
148.9938,-108.3515
148.7274,-108.0468
148.4666,-107.7376
148.2007,-107.4321
147.9385,-107.124
147.6728,-106.8188
147.4017,-106.5179
147.1376,-106.212
146.8635,-105.913
146.6008,-105.6063
146.4005,-105.2575
146.225,-104.8922
146.0432,-104.531
145.8649,-104.1674
145.6523,-103.8258
145.4027,-103.5069
145.1518,-103.1896
144.9036,-102.8698
144.6511,-102.5536
144.3687,-102.266
144.0655,-101.9969
143.7683,-101.723
143.466,-101.4533
143.2085,-101.1487
143.021,-100.7904
142.8343,-100.4313
142.6486,-100.0714
142.4599,-99.714
142.1963,-99.4151
141.8877,-99.152
141.5878,-98.8816
141.2784,-98.6191
140.9931,-98.3355
140.7582,-98.0065
140.5269,-97.6741
140.2964,-97.3414
140.0592,-97.0139
139.7741,-96.7278
139.4765,-96.4521
139.1923,-96.1649
138.8957,-95.8887
138.6108,-95.6017
138.3534,-95.2899
138.0992,-94.9746
137.8442,-94.6605
137.589,-94.3465
137.3383,-94.0286
137.093,-93.7068
136.8436,-93.3882
136.6006,-93.0642
136.3495,-92.7473
136.0638,-92.461
135.7703,-92.1821
135.483,-91.8971
135.1914,-91.6163
134.9188,-91.3186
134.6681,-91.0005
134.4185,-90.6824
134.1674,-90.3646
133.9187,-90.0454
133.6865,-89.7146
133.4625,-89.3767
133.2334,-89.0439
133.0096,-88.706
132.7509,-88.4001
132.4376,-88.1449
132.1208,-87.8921
131.8065,-87.638
131.4907,-87.3843
131.1888,-87.1148
130.8882,-86.8442
130.5849,-86.5756
130.286,-86.3034
130.0093,-86.0091
129.7492,-85.698
129.4802,-85.3971
129.2208,-85.0844
128.937,-84.8024
128.5864,-84.6021
128.2283,-84.4117
127.8756,-84.2145
127.5201,-84.0203
127.2089,-83.7679
126.9246,-83.4787
126.6343,-83.1979
126.3523,-82.9065
126.0599,-82.6275
125.7313,-82.3927
125.3941,-82.1674
125.0632,-81.9352
124.7291,-81.7068
124.4351,-81.4354
124.1903,-81.1131
123.9417,-80.7938
123.6966,-80.4716
123.4496,-80.1511
123.1715,-79.8578
122.8873,-79.5699
122.5995,-79.2851
122.3149,-78.9975
122.0676,-78.6806
121.8533,-78.3379
121.645,-77.9897
121.3919,-77.6818
121.079,-77.4268
120.7556,-77.1816
120.4407,-76.9287
120.1349,-76.6635
119.8401,-76.3866
119.5459,-76.1085
119.2496,-75.8328
118.9379,-75.5765
118.6075,-75.3425
118.2769,-75.1091
117.9476,-74.874
117.6121,-74.6475
117.273,-74.4268
116.9343,-74.2052
116.5939,-73.9862
116.2559,-73.7638
115.9248,-73.5311
115.5954,-73.2959
115.2672,-73.0592
114.9357,-72.8268
114.6096,-72.5876
114.3054,-72.3209
114.0065,-72.0478
113.7036,-71.7795
113.4032,-71.5083
113.1016,-71.2384
112.8008,-70.9677
112.4989,-70.6982
112.199,-70.4262
111.8937,-70.1611
111.5662,-69.9236
111.2348,-69.691
110.9066,-69.4544
110.5764,-69.2202
110.2586,-68.9701
109.9475,-68.7112
109.6352,-68.4538
109.324,-68.195
109.0152,-67.9336
108.7144,-67.6629
108.4142,-67.3913
108.1133,-67.1208
107.8128,-66.8497
107.5039,-66.5883
107.1927,-66.3296
106.8824,-66.0697
106.5713,-65.8109
106.2549,-65.5589
105.9271,-65.3215
105.5991,-65.0844
105.2715,-64.8468
104.9475,-64.6046
104.6356,-64.3467
104.3231,-64.0896
104.0116,-63.8311
103.6904,-63.5864
103.3422,-63.3805
102.9916,-63.1781
102.643,-62.9726
102.2933,-62.7688
101.9625,-62.5364
101.6381,-62.2941
101.3112,-62.0559
100.9869,-61.8134
100.647,-61.5951
100.2949,-61.3955
99.9447,-61.1929
99.5907,-60.9963
99.2474,-60.7833
98.9274,-60.5362
98.611,-60.2835
98.2929,-60.0333
97.9744,-59.7839
97.6405,-59.5561
97.2953,-59.3448
96.9524,-59.1299
96.6082,-58.9167
96.2587,-58.7134
95.9035,-58.5194
95.5465,-58.3285
95.1913,-58.1348
94.8349,-57.9427
94.4789,-57.7506
94.1233,-57.5572
93.7668,-57.3656
93.4112,-57.1726
93.0551,-56.98
92.6989,-56.7881
92.3432,-56.5948
91.9869,-56.4029
91.6311,-56.2103
91.2751,-56.0174
90.9189,-55.8256
90.5632,-55.6324
90.207,-55.4403
89.8511,-55.2479
89.4952,-55.0548
89.139,-54.8631
88.7832,-54.67
88.4271,-54.4776
88.0711,-54.2855
87.7152,-54.0923
87.3591,-53.9005
87.0032,-53.7076
86.6471,-53.515
86.2911,-53.3231
85.9352,-53.1297
85.5792,-52.938
85.2231,-52.7452
84.8672,-52.5524
84.5111,-52.3606
84.1552,-52.1672
83.7992,-51.9754
83.4431,-51.7828
83.0873,-51.5897
82.7312,-51.3982
82.3751,-51.2047
82.0194,-51.0127
81.6631,-50.8205
81.3073,-50.627
80.9513,-50.4358
80.5951,-50.2422
80.2395,-50.0501
79.883,-49.8582
79.5274,-49.6642
79.1713,-49.4735
78.815,-49.2798
78.4597,-49.0873
78.1028,-48.8962
77.7477,-48.7012
77.3912,-48.5114
77.0349,-48.3172
76.6803,-48.124
76.3215,-47.9355
75.97,-47.7356
75.6077,-47.5534
75.2678,-47.3402
75.0307,-47.0175
74.8166,-46.6704
74.576,-46.345
74.3643,-46.0018
74.123,-45.6725
73.9105,-45.3323
73.8307,-44.9372
73.772,-44.5349
73.6969,-44.1389
73.6345,-43.7375
73.5609,-43.3402
73.4997,-42.9406
73.4225,-42.5412
73.3664,-42.1437
73.4267,-41.7449
73.5232,-41.3508
73.5886,-40.9517
73.6824,-40.5574
73.8476,-40.1951
74.0594,-39.8488
74.2649,-39.4995
74.4695,-39.1524
74.6797,-38.8041
74.8825,-38.4556
75.0919,-38.1087
75.2976,-37.7594
75.5028,-37.4122
75.7132,-37.0646
75.9346,-36.729
76.1989,-36.4199
76.444,-36.0996
76.6004,-35.7327
76.715,-35.3403
76.8704,-34.9713
77.1003,-34.6407
77.347,-34.317
77.5859,-33.9925
77.8223,-33.6632
78.0029,-33.3024
78.1618,-32.9299
78.3404,-32.5659
78.5036,-32.1964
78.6519,-31.8205
78.77,-31.4338
78.8727,-31.0422
78.9974,-30.6565
79.0992,-30.2654
79.1536,-29.8665
79.1773,-29.4626
79.2003,-29.0578
79.2317,-28.6553
79.2272,-28.2503
79.1991,-27.8473
79.1721,-27.4441
79.1335,-27.0392
79.1154,-26.6376
79.1485,-26.2343
79.2129,-25.8346
79.2651,-25.434
79.3153,-25.0307
79.3825,-24.6343
79.4208,-24.2271
79.494,-23.8332
79.7001,-23.4968
79.9618,-23.1842
80.2081,-22.8642
80.4587,-22.5468
80.7131,-22.231
80.9543,-21.9069
81.184,-21.5738
81.4143,-21.2407
81.637,-20.9026
81.8731,-20.5747
82.1618,-20.2932
82.4699,-20.0302
82.7672,-19.7548
83.0698,-19.4871
83.3644,-19.2098
83.6303,-18.9038
83.8965,-18.6009
84.1669,-18.2975
84.4266,-17.9889
84.7309,-17.7199
85.0246,-17.4446
85.1941,-17.0843
85.333,-16.6984
85.4959,-16.331
85.64,-15.9522
85.7962,-15.577
85.9477,-15.2047
86.0965,-14.8259
86.2547,-14.4538
86.3983,-14.0773
86.5597,-13.702
86.6615,-13.3213
86.6466,-12.9163
86.6179,-12.5119
86.5981,-12.1098
86.5742,-11.7027
86.5512,-11.3016
86.5277,-10.896
86.5076,-10.4911
86.4936,-10.091
86.548,-9.683
86.5608,-9.2902
86.3811,-8.931
86.1668,-8.5811
85.9852,-8.226
85.7768,-7.8723
85.5868,-7.5192
85.3871,-7.1663
85.1904,-6.8098
84.9939,-6.4615
84.7204,-6.1575
84.4408,-5.8687
84.1712,-5.5671
83.8863,-5.2745
83.6834,-4.9383
83.5326,-4.5588
83.3264,-4.2189
83.081,-3.8954
82.8397,-3.5679
82.5989,-3.2483
82.3552,-2.9187
82.1143,-2.5981
81.8725,-2.273
81.6293,-1.9454
81.3401,-1.6831
80.9856,-1.479
80.6308,-1.2887
80.2704,-1.11
79.89,-0.95763
79.5191,-0.81345
79.1565,-0.62602
78.8346,-0.38699
78.5161,-0.14229
78.1409,-0.017359
77.7483,-0.027116
77.3294,0.0056791
