86.4993,-53.0025
85.7222,-52.7296
84.9405,-52.4682
84.1576,-52.2091
83.3772,-51.9416
82.6029,-51.6582
81.8405,-51.354
81.0946,-51.0189
80.3726,-50.6425
79.683,-50.2171
79.0302,-49.7459
78.416,-49.2396
77.8506,-48.7045
77.3514,-48.1382
76.9314,-47.5301
76.5922,-46.8699
76.3267,-46.1561
76.1257,-45.3962
75.9807,-44.6041
75.8844,-43.7945
75.8342,-42.9756
75.8269,-42.154
75.8523,-41.3315
75.9024,-40.5089
75.9682,-39.6869
76.042,-38.8658
76.1152,-38.0454
76.1845,-37.2259
76.2589,-36.4086
76.3554,-35.5957
76.484,-34.7869
76.6478,-33.9834
76.848,-33.1887
77.0946,-32.4133
77.4066,-31.676
77.8061,-31.0019
78.3093,-30.4148
78.9125,-29.9238
79.5909,-29.5124
80.3063,-29.1428
81.0174,-28.7696
81.685,-28.3499
82.279,-27.8522
82.786,-27.265
83.2124,-26.6
83.5695,-25.8782
83.8699,-25.1204
84.1216,-24.3403
84.3302,-23.5468
84.4939,-22.7442
84.607,-21.9344
84.6656,-21.1194
84.6702,-20.3014
84.6251,-19.4825
84.5412,-18.6645
84.4339,-17.8478
84.324,-17.0319
84.235,-16.2157
84.1874,-15.3984
84.1931,-14.5809
84.2447,-13.7628
84.3261,-12.9444
84.4195,-12.1254
84.5123,-11.3055
84.5962,-10.485
84.6634,-9.6644
84.7025,-8.8452
84.6945,-8.0309
84.6152,-7.2278
84.4482,-6.4446
84.1863,-5.6905
83.837,-4.9695
83.421,-4.2773
82.9687,-3.602
82.5071,-2.9343
82.0385,-2.277
81.5453,-1.6462
81.0059,-1.0661
80.4046,-0.56103
79.7382,-0.14579
