92.0887,-56.0867
91.3792,-55.6327
90.672,-55.1719
89.9652,-54.7071
89.256,-54.243
88.5446,-53.7828
87.8393,-53.3287
87.1344,-52.8712
86.4321,-52.4067
85.7326,-51.935
85.0344,-51.4585
84.3366,-50.9788
83.6394,-50.496
82.9484,-50.0127
82.2615,-49.5308
81.5704,-49.0532
80.8712,-48.5853
80.1648,-48.1256
79.4564,-47.6658
78.7511,-47.1982
78.0517,-46.7197
77.3699,-46.2317
76.7044,-45.7228
76.0625,-45.1843
75.4522,-44.6099
74.8828,-43.9963
74.3694,-43.3409
73.9355,-42.6404
73.6104,-41.8953
73.4139,-41.1122
73.3343,-40.2995
73.3471,-39.4707
73.42,-38.6359
73.5247,-37.7997
73.6426,-36.9636
73.7673,-36.1283
73.908,-35.2977
74.0717,-34.4729
74.2681,-33.6563
74.5079,-32.8526
74.8,-32.0693
75.1562,-31.3231
75.5919,-30.6427
76.1237,-30.0667
76.7625,-29.6264
77.4794,-29.3063
78.2306,-29.0464
78.966,-28.7622
79.6459,-28.3837
80.2521,-27.8842
80.7842,-27.278
81.2519,-26.5993
81.6529,-25.8737
81.9666,-25.1127
82.173,-24.3226
82.2666,-23.5099
82.2699,-22.6839
82.2315,-21.8536
82.2114,-21.0249
82.2653,-20.203
82.4035,-19.388
82.6101,-18.5798
82.8566,-17.7764
83.1174,-16.9748
83.3753,-16.1719
83.623,-15.3659
83.861,-14.5571
84.092,-13.7464
84.3011,-12.9321
84.4688,-12.113
84.5683,-11.2898
84.5751,-10.4676
84.4729,-9.6565
84.2619,-8.8644
83.9684,-8.0936
83.6242,-7.3398
83.2485,-6.6042
82.8333,-5.9022
82.3514,-5.2572
81.7839,-4.6861
