109.156859,-314.991641
109.426328,-314.780112
109.692898,-314.569494
109.956701,-314.359699
110.217884,-314.150636
110.476618,-313.942205
110.733087,-313.734304
110.987486,-313.526829
111.240025,-313.319672
111.490917,-313.112727
111.740383,-312.905886
111.988643,-312.699047
112.235919,-312.492106
112.482426,-312.284967
112.728376,-312.077537
112.973969,-311.869729
113.219396,-311.661462
113.464834,-311.452662
113.710448,-311.243266
113.956382,-311.033213
114.202765,-310.822456
114.449707,-310.610953
114.697299,-310.398672
114.945609,-310.185589
115.194689,-309.971690
115.444568,-309.756965
115.695256,-309.541417
115.946744,-309.325052
116.199005,-309.107885
116.451994,-308.889936
116.705652,-308.671232
116.959903,-308.451801
117.214660,-308.231679
117.469826,-308.010904
117.725293,-307.789515
117.980946,-307.567553
118.236667,-307.345060
118.492332,-307.122079
118.747819,-306.898650
119.003004,-306.674813
119.257768,-306.450607
119.511995,-306.226065
119.765575,-306.001220
120.018407,-305.776100
120.270398,-305.550728
120.521465,-305.325124
120.771536,-305.099304
121.020551,-304.873278
121.268463,-304.647053
121.515237,-304.420628
121.760852,-304.194002
122.005298,-303.967166
122.248579,-303.740110
122.490711,-303.512817
122.731722,-303.285269
122.971649,-303.057444
123.210542,-302.829319
123.448455,-302.600867
123.685454,-302.372061
123.921609,-302.142872
124.156997,-301.913270
124.391695,-301.683228
124.625786,-301.452717
124.859352,-301.221710
125.092474,-300.990180
125.325232,-300.758104
125.557703,-300.525460
125.789959,-300.292231
126.022067,-300.058398
126.254088,-299.823950
126.486074,-299.588877
126.718072,-299.353173
126.950117,-299.116835
127.182239,-298.879863
127.414455,-298.642261
127.646776,-298.404037
127.879201,-298.165200
128.111722,-297.925764
128.344322,-297.685744
128.576974,-297.445157
128.809646,-297.204024
129.042297,-296.962364
129.274881,-296.720201
129.507347,-296.477557
129.739639,-296.234456
129.971698,-295.990921
130.203462,-295.746975
130.434869,-295.502640
130.665856,-295.257937
130.896360,-295.012886
131.126323,-294.767504
131.355686,-294.521807
131.584396,-294.275810
131.812404,-294.029522
132.039664,-293.782953
132.266139,-293.536109
132.491795,-293.288993
132.716608,-293.041607
132.940558,-292.793947
133.163633,-292.546012
133.385829,-292.297792
133.607146,-292.049281
133.827594,-291.800467
134.047189,-291.551337
134.265951,-291.301877
134.483907,-291.052073
134.701088,-290.801907
134.917532,-290.551364
135.133277,-290.300425
135.348366,-290.049075
135.562843,-289.797295
135.776756,-289.545070
135.990149,-289.292384
136.203070,-289.039223
136.415563,-288.785573
136.627671,-288.531425
136.839435,-288.276766
137.050893,-288.021591
137.262078,-287.765892
137.473019,-287.509667
137.683741,-287.252913
137.894265,-286.995630
138.104603,-286.737821
138.314766,-286.479490
138.524756,-286.220644
138.734572,-285.961290
138.944205,-285.701438
139.153644,-285.441099
139.362871,-285.180284
139.571863,-284.919008
139.780594,-284.657283
139.989036,-284.395125
140.197154,-284.132547
140.404913,-283.869566
140.612277,-283.606195
140.819206,-283.342448
141.025663,-283.078339
141.231606,-282.813880
141.437000,-282.549084
141.641805,-282.283960
141.845988,-282.018518
142.049515,-281.752765
142.252356,-281.486708
142.454485,-281.220351
142.655879,-280.953696
142.856519,-280.686746
143.056391,-280.419500
143.255483,-280.151956
143.453790,-279.884111
143.651311,-279.615960
143.848049,-279.347498
144.044011,-279.078718
144.239208,-278.809612
144.433656,-278.540171
144.627373,-278.270386
144.820381,-278.000248
145.012705,-277.729747
145.204371,-277.458874
145.395407,-277.187618
145.585842,-276.915970
145.775708,-276.643922
145.965034,-276.371466
146.153851,-276.098594
146.342186,-275.825301
146.530069,-275.551580
146.717524,-275.277428
146.904576,-275.002841
147.091244,-274.727819
147.277548,-274.452359
147.463500,-274.176464
147.649113,-273.900134
147.834394,-273.623372
148.019346,-273.346183
148.203969,-273.068571
148.388259,-272.790542
148.572208,-272.512102
148.755804,-272.233259
148.939033,-271.954020
149.121877,-271.674392
149.304314,-271.394384
149.486321,-271.114002
149.667872,-270.833256
149.848939,-270.552153
150.029494,-270.270699
150.209506,-269.988900
150.388944,-269.706763
150.567779,-269.424292
150.745979,-269.141491
150.923514,-268.858363
151.100358,-268.574910
151.276482,-268.291133
151.451861,-268.007032
151.626473,-267.722606
151.800297,-267.437852
151.973316,-267.152767
152.145516,-266.867348
152.316883,-266.581589
152.487410,-266.295484
152.657093,-266.009029
152.825927,-265.722215
152.993916,-265.435035
153.161063,-265.147483
153.327374,-264.859551
153.492861,-264.571231
153.657535,-264.282517
153.821411,-263.993402
153.984506,-263.703880
154.146837,-263.413944
154.308426,-263.123590
154.469292,-262.832815
154.629458,-262.541615
154.788944,-262.249987
154.947774,-261.957932
155.105969,-261.665449
155.263549,-261.372540
155.420535,-261.079208
155.576947,-260.785455
155.732801,-260.491288
155.888114,-260.196712
156.042899,-259.901733
156.197168,-259.606361
156.350933,-259.310604
156.504199,-259.014471
156.656974,-258.717973
156.809259,-258.421120
156.961057,-258.123924
157.112365,-257.826396
157.263181,-257.528547
157.413500,-257.230388
157.563314,-256.931931
157.712614,-256.633187
157.861391,-256.334166
158.009633,-256.034878
158.157328,-255.735331
158.304463,-255.435534
158.451024,-255.135494
158.596996,-254.835218
158.742367,-254.534711
158.887121,-254.233978
159.031247,-253.933021
159.174730,-253.631842
159.317559,-253.330443
159.459724,-253.028823
159.601213,-252.726982
159.742019,-252.424917
159.882134,-252.122625
160.021554,-251.820103
160.160273,-251.517346
160.298289,-251.214350
160.435602,-250.911107
160.572212,-250.607614
160.708120,-250.303863
160.843332,-249.999848
160.977851,-249.695563
161.111684,-249.391002
161.244838,-249.086158
161.377321,-248.781027
161.509143,-248.475602
161.640313,-248.169880
161.770842,-247.863857
161.900740,-247.557529
162.030018,-247.250894
162.158686,-246.943950
162.286755,-246.636696
162.414234,-246.329134
162.541133,-246.021263
162.667461,-245.713085
162.793226,-245.404604
162.918434,-245.095822
163.043091,-244.786744
163.167203,-244.477374
163.290771,-244.167719
163.413799,-243.857784
163.536287,-243.547575
163.658234,-243.237100
163.779639,-242.926365
163.900499,-242.615377
164.020808,-242.304144
164.140563,-241.992672
164.259754,-241.680969
164.378376,-241.369041
164.496419,-241.056894
164.613873,-240.744534
164.730728,-240.431966
164.846973,-240.119195
164.962597,-239.806224
165.077588,-239.493056
165.191934,-239.179695
165.305622,-238.866142
165.418642,-238.552398
165.530981,-238.238462
165.642628,-237.924335
165.753571,-237.610016
165.863801,-237.295501
165.973307,-236.980790
166.082080,-236.665878
166.190112,-236.350762
166.297396,-236.035438
166.403925,-235.719902
166.509694,-235.404150
166.614698,-235.088176
166.718934,-234.771976
166.822399,-234.455546
166.925093,-234.138881
167.027014,-233.821977
167.128165,-233.504830
167.228545,-233.187436
167.328158,-232.869792
167.427008,-232.551897
167.525099,-232.233748
167.622436,-231.915343
167.719025,-231.596683
167.814872,-231.277768
167.909984,-230.958598
168.004368,-230.639175
168.098033,-230.319502
168.190986,-229.999581
168.283235,-229.679416
168.374789,-229.359012
168.465656,-229.038374
168.555844,-228.717506
168.645362,-228.396416
168.734217,-228.075109
168.822416,-227.753592
168.909967,-227.431871
168.996876,-227.109955
169.083151,-226.787849
169.168795,-226.465561
169.253815,-226.143098
169.338215,-225.820466
169.421998,-225.497673
169.505168,-225.174724
169.587726,-224.851625
169.669675,-224.528382
169.751015,-224.204999
169.831747,-223.881480
169.911869,-223.557830
169.991381,-223.234051
170.070279,-222.910147
170.148562,-222.586117
170.226226,-222.261965
170.303266,-221.937691
170.379679,-221.613294
170.455460,-221.288774
170.530602,-220.964130
170.605100,-220.639362
170.678947,-220.314465
170.752138,-219.989440
170.824666,-219.664282
170.896524,-219.338990
170.967705,-219.013560
171.038203,-218.687990
171.108012,-218.362276
171.177124,-218.036415
171.245536,-217.710406
171.313240,-217.384244
171.380232,-217.057929
171.446508,-216.731457
171.512064,-216.404828
171.576896,-216.078039
171.641003,-215.751091
171.704383,-215.423982
171.767035,-215.096713
171.828959,-214.769285
171.890156,-214.441699
171.950629,-214.113956
172.010379,-213.786059
172.069410,-213.458010
172.127728,-213.129813
172.185337,-212.801471
172.242244,-212.472989
172.298455,-212.144369
172.353978,-211.815618
172.408822,-211.486739
172.462995,-211.157738
172.516505,-210.828621
172.569364,-210.499392
172.621580,-210.170056
172.673164,-209.840619
172.724125,-209.511086
172.774473,-209.181463
172.824217,-208.851753
172.873368,-208.521961
172.921934,-208.192092
172.969922,-207.862149
173.017341,-207.532136
173.064197,-207.202057
173.110496,-206.871913
173.156243,-206.541707
173.201441,-206.211442
173.246093,-205.881117
173.290201,-205.550736
173.333765,-205.220297
173.376783,-204.889802
173.419253,-204.559250
173.461171,-204.228641
173.502532,-203.897973
173.543331,-203.567246
173.583558,-203.236459
173.623206,-202.905609
173.662265,-202.574695
173.700724,-202.243715
173.738572,-201.912667
173.775794,-201.581550
173.812380,-201.250362
173.848314,-200.919100
173.883582,-200.587763
173.918171,-200.256350
173.952065,-199.924859
173.985250,-199.593289
174.017712,-199.261640
174.049436,-198.929910
174.080409,-198.598100
174.110619,-198.266208
174.140052,-197.934237
174.168697,-197.602186
174.196544,-197.270056
174.223584,-196.937849
174.249809,-196.605566
174.275211,-196.273209
174.299786,-195.940780
174.323528,-195.608282
174.346434,-195.275717
174.368504,-194.943088
174.389736,-194.610399
174.410132,-194.277651
174.429695,-193.944849
174.448426,-193.611996
174.466332,-193.279094
174.483416,-192.946149
174.499687,-192.613163
174.515151,-192.280139
174.529815,-191.947081
174.543689,-191.613992
174.556780,-191.280875
174.569098,-190.947733
174.580651,-190.614569
174.591449,-190.281386
174.601499,-189.948186
174.610809,-189.614972
174.619388,-189.281745
174.627242,-188.948509
174.634376,-188.615264
174.640796,-188.282012
174.646506,-187.948755
174.651508,-187.615495
174.655805,-187.282232
174.659397,-186.948969
174.662282,-186.615705
174.664459,-186.282442
174.665925,-185.949181
174.666675,-185.615923
174.666702,-185.282670
174.666001,-184.949421
174.664563,-184.616177
174.662379,-184.282941
174.659440,-183.949712
174.655735,-183.616493
174.651252,-183.283284
174.645982,-182.950087
174.639912,-182.616902
174.633029,-182.283733
174.625324,-181.950579
174.616783,-181.617444
174.607397,-181.284329
174.597155,-180.951236
174.586046,-180.618166
174.574063,-180.285123
174.561198,-179.952109
174.547445,-179.619126
174.532797,-179.286175
174.517251,-178.953261
174.500806,-178.620384
174.483460,-178.287548
174.465214,-177.954755
174.446071,-177.622008
174.426034,-177.289308
174.405111,-176.956659
174.383307,-176.624061
174.360632,-176.291518
174.337097,-175.959032
174.312712,-175.626604
174.287492,-175.294236
174.261450,-174.961929
174.234601,-174.629686
174.206961,-174.297507
174.178547,-173.965395
174.149376,-173.633348
174.119466,-173.301370
174.088832,-172.969460
174.057494,-172.637619
174.025468,-172.305848
173.992770,-171.974146
173.959417,-171.642515
173.925423,-171.310955
173.890802,-170.979465
173.855568,-170.648047
173.819731,-170.316699
173.783302,-169.985423
173.746289,-169.654218
173.708699,-169.323085
173.670537,-168.992023
173.631806,-168.661034
173.592508,-168.330117
173.552642,-167.999273
173.512206,-167.668503
173.471195,-167.337808
173.429604,-167.007189
173.387426,-166.676647
173.344651,-166.346183
173.301268,-166.015799
173.257266,-165.685496
173.212631,-165.355278
173.167349,-165.025145
173.121404,-164.695101
173.074780,-164.365147
173.027461,-164.035288
172.979429,-163.705526
172.930668,-163.375864
172.881159,-163.046305
172.830886,-162.716854
172.779832,-162.387514
172.727979,-162.058289
172.675313,-161.729182
172.621818,-161.400199
172.567481,-161.071342
172.512287,-160.742617
172.456226,-160.414028
172.399287,-160.085579
172.341460,-159.757274
172.282737,-159.429118
172.223113,-159.101114
172.162582,-158.773267
172.101140,-158.445582
172.038786,-158.118061
171.975519,-157.790708
171.911339,-157.463529
171.846250,-157.136525
171.780254,-156.809700
171.713355,-156.483058
171.645560,-156.156601
171.576875,-155.830332
171.507307,-155.504254
171.436864,-155.178368
171.365555,-154.852678
171.293390,-154.527184
171.220376,-154.201889
171.146525,-153.876794
171.071846,-153.551900
170.996348,-153.227208
170.920041,-152.902719
170.842933,-152.578433
170.765033,-152.254351
170.686350,-151.930474
170.606890,-151.606802
170.526660,-151.283334
170.445667,-150.960070
170.363915,-150.637012
170.281409,-150.314158
170.198151,-149.991508
170.114145,-149.669062
170.029392,-149.346821
169.943893,-149.024785
169.857647,-148.702952
169.770654,-148.381325
169.682911,-148.059902
169.594416,-147.738685
169.505166,-147.417674
169.415156,-147.096871
169.324382,-146.776277
169.232839,-146.455892
169.140522,-146.135719
169.047425,-145.815760
168.953542,-145.496018
168.858866,-145.176494
168.763392,-144.857192
168.667112,-144.538115
168.570022,-144.219267
168.472113,-143.900652
168.373381,-143.582273
168.273820,-143.264136
168.173424,-142.946245
168.072187,-142.628605
167.970105,-142.311222
167.867174,-141.994101
167.763388,-141.677247
167.658745,-141.360667
167.553240,-141.044367
167.446870,-140.728352
167.339634,-140.412628
167.231528,-140.097202
167.122551,-139.782080
167.012701,-139.467267
166.901977,-139.152769
166.790378,-138.838592
166.677902,-138.524742
166.564550,-138.211223
166.450321,-137.898041
166.335215,-137.585199
166.219232,-137.272703
166.102373,-136.960556
165.984637,-136.648762
165.866026,-136.337323
165.746539,-136.026242
165.626178,-135.715522
165.504943,-135.405164
165.382836,-135.095169
165.259857,-134.785538
165.136008,-134.476271
165.011290,-134.167369
164.885706,-133.858831
164.759255,-133.550655
164.631942,-133.242842
164.503767,-132.935388
164.374734,-132.628293
164.244845,-132.321555
164.114104,-132.015170
163.982514,-131.709137
163.850080,-131.403454
163.716804,-131.098118
163.582693,-130.793126
163.447750,-130.488476
163.311982,-130.184166
163.175394,-129.880194
163.037993,-129.576557
162.899784,-129.273256
162.760775,-128.970287
162.620973,-128.667650
162.480385,-128.365346
162.339018,-128.063372
162.196880,-127.761732
162.053979,-127.460423
161.910322,-127.159450
161.765917,-126.858812
161.620771,-126.558512
161.474891,-126.258554
161.328284,-125.958940
161.180958,-125.659673
161.032916,-125.360759
160.884167,-125.062200
160.734713,-124.764003
160.584559,-124.466171
160.433709,-124.168710
160.282166,-123.871626
160.129932,-123.574924
159.977007,-123.278609
159.823393,-122.982688
159.669088,-122.687165
159.514092,-122.392046
159.358402,-122.097336
159.202016,-121.803041
159.044930,-121.509164
158.887139,-121.215711
158.728639,-120.922684
158.569424,-120.630089
158.409489,-120.337927
158.248828,-120.046202
158.087434,-119.754915
157.925302,-119.464069
157.762424,-119.173663
157.598795,-118.883699
157.434410,-118.594176
157.269262,-118.305093
157.103348,-118.016450
156.936663,-117.728245
156.769204,-117.440476
156.600969,-117.153140
156.431957,-116.866234
156.262169,-116.579755
156.091604,-116.293699
155.920267,-116.008063
155.748160,-115.722842
155.575290,-115.438032
155.401663,-115.153629
155.227288,-114.869628
155.052174,-114.586025
154.876331,-114.302815
154.699774,-114.019995
154.522514,-113.737560
154.344567,-113.455506
154.165949,-113.173829
153.986676,-112.892526
153.806765,-112.611592
153.626236,-112.331026
153.445105,-112.050823
153.263394,-111.770981
153.081119,-111.491498
152.898301,-111.212371
152.714957,-110.933598
152.531107,-110.655177
152.346767,-110.377107
152.161956,-110.099385
151.976688,-109.822010
151.790979,-109.544981
151.604843,-109.268296
151.418291,-108.991954
151.231335,-108.715954
151.043983,-108.440293
150.856244,-108.164971
150.668124,-107.889985
150.479626,-107.615334
150.290753,-107.341016
150.101506,-107.067029
149.911885,-106.793371
149.721885,-106.520040
149.531505,-106.247033
149.340737,-105.974349
149.149575,-105.701984
148.958012,-105.429937
148.766037,-105.158205
148.573640,-104.886786
148.380811,-104.615678
148.187539,-104.344879
147.993811,-104.074388
147.799615,-103.804202
147.604939,-103.534323
147.409772,-103.264748
147.214101,-102.995478
147.017915,-102.726514
146.821204,-102.457858
146.623958,-102.189510
146.426167,-101.921474
146.227824,-101.653754
146.028923,-101.386353
145.829456,-101.119276
145.629420,-100.852530
145.428811,-100.586121
145.227628,-100.320055
145.025869,-100.054341
144.823535,-99.788989
144.620627,-99.524005
144.417149,-99.259402
144.213103,-98.995188
144.008495,-98.731375
143.803329,-98.467973
143.597611,-98.204992
143.391348,-97.942445
143.184548,-97.680341
142.977216,-97.418692
142.769360,-97.157507
142.560987,-96.896796
142.352104,-96.636569
142.142717,-96.376832
141.932833,-96.117595
141.722457,-95.858862
141.511593,-95.600640
141.300245,-95.342932
141.088417,-95.085742
140.876111,-94.829070
140.663328,-94.572918
140.450068,-94.317284
140.236331,-94.062165
140.022115,-93.807558
139.807417,-93.553458
139.592234,-93.299858
139.376563,-93.046751
139.160398,-92.794128
138.943734,-92.541980
138.726566,-92.290297
138.508888,-92.039067
138.290693,-91.788280
138.071976,-91.537924
137.852731,-91.287987
137.632952,-91.038458
137.412634,-90.789324
137.191772,-90.540575
136.970363,-90.292202
136.748403,-90.044194
136.525890,-89.796544
136.302823,-89.549243
136.079201,-89.302288
135.855026,-89.055673
135.630299,-88.809395
135.405023,-88.563455
135.179202,-88.317853
134.952842,-88.072592
134.725948,-87.827677
134.498528,-87.583114
134.270589,-87.338911
134.042139,-87.095079
133.813188,-86.851630
133.583745,-86.608576
133.353818,-86.365933
133.123418,-86.123717
132.892554,-85.881944
132.661235,-85.640632
132.429469,-85.399800
132.197264,-85.159466
131.964626,-84.919649
131.731562,-84.680367
131.498077,-84.441639
131.264173,-84.203481
131.029854,-83.965911
130.795118,-83.728943
130.559967,-83.492592
130.324397,-83.256869
130.088404,-83.021784
129.851984,-82.787346
129.615130,-82.553561
129.377832,-82.320432
129.140083,-82.087961
128.901871,-81.856146
128.663186,-81.624986
128.424015,-81.394472
128.184346,-81.164599
127.944166,-80.935354
127.703463,-80.706727
127.462222,-80.478702
127.220433,-80.251264
126.978083,-80.024395
126.735163,-79.798078
126.491662,-79.572291
126.247572,-79.347016
126.002888,-79.122231
125.757604,-78.897916
125.511717,-78.674052
125.265228,-78.450618
125.018138,-78.227596
124.770451,-78.004970
124.522173,-77.782722
124.273313,-77.560840
124.023881,-77.339312
123.773890,-77.118127
123.523356,-76.897280
123.272296,-76.676765
123.020728,-76.456580
122.768672,-76.236728
122.516150,-76.017210
122.263184,-75.798034
122.009798,-75.579210
121.756014,-75.360747
121.501855,-75.142661
121.247345,-74.924968
120.992506,-74.707685
120.737359,-74.490833
120.481923,-74.274433
120.226216,-74.058507
119.970254,-73.843078
119.714051,-73.628169
119.457617,-73.413805
119.200960,-73.200006
118.944085,-72.986797
118.686995,-72.774197
118.429687,-72.562226
118.172157,-72.350903
117.914398,-72.140242
117.656399,-71.930257
117.398144,-71.720959
117.139619,-71.512356
116.880803,-71.304452
116.621674,-71.097249
116.362209,-70.890748
116.102382,-70.684942
115.842166,-70.479825
115.581533,-70.275388
115.320454,-70.071616
115.058903,-69.868495
114.796850,-69.666007
114.534270,-69.464132
114.271135,-69.262849
114.007424,-69.062135
113.743115,-68.861966
113.478188,-68.662319
113.212629,-68.463169
112.946425,-68.264491
112.679567,-68.066264
112.412051,-67.868465
112.143877,-67.671073
111.875047,-67.474071
111.605570,-67.277442
111.335457,-67.081172
111.064724,-66.885252
110.793390,-66.689674
110.521481,-66.494435
110.249021,-66.299532
109.976042,-66.104971
109.702576,-65.910757
109.428657,-65.716900
109.154322,-65.523414
108.879609,-65.330316
108.604555,-65.137625
108.329199,-64.945363
108.053578,-64.753555
107.777728,-64.562228
107.501685,-64.371409
107.225480,-64.181127
106.949142,-63.991412
106.672698,-63.802294
106.396170,-63.613801
106.119576,-63.425961
105.842928,-63.238800
105.566236,-63.052343
105.289503,-62.866612
105.012727,-62.681625
104.735901,-62.497397
104.459014,-62.313939
104.182048,-62.131260
103.904983,-61.949362
103.627791,-61.768243
103.350442,-61.587898
103.072903,-61.408317
102.795138,-61.229482
102.517106,-61.051376
102.238768,-60.873974
101.960080,-60.697249
101.681001,-60.521168
101.401489,-60.345697
101.121502,-60.170799
100.841001,-59.996433
100.559951,-59.822560
100.278318,-59.649136
99.996074,-59.476118
99.713193,-59.303466
99.429658,-59.131136
99.145454,-58.959091
98.860576,-58.787291
98.575021,-58.615702
98.288796,-58.444294
98.001915,-58.273040
97.714395,-58.101915
97.426265,-57.930903
97.137556,-57.759991
96.848308,-57.589172
96.558564,-57.418443
96.268376,-57.247809
95.977798,-57.077279
95.686887,-56.906867
95.395706,-56.736593
95.104317,-56.566482
94.812786,-56.396562
94.521178,-56.226865
94.229558,-56.057428
93.937988,-55.888286
93.646530,-55.719478
93.355241,-55.551045
93.064172,-55.383025
92.773372,-55.215455
92.482883,-55.048370
92.192740,-54.881802
91.902970,-54.715777
91.613594,-54.550316
91.324625,-54.385435
91.036068,-54.221138
90.747920,-54.057427
90.460169,-53.894288
90.172800,-53.731702
89.885785,-53.569636
89.599095,-53.408047
89.312694,-53.246881
89.026541,-53.086070
88.740593,-52.925535
88.454806,-52.765184
88.169134,-52.604913
87.883534,-52.444606
87.597965,-52.284136
87.312391,-52.123363
87.026782,-51.962137
86.741119,-51.800299
86.455390,-51.637680
86.169598,-51.474103
85.883756,-51.309386
85.597898,-51.143338
85.312070,-50.975765
85.026341,-50.806471
84.740797,-50.635256
84.455549,-50.461921
84.170726,-50.286267
83.886485,-50.108097
83.603005,-49.927218
83.320487,-49.743444
83.039162,-49.556592
82.759279,-49.366489
82.481117,-49.172970
82.204975,-48.975881
81.931175,-48.775077
81.660061,-48.570426
81.391995,-48.361810
81.127361,-48.149123
80.866556,-47.932273
80.609991,-47.711184
80.358090,-47.485794
80.111285,-47.256055
79.870016,-47.021937
79.634725,-46.783424
79.405854,-46.540514
79.183844,-46.293222
78.969129,-46.041577
78.762134,-45.785623
78.563273,-45.525415
78.372944,-45.261025
78.191528,-44.992536
78.019381,-44.720043
77.856841,-44.443652
77.704214,-44.163479
77.561781,-43.879653
77.429788,-43.592308
77.308451,-43.301588
77.197949,-43.007644
77.098426,-42.710633
77.009986,-42.410718
76.932696,-42.108068
76.866585,-41.802854
76.811639,-41.495252
76.767808,-41.185440
76.735000,-40.873597
76.713088,-40.559904
76.701905,-40.244544
76.701247,-39.927697
76.710877,-39.609543
76.730524,-39.290262
76.759886,-38.970030
76.798631,-38.649021
76.846402,-38.327407
76.902816,-38.005353
76.967469,-37.683023
77.039938,-37.360572
77.119783,-37.038153
77.206552,-36.715909
77.299781,-36.393979
77.399000,-36.072491
77.503732,-35.751567
77.613497,-35.431320
77.727819,-35.111851
77.846221,-34.793252
77.968233,-34.475605
78.093392,-34.158977
78.221243,-33.843427
78.351346,-33.528999
78.483270,-33.215724
78.616600,-32.903618
78.750939,-32.592686
78.885902,-32.282918
79.021127,-31.974287
79.156269,-31.666755
79.290999,-31.360268
79.425013,-31.054759
79.558022,-30.750146
79.689758,-30.446335
79.819975,-30.143219
79.948444,-29.840679
80.074954,-29.538586
80.199315,-29.236801
80.321353,-28.935175
80.440912,-28.633556
80.557854,-28.331782
80.672054,-28.029691
80.783405,-27.727115
80.891810,-27.423890
80.997191,-27.119850
81.099479,-26.814837
81.198618,-26.508694
81.294564,-26.201275
81.387281,-25.892444
81.476746,-25.582074
81.562945,-25.270055
81.645870,-24.956290
81.725523,-24.640701
81.801915,-24.323228
81.875061,-24.003831
81.944985,-23.682491
82.011717,-23.359211
82.075292,-23.034018
82.135751,-22.706960
82.193141,-22.378109
82.247511,-22.047561
82.298918,-21.715433
82.347418,-21.381865
82.393073,-21.047017
82.435948,-20.711067
82.476109,-20.374211
82.513621,-20.036662
82.548554,-19.698644
82.580974,-19.360392
82.610947,-19.022149
82.638537,-18.684164
82.663805,-18.346685
82.686806,-18.009962
82.707592,-17.674239
82.726206,-17.339752
82.742685,-17.006726
82.757058,-16.675374
82.769341,-16.345888
82.779540,-16.018444
82.787649,-15.693192
82.793649,-15.370261
82.797504,-15.049748
82.799166,-14.731725
82.798566,-14.416233
82.795622,-14.103281
82.790233,-13.792847
82.782279,-13.484878
82.771623,-13.179288
82.758109,-12.875964
82.741564,-12.574761
82.721796,-12.275509
82.698596,-11.978014
82.671740,-11.682060
82.640990,-11.387413
82.606091,-11.093827
82.566780,-10.801043
82.522781,-10.508798
82.473812,-10.216830
82.419584,-9.924879
82.359806,-9.632697
82.294187,-9.340051
82.222436,-9.046727
82.144270,-8.752540
82.059414,-8.457334
81.967604,-8.160991
81.868591,-7.863434
81.762145,-7.564635
81.648056,-7.264612
81.526141,-6.963441
81.396243,-6.661254
81.258234,-6.358245
81.112023,-6.054670
80.957551,-5.750849
80.794800,-5.447167
80.623792,-5.144076
80.444589,-4.842090
80.257298,-4.541789
80.062070,-4.243811
79.859101,-3.948854
79.648633,-3.657670
79.430952,-3.371063
79.206390,-3.089878
78.975323,-2.815003
78.738168,-2.547358
78.495384,-2.287888
78.247468,-2.037559
77.994952,-1.797346
77.738403,-1.568229
77.478416,-1.351182
77.215613,-1.147167
76.950637,-0.957123
76.684148,-0.781958
76.416823,-0.622544
76.149345,-0.479704
75.882402,-0.354208
75.616681,-0.246764
75.352865,-0.158013
75.091624,-0.088519
74.833615,-0.038767
74.579475,-0.009158
74.329816,0.000000
74.085222,-0.011512
73.846244,-0.043816
73.613396,-0.096937
73.387152,-0.170804
73.167943,-0.265246
72.956155,-0.380000
72.752122,-0.514703
72.556132,-0.668907
72.368419,-0.842073
72.189164,-1.033580
72.018496,-1.242729
71.856489,-1.468750
71.703165,-1.710810
71.558494,-1.968017
71.422395,-2.239428
71.294738,-2.524061
71.175348,-2.820900
71.064004,-3.128904
70.960443,-3.447016
70.864368,-3.774175
70.775445,-4.109318
70.693309,-4.451395
70.617571,-4.799372
70.547819,-5.152245
70.483621,-5.509042
70.424536,-5.868830
70.370109,-6.230729
70.319883,-6.593906
70.273401,-6.957591
70.230208,-7.321074
70.189857,-7.683713
70.151912,-8.044935
70.115954,-8.404235
70.081581,-8.761186
70.048411,-9.115428
70.016087,-9.466676
69.984279,-9.814717
69.952683,-10.159406
69.921026,-10.500663
69.889064,-10.838474
69.856587,-11.172883
69.823414,-11.503989
69.789397,-11.831942
69.754420,-12.156936
69.718395,-12.479204
69.681266,-12.799015
69.643003,-13.116663
69.603604,-13.432465
69.563089,-13.746753
69.521501,-14.059869
69.478904,-14.372158
69.435376,-14.683963
69.391012,-14.995622
69.345917,-15.307458
69.300205,-15.619779
69.253997,-15.932871
69.207416,-16.246995
69.160586,-16.562387
69.113628,-16.879249
69.066660,-17.197752
69.019792,-17.518034
68.973124,-17.840195
68.926749,-18.164303
68.880743,-18.490389
68.835170,-18.818449
68.790080,-19.148447
68.745506,-19.480315
68.701464,-19.813954
68.657955,-20.149239
68.614963,-20.486021
68.572455,-20.824128
68.530381,-21.163371
68.488681,-21.503547
68.447275,-21.844441
68.406074,-22.185830
68.364978,-22.527489
68.323875,-22.869192
68.282650,-23.210716
68.241177,-23.551845
68.199329,-23.892374
68.156978,-24.232109
68.113996,-24.570873
68.070255,-24.908506
68.025637,-25.244869
67.980025,-25.579842
67.933314,-25.913331
67.885410,-26.245264
67.836228,-26.575594
67.785701,-26.904297
67.733773,-27.231377
67.680407,-27.556858
67.625584,-27.880790
67.569299,-28.203241
67.511572,-28.524303
67.452437,-28.844086
67.391949,-29.162714
67.330183,-29.480328
67.267232,-29.797079
67.203208,-30.113131
67.138240,-30.428651
67.072474,-30.743814
67.006074,-31.058795
66.939215,-31.373768
66.872087,-31.688905
66.804893,-32.004374
66.737845,-32.320333
66.671164,-32.636932
66.605076,-32.954307
66.539817,-33.272584
66.475623,-33.591872
66.412732,-33.912266
66.351384,-34.233841
66.291817,-34.556658
66.234267,-34.880758
66.178963,-35.206163
66.126132,-35.532879
66.075992,-35.860892
66.028755,-36.190172
65.984622,-36.520670
65.943785,-36.852324
65.906428,-37.185054
65.872722,-37.518770
65.842826,-37.853365
65.816892,-38.188725
65.795056,-38.524726
65.777445,-38.861233
65.764174,-39.198109
65.755348,-39.535209
65.751062,-39.872386
65.751400,-40.209491
65.756436,-40.546374
65.766237,-40.882888
65.780862,-41.218886
65.800361,-41.554226
65.824780,-41.888769
65.854156,-42.222381
65.888525,-42.554936
65.927915,-42.886312
65.972352,-43.216395
66.021860,-43.545078
66.076458,-43.872261
66.136166,-44.197852
66.201000,-44.521765
66.270977,-44.843922
66.346111,-45.164250
66.426417,-45.482684
66.511908,-45.799164
66.602598,-46.113634
66.698499,-46.426044
66.799622,-46.736346
66.905977,-47.044497
67.017574,-47.350455
67.134418,-47.654181
67.256514,-47.955636
67.383864,-48.254784
67.516466,-48.551586
67.654314,-48.846007
67.797397,-49.138008
67.945701,-49.427551
68.099204,-49.714596
68.257879,-49.999103
68.421692,-50.281031
68.590603,-50.560338
68.764562,-50.836981
68.943515,-51.110917
69.127396,-51.382102
69.316133,-51.650494
69.509645,-51.916051
69.707843,-52.178731
69.910629,-52.438498
70.117898,-52.695313
70.329537,-52.949145
70.545423,-53.199964
70.765430,-53.447746
70.989423,-53.692470
71.217261,-53.934123
71.448798,-54.172696
71.683885,-54.408187
71.922367,-54.640603
72.164088,-54.869955
72.408887,-55.096262
72.656607,-55.319554
72.907085,-55.539865
73.160162,-55.757237
73.415681,-55.971722
73.673486,-56.183377
73.933423,-56.392268
74.195345,-56.598467
74.459109,-56.802051
74.724576,-57.003104
74.991615,-57.201716
75.260100,-57.397979
75.529913,-57.591993
75.800945,-57.783856
76.073093,-57.973673
76.346262,-58.161548
76.620367,-58.347585
76.895329,-58.531892
77.171079,-58.714571
77.447556,-58.895727
77.724705,-59.075461
78.002480,-59.253871
78.280843,-59.431052
78.559760,-59.607095
78.839205,-59.782086
79.119158,-59.956109
79.399603,-60.129239
79.680530,-60.301548
79.961929,-60.473103
80.243798,-60.643964
80.526134,-60.814187
80.808936,-60.983821
81.092207,-61.152911
81.375946,-61.321498
81.660156,-61.489616
81.944837,-61.657297
82.229988,-61.824567
82.515607,-61.991451
82.801689,-62.157969
83.088227,-62.324141
83.375212,-62.489981
83.662631,-62.655507
83.950467,-62.820733
84.238704,-62.985673
84.527316,-63.150342
84.816281,-63.314755
85.105568,-63.478929
85.395146,-63.642882
85.684982,-63.806633
85.975038,-63.970206
86.265275,-64.133623
86.555652,-64.296912
86.846128,-64.460103
87.136659,-64.623227
87.427202,-64.786319
87.717711,-64.949416
88.008143,-65.112557
88.298455,-65.275785
88.588605,-65.439141
88.878551,-65.602671
89.168256,-65.766420
89.457681,-65.930436
89.746794,-66.094765
90.035562,-66.259454
90.323957,-66.424550
90.611955,-66.590097
90.899533,-66.756139
91.186673,-66.922719
91.473361,-67.089875
91.759585,-67.257645
92.045338,-67.426062
92.330617,-67.595157
92.615419,-67.764957
92.899749,-67.935483
93.183611,-68.106756
93.467013,-68.278790
93.749966,-68.451594
94.032484,-68.625175
94.314579,-68.799534
94.596270,-68.974670
94.877572,-69.150575
95.158504,-69.327241
95.439085,-69.504652
95.719334,-69.682794
95.999268,-69.861646
96.278907,-70.041186
96.558266,-70.221390
96.837362,-70.402234
97.116210,-70.583690
97.394822,-70.765731
97.673210,-70.948329
97.951382,-71.131457
98.229346,-71.315090
98.507106,-71.499200
98.784664,-71.683764
99.062022,-71.868760
99.339176,-72.054168
99.616122,-72.239971
99.892854,-72.426154
100.169362,-72.612705
100.445635,-72.799616
100.721662,-72.986881
100.997428,-73.174499
101.272918,-73.362471
101.548114,-73.550801
101.822999,-73.739496
102.097554,-73.928569
102.371761,-74.118032
102.645600,-74.307901
102.919052,-74.498194
103.192098,-74.688933
103.464720,-74.880138
103.736900,-75.071835
104.008620,-75.264046
104.279866,-75.456798
104.550622,-75.650115
104.820876,-75.844023
105.090616,-76.038546
105.359831,-76.233709
105.628514,-76.429533
105.896657,-76.626039
106.164257,-76.823247
106.431310,-77.021174
106.697815,-77.219835
106.963771,-77.419241
107.229182,-77.619403
107.494051,-77.820327
107.758382,-78.022017
108.022183,-78.224474
108.285460,-78.427696
108.548222,-78.631679
108.810479,-78.836415
109.072240,-79.041895
109.333516,-79.248106
109.594318,-79.455034
109.854658,-79.662662
110.114546,-79.870972
110.373993,-80.079945
110.633010,-80.289560
110.891607,-80.499795
111.149794,-80.710629
111.407580,-80.922039
111.664973,-81.134003
111.921979,-81.346499
112.178604,-81.559507
112.434855,-81.773007
112.690734,-81.986978
112.946244,-82.201406
113.201386,-82.416273
113.456160,-82.631567
113.710566,-82.847275
113.964600,-83.063388
114.218261,-83.279900
114.471542,-83.496804
114.724439,-83.714099
114.976944,-83.931785
115.229052,-84.149862
115.480753,-84.368336
115.732039,-84.587212
115.982900,-84.806500
116.233327,-85.026208
116.483309,-85.246349
116.732836,-85.466935
116.981898,-85.687981
117.230484,-85.909501
117.478583,-86.131512
117.726186,-86.354029
117.973282,-86.577070
118.219861,-86.800650
118.465916,-87.024786
118.711436,-87.249494
118.956414,-87.474787
119.200844,-87.700682
119.444717,-87.927189
119.688029,-88.154321
119.930774,-88.382089
120.172947,-88.610500
120.414546,-88.839562
120.655568,-89.069279
120.896010,-89.299656
121.135872,-89.530695
121.375152,-89.762394
121.613852,-89.994752
121.851972,-90.227766
122.089514,-90.461430
122.326480,-90.695738
122.562873,-90.930681
122.798695,-91.166250
123.033951,-91.402435
123.268644,-91.639224
123.502779,-91.876604
123.736360,-92.114562
123.969391,-92.353085
124.201878,-92.592159
124.433824,-92.831771
124.665235,-93.071906
124.896114,-93.312551
125.126467,-93.553693
125.356297,-93.795319
125.585609,-94.037417
125.814405,-94.279977
126.042690,-94.522988
126.270466,-94.766442
126.497735,-95.010329
126.724499,-95.254645
126.950760,-95.499382
127.176520,-95.744537
127.401778,-95.990107
127.626534,-96.236090
127.850789,-96.482485
128.074542,-96.729293
128.297790,-96.976516
128.520533,-97.224156
128.742768,-97.472217
128.964493,-97.720702
129.185704,-97.969619
129.406398,-98.218971
129.626571,-98.468765
129.846220,-98.719008
130.065340,-98.969707
130.283927,-99.220869
130.501976,-99.472499
130.719482,-99.724607
130.936441,-99.977196
131.152849,-100.230275
131.368699,-100.483848
131.583989,-100.737921
131.798712,-100.992499
132.012866,-101.247584
132.226446,-101.503180
132.439448,-101.759290
132.651869,-102.015914
132.863705,-102.273053
133.074954,-102.530708
133.285613,-102.788875
133.495681,-103.047554
133.705156,-103.306742
133.914038,-103.566433
134.122325,-103.826625
134.330019,-104.087312
134.537119,-104.348487
134.743626,-104.610145
134.949544,-104.872277
135.154873,-105.134877
135.359616,-105.397936
135.563778,-105.661447
135.767361,-105.925401
135.970370,-106.189789
136.172809,-106.454603
136.374683,-106.719834
136.575999,-106.985474
136.776760,-107.251514
136.976975,-107.517946
137.176648,-107.784762
137.375786,-108.051955
137.574395,-108.319517
137.772483,-108.587443
137.970055,-108.855725
138.167118,-109.124359
138.363679,-109.393338
138.559744,-109.662658
138.755319,-109.932316
138.950409,-110.202307
139.145020,-110.472628
139.339158,-110.743277
139.532826,-111.014252
139.726029,-111.285552
139.918771,-111.557176
140.111054,-111.829122
140.302880,-112.101392
140.494253,-112.373986
140.685171,-112.646904
140.875637,-112.920147
141.065648,-113.193718
141.255205,-113.467618
141.444305,-113.741850
141.632945,-114.016415
141.821122,-114.291317
142.008830,-114.566558
142.196066,-114.842142
142.382822,-115.118072
142.569093,-115.394352
142.754870,-115.670984
142.940145,-115.947974
143.124909,-116.225324
143.309154,-116.503039
143.492867,-116.781122
143.676040,-117.059579
143.858659,-117.338413
144.040715,-117.617629
144.222193,-117.897230
144.403082,-118.177222
144.583369,-118.457608
144.763041,-118.738394
144.942084,-119.019583
145.120485,-119.301179
145.298231,-119.583188
145.475308,-119.865614
145.651704,-120.148461
145.827404,-120.431733
146.002396,-120.715434
146.176669,-120.999569
146.350208,-121.284141
146.523004,-121.569154
146.695044,-121.854612
146.866318,-122.140517
147.036816,-122.426874
147.206528,-122.713685
147.375446,-123.000953
147.543561,-123.288680
147.710867,-123.576868
147.877357,-123.865519
148.043024,-124.154634
148.207865,-124.444215
148.371874,-124.734261
148.535049,-125.024774
148.697387,-125.315753
148.858886,-125.607198
149.019544,-125.899108
149.179362,-126.191481
149.338339,-126.484317
149.496476,-126.777612
149.653775,-127.071365
149.810237,-127.365574
149.965865,-127.660234
150.120660,-127.955343
150.274627,-128.250897
150.427767,-128.546894
150.580084,-128.843328
150.731581,-129.140195
150.882261,-129.437493
151.032127,-129.735216
151.181181,-130.033360
151.329426,-130.331921
151.476863,-130.630895
151.623495,-130.930278
151.769323,-131.230066
151.914345,-131.530256
152.058563,-131.830842
152.201975,-132.131823
152.344579,-132.433195
152.486374,-132.734956
152.627355,-133.037102
152.767518,-133.339632
152.906859,-133.642543
153.045371,-133.945835
153.183049,-134.249505
153.319884,-134.553553
153.455870,-134.857978
153.590996,-135.162780
153.725255,-135.467958
153.858636,-135.773514
153.991129,-136.079446
154.122723,-136.385756
154.253408,-136.692444
154.383174,-136.999510
154.512008,-137.306957
154.639900,-137.614784
154.766840,-137.922992
154.892817,-138.231582
155.017821,-138.540554
155.141843,-138.849910
155.264874,-139.159649
155.386907,-139.469771
155.507934,-139.780276
155.627950,-140.091164
155.746949,-140.402433
155.864927,-140.714082
155.981882,-141.026109
156.097812,-141.338514
156.212718,-141.651292
156.326600,-141.964441
156.439460,-142.277958
156.551303,-142.591839
156.662133,-142.906080
156.771957,-143.220676
156.880781,-143.535623
156.988615,-143.850914
157.095468,-144.166545
157.201350,-144.482510
157.306273,-144.798802
157.410248,-145.115416
157.513288,-145.432344
157.615406,-145.749579
157.716614,-146.067117
157.816927,-146.384948
157.916356,-146.703068
158.014916,-147.021468
158.112618,-147.340143
158.209475,-147.659086
158.305497,-147.978291
158.400696,-148.297752
158.495081,-148.617464
158.588661,-148.937420
158.681441,-149.257616
158.773430,-149.578047
158.864631,-149.898709
158.955047,-150.219598
159.044680,-150.540711
159.133530,-150.862043
159.221595,-151.183593
159.308873,-151.505358
159.395360,-151.827337
159.481049,-152.149527
159.565933,-152.471927
159.650004,-152.794536
159.733252,-153.117355
159.815666,-153.440381
159.897236,-153.763616
159.977948,-154.087059
160.057790,-154.410710
160.136748,-154.734569
160.214810,-155.058637
160.291961,-155.382914
160.368189,-155.707401
160.443481,-156.032096
160.517824,-156.357001
160.591208,-156.682116
160.663620,-157.007440
160.735053,-157.332972
160.805498,-157.658712
160.874948,-157.984659
160.943398,-158.310811
161.010844,-158.637167
161.077286,-158.963726
161.142723,-159.290484
161.207157,-159.617439
161.270592,-159.944589
161.333034,-160.271929
161.394490,-160.599458
161.454970,-160.927169
161.514486,-161.255061
161.573050,-161.583127
161.630676,-161.911364
161.687381,-162.239766
161.743182,-162.568330
161.798096,-162.897049
161.852143,-163.225918
161.905342,-163.554933
161.957713,-163.884087
162.009278,-164.213375
162.060055,-164.542793
162.110065,-164.872335
162.159328,-165.201995
162.207863,-165.531769
162.255687,-165.861653
162.302818,-166.191640
162.349271,-166.521727
162.395060,-166.851911
162.440198,-167.182186
162.484695,-167.512549
162.528560,-167.842997
162.571799,-168.173526
162.614418,-168.504135
162.656418,-168.834820
162.697801,-169.165580
162.738564,-169.496412
162.778702,-169.827315
162.818211,-170.158287
162.857082,-170.489328
162.895305,-170.820436
162.932868,-171.151611
162.969758,-171.482853
163.005961,-171.814161
163.041460,-172.145535
163.076238,-172.476975
163.110278,-172.808481
163.143560,-173.140054
163.176067,-173.471693
163.207779,-173.803399
163.238677,-174.135172
163.268743,-174.467013
163.297959,-174.798921
163.326307,-175.130897
163.353771,-175.462941
163.380336,-175.795052
163.405988,-176.127231
163.430715,-176.459477
163.454506,-176.791789
163.477351,-177.124168
163.499243,-177.456612
163.520177,-177.789120
163.540149,-178.121692
163.559158,-178.454326
163.577203,-178.787020
163.594286,-179.119773
163.610411,-179.452583
163.625583,-179.785448
163.639809,-180.118366
163.653096,-180.451335
163.665456,-180.784353
163.676897,-181.117416
163.687431,-181.450522
163.697070,-181.783668
163.705827,-182.116852
163.713715,-182.450070
163.720746,-182.783319
163.726933,-183.116597
163.732289,-183.449900
163.736825,-183.783224
163.740553,-184.116567
163.743483,-184.449926
163.745625,-184.783296
163.746986,-185.116675
163.747574,-185.450059
163.747393,-185.783446
163.746449,-186.116831
163.744743,-186.450211
163.742277,-186.783584
163.739050,-187.116946
163.735061,-187.450293
163.730305,-187.783624
163.724779,-188.116934
163.718475,-188.450221
163.711387,-188.783483
163.703507,-189.116715
163.694825,-189.449916
163.685331,-189.783083
163.675016,-190.116214
163.663867,-190.449306
163.651875,-190.782356
163.639029,-191.115363
163.625317,-191.448325
163.610729,-191.781239
163.595256,-192.114104
163.578890,-192.446918
163.561622,-192.779679
163.543445,-193.112386
163.524354,-193.445037
163.504346,-193.777632
163.483418,-194.110169
163.461569,-194.442647
163.438800,-194.775065
163.415113,-195.107423
163.390514,-195.439719
163.365007,-195.771954
163.338602,-196.104126
163.311307,-196.436234
163.283133,-196.768280
163.254093,-197.100262
163.224201,-197.432179
163.193472,-197.764032
163.161921,-198.095821
163.129567,-198.427544
163.096426,-198.759203
163.062517,-199.090795
163.027858,-199.422322
162.992467,-199.753782
162.956364,-200.085176
162.919566,-200.416502
162.882091,-200.747760
162.843956,-201.078950
162.805176,-201.410070
162.765766,-201.741119
162.725740,-202.072096
162.685110,-202.403001
162.643887,-202.733832
162.602079,-203.064587
162.559694,-203.395264
162.516738,-203.725863
162.473214,-204.056380
162.429124,-204.386815
162.384468,-204.717164
162.339245,-205.047427
162.293451,-205.377599
162.247082,-205.707680
162.200130,-206.037666
162.152589,-206.367555
162.104448,-206.697345
162.055698,-207.027032
162.006326,-207.356614
161.956322,-207.686089
161.905673,-208.015454
161.854364,-208.344706
161.802384,-208.673842
161.749719,-209.002861
161.696356,-209.331760
161.642281,-209.660536
161.587482,-209.989187
161.531949,-210.317712
161.475669,-210.646108
161.418634,-210.974373
161.360834,-211.302506
161.302262,-211.630506
161.242911,-211.958370
161.182777,-212.286097
161.121855,-212.613686
161.060144,-212.941137
160.997642,-213.268447
160.934351,-213.595617
160.870272,-213.922645
160.805409,-214.249530
160.739765,-214.576273
160.673346,-214.902872
160.606158,-215.229326
160.538210,-215.555636
160.469508,-215.881800
160.400062,-216.207818
160.329881,-216.533688
160.258974,-216.859411
160.187351,-217.184985
160.115021,-217.510410
160.041993,-217.835684
159.968277,-218.160805
159.893880,-218.485773
159.818812,-218.810586
159.743078,-219.135242
159.666686,-219.459739
159.589641,-219.784076
159.511947,-220.108249
159.433606,-220.432258
159.354623,-220.756098
159.274996,-221.079768
159.194726,-221.403264
159.113812,-221.726584
159.032251,-222.049724
158.950039,-222.372682
158.867171,-222.695454
158.783642,-223.018037
158.699444,-223.340428
158.614571,-223.662623
158.529014,-223.984619
158.442764,-224.306412
158.355812,-224.628000
158.268148,-224.949379
158.179763,-225.270547
158.090646,-225.591499
158.000789,-225.912234
157.910180,-226.232749
157.818811,-226.553041
157.726673,-226.873108
157.633758,-227.192947
157.540059,-227.512557
157.445568,-227.831935
157.350279,-228.151081
157.254187,-228.469992
157.157289,-228.788667
157.059581,-229.107105
156.961062,-229.425305
156.861729,-229.743267
156.761584,-230.060988
156.660627,-230.378470
156.558860,-230.695710
156.456287,-231.012710
156.352911,-231.329467
156.248737,-231.645982
156.143770,-231.962254
156.038017,-232.278284
155.931485,-232.594069
155.824180,-232.909611
155.716110,-233.224907
155.607284,-233.539959
155.497708,-233.854764
155.387392,-234.169322
155.276343,-234.483631
155.164569,-234.797692
155.052078,-235.111501
154.938879,-235.425059
154.824976,-235.738364
154.710379,-236.051413
154.595092,-236.364205
154.479122,-236.676739
154.362474,-236.989013
154.245152,-237.301024
154.127161,-237.612770
154.008504,-237.924250
153.889184,-238.235462
153.769204,-238.546403
153.648565,-238.857072
153.527269,-239.167467
153.405317,-239.477586
153.282709,-239.787427
153.159446,-240.096989
153.035527,-240.406272
152.910953,-240.715272
152.785724,-241.023991
152.659838,-241.332426
152.533295,-241.640579
152.406096,-241.948447
152.278239,-242.256031
152.149725,-242.563332
152.020553,-242.870350
151.890725,-243.177085
151.760239,-243.483538
151.629098,-243.789710
151.497303,-244.095602
151.364854,-244.401215
151.231754,-244.706550
151.098004,-245.011609
150.963606,-245.316393
150.828564,-245.620903
150.692879,-245.925140
150.556554,-246.229105
150.419592,-246.532799
150.281996,-246.836222
150.143768,-247.139375
150.004911,-247.442258
149.865427,-247.744870
149.725319,-248.047211
149.584588,-248.349279
149.443236,-248.651074
149.301264,-248.952593
149.158672,-249.253833
149.015461,-249.554793
148.871629,-249.855467
148.727175,-250.155853
148.582098,-250.455946
148.436395,-250.755741
148.290063,-251.055232
148.143097,-251.354415
147.995494,-251.653282
147.847247,-251.951828
147.698352,-252.250046
147.548803,-252.547928
147.398591,-252.845468
147.247711,-253.142657
147.096154,-253.439490
146.943913,-253.735957
146.790980,-254.032052
146.637347,-254.327768
146.483006,-254.623097
146.327950,-254.918033
146.172171,-255.212570
146.015661,-255.506700
145.858415,-255.800418
145.700425,-256.093720
145.541686,-256.386601
145.382194,-256.679056
145.221944,-256.971082
145.060934,-257.262676
144.899160,-257.553837
144.736622,-257.844562
144.573320,-258.134851
144.409254,-258.424704
144.244426,-258.714122
144.078839,-259.003105
143.912497,-259.291655
143.745405,-259.579775
143.577569,-259.867468
143.408995,-260.154737
143.239691,-260.441586
143.069665,-260.728018
142.898926,-261.014039
142.727485,-261.299653
142.555350,-261.584865
142.382532,-261.869679
142.209042,-262.154101
142.034891,-262.438134
141.860090,-262.721784
141.684648,-263.005055
141.508577,-263.287950
141.331887,-263.570475
141.154587,-263.852630
140.976686,-264.134420
140.798194,-264.415847
140.619118,-264.696912
140.439465,-264.977617
140.259241,-265.257961
140.078451,-265.537945
139.897101,-265.817569
139.715194,-266.096830
139.532732,-266.375727
139.349717,-266.654258
139.166150,-266.932420
138.982031,-267.210209
138.797359,-267.487622
138.612133,-267.764654
138.426349,-268.041302
138.240006,-268.317560
138.053100,-268.593425
137.865626,-268.868890
137.677582,-269.143952
137.488962,-269.418606
137.299762,-269.692846
137.109978,-269.966669
136.919605,-270.240071
136.728639,-270.513048
136.537075,-270.785597
136.344912,-271.057714
136.152145,-271.329398
135.958772,-271.600646
135.764791,-271.871458
135.570201,-272.141832
135.375001,-272.411768
135.179192,-272.681267
134.982774,-272.950330
134.785750,-273.218958
134.588121,-273.487152
134.389892,-273.754916
134.191065,-274.022251
133.991645,-274.289161
133.791638,-274.555650
133.591049,-274.821720
133.389883,-275.087375
133.188148,-275.352618
132.985851,-275.617454
132.782997,-275.881885
132.579593,-276.145914
132.375648,-276.409545
132.171166,-276.672780
131.966155,-276.935620
131.760622,-277.198067
131.554570,-277.460122
131.348006,-277.721786
131.140935,-277.983057
130.933360,-278.243936
130.725285,-278.504419
130.516711,-278.764506
130.307642,-279.024192
130.098078,-279.283475
129.888019,-279.542349
129.677464,-279.800810
129.466413,-280.058852
129.254864,-280.316469
129.042813,-280.573655
128.830257,-280.830404
128.617193,-281.086708
128.403617,-281.342561
128.189523,-281.597955
127.974908,-281.852884
127.759765,-282.107341
127.544091,-282.361320
127.327879,-282.614815
127.111127,-282.867820
126.893828,-283.120330
126.675980,-283.372341
126.457578,-283.623850
126.238620,-283.874853
126.019103,-284.125350
125.799026,-284.375340
125.578389,-284.624822
125.357192,-284.873797
125.135435,-285.122267
124.913121,-285.370236
124.690254,-285.617707
124.466836,-285.864684
124.242873,-286.111173
124.018370,-286.357180
123.793334,-286.602711
123.567772,-286.847774
123.341692,-287.092376
123.115102,-287.336525
122.888010,-287.580229
122.660427,-287.823495
122.432362,-288.066332
122.203822,-288.308745
121.974819,-288.550744
121.745361,-288.792333
121.515456,-289.033518
121.285112,-289.274304
121.054339,-289.514695
120.823141,-289.754693
120.591525,-289.994300
120.359497,-290.233516
120.127060,-290.472341
119.894217,-290.710772
119.660971,-290.948804
119.427321,-291.186435
119.193268,-291.423656
118.958809,-291.660460
118.723942,-291.896840
118.488663,-292.132784
118.252966,-292.368282
118.016846,-292.603323
117.780296,-292.837893
117.543308,-293.071980
117.305874,-293.305570
117.067985,-293.538650
116.829632,-293.771206
116.590805,-294.003224
116.351496,-294.234692
116.111696,-294.465596
115.871395,-294.695925
115.630585,-294.925668
115.389259,-295.154815
115.147410,-295.383358
114.905032,-295.611289
114.662122,-295.838604
114.418675,-296.065298
114.174690,-296.291370
113.930166,-296.516820
113.685105,-296.741650
113.439510,-296.965864
113.193384,-297.189467
112.946735,-297.412467
112.699569,-297.634875
112.451896,-297.856701
112.203728,-298.077958
111.955074,-298.298661
111.705951,-298.518826
111.456371,-298.738470
111.206350,-298.957610
110.955905,-299.176265
110.705053,-299.394454
110.453810,-299.612197
110.202195,-299.829512
109.950224,-300.046419
109.697915,-300.262936
109.445285,-300.479080
109.192350,-300.694868
108.939124,-300.910315
108.685621,-301.125434
108.431854,-301.340238
108.177833,-301.554736
107.923569,-301.768936
107.669069,-301.982844
107.414338,-302.196463
107.159380,-302.409794
106.904197,-302.622837
106.648789,-302.835587
106.393152,-303.048039
106.137283,-303.260185
105.881175,-303.472015
105.624820,-303.683516
105.368209,-303.894676
105.111329,-304.105478
