83.3235,-54.3611
82.6116,-53.9865
81.8978,-53.6158
81.1836,-53.2472
80.4755,-52.8703
79.7824,-52.4712
79.1118,-52.0387
78.4654,-51.5711
77.846,-51.0708
77.2598,-50.5386
76.7236,-49.97
76.2523,-49.362
75.8491,-48.7206
75.5128,-48.0544
75.2427,-47.3715
75.0497,-46.6769
74.9561,-45.97
74.9754,-45.2471
75.0982,-44.5066
75.2947,-43.7535
75.5376,-42.9981
75.8149,-42.2477
76.1161,-41.5069
76.4388,-40.7771
76.7856,-40.0598
77.1602,-39.3562
77.5615,-38.6652
77.9851,-37.9854
78.4272,-37.3161
78.8804,-36.6535
79.3306,-35.9888
79.7649,-35.3136
80.1774,-34.6244
80.573,-33.9248
80.9657,-33.225
81.3761,-32.54
81.8256,-31.886
82.3264,-31.273
82.875,-30.6983
83.4536,-30.1472
84.0382,-29.5992
84.6086,-29.0366
85.1496,-28.4481
85.6479,-27.8279
86.0867,-27.1713
86.4462,-26.4754
86.7064,-25.7454
86.8567,-24.9939
86.8958,-24.2381
86.8367,-23.4932
86.7134,-22.7627
86.5592,-22.0383
86.3846,-21.3104
86.1841,-20.5752
85.9566,-19.8348
85.7197,-19.0914
85.5083,-18.3443
85.3682,-17.5901
85.3384,-16.8271
85.4236,-16.0595
85.6,-15.2927
85.8314,-14.5288
86.0824,-13.7665
86.3249,-13.0028
86.5352,-12.234
86.6932,-11.4579
86.7828,-10.6758
86.7926,-9.8916
86.7184,-9.1098
86.5675,-8.3333
86.3581,-7.5636
86.1087,-6.8014
85.8269,-6.0497
85.5115,-5.3146
85.1549,-4.6038
84.751,-3.9248
84.3019,-3.2797
83.8153,-2.6651
83.2939,-2.0815
82.731,-1.5379
81.462,-0.50257
80.7537,-0.13056
80.0183,0.18936
79.2615,0.43296
78.4613,0.52325
-50.7,-30.0313