84.5045,-54.4596
83.7561,-54.1161
83.0126,-53.7617
82.2736,-53.3976
81.5384,-53.0257
80.8074,-52.6458
80.083,-52.2542
79.3699,-51.8439
78.6741,-51.4073
78.001,-50.9388
77.3559,-50.4357
76.739,-49.8991
76.1487,-49.334
75.5891,-48.7425
75.0756,-48.119
74.6363,-47.4571
74.2997,-46.7601
74.0954,-46.0419
74.0479,-45.3169
74.1555,-44.5898
74.3794,-43.8566
74.6692,-43.1156
74.9945,-42.3715
75.3467,-41.6319
75.7207,-40.9005
76.1133,-40.1778
76.5217,-39.4631
76.9451,-38.7567
77.382,-38.0587
77.8323,-37.3699
78.2985,-36.6926
78.7831,-36.0292
79.2838,-35.3777
79.792,-34.7315
80.3001,-34.0845
80.8069,-33.4364
81.3173,-32.7921
81.8382,-32.1595
82.3808,-31.5501
82.954,-30.9728
83.5592,-30.4276
84.1821,-29.8998
84.7999,-29.3686
85.3864,-28.8156
85.9068,-28.2228
86.3249,-27.5762
86.6135,-26.8737
86.7666,-26.1257
86.8095,-25.3463
86.7893,-24.5468
86.7482,-23.7354
86.7015,-22.918
86.6419,-22.0989
86.5598,-21.2821
86.4549,-20.4701
86.3425,-19.6646
86.2526,-18.8653
86.2197,-18.0695
86.2648,-17.2739
86.3818,-16.4765
86.5442,-15.6769
86.7217,-14.8749
86.89,-14.0696
87.0307,-13.2605
87.1295,-12.4476
87.1742,-11.6333
87.1507,-10.8229
87.0445,-10.0252
86.845,-9.2497
86.5537,-8.5018
86.1917,-7.7776
85.7943,-7.0644
85.3945,-6.3489
85.0098,-5.6238
84.6375,-4.8924
84.2578,-4.1672
83.8457,-3.4651
83.3807,-2.8032
82.8531,-2.1935
82.2648,-1.6392
80.7417,-0.47693
80.0748,-0.020698
79.3641,0.32012
78.5565,0.40626
77.7473,0.4932
-48.1603,-29.903