89.308,-51.597
88.6173,-51.1743
87.9281,-50.7538
87.2375,-50.3351
86.5455,-49.9179
85.8529,-49.502
85.1618,-49.0897
84.4675,-48.6813
83.7693,-48.2777
83.0682,-47.8778
82.3658,-47.4784
81.6639,-47.0766
80.9633,-46.6711
80.2653,-46.2629
79.5691,-45.8539
78.8722,-45.4451
78.1741,-45.0376
77.48,-44.6299
76.7941,-44.2128
76.1251,-43.7743
75.4866,-43.3009
74.8886,-42.7849
74.339,-42.2243
73.846,-41.6183
73.4136,-40.9684
73.0461,-40.2794
72.7469,-39.5556
72.5258,-38.8007
72.3857,-38.0216
72.3181,-37.2287
72.3088,-36.4279
72.3464,-35.6253
72.4233,-34.8245
72.5357,-34.0273
72.6807,-33.2349
72.8552,-32.4481
73.0586,-31.6681
73.2897,-30.8959
73.5495,-30.1334
73.8412,-29.3828
74.1685,-28.6476
74.5286,-27.9279
74.9207,-27.2251
75.3444,-26.541
75.7984,-25.8768
76.2812,-25.2333
76.7895,-24.6097
77.3157,-24.0016
77.8426,-23.3977
78.3345,-22.7784
78.7459,-22.1227
79.0381,-21.4202
79.1913,-20.6762
79.2141,-19.9061
79.1445,-19.1243
79.0407,-18.3382
78.9646,-17.5502
78.9592,-16.7619
79.0392,-15.9762
79.1977,-15.1963
79.4088,-14.4225
79.6476,-13.653
79.8963,-12.8852
80.1462,-12.1179
80.3853,-11.3488
80.6007,-10.5759
80.7724,-9.7993
80.8816,-9.0225
80.9081,-8.2541
80.8277,-7.5036
80.6267,-6.7769
80.3123,-6.077
79.9073,-5.4061
79.4367,-4.7643
78.925,-4.1473
78.3917,-3.5459
77.8481,-2.9526
77.301,-2.3653
76.746,-1.7947
76.1637,-1.2685
75.0265,-0.38821
74.2877,-0.15967
73.5371,0.023372
72.7861,0.20299
72.0291,0.36482
71.2702,0.52876
-43.3995,-24.0747