92.5325,-53.9168
91.8879,-53.4687
91.2403,-53.0266
90.5857,-52.6018
89.9227,-52.1915
89.2536,-51.7805
88.5907,-51.3607
87.9374,-50.9306
87.2891,-50.4927
86.6386,-50.0493
85.9901,-49.6067
85.3434,-49.1659
84.6952,-48.727
84.0397,-48.2912
83.3814,-47.8654
82.7208,-47.4475
82.0608,-47.0272
81.4052,-46.5926
80.7646,-46.1425
80.1365,-45.6782
79.5118,-45.2062
78.8813,-44.7347
78.2507,-44.2704
77.6223,-43.806
76.999,-43.3315
76.3839,-42.8403
75.7859,-42.3356
75.202,-41.8168
74.6271,-41.2844
74.0643,-40.7358
73.5327,-40.1683
73.0483,-39.5707
72.6318,-38.9313
72.3075,-38.2446
72.0916,-37.5172
71.978,-36.7607
71.946,-35.9878
71.9816,-35.2101
72.0738,-34.4365
72.2114,-33.6673
72.3769,-32.9017
72.565,-32.1408
72.7752,-31.3869
73.0094,-30.6394
73.2643,-29.8988
73.5437,-29.1675
73.8483,-28.4466
74.1768,-27.735
74.5263,-27.0346
74.9051,-26.3514
75.3203,-25.6906
75.7737,-25.054
76.2588,-24.4422
76.7737,-23.855
77.3089,-23.284
77.8441,-22.7134
78.342,-22.1235
78.7625,-21.498
79.0594,-20.8258
79.2034,-20.1094
79.2055,-19.362
79.123,-18.5999
79.0196,-17.8302
78.9405,-17.0552
78.9068,-16.2761
78.9288,-15.4979
79.0037,-14.7224
79.1246,-13.9525
79.2809,-13.1896
79.4618,-12.4341
79.6466,-11.68
79.818,-10.9249
79.9577,-10.1667
80.0438,-9.4058
80.049,-8.6434
79.96,-7.8893
79.7707,-7.1588
79.4896,-6.464
79.1297,-5.8062
78.6991,-5.1861
78.99,-5.2435
78.4582,-4.8029
77.9436,-4.345
77.5203,-3.7939
77.0267,-3.3078
76.5357,-2.8173
76.253,-2.1892
75.8252,-1.6479
75.3672,-1.1137
74.8045,-0.84965
-40.2404,-23.3391