87.3765,-51.3442
86.6908,-50.9522
86.0132,-50.5475
85.3379,-50.1444
84.6628,-49.7437
83.9881,-49.3377
83.3143,-48.9258
82.6373,-48.5148
81.9534,-48.1112
81.2684,-47.7178
80.5851,-47.3265
79.9064,-46.9265
79.2361,-46.5096
78.5763,-46.0731
77.928,-45.6169
77.2959,-45.1422
76.6901,-44.6447
76.1236,-44.1124
75.6076,-43.5328
75.1489,-42.9039
74.7447,-42.2335
74.3914,-41.5313
74.0915,-40.8071
73.8435,-40.0647
73.6451,-39.3068
73.4963,-38.5362
73.3968,-37.7561
73.3436,-36.9698
73.3353,-36.1817
73.3707,-35.3953
73.4459,-34.6114
73.5528,-33.8299
73.6847,-33.051
73.8344,-32.2744
73.997,-31.5
74.1766,-30.731
74.378,-29.9683
74.6049,-29.2133
74.8561,-28.466
75.1233,-27.7237
75.3972,-26.9836
75.6811,-26.2488
75.9925,-25.5277
76.3476,-24.8279
76.7495,-24.1541
77.193,-23.5052
77.6654,-22.8759
78.1447,-22.2571
78.6045,-21.6427
79.0014,-21.0233
79.2759,-20.383
79.3834,-19.7073
79.3312,-18.9961
79.176,-18.2661
78.9918,-17.5363
78.8567,-16.8142
78.8257,-16.0923
78.8962,-15.3588
79.0305,-14.6092
79.1941,-13.8483
79.3758,-13.0837
79.572,-12.3209
79.7704,-11.5577
79.9507,-10.7903
80.0939,-10.0168
80.1879,-9.2381
80.2242,-8.4568
80.2016,-7.6766
80.1205,-6.9035
79.9732,-6.1443
79.7434,-5.4101
79.4208,-4.7141
79.0063,-4.065
78.5166,-3.4597
77.9856,-2.8833
77.4465,-2.3142
76.9214,-1.7366
76.4117,-1.1551
75.9007,-0.59508
75.3599,-0.091462
74.5421,0.61719
73.8495,0.84225
73.1431,1.0299
72.4289,1.2079
71.6967,1.2879
70.9658,1.3641
70.2362,1.4377
-44.7031,-22.7851