102.7474,-52.2452
101.9156,-51.914
101.0702,-51.6065
100.2201,-51.3236
99.3693,-51.0619
98.5122,-50.8105
97.6509,-50.5601
96.7879,-50.3029
95.9294,-50.0399
95.0768,-49.7761
94.2234,-49.5147
93.3653,-49.2566
92.5033,-48.9999
91.6407,-48.7466
90.7803,-48.5029
89.9189,-48.2729
89.0508,-48.0556
88.1766,-47.8486
87.2992,-47.6481
86.4246,-47.4522
85.5549,-47.2575
84.6841,-47.0548
83.814,-46.8367
82.9471,-46.5966
82.0922,-46.3315
81.2547,-46.0349
80.4372,-45.6925
79.652,-45.2901
78.9239,-44.8103
78.2885,-44.2376
77.7761,-43.5678
77.3949,-42.8105
77.1322,-41.9875
76.9639,-41.1241
76.8688,-40.2423
76.8402,-39.3558
76.8696,-38.4701
76.9423,-37.5846
77.0498,-36.6999
77.1833,-35.8163
77.3355,-34.9342
77.4949,-34.0543
77.6529,-33.173
77.8154,-32.2922
77.9951,-31.4156
78.2135,-30.5497
78.4855,-29.7025
78.8175,-28.8793
79.2125,-28.0854
79.6693,-27.3266
80.1886,-26.6074
80.7648,-25.9295
81.386,-25.2906
82.0435,-24.6899
82.7326,-24.1271
83.4444,-23.5935
84.1581,-23.067
84.8342,-22.5119
85.4247,-21.889
85.904,-21.1823
86.2745,-20.4029
86.5548,-19.574
86.7504,-18.7173
86.8527,-17.8434
86.8632,-16.9609
86.7977,-16.0753
86.692,-15.1889
86.5832,-14.3028
86.4945,-13.4146
86.4356,-12.5232
86.4004,-11.6294
86.3739,-10.7348
86.3372,-9.8415
86.2712,-8.9516
86.1621,-8.0663
86.0005,-7.1901
85.779,-6.3285
85.4941,-5.4895
85.1405,-4.6811
84.7171,-3.9039
84.5635,-3.5224
84.0575,-2.8807
83.56,-2.2346
83.1766,-1.5122
82.6929,-0.86182
82.1015,-0.29033
81.4111,0.13851
80.6623,0.46625
-45.3869,-23.6747