106.0055,-54.6134
105.2024,-54.2501
104.3957,-53.8948
103.5812,-53.5388
102.7687,-53.1815
101.9635,-52.8262
101.1538,-52.4708
100.3362,-52.1175
99.52,-51.7737
98.7063,-51.441
97.8846,-51.11
97.0613,-50.7751
96.2469,-50.4345
95.437,-50.0873
94.622,-49.7345
93.807,-49.3817
92.9975,-49.0337
92.1833,-48.6926
91.3571,-48.3669
90.5254,-48.0681
89.6945,-47.7905
88.86,-47.5052
88.032,-47.1906
87.2221,-46.8434
86.4255,-46.4727
85.6261,-46.0975
84.8169,-45.7532
83.9941,-45.4702
83.1529,-45.2423
82.3025,-45.0306
81.4706,-44.7864
80.6781,-44.4731
79.9278,-44.0773
79.2383,-43.6007
78.6468,-43.0339
78.1692,-42.3685
77.7804,-41.6196
77.4605,-40.8197
77.208,-39.9918
77.0217,-39.1447
76.9056,-38.2815
76.8744,-37.4095
76.9247,-36.5364
77.0241,-35.6617
77.1474,-34.7857
77.293,-33.9128
77.465,-33.0477
77.6672,-32.1896
77.9134,-31.3436
78.2151,-30.5157
78.5668,-29.708
78.9579,-28.9186
79.3907,-28.1505
79.8685,-27.4087
80.381,-26.6907
80.9181,-25.9917
81.4805,-25.3083
82.0636,-24.6412
82.6557,-23.9852
83.2562,-23.3394
83.8647,-22.6985
84.4614,-22.0495
85.0228,-21.3763
85.5385,-20.6709
85.9985,-19.93
86.3816,-19.152
86.6669,-18.3403
86.8421,-17.5025
86.9017,-16.6483
86.8584,-15.7827
86.7509,-14.9105
86.6238,-14.0358
86.4967,-13.1615
86.37,-12.2858
86.2443,-11.4105
86.1136,-10.5408
85.948,-9.684
85.7165,-8.8474
85.4095,-8.0407
85.0249,-7.2718
85.2523,-7.2982
84.7484,-6.7001
84.2591,-6.0919
83.7846,-5.4756
83.3177,-4.853
82.922,-4.1786
82.6608,-3.4403
82.3325,-2.7371
81.7819,-2.2302
81.0878,-1.8709
-43.9865,-23.2899