102.6082,-56.5794
101.8884,-56.1821
101.1528,-55.7821
100.4136,-55.3851
99.6753,-54.9923
98.9252,-54.5953
98.1931,-54.2093
97.447,-53.8156
96.724,-53.4335
95.9901,-53.0437
95.2808,-52.6658
94.562,-52.281
93.8652,-51.9076
93.1578,-51.5286
92.4655,-51.1596
91.7643,-50.7889
91.0603,-50.4213
90.3527,-50.0578
89.6251,-49.6901
88.9008,-49.3314
88.148,-48.9635
87.3991,-48.6028
86.6242,-48.2303
85.8585,-47.8618
85.0763,-47.4782
84.3135,-47.0936
83.5496,-46.6904
82.8182,-46.2794
82.1084,-45.8476
81.4369,-45.3962
80.8127,-44.9234
80.23,-44.4189
79.7161,-43.8926
79.2463,-43.3262
78.8508,-42.7334
78.5002,-42.0971
78.2217,-41.4317
77.9833,-40.7233
77.8085,-39.9863
77.6656,-39.2113
77.5745,-38.4121
77.5106,-37.5859
77.4789,-36.7403
77.4762,-35.8839
77.4896,-35.0159
77.5376,-34.1546
77.5945,-33.2927
77.6875,-32.4494
77.7905,-31.6172
77.9334,-30.8122
78.0895,-30.026
78.2885,-29.27
78.5036,-28.5352
78.7607,-27.8273
79.0375,-27.1383
79.3416,-26.4653
79.6681,-25.8054
80.0021,-25.1473
80.3564,-24.4938
80.6987,-23.8294
81.0486,-23.1584
81.3707,-22.4679
81.6875,-21.763
81.9644,-21.0346
82.2259,-20.2889
82.4413,-19.5216
82.6363,-18.7389
82.7899,-17.9417
82.9145,-17.1336
83.0119,-16.3211
83.0753,-15.5036
83.1281,-14.6914
83.1466,-13.88
83.1608,-13.0781
83.1426,-12.2809
83.1213,-11.4935
83.0655,-10.7112
83.0009,-9.9355
82.8955,-9.163
82.7699,-8.3932
82.5985,-7.6254
82.3849,-6.8585
82.1249,-6.0963
81.803,-5.339
81.438,-4.5958
81.0023,-3.8699
80.5254,-3.1737
79.9822,-2.5154
79.4082,-1.9088
78.782,-1.3655
78.7707,-1.3322
78.2447,-0.94676
77.7068,-0.61914
77.1634,-0.35558
76.6213,-0.16166
76.087,-0.041966
75.5668,0
-44.4602,-24.3913