90.1065,-56.9375
89.4745,-56.5369
88.8452,-56.1347
88.2215,-55.7339
87.5992,-55.3328
86.9722,-54.9281
86.3514,-54.5271
85.7191,-54.1183
85.0807,-53.7041
84.4414,-53.2861
83.7901,-52.8547
83.1387,-52.4139
82.4886,-51.9606
81.8381,-51.4891
81.2043,-51.0041
80.5847,-50.499
79.9914,-49.9759
79.4305,-49.4324
78.9063,-48.8663
78.4374,-48.2855
78.0159,-47.6808
77.6527,-47.0563
77.3553,-46.4164
77.114,-45.7551
76.9379,-45.078
76.8213,-44.3858
76.7535,-43.6762
76.7406,-42.9548
76.7655,-42.219
76.8242,-41.4728
76.9088,-40.7151
77.0083,-39.9464
77.1262,-39.1755
77.2453,-38.396
77.3686,-37.613
77.4977,-36.8331
77.6238,-36.0532
77.76,-35.2799
77.907,-34.517
78.0647,-33.7652
78.2533,-33.0308
78.469,-32.3143
78.7223,-31.6204
79.0201,-30.9489
79.3625,-30.3002
79.7611,-29.6802
80.2042,-29.0812
80.6947,-28.504
81.2291,-27.9487
81.7888,-27.4073
82.3739,-26.8778
82.9664,-26.356
83.5456,-25.8348
84.1109,-25.3109
84.6358,-24.7779
85.1105,-24.233
85.5245,-23.6706
85.8645,-23.0874
86.1346,-22.4863
86.3205,-21.8612
86.4296,-21.2142
86.4702,-20.5498
86.4401,-19.8667
86.3611,-19.1697
86.2427,-18.4634
86.0927,-17.7503
85.9396,-17.0346
85.7866,-16.3193
85.651,-15.6086
85.5437,-14.9019
85.4684,-14.1999
85.4412,-13.5062
85.4495,-12.815
85.4973,-12.1252
85.5823,-11.4366
85.6845,-10.7437
85.803,-10.0436
85.9205,-9.3355
86.0162,-8.6171
86.0886,-7.8871
86.1131,-7.1473
86.0818,-6.4019
85.9845,-5.6534
85.8102,-4.9089
85.5667,-4.1793
85.24,-3.4719
84.8392,-2.7983
84.375,-2.1725
83.8453,-1.6052
83.2708,-1.1087
82.9143,-0.82762
82.3703,-0.5092
81.8147,-0.26399
81.2562,-0.096873
80.7031,-0.011406
-48.8161,-26.3379