108.080609,-315.561274
108.356609,-315.347638
108.632403,-315.133586
108.907917,-314.919148
109.183075,-314.704357
109.457793,-314.489246
109.731985,-314.273851
110.005561,-314.058207
110.278429,-313.842348
110.550499,-313.626306
110.821679,-313.410111
111.091882,-313.193791
111.361024,-312.977367
111.629023,-312.760861
111.895806,-312.544285
112.161305,-312.327649
112.425459,-312.110958
112.688217,-311.894209
112.949537,-311.677397
113.209383,-311.460509
113.467734,-311.243527
113.724575,-311.026429
113.979903,-310.809187
114.233727,-310.591770
114.486062,-310.374142
114.736937,-310.156264
114.986389,-309.938095
115.234463,-309.719591
115.481214,-309.500708
115.726705,-309.281399
115.971004,-309.061620
116.214187,-308.841326
116.456335,-308.620472
116.697531,-308.399020
116.937864,-308.176930
117.177425,-307.954169
117.416303,-307.730705
117.654590,-307.506514
117.892376,-307.281574
118.129751,-307.055869
118.366798,-306.829391
118.603600,-306.602134
118.840235,-306.374102
119.076773,-306.145302
119.313282,-305.915747
119.549820,-305.685457
119.786440,-305.454457
120.023188,-305.222777
120.260101,-304.990452
120.497209,-304.757520
120.734534,-304.524024
120.972091,-304.290011
121.209886,-304.055527
121.447919,-303.820622
121.686182,-303.585349
121.924661,-303.349758
122.163335,-303.113900
122.402179,-302.877825
122.641161,-302.641582
122.880244,-302.405216
123.119391,-302.168770
123.358558,-301.932283
123.597700,-301.695791
123.836770,-301.459323
124.075721,-301.222906
124.314504,-300.986560
124.553073,-300.750298
124.791379,-300.514131
125.029377,-300.278061
125.267025,-300.042085
125.504281,-299.806195
125.741108,-299.570377
125.977470,-299.334611
126.213338,-299.098873
126.448682,-298.863134
126.683481,-298.627359
126.917714,-298.391513
127.151367,-298.155554
127.384428,-297.919439
127.616890,-297.683124
127.848748,-297.446561
128.080003,-297.209703
128.310659,-296.972504
128.540720,-296.734914
128.770195,-296.496890
128.999097,-296.258386
129.227437,-296.019360
129.455231,-295.779773
129.682493,-295.539589
129.909240,-295.298775
130.135490,-295.057303
130.361258,-294.815149
130.586562,-294.572292
130.811416,-294.328719
131.035837,-294.084418
131.259838,-293.839385
131.483430,-293.593619
131.706624,-293.347124
131.929430,-293.099909
132.151854,-292.851986
132.373901,-292.603373
132.595573,-292.354090
132.816872,-292.104161
133.037798,-291.853613
133.258346,-291.602474
133.478513,-291.350775
133.698292,-291.098550
133.917676,-290.845831
134.136657,-290.592652
134.355225,-290.339047
134.573369,-290.085050
134.791079,-289.830691
135.008344,-289.576003
135.225152,-289.321013
135.441491,-289.065749
135.657353,-288.810234
135.872726,-288.554489
136.087601,-288.298534
136.301969,-288.042382
136.515824,-287.786044
136.729160,-287.529530
136.941970,-287.272844
137.154252,-287.015985
137.366004,-286.758953
137.577225,-286.501742
137.787914,-286.244342
137.998074,-285.986743
138.207708,-285.728930
138.416819,-285.470886
138.625413,-285.212594
138.833495,-284.954032
139.041070,-284.695180
139.248147,-284.436015
139.454732,-284.176515
139.660832,-283.916655
139.866455,-283.656412
140.071606,-283.395765
140.276293,-283.134691
140.480521,-282.873170
140.684295,-282.611183
140.887619,-282.348711
141.090496,-282.085740
141.292928,-281.822256
141.494916,-281.558247
141.696458,-281.293705
141.897554,-281.028623
142.098200,-280.762998
142.298390,-280.496827
142.498120,-280.230112
142.697383,-279.962856
142.896170,-279.695065
143.094472,-279.426745
143.292280,-279.157908
143.489582,-278.888564
143.686368,-278.618725
143.882626,-278.348406
144.078343,-278.077623
144.273509,-277.806390
144.468111,-277.534725
144.662139,-277.262644
144.855580,-276.990164
145.048426,-276.717301
145.240666,-276.444070
145.432292,-276.170488
145.623298,-275.896569
145.813677,-275.622325
146.003425,-275.347768
146.192538,-275.072910
146.381014,-274.797759
146.568854,-274.522322
146.756059,-274.246605
146.942630,-273.970612
147.128573,-273.694346
147.313893,-273.417808
147.498596,-273.140996
147.682691,-272.863909
147.866185,-272.586542
148.049090,-272.308892
148.231415,-272.030951
148.413172,-271.752714
148.594373,-271.474172
148.775028,-271.195318
148.955149,-270.916141
149.134749,-270.636634
149.313839,-270.356787
149.492429,-270.076592
149.670529,-269.796040
149.848149,-269.515122
150.025297,-269.233832
150.201981,-268.952163
150.378206,-268.670108
150.553977,-268.387663
150.729298,-268.104824
150.904171,-267.821589
151.078597,-267.537956
151.252575,-267.253924
151.426103,-266.969496
151.599177,-266.684672
151.771795,-266.399457
151.943948,-266.113855
152.115632,-265.827870
152.286837,-265.541510
152.457556,-265.254782
152.627779,-264.967693
152.797496,-264.680252
152.966698,-264.392468
153.135373,-264.104351
153.303512,-263.815909
153.471103,-263.527152
153.638137,-263.238089
153.804604,-262.948730
153.970495,-262.659084
154.135801,-262.369158
154.300515,-262.078959
154.464630,-261.788496
154.628140,-261.497774
154.791039,-261.206799
154.953325,-260.915574
155.114995,-260.624104
155.276046,-260.332390
155.436479,-260.040434
155.596294,-259.748236
155.755492,-259.455796
155.914077,-259.163113
156.072052,-258.870183
156.229421,-258.577005
156.386188,-258.283573
156.542359,-257.989883
156.697941,-257.695931
156.852939,-257.401709
157.007359,-257.107214
157.161207,-256.812437
157.314490,-256.517373
157.467213,-256.222015
157.619383,-255.926357
157.771002,-255.630392
157.922076,-255.334115
158.072608,-255.037519
158.222600,-254.740599
158.372054,-254.443351
158.520970,-254.145770
158.669348,-253.847853
158.817186,-253.549596
158.964480,-253.250997
159.111228,-252.952055
159.257423,-252.652768
159.403060,-252.353137
159.548132,-252.053162
159.692631,-251.752843
159.836547,-251.452183
159.979872,-251.151183
160.122595,-250.849847
160.264705,-250.548177
160.406191,-250.246178
160.547043,-249.943853
160.687247,-249.641206
160.826794,-249.338242
160.965672,-249.034965
161.103869,-248.731380
161.241376,-248.427492
161.378183,-248.123305
161.514281,-247.818823
161.649660,-247.514050
161.784315,-247.208991
161.918238,-246.903649
162.051423,-246.598027
162.183868,-246.292130
162.315569,-245.985958
162.446523,-245.679516
162.576731,-245.372804
162.706192,-245.065825
162.834909,-244.758581
162.962884,-244.451071
163.090122,-244.143297
163.216627,-243.835261
163.342406,-243.526961
163.467464,-243.218399
163.591811,-242.909574
163.715454,-242.600488
163.838403,-242.291139
163.960666,-241.981529
164.082254,-241.671657
164.203176,-241.361525
164.323443,-241.051132
164.443065,-240.740480
164.562053,-240.429569
164.680416,-240.118402
164.798164,-239.806980
164.915307,-239.495304
165.031853,-239.183378
165.147812,-238.871204
165.263190,-238.558785
165.377997,-238.246126
165.492238,-237.933228
165.605920,-237.620098
165.719048,-237.306738
165.831627,-236.993155
165.943662,-236.679351
166.055156,-236.365334
166.166112,-236.051107
166.276534,-235.736677
166.386422,-235.422047
166.495778,-235.107224
166.604604,-234.792213
166.712900,-234.477018
166.820667,-234.161645
166.927905,-233.846098
167.034613,-233.530381
167.140792,-233.214499
167.246441,-232.898455
167.351559,-232.582253
167.456146,-232.265895
167.560202,-231.949384
167.663726,-231.632722
167.766717,-231.315911
167.869175,-230.998951
167.971099,-230.681844
168.072488,-230.364589
168.173343,-230.047186
168.273663,-229.729636
168.373446,-229.411936
168.472693,-229.094085
168.571402,-228.776081
168.669572,-228.457924
168.767202,-228.139610
168.864291,-227.821136
168.960836,-227.502501
169.056835,-227.183702
169.152285,-226.864735
169.247184,-226.545599
169.341528,-226.226289
169.435311,-225.906804
169.528530,-225.587141
169.621179,-225.267297
169.713251,-224.947271
169.804741,-224.627059
169.895640,-224.306660
169.985941,-223.986072
170.075635,-223.665294
170.164713,-223.344325
170.253165,-223.023164
170.340981,-222.701810
170.428151,-222.380263
170.514663,-222.058523
170.600507,-221.736591
170.685671,-221.414467
170.770144,-221.092151
170.853914,-220.769645
170.936969,-220.446950
171.019299,-220.124067
171.100892,-219.800998
171.181739,-219.477744
171.261828,-219.154307
171.341150,-218.830688
171.419697,-218.506891
171.497459,-218.182915
171.574430,-217.858764
171.650603,-217.534439
171.725972,-217.209942
171.800533,-216.885274
171.874280,-216.560437
171.947213,-216.235433
172.019327,-215.910262
172.090623,-215.584927
172.161100,-215.259428
172.230759,-214.933766
172.299602,-214.607944
172.367630,-214.281960
172.434848,-213.955817
172.501258,-213.629515
172.566865,-213.303055
172.631673,-212.976437
172.695688,-212.649662
172.758915,-212.322731
172.821358,-211.995645
172.883024,-211.668404
172.943918,-211.341009
173.004044,-211.013462
173.063408,-210.685762
173.122013,-210.357911
173.179864,-210.029911
173.236964,-209.701762
173.293316,-209.373466
173.348921,-209.045026
173.403781,-208.716442
173.457896,-208.387716
173.511266,-208.058851
173.563890,-207.729849
173.615766,-207.400712
173.666890,-207.071444
173.717260,-206.742046
173.766872,-206.412521
173.815720,-206.082873
173.863799,-205.753103
173.911103,-205.423216
173.957626,-205.093215
174.003361,-204.763101
174.048302,-204.432879
174.092441,-204.102551
174.135771,-203.772121
174.178286,-203.441591
174.219979,-203.110964
174.260843,-202.780243
174.300874,-202.449431
174.340066,-202.118530
174.378414,-201.787542
174.415914,-201.456470
174.452563,-201.125315
174.488359,-200.794081
174.523301,-200.462768
174.557388,-200.131378
174.590621,-199.799913
174.623001,-199.468374
174.654531,-199.136762
174.685214,-198.805078
174.715054,-198.473325
174.744056,-198.141502
174.772227,-197.809610
174.799572,-197.477650
174.826098,-197.145624
174.851813,-196.813532
174.876726,-196.481375
174.900843,-196.149154
174.924172,-195.816870
174.946723,-195.484524
174.968503,-195.152118
174.989520,-194.819652
175.009780,-194.487128
175.029291,-194.154548
175.048057,-193.821913
175.066085,-193.489226
175.083379,-193.156488
175.099941,-192.823702
175.115774,-192.490870
175.130878,-192.157995
175.145254,-191.825079
175.158898,-191.492125
175.171810,-191.159136
175.183983,-190.826116
175.195413,-190.493067
175.206093,-190.159993
175.216014,-189.826897
175.225167,-189.493783
175.233542,-189.160654
175.241127,-188.827513
175.247910,-188.494363
175.253878,-188.161209
175.259017,-187.828054
175.263311,-187.494900
175.266747,-187.161751
175.269310,-186.828609
175.270983,-186.495479
175.271751,-186.162362
175.271600,-185.829261
175.270515,-185.496178
175.268481,-185.163117
175.265484,-184.830079
175.261512,-184.497066
175.256552,-184.164079
175.250593,-183.831122
175.243624,-183.498195
175.235638,-183.165300
175.226625,-182.832438
175.216579,-182.499611
175.205496,-182.166820
175.193370,-181.834066
175.180200,-181.501350
175.165984,-181.168674
175.150722,-180.836039
175.134415,-180.503446
175.117066,-180.170897
175.098679,-179.838392
175.079257,-179.505934
175.058807,-179.173524
175.037336,-178.841164
175.014850,-178.508856
174.991358,-178.176601
174.966868,-177.844403
174.941390,-177.512264
174.914932,-177.180186
174.887505,-176.848172
174.859118,-176.516225
174.829780,-176.184348
174.799502,-175.852544
174.768293,-175.520817
174.736162,-175.189170
174.703117,-174.857607
174.669167,-174.526132
174.634320,-174.194747
174.598583,-173.863457
174.561963,-173.532266
174.524465,-173.201177
174.486096,-172.870193
174.446859,-172.539319
174.406760,-172.208558
174.365801,-171.877913
174.323987,-171.547387
174.281318,-171.216983
174.237798,-170.886704
174.193429,-170.556552
174.148211,-170.226531
174.102145,-169.896641
174.055233,-169.566885
174.007475,-169.237264
173.958871,-168.907780
173.909423,-168.578433
173.859131,-168.249225
173.807996,-167.920156
173.756019,-167.591226
173.703201,-167.262436
173.649544,-166.933785
173.595050,-166.605274
173.539721,-166.276902
173.483560,-165.948668
173.426570,-165.620573
173.368754,-165.292615
173.310117,-164.964794
173.250663,-164.637110
173.190397,-164.309563
173.129324,-163.982150
173.067449,-163.654874
173.004778,-163.327732
172.941317,-163.000726
172.877073,-162.673856
172.812051,-162.347122
172.746258,-162.020524
172.679700,-161.694064
172.612383,-161.367743
172.544314,-161.041562
172.475498,-160.715522
172.405942,-160.389627
172.335649,-160.063877
172.264626,-159.738276
172.192877,-159.412826
172.120406,-159.087530
172.047217,-158.762391
171.973312,-158.437411
171.898694,-158.112596
171.823366,-157.787947
171.747328,-157.463468
171.670583,-157.139163
171.593129,-156.815036
171.514968,-156.491090
171.436099,-156.167328
171.356521,-155.843754
171.276233,-155.520370
171.195233,-155.197181
171.113520,-154.874188
171.031092,-154.551395
170.947946,-154.228803
170.864082,-153.906415
170.779495,-153.584233
170.694185,-153.262259
170.608150,-152.940492
170.521387,-152.618936
170.433896,-152.297589
170.345675,-151.976453
170.256722,-151.655528
170.167038,-151.334814
170.076621,-151.014310
169.985473,-150.694017
169.893594,-150.373932
169.800984,-150.054056
169.707644,-149.734388
169.613577,-149.414926
169.518784,-149.095670
169.423268,-148.776619
169.327030,-148.457772
169.230074,-148.139128
169.132402,-147.820686
169.034018,-147.502447
168.934923,-147.184410
168.835121,-146.866575
168.734615,-146.548942
168.633407,-146.231513
168.531499,-145.914287
168.428894,-145.597268
168.325592,-145.280456
168.221596,-144.963854
168.116905,-144.647464
168.011521,-144.331290
167.905441,-144.015334
167.798666,-143.699601
167.691194,-143.384094
167.583022,-143.068818
167.474148,-142.753778
167.364568,-142.438979
167.254277,-142.124426
167.143272,-141.810124
167.031547,-141.496079
166.919096,-141.182298
166.805914,-140.868785
166.691993,-140.555546
166.577328,-140.242587
166.461911,-139.929914
166.345736,-139.617532
166.228795,-139.305447
166.111082,-138.993663
165.992590,-138.682186
165.873313,-138.371020
165.753244,-138.060170
165.632379,-137.749638
165.510712,-137.439429
165.388238,-137.129545
165.264954,-136.819990
165.140857,-136.510766
165.015944,-136.201873
164.890214,-135.893315
164.763666,-135.585091
164.636301,-135.277203
164.508119,-134.969650
164.379123,-134.662434
164.249314,-134.355553
164.118696,-134.049007
163.987274,-133.742795
163.855052,-133.436917
163.722035,-133.131372
163.588229,-132.826158
163.453641,-132.521275
163.318277,-132.216722
163.182142,-131.912498
163.045246,-131.608602
162.907593,-131.305034
162.769191,-131.001794
162.630046,-130.698881
162.490164,-130.396297
162.349550,-130.094043
162.208211,-129.792118
162.066149,-129.490526
161.923369,-129.189268
161.779874,-128.888346
161.635666,-128.587764
161.490745,-128.287525
161.345112,-127.987632
161.198767,-127.688091
161.051707,-127.388905
160.903930,-127.090079
160.755433,-126.791619
160.606212,-126.493531
160.456260,-126.195820
160.305573,-125.898492
160.154143,-125.601554
160.001964,-125.305011
159.849028,-125.008870
159.695328,-124.713137
159.540855,-124.417818
159.385600,-124.122920
159.229557,-123.828448
159.072717,-123.534407
158.915072,-123.240804
158.756615,-122.947643
158.597339,-122.654929
158.437239,-122.362666
158.276310,-122.070857
158.114546,-121.779507
157.951945,-121.488618
157.788504,-121.198193
157.624223,-120.908233
157.459101,-120.618740
157.293139,-120.329715
157.126340,-120.041158
156.958708,-119.753070
156.790246,-119.465450
156.620962,-119.178297
156.450863,-118.891611
156.279955,-118.605389
156.108250,-118.319631
155.935755,-118.034333
155.762483,-117.749495
155.588444,-117.465114
155.413650,-117.181187
155.238114,-116.897713
155.061848,-116.614688
154.884865,-116.332110
154.707176,-116.049977
154.528795,-115.768287
154.349734,-115.487038
154.170004,-115.206227
153.989617,-114.925854
153.808582,-114.645915
153.626910,-114.366411
153.444609,-114.087340
153.261688,-113.808700
153.078153,-113.530492
152.894011,-113.252714
152.709266,-112.975367
152.523922,-112.698450
152.337983,-112.421963
152.151451,-112.145905
151.964326,-111.870278
151.776609,-111.595080
151.588299,-111.320313
151.399396,-111.045976
151.209897,-110.772068
151.019801,-110.498591
150.829105,-110.225543
150.637806,-109.952923
150.445902,-109.680732
150.253390,-109.408967
150.060269,-109.137628
149.866535,-108.866713
149.672188,-108.596220
149.477227,-108.326147
149.281652,-108.056491
149.085464,-107.787249
148.888665,-107.518419
148.691256,-107.249997
148.493243,-106.981978
148.294630,-106.714361
148.095424,-106.447139
147.895630,-106.180310
147.695257,-105.913869
147.494315,-105.647812
147.292813,-105.382134
147.090763,-105.116832
146.888175,-104.851902
146.685063,-104.587339
146.481438,-104.323141
146.277314,-104.059304
146.072704,-103.795826
145.867622,-103.532704
145.662079,-103.269936
145.456088,-103.007522
145.249662,-102.745459
145.042812,-102.483749
144.835547,-102.222391
144.627878,-101.961388
144.419811,-101.700739
144.211355,-101.440448
144.002513,-101.180518
143.793289,-100.920952
143.583685,-100.661755
143.373702,-100.402930
143.163337,-100.144483
142.952588,-99.886419
142.741449,-99.628745
142.529913,-99.371466
142.317972,-99.114588
142.105617,-98.858119
141.892837,-98.602063
141.679618,-98.346429
141.465948,-98.091221
141.251813,-97.836447
141.037197,-97.582111
140.822086,-97.328219
140.606465,-97.074776
140.390318,-96.821786
140.173631,-96.569253
139.956390,-96.317179
139.738581,-96.065568
139.520193,-95.814421
139.301215,-95.563738
139.081638,-95.313520
138.861454,-95.063766
138.640658,-94.814474
138.419246,-94.565643
138.197218,-94.317268
137.974574,-94.069346
137.751319,-93.821873
137.527457,-93.574844
137.302996,-93.328253
137.077948,-93.082095
136.852324,-92.836363
136.626140,-92.591050
136.399411,-92.346150
136.172156,-92.101657
135.944394,-91.857563
135.716147,-91.613862
135.487436,-91.370548
135.258283,-91.127616
135.028712,-90.885059
134.798745,-90.642873
134.568404,-90.401055
134.337712,-90.159600
134.106688,-89.918506
133.875354,-89.677771
133.643726,-89.437395
133.411820,-89.197377
133.179651,-88.957719
132.947230,-88.718422
132.714566,-88.479489
132.481665,-88.240924
132.248529,-88.002731
132.015160,-87.764916
131.781554,-87.527485
131.547706,-87.290444
131.313607,-87.053800
131.079244,-86.817561
130.844604,-86.581735
130.609670,-86.346330
130.374423,-86.111353
130.138841,-85.876814
129.902902,-85.642720
129.666580,-85.409078
129.429852,-85.175895
129.192692,-84.943178
128.955073,-84.710933
128.716970,-84.479164
128.478358,-84.247876
128.239214,-84.017072
127.999515,-83.786753
127.759242,-83.556921
127.518377,-83.327574
127.276904,-83.098712
127.034812,-82.870332
126.792093,-82.642429
126.548742,-82.414999
126.304757,-82.188035
126.060142,-81.961530
125.814903,-81.735476
125.569051,-81.509863
125.322600,-81.284682
125.075571,-81.059922
124.827984,-80.835572
124.579866,-80.611621
124.331245,-80.388057
124.082154,-80.164868
123.832625,-79.942043
123.582695,-79.719571
123.332401,-79.497443
123.081781,-79.275647
122.830874,-79.054175
122.579718,-78.833019
122.328350,-78.612172
122.076806,-78.391630
121.825120,-78.171388
121.573324,-77.951443
121.321444,-77.731796
121.069507,-77.512447
120.817531,-77.293399
120.565533,-77.074656
120.313524,-76.856225
120.061509,-76.638114
119.809489,-76.420333
119.557458,-76.202893
119.305406,-75.985808
119.053315,-75.769091
118.801164,-75.552759
118.548925,-75.336829
118.296566,-75.121319
118.044050,-74.906247
117.791335,-74.691634
117.538376,-74.477498
117.285126,-74.263860
117.031533,-74.050739
116.777544,-73.838156
116.523106,-73.626130
116.268165,-73.414678
116.012667,-73.203819
115.756560,-72.993568
115.499794,-72.783941
115.242321,-72.574950
114.984098,-72.366609
114.725085,-72.158926
114.465249,-71.951910
114.204560,-71.745566
113.942996,-71.539898
113.680542,-71.334907
113.417188,-71.130594
113.152934,-70.926954
112.887786,-70.723984
112.621757,-70.521675
112.354870,-70.320020
112.087152,-70.119006
111.818640,-69.918622
111.549376,-69.718853
111.279409,-69.519684
111.008794,-69.321097
110.737591,-69.123076
110.465861,-68.925602
110.193674,-68.728656
109.921097,-68.532220
109.648202,-68.336274
109.375058,-68.140800
109.101738,-67.945781
108.828308,-67.751199
108.554836,-67.557039
108.281381,-67.363285
108.008001,-67.169926
107.734748,-66.976950
107.461664,-66.784348
107.188788,-66.592113
106.916146,-66.400240
106.643760,-66.208726
106.371639,-66.017572
106.099783,-65.826779
105.828184,-65.636353
105.556822,-65.446299
105.285668,-65.256629
105.014685,-65.067353
104.743823,-64.878485
104.473027,-64.690042
104.202233,-64.502040
103.931369,-64.314499
103.660357,-64.127439
103.389115,-63.940882
103.117556,-63.754851
102.845591,-63.569369
102.573129,-63.384459
102.300080,-63.200145
102.026353,-63.016449
101.751864,-62.833395
101.476529,-62.651003
101.200272,-62.469295
100.923024,-62.288289
100.644722,-62.108003
100.365315,-61.928453
100.084760,-61.749651
99.803027,-61.571608
99.520097,-61.394333
99.235964,-61.217833
98.950635,-61.042109
98.664129,-60.867163
98.376480,-60.692992
98.087734,-60.519591
97.797950,-60.346952
97.507199,-60.175064
97.215562,-60.003915
96.923132,-59.833489
96.630011,-59.663768
96.336308,-59.494733
96.042139,-59.326361
95.747624,-59.158630
95.452888,-58.991516
95.158054,-58.824993
94.863248,-58.659036
94.568592,-58.493617
94.274202,-58.328712
93.980190,-58.164293
93.686661,-58.000336
93.393706,-57.836816
93.101408,-57.673710
92.809836,-57.510995
92.519045,-57.348651
92.229073,-57.186661
91.939945,-57.025007
91.651665,-56.863675
91.364222,-56.702653
91.077586,-56.541931
90.791709,-56.381503
90.506527,-56.221361
90.221959,-56.061504
89.937906,-55.901930
89.654257,-55.742640
89.370886,-55.583635
89.087657,-55.424918
88.804423,-55.266493
88.521031,-55.108365
88.237321,-54.950536
87.953133,-54.793012
87.668305,-54.635794
87.382680,-54.478881
87.096105,-54.322274
86.808437,-54.165965
86.519544,-54.009948
86.229309,-53.854208
85.937631,-53.698728
85.644431,-53.543484
85.349649,-53.388446
85.053254,-53.233576
84.755237,-53.078831
84.455621,-52.924156
84.154458,-52.769491
83.851829,-52.614764
83.547851,-52.459894
83.242669,-52.304791
82.936464,-52.149354
82.629449,-51.993471
82.321866,-51.837019
82.013990,-51.679865
81.706125,-51.521866
81.398603,-51.362866
81.091779,-51.202702
80.786034,-51.041197
80.481768,-50.878169
80.179398,-50.713424
79.879356,-50.546760
79.582083,-50.377971
79.288029,-50.206839
78.997647,-50.033146
78.711389,-49.856667
78.429704,-49.677174
78.153032,-49.494439
77.881804,-49.308231
77.616433,-49.118324
77.357317,-48.924491
77.104830,-48.726513
76.859324,-48.524175
76.621124,-48.317270
76.390524,-48.105601
76.167790,-47.888983
75.953154,-47.667243
75.746816,-47.440223
75.548940,-47.207783
75.359658,-46.969800
75.179067,-46.726170
75.007231,-46.476812
74.844180,-46.221667
74.689916,-45.960699
74.544410,-45.693899
74.407606,-45.421284
74.279426,-45.142896
74.159768,-44.858809
74.048512,-44.569121
73.945525,-44.273961
73.850659,-43.973488
73.763759,-43.667887
73.684667,-43.357376
73.613221,-43.042196
73.549263,-42.722620
73.492639,-42.398945
73.443207,-42.071496
73.400833,-41.740618
73.365400,-41.406684
73.336805,-41.070083
73.314968,-40.731225
73.299825,-40.390536
73.291337,-40.048457
73.289485,-39.705440
73.294273,-39.361945
73.305730,-39.018440
73.323903,-38.675394
73.348861,-38.333277
73.380693,-37.992557
73.419503,-37.653693
73.465410,-37.317136
73.518545,-36.983324
73.579045,-36.652678
73.647053,-36.325602
73.722711,-36.002474
73.806159,-35.683650
73.897528,-35.369455
73.996936,-35.060185
74.104483,-34.756102
74.220251,-34.457430
74.344294,-34.164359
74.476635,-33.877036
74.617266,-33.595567
74.766138,-33.320017
74.923165,-33.050406
75.088213,-32.786709
75.261105,-32.528859
75.441615,-32.276741
75.629466,-32.030200
75.824331,-31.789035
76.025834,-31.553002
76.233546,-31.321819
76.446990,-31.095164
76.665643,-30.872676
76.888934,-30.653964
77.116251,-30.438602
77.346945,-30.226137
77.580330,-30.016091
77.815691,-29.807965
78.052290,-29.601241
78.289368,-29.395388
78.526154,-29.189867
78.761871,-28.984132
78.995741,-28.777638
79.226994,-28.569840
79.454872,-28.360206
79.678638,-28.148212
79.897584,-27.933353
80.111033,-27.715144
80.318351,-27.493125
80.518947,-27.266864
80.712286,-27.035962
80.897885,-26.800054
81.075329,-26.558817
81.244262,-26.311964
81.404403,-26.059255
81.555539,-25.800496
81.697533,-25.535537
81.830322,-25.264278
81.953917,-24.986667
82.068406,-24.702703
82.173950,-24.412430
82.270780,-24.115942
82.359196,-23.813381
82.439563,-23.504933
82.512306,-23.190826
82.577906,-22.871331
82.636892,-22.546756
82.689836,-22.217444
82.737348,-21.883768
82.780064,-21.546131
82.818643,-21.204958
82.853758,-20.860692
82.886084,-20.513792
82.916295,-20.164728
82.945053,-19.813972
82.973001,-19.462000
83.000754,-19.109282
83.028892,-18.756279
83.057952,-18.403441
83.088423,-18.051199
83.120736,-17.699960
83.155264,-17.350109
83.192312,-17.002000
83.232113,-16.655955
83.274829,-16.312260
83.320542,-15.971165
83.369258,-15.632879
83.420901,-15.297571
83.475318,-14.965366
83.532276,-14.636349
83.591463,-14.310562
83.652495,-13.988004
83.714916,-13.668634
83.778204,-13.352373
83.841772,-13.039103
83.904982,-12.728674
83.967141,-12.420904
84.027515,-12.115583
84.085336,-11.812478
84.139806,-11.511337
84.190108,-11.211892
84.235412,-10.913867
84.274888,-10.616980
84.307711,-10.320949
84.333067,-10.025500
84.350168,-9.730368
84.358256,-9.435307
84.356610,-9.140092
84.344556,-8.844524
84.321472,-8.548438
84.286798,-8.251704
84.240036,-7.954234
84.180760,-7.655987
84.108618,-7.356967
84.023338,-7.057234
83.924727,-6.756899
83.812678,-6.456132
83.687168,-6.155160
83.548258,-5.854270
83.396097,-5.553806
83.230916,-5.254173
83.053027,-4.955833
82.862822,-4.659306
82.660770,-4.365162
82.447410,-4.074027
82.223347,-3.786571
81.989250,-3.503509
81.745841,-3.225594
81.493894,-2.953615
81.234224,-2.688388
80.967682,-2.430751
80.695149,-2.181559
80.417526,-1.941677
80.135728,-1.711973
79.850678,-1.493312
79.563298,-1.286546
79.274502,-1.092511
78.985190,-0.912018
78.696241,-0.745847
78.408507,-0.594740
78.122806,-0.459394
77.839918,-0.340456
77.560582,-0.238517
77.285485,-0.154109
77.015267,-0.087695
76.750511,-0.039670
76.491743,-0.010357
76.239431,0.000000
75.993982,-0.008766
75.755741,-0.036743
75.524993,-0.083935
75.301960,-0.150268
75.086807,-0.235586
74.879638,-0.339654
74.680501,-0.462158
74.489389,-0.602710
74.306244,-0.760851
74.130962,-0.936053
73.963390,-1.127724
73.803337,-1.335212
73.650573,-1.557813
73.504837,-1.794775
73.365837,-2.045302
73.233258,-2.308565
73.106764,-2.583703
72.986003,-2.869835
72.870611,-3.166062
72.760216,-3.471478
72.654442,-3.785173
72.552913,-4.106245
72.455256,-4.433798
72.361103,-4.766956
72.270097,-5.104866
72.181891,-5.446704
72.096152,-5.791678
72.012564,-6.139036
71.930828,-6.488068
71.850662,-6.838111
71.771806,-7.188551
71.694019,-7.538827
71.617081,-7.888433
71.540792,-8.236917
71.464973,-8.583885
71.389466,-8.928999
71.314131,-9.271978
71.238844,-9.612598
71.163503,-9.950689
71.088018,-10.286131
71.012316,-10.618858
70.936335,-10.948849
70.860027,-11.276129
70.783351,-11.600764
70.706278,-11.922855
70.628783,-12.242539
70.550848,-12.559980
70.472458,-12.875368
70.393601,-13.188912
70.314268,-13.500838
70.234447,-13.811384
70.154129,-14.120793
70.073300,-14.429314
69.991946,-14.737192
69.910049,-15.044670
69.827588,-15.351980
69.744540,-15.659345
69.660877,-15.966973
69.576567,-16.275053
69.491577,-16.583757
69.405869,-16.893235
69.319404,-17.203615
69.232141,-17.514999
69.144037,-17.827469
69.055051,-18.141079
68.965139,-18.455860
68.874262,-18.771818
68.782381,-19.088938
68.689460,-19.407180
68.595469,-19.726485
68.500382,-20.046777
68.404177,-20.367959
68.306842,-20.689922
68.208371,-21.012544
68.108764,-21.335693
68.008033,-21.659228
67.906197,-21.983005
67.803284,-22.306876
67.699333,-22.630693
67.594394,-22.954312
67.488524,-23.277593
67.381791,-23.600402
67.274275,-23.922616
67.166061,-24.244122
67.057246,-24.564821
66.947936,-24.884627
66.838242,-25.203471
66.728285,-25.521299
66.618191,-25.838076
66.508091,-26.153782
66.398123,-26.468418
66.288427,-26.782001
66.179147,-27.094566
66.070427,-27.406166
65.962416,-27.716867
65.855258,-28.026754
65.749102,-28.335922
65.644089,-28.644482
65.540364,-28.952552
65.438063,-29.260263
65.337322,-29.567749
65.238272,-29.875154
65.141036,-30.182622
65.045735,-30.490300
64.952482,-30.798335
64.861385,-31.106868
64.772544,-31.416042
64.686053,-31.725987
64.602000,-32.036832
64.520468,-32.348690
64.441530,-32.661669
64.365257,-32.975862
64.291711,-33.291349
64.220952,-33.608197
64.153032,-33.926458
64.088000,-34.246167
64.025904,-34.567347
63.966784,-34.890001
63.910681,-35.214120
63.857635,-35.539678
63.807681,-35.866634
63.760857,-36.194933
63.717199,-36.524505
63.676747,-36.855270
63.639538,-37.187133
63.605615,-37.519992
63.575021,-37.853731
63.547801,-38.188230
63.524007,-38.523360
63.503692,-38.858987
63.486913,-39.194974
63.473730,-39.531178
63.464211,-39.867458
63.458423,-40.203672
63.456441,-40.539676
63.458341,-40.875333
63.464206,-41.210505
63.474120,-41.545061
63.488169,-41.878872
63.506446,-42.211818
63.529041,-42.543782
63.556049,-42.874655
63.587564,-43.204334
63.623683,-43.532726
63.664500,-43.859741
63.710108,-44.185299
63.760602,-44.509325
63.816070,-44.831752
63.876599,-45.152518
63.942273,-45.471567
64.013170,-45.788849
64.089364,-46.104316
64.170921,-46.417926
64.257904,-46.729639
64.350366,-47.039418
64.448354,-47.347227
64.551907,-47.653031
64.661054,-47.956795
64.775818,-48.258483
64.896211,-48.558060
65.022236,-48.855486
65.153888,-49.150721
65.291151,-49.443722
65.433999,-49.734442
65.582400,-50.022833
65.736309,-50.308842
65.895673,-50.592413
66.060432,-50.873487
66.230515,-51.152002
66.405844,-51.427892
66.586333,-51.701090
66.771889,-51.971528
66.962413,-52.239134
67.157797,-52.503837
67.357930,-52.765565
67.562694,-53.024248
67.771968,-53.279817
67.985624,-53.532203
68.203535,-53.781344
68.425568,-54.027179
68.651589,-54.269654
68.881460,-54.508719
69.115047,-54.744331
69.352209,-54.976455
69.592811,-55.205063
69.836713,-55.430136
70.083782,-55.651665
70.333880,-55.869649
70.586875,-56.084098
70.842636,-56.295033
71.101034,-56.502485
71.361943,-56.706495
71.625239,-56.907117
71.890804,-57.104412
72.158519,-57.298454
72.428273,-57.489328
72.699955,-57.677125
72.973460,-57.861948
73.248684,-58.043908
73.525529,-58.223122
73.803900,-58.399717
74.083706,-58.573824
74.364858,-58.745580
74.647272,-58.915126
74.930867,-59.082607
75.215565,-59.248171
75.501290,-59.411965
75.787971,-59.574139
76.075540,-59.734841
76.363929,-59.894219
76.653076,-60.052416
76.942920,-60.209575
77.233402,-60.365831
77.524466,-60.521318
77.816057,-60.676162
78.108124,-60.830483
78.400617,-60.984395
78.693488,-61.138004
78.986691,-61.291410
79.280181,-61.444702
79.573917,-61.597965
79.867856,-61.751273
80.161961,-61.904692
80.456194,-62.058282
80.750518,-62.212093
81.044901,-62.366169
81.339309,-62.520546
81.633711,-62.675254
81.928079,-62.830314
82.222384,-62.985744
82.516601,-63.141556
82.810706,-63.297756
83.104674,-63.454347
83.398486,-63.611328
83.692122,-63.768696
83.985563,-63.926444
84.278793,-64.084564
84.571797,-64.243049
84.864560,-64.401888
85.157072,-64.561073
85.449320,-64.720595
85.741295,-64.880446
86.032989,-65.040622
86.324394,-65.201116
86.615504,-65.361928
86.906313,-65.523058
87.196817,-65.684509
87.487012,-65.846286
87.776896,-66.008397
88.066465,-66.170854
88.355718,-66.333670
88.644653,-66.496861
88.933269,-66.660446
89.221566,-66.824446
89.509542,-66.988884
89.797196,-67.153784
90.084529,-67.319171
90.371539,-67.485073
90.658226,-67.651516
90.944588,-67.818529
91.230624,-67.986138
91.516333,-68.154371
91.801714,-68.323253
92.086764,-68.492809
92.371482,-68.663063
92.655864,-68.834035
92.939909,-69.005746
93.223614,-69.178211
93.506974,-69.351445
93.789988,-69.525459
94.072652,-69.700261
94.354961,-69.875857
94.636913,-70.052249
94.918504,-70.229437
95.199730,-70.407416
95.480588,-70.586180
95.761074,-70.765720
96.041184,-70.946023
96.320915,-71.127076
96.600265,-71.308861
96.879230,-71.491361
97.157808,-71.674555
97.435995,-71.858422
97.713791,-72.042941
97.991192,-72.228089
98.268198,-72.413842
98.544806,-72.600179
98.821016,-72.787077
99.096826,-72.974514
99.372235,-73.162471
99.647243,-73.350928
99.921849,-73.539868
100.196052,-73.729277
100.469852,-73.919141
100.743248,-74.109449
101.016238,-74.300193
101.288824,-74.491368
101.561003,-74.682971
101.832774,-74.875001
102.104136,-75.067460
102.375087,-75.260354
102.645626,-75.453689
102.915750,-75.647477
103.185456,-75.841728
103.454743,-76.036456
103.723606,-76.231678
103.992042,-76.427411
104.260048,-76.623672
104.527619,-76.820483
104.794752,-77.017862
105.061441,-77.215831
105.327682,-77.414409
105.593471,-77.613617
105.858803,-77.813474
106.123673,-78.014000
106.388077,-78.215210
106.652009,-78.417122
106.915467,-78.619749
107.178447,-78.823103
107.440944,-79.027195
107.702957,-79.232030
107.964482,-79.437616
108.225519,-79.643953
108.486065,-79.851043
108.746121,-80.058880
109.005688,-80.267461
109.264766,-80.476776
109.523357,-80.686814
109.781466,-80.897562
110.039094,-81.109003
110.296248,-81.321121
110.552933,-81.533894
110.809155,-81.747300
111.064922,-81.961317
111.320241,-82.175920
111.575120,-82.391083
111.829570,-82.606780
112.083599,-82.822984
112.337218,-83.039669
112.590437,-83.256808
112.843267,-83.474376
113.095718,-83.692346
113.347801,-83.910696
113.599527,-84.129402
113.850905,-84.348443
114.101945,-84.567801
114.352657,-84.787457
114.603050,-85.007398
114.853130,-85.227609
115.102906,-85.448081
115.352384,-85.668806
115.601568,-85.889778
115.850463,-86.110995
116.099071,-86.332457
116.347395,-86.554165
116.595435,-86.776124
116.843190,-86.998342
117.090657,-87.220826
117.337835,-87.443589
117.584718,-87.666642
117.831301,-87.890001
118.077578,-88.113681
118.323539,-88.337699
118.569178,-88.562072
118.814484,-88.786819
119.059447,-89.011960
119.304056,-89.237511
119.548300,-89.463493
119.792166,-89.689924
120.035644,-89.916820
120.278720,-90.144201
120.521383,-90.372080
120.763621,-90.600473
121.005422,-90.829393
121.246775,-91.058852
121.487669,-91.288859
121.728094,-91.519423
121.968042,-91.750551
122.207504,-91.982245
122.446472,-92.214510
122.684940,-92.447345
122.922904,-92.680749
123.160359,-92.914720
123.397302,-93.149252
123.633732,-93.384338
123.869648,-93.619971
124.105050,-93.856141
124.339941,-94.092837
124.574324,-94.330048
124.808201,-94.567761
125.041578,-94.805962
125.274461,-95.044637
125.506855,-95.283773
125.738769,-95.523354
125.970208,-95.763368
126.201181,-96.003799
126.431696,-96.244634
126.661761,-96.485861
126.891384,-96.727467
127.120573,-96.969440
127.349337,-97.211772
127.577681,-97.454454
127.805613,-97.697476
128.033140,-97.940834
128.260265,-98.184523
128.486995,-98.428538
128.713333,-98.672879
128.939281,-98.917545
129.164841,-99.162537
129.390013,-99.407857
129.614798,-99.653509
129.839193,-99.899498
130.063196,-100.145830
130.286803,-100.392512
130.510009,-100.639554
130.732809,-100.886962
130.955196,-101.134749
131.177162,-101.382922
131.398699,-101.631493
131.619798,-101.880473
131.840449,-102.129872
132.060643,-102.379701
132.280369,-102.629971
132.499617,-102.880692
132.718376,-103.131872
132.936635,-103.383522
133.154384,-103.635649
133.371613,-103.888261
133.588312,-104.141364
133.804471,-104.394964
134.020082,-104.649065
134.235137,-104.903670
134.449629,-105.158782
134.663550,-105.414401
134.876895,-105.670528
135.089660,-105.927161
135.301841,-106.184299
135.513434,-106.441938
135.724438,-106.700073
135.934852,-106.958700
136.144676,-107.217814
136.353911,-107.477406
136.562558,-107.737471
136.770620,-107.998001
136.978100,-108.258987
137.185002,-108.520422
137.391330,-108.782297
137.597088,-109.044603
137.802283,-109.307333
138.006919,-109.570478
138.211002,-109.834031
138.414537,-110.097984
138.617530,-110.362330
138.819985,-110.627062
139.021907,-110.892177
139.223301,-111.157667
139.424171,-111.423530
139.624520,-111.689762
139.824350,-111.956360
140.023664,-112.223324
140.222462,-112.490652
140.420745,-112.758344
140.618511,-113.026402
140.815760,-113.294828
141.012487,-113.563625
141.208691,-113.832795
141.404366,-114.102344
141.599507,-114.372276
141.794107,-114.642597
141.988159,-114.913313
142.181655,-115.184430
142.374586,-115.455956
142.566943,-115.727897
142.758714,-116.000260
142.949891,-116.273054
143.140460,-116.546286
143.330412,-116.819962
143.519732,-117.094091
143.708410,-117.368680
143.896433,-117.643735
144.083789,-117.919263
144.270464,-118.195270
144.456448,-118.471762
144.641728,-118.748744
144.826291,-119.026221
145.010128,-119.304197
145.193226,-119.582675
145.375575,-119.861659
145.557165,-120.141151
145.737986,-120.421153
145.918029,-120.701667
146.097286,-120.982693
146.275749,-121.264231
146.453411,-121.546281
146.630265,-121.828842
146.806305,-122.111914
146.981526,-122.395494
147.155923,-122.679580
147.329491,-122.964171
147.502228,-123.249263
147.674130,-123.534854
147.845194,-123.820941
148.015418,-124.107521
148.184800,-124.394590
148.353339,-124.682144
148.521034,-124.970182
148.687883,-125.258698
148.853886,-125.547690
149.019043,-125.837155
149.183354,-126.127089
149.346818,-126.417489
149.509436,-126.708352
149.671207,-126.999675
149.832133,-127.291456
149.992213,-127.583691
150.151448,-127.876378
150.309838,-128.169514
150.467384,-128.463098
150.624086,-128.757127
150.779945,-129.051599
150.934960,-129.346511
151.089133,-129.641862
151.242465,-129.937650
151.394955,-130.233873
151.546605,-130.530528
151.697414,-130.827614
151.847384,-131.125129
151.996516,-131.423071
152.144810,-131.721437
152.292267,-132.020225
152.438887,-132.319432
152.584673,-132.619057
152.729625,-132.919096
152.873744,-133.219546
153.017031,-133.520406
153.159488,-133.821671
153.301115,-134.123338
153.441914,-134.425405
153.581886,-134.727867
153.721032,-135.030720
153.859354,-135.333962
153.996852,-135.637589
154.133528,-135.941596
154.269382,-136.245979
154.404416,-136.550735
154.538630,-136.855860
154.672024,-137.161348
154.804600,-137.467198
154.936357,-137.773403
155.067294,-138.079961
155.197413,-138.386867
155.326713,-138.694118
155.455192,-139.001710
155.582850,-139.309639
155.709687,-139.617902
155.835700,-139.926495
155.960888,-140.235415
156.085251,-140.544659
156.208785,-140.854224
156.331490,-141.164108
156.453363,-141.474307
156.574403,-141.784819
156.694608,-142.095641
156.813975,-142.406772
156.932503,-142.718208
157.050191,-143.029949
157.167037,-143.341991
157.283040,-143.654334
157.398199,-143.966974
157.512513,-144.279911
157.625982,-144.593142
157.738607,-144.906666
157.850387,-145.220480
157.961325,-145.534583
158.071421,-145.848973
158.180678,-146.163648
158.289099,-146.478605
158.396686,-146.793842
158.503443,-147.109357
158.609374,-147.425147
158.714484,-147.741211
158.818779,-148.057544
158.922263,-148.374145
159.024944,-148.691010
159.126826,-149.008135
159.227917,-149.325519
159.328224,-149.643157
159.427754,-149.961045
159.526514,-150.279181
159.624511,-150.597560
159.721753,-150.916179
159.818246,-151.235033
159.913998,-151.554120
160.009015,-151.873434
160.103304,-152.192972
160.196869,-152.512731
160.289717,-152.832705
160.381853,-153.152893
160.473279,-153.473289
160.564001,-153.793891
160.654020,-154.114694
160.743338,-154.435697
160.831957,-154.756894
160.919876,-155.078284
161.007096,-155.399865
161.093614,-155.721632
161.179429,-156.043584
161.264536,-156.365720
161.348933,-156.688036
161.432614,-157.010532
161.515575,-157.333206
161.597808,-157.656057
161.679307,-157.979084
161.760065,-158.302286
161.840074,-158.625664
161.919326,-158.949215
161.997813,-159.272941
162.075525,-159.596842
162.152454,-159.920917
162.228591,-160.245168
162.303927,-160.569593
162.378454,-160.894195
162.452163,-161.218973
162.525046,-161.543927
162.597096,-161.869059
162.668304,-162.194370
162.738664,-162.519859
162.808170,-162.845526
162.876816,-163.171373
162.944597,-163.497400
163.011509,-163.823606
163.077547,-164.149991
163.142708,-164.476556
163.206990,-164.803300
163.270391,-165.130222
163.332909,-165.457322
163.394544,-165.784598
163.455295,-166.112049
163.515162,-166.439674
163.574146,-166.767470
163.632247,-167.095437
163.689465,-167.423572
163.745802,-167.751872
163.801259,-168.080336
163.855836,-168.408960
163.909534,-168.737741
163.962353,-169.066677
164.014293,-169.395764
164.065355,-169.724999
164.115536,-170.054378
164.164836,-170.383899
164.213252,-170.713557
164.260781,-171.043348
164.307421,-171.373270
164.353167,-171.703318
164.398013,-172.033490
164.441954,-172.363780
164.484984,-172.694187
164.527096,-173.024705
164.568280,-173.355333
164.608529,-173.686066
164.647833,-174.016901
164.686182,-174.347836
164.723567,-174.678868
164.759976,-175.009993
164.795398,-175.341209
164.829823,-175.672513
164.863239,-176.003904
164.895634,-176.335379
164.926998,-176.666935
164.957320,-176.998571
164.986590,-177.330285
165.014796,-177.662075
165.041931,-177.993939
165.067985,-178.325877
165.092951,-178.657885
165.116821,-178.989964
165.139589,-179.322110
165.161252,-179.654324
165.181804,-179.986603
165.201243,-180.318946
165.219568,-180.651351
165.236779,-180.983818
165.252876,-181.316343
165.267863,-181.648926
165.281742,-181.981565
165.294518,-182.314257
165.306197,-182.647001
165.316787,-182.979794
165.326294,-183.312634
165.334729,-183.645519
165.342101,-183.978446
165.348421,-184.311411
165.353700,-184.644413
165.357949,-184.977447
165.361182,-185.310511
165.363411,-185.643601
165.364648,-185.976714
165.364907,-186.309846
165.364200,-186.642992
165.362540,-186.976150
165.359940,-187.309316
165.356412,-187.642484
165.351967,-187.975651
165.346616,-188.308814
165.340370,-188.641967
165.333238,-188.975107
165.325230,-189.308230
165.316352,-189.641331
165.306613,-189.974407
165.296018,-190.307454
165.284574,-190.640468
165.272283,-190.973445
165.259150,-191.306382
165.245176,-191.639276
165.230365,-191.972123
165.214716,-192.304920
165.198230,-192.637665
165.180906,-192.970355
165.162742,-193.302986
165.143738,-193.635558
165.123889,-193.968068
165.103195,-194.300513
165.081650,-194.632892
165.059253,-194.965204
165.035999,-195.297447
165.011885,-195.629619
164.986907,-195.961720
164.961061,-196.293748
164.934345,-196.625703
164.906755,-196.957583
164.878287,-197.289387
164.848941,-197.621115
164.818712,-197.952765
164.787600,-198.284338
164.755603,-198.615831
164.722720,-198.947245
164.688952,-199.278577
164.654297,-199.609827
164.618756,-199.940994
164.582331,-200.272076
164.545023,-200.603072
164.506834,-200.933980
164.467766,-201.264798
164.427820,-201.595525
164.387001,-201.926158
164.345312,-202.256695
164.302754,-202.587133
164.259332,-202.917470
164.215049,-203.247704
164.169908,-203.577830
164.123912,-203.907846
164.077065,-204.237749
164.029370,-204.567535
163.980828,-204.897201
163.931444,-205.226742
163.881218,-205.556157
163.830154,-205.885440
163.778252,-206.214588
163.725513,-206.543597
163.671939,-206.872464
163.617530,-207.201184
163.562286,-207.529755
163.506206,-207.858173
163.449291,-208.186433
163.391539,-208.514533
163.332949,-208.842470
163.273520,-209.170240
163.213250,-209.497841
163.152138,-209.825270
163.090181,-210.152525
163.027378,-210.479602
162.963728,-210.806500
162.899227,-211.133218
162.833875,-211.459753
162.767671,-211.786104
162.700612,-212.112270
162.632699,-212.438249
162.563932,-212.764041
162.494309,-213.089646
162.423831,-213.415062
162.352500,-213.740290
162.280316,-214.065328
162.207283,-214.390178
162.133401,-214.714839
162.058676,-215.039311
161.983110,-215.363595
161.906707,-215.687690
161.829474,-216.011598
161.751415,-216.335318
161.672537,-216.658851
161.592847,-216.982197
161.512352,-217.305356
161.431059,-217.628330
161.348977,-217.951117
161.266115,-218.273719
161.182482,-218.596135
161.098087,-218.918366
161.012940,-219.240411
160.927051,-219.562271
160.840430,-219.883945
160.753088,-220.205434
160.665034,-220.526736
160.576279,-220.847853
160.486834,-221.168783
160.396708,-221.489527
160.305912,-221.810083
160.214457,-222.130453
160.122351,-222.450634
160.029605,-222.770628
159.936228,-223.090434
159.842229,-223.410051
159.747616,-223.729481
159.652398,-224.048721
159.556584,-224.367774
159.460180,-224.686638
159.363194,-225.005315
159.265633,-225.323804
159.167503,-225.642106
159.068810,-225.960221
158.969559,-226.278150
158.869756,-226.595894
158.769404,-226.913453
158.668508,-227.230829
158.567072,-227.548022
158.465098,-227.865033
158.362589,-228.181864
158.259547,-228.498514
158.155973,-228.814985
158.051869,-229.131278
157.947235,-229.447393
157.842070,-229.763331
157.736375,-230.079093
157.630148,-230.394677
157.523387,-230.710085
157.416091,-231.025317
157.308256,-231.340370
157.199879,-231.655245
157.090957,-231.969941
156.981485,-232.284456
156.871457,-232.598787
156.760870,-232.912933
156.649715,-233.226891
156.537988,-233.540657
156.425681,-233.854229
156.312787,-234.167602
156.199298,-234.480771
156.085205,-234.793733
155.970500,-235.106482
155.855174,-235.419013
155.739219,-235.731320
155.622623,-236.043396
155.505379,-236.355236
155.387475,-236.666834
155.268904,-236.978182
155.149654,-237.289273
155.029716,-237.600101
154.909081,-237.910660
154.787739,-238.220942
154.665682,-238.530940
154.542901,-238.840648
154.419388,-239.150059
154.295135,-239.459168
154.170136,-239.767968
154.044384,-240.076454
153.917874,-240.384621
153.790601,-240.692463
153.662560,-240.999978
153.533749,-241.307160
153.404165,-241.614008
153.273807,-241.920517
153.142675,-242.226686
153.010769,-242.532513
152.878090,-242.837997
152.744641,-243.143137
152.610425,-243.447934
152.475447,-243.752388
152.339710,-244.056500
152.203222,-244.360272
152.065987,-244.663704
151.928015,-244.966800
151.789312,-245.269562
151.649886,-245.571993
151.509746,-245.874096
151.368902,-246.175874
151.227362,-246.477330
151.085136,-246.778468
150.942233,-247.079291
150.798663,-247.379802
150.654435,-247.680006
150.509559,-247.979903
150.364042,-248.279499
150.217894,-248.578794
150.071121,-248.877791
149.923733,-249.176492
149.775734,-249.474898
149.627132,-249.773011
149.477932,-250.070830
149.328137,-250.368357
149.177754,-250.665590
149.026783,-250.962529
148.875229,-251.259173
148.723091,-251.555521
148.570372,-251.851569
148.417071,-252.147316
148.263188,-252.442759
148.108721,-252.737894
147.953669,-253.032720
147.798030,-253.327232
147.641801,-253.621426
147.484980,-253.915299
147.327562,-254.208847
147.169546,-254.502067
147.010926,-254.794954
146.851701,-255.087505
146.691867,-255.379717
146.531420,-255.671587
146.370359,-255.963112
146.208680,-256.254289
146.046382,-256.545116
145.883464,-256.835592
145.719924,-257.125715
145.555763,-257.415484
145.390980,-257.704899
145.225576,-257.993960
145.059555,-258.282667
144.892917,-258.571021
144.725666,-258.859023
144.557806,-259.146675
144.389340,-259.433979
144.220275,-259.720937
144.050615,-260.007552
143.880366,-260.293826
143.709534,-260.579762
143.538126,-260.865363
143.366149,-261.150631
143.193610,-261.435571
143.020514,-261.720183
142.846870,-262.004471
142.672683,-262.288437
142.497960,-262.572083
142.322706,-262.855409
142.146927,-263.138418
141.970628,-263.421110
141.793813,-263.703483
141.616485,-263.985539
141.438647,-264.267275
141.260300,-264.548690
141.081446,-264.829781
140.902084,-265.110545
140.722213,-265.390978
140.541832,-265.671076
140.360937,-265.950833
140.179524,-266.230244
139.997590,-266.509304
139.815128,-266.788004
139.632132,-267.066339
139.448596,-267.344302
139.264512,-267.621884
139.079872,-267.899077
138.894668,-268.175875
138.708891,-268.452270
138.522532,-268.728253
138.335584,-269.003818
138.148037,-269.278956
137.959883,-269.553662
137.771115,-269.827929
137.581724,-270.101750
137.391703,-270.375122
137.201048,-270.648038
137.009752,-270.920495
136.817811,-271.192490
136.625221,-271.464021
136.431981,-271.735086
136.238088,-272.005684
136.043544,-272.275816
135.848349,-272.545482
135.652505,-272.814684
135.456016,-273.083426
135.258886,-273.351709
135.061122,-273.619539
134.862730,-273.886920
134.663719,-274.153858
134.464096,-274.420357
134.263871,-274.686425
134.063055,-274.952067
133.861659,-275.217291
133.659693,-275.482102
133.457170,-275.746509
133.254102,-276.010517
133.050499,-276.274134
132.846376,-276.537364
132.641741,-276.800214
132.436608,-277.062690
132.230987,-277.324795
132.024887,-277.586535
131.818319,-277.847911
131.611290,-278.108927
131.403808,-278.369585
131.195880,-278.629885
130.987512,-278.889826
130.778706,-279.149409
130.569467,-279.408631
130.359796,-279.667490
130.149693,-279.925981
129.939159,-280.184102
129.728191,-280.441845
129.516787,-280.699206
129.304942,-280.956177
129.092652,-281.212753
128.879910,-281.468925
128.666711,-281.724687
128.453046,-281.980028
128.238909,-282.234943
128.024290,-282.489422
127.809182,-282.743457
127.593575,-282.997041
127.377461,-283.250166
127.160832,-283.502825
126.943680,-283.755011
126.725997,-284.006719
126.507775,-284.257943
126.289009,-284.508679
126.069693,-284.758923
125.849823,-285.008672
125.629394,-285.257925
125.408405,-285.506680
125.186854,-285.754939
124.964740,-286.002701
124.742066,-286.249970
124.518834,-286.496748
124.295046,-286.743039
124.070709,-286.988849
123.845827,-287.234182
123.620409,-287.479044
123.394462,-287.723444
123.167996,-287.967389
122.941021,-288.210886
122.713547,-288.453944
122.485587,-288.696571
122.257152,-288.938777
122.028255,-289.180570
121.798908,-289.421959
121.569125,-289.662953
121.338919,-289.903559
121.108302,-290.143785
120.877287,-290.383640
120.645886,-290.623129
120.414110,-290.862259
120.181971,-291.101036
119.949479,-291.339464
119.716643,-291.577547
119.483473,-291.815289
119.249974,-292.052691
119.016154,-292.289757
118.782019,-292.526485
118.547573,-292.762875
118.312819,-292.998928
118.077759,-293.234641
117.842395,-293.470013
117.606727,-293.705039
117.370753,-293.939716
117.134472,-294.174041
116.897882,-294.408008
116.660979,-294.641614
116.423759,-294.874852
116.186217,-295.107718
115.948349,-295.340207
115.710148,-295.572312
115.471609,-295.804029
115.232725,-296.035353
114.993491,-296.266278
114.753901,-296.496800
114.513948,-296.726915
114.273626,-296.956618
114.032930,-297.185906
113.791855,-297.414776
113.550396,-297.643224
113.308548,-297.871248
113.066307,-298.098847
112.823670,-298.326018
112.580633,-298.552760
112.337195,-298.779072
112.093353,-299.004953
111.849106,-299.230403
111.604452,-299.455420
111.359392,-299.680005
111.113924,-299.904156
110.868049,-300.127874
110.621767,-300.351156
110.375078,-300.574003
110.127983,-300.796413
109.880483,-301.018383
109.632578,-301.239911
109.384268,-301.460996
109.135555,-301.681632
108.886437,-301.901818
108.636916,-302.121546
108.386990,-302.340814
108.136658,-302.559613
107.885920,-302.777940
107.634773,-302.995785
107.383215,-303.213142
107.131245,-303.430002
106.878858,-303.646357
106.626053,-303.862197
106.372824,-304.077515
106.119169,-304.292300
105.865082,-304.506542
105.610560,-304.720233
