79.4487,-340.5789
79.7711,-340.31
80.092,-340.0394
80.4139,-339.7701
80.7356,-339.5001
81.0567,-339.23
81.3789,-338.9609
81.6998,-338.6902
82.0219,-338.4212
82.3432,-338.1508
82.6647,-337.8811
82.9867,-337.6116
83.3076,-337.3412
83.6299,-337.0722
83.9509,-336.8016
84.2728,-336.5323
84.5944,-336.2623
84.9156,-335.9922
85.2377,-335.7231
85.5586,-335.4524
85.8808,-335.1834
86.202,-334.913
86.5236,-334.6433
86.8455,-334.3739
87.1665,-334.1033
87.4887,-333.8344
87.8097,-333.5637
88.1316,-333.2945
88.4532,-333.0246
88.7744,-332.7543
89.0966,-332.4853
89.4174,-332.2145
89.7397,-331.9456
90.0608,-331.6752
90.3824,-331.4055
90.7044,-331.1361
91.0253,-330.8654
91.3477,-330.5967
91.6685,-330.3258
91.9905,-330.0567
92.312,-329.7868
92.6332,-329.5164
92.9556,-329.2477
93.2762,-328.9765
93.5986,-328.708
93.9196,-328.4373
94.2413,-328.1676
94.5633,-327.8985
94.8839,-327.6272
95.2067,-327.3593
95.5271,-327.0877
95.8495,-326.819
96.1709,-326.5491
96.4917,-326.2781
96.815,-326.0108
97.1341,-325.7373
97.4585,-325.4718
97.7773,-325.1977
98.1013,-324.9316
98.4661,-324.7307
98.8496,-324.5596
99.2325,-324.3875
99.6145,-324.214
99.9768,-324.0048
100.3226,-323.7667
100.67,-323.5313
101.0169,-323.2947
101.3695,-323.0679
101.7361,-322.8627
102.0998,-322.6538
102.4663,-322.4486
102.831,-322.2408
103.1796,-322.0079
103.5249,-321.7686
103.8659,-321.5247
104.213,-321.2874
104.5425,-321.0305
104.8283,-320.7235
105.1086,-320.4107
105.3923,-320.1013
105.7067,-319.8312
106.0714,-319.6238
106.4391,-319.4201
106.803,-319.2123
107.1702,-319.0077
107.5345,-318.7997
107.8978,-318.5896
108.265,-318.3849
108.6254,-318.1717
108.95,-317.9072
109.2562,-317.6199
109.5734,-317.3447
109.8802,-317.0584
110.132,-316.7281
110.3483,-316.3673
110.5706,-316.0119
110.7883,-315.6525
111.0642,-315.3513
111.4225,-315.1339
111.7842,-314.9194
112.1422,-314.7017
112.4802,-314.4554
112.7889,-314.1711
113.1009,-313.8902
113.4103,-313.6064
113.7349,-313.3416
114.0772,-313.0985
114.4199,-312.8563
114.7625,-312.6134
115.1052,-312.3713
115.4621,-312.1504
115.8218,-311.9339
116.1803,-311.7158
116.5401,-311.4993
116.877,-311.2513
117.1968,-310.9793
117.5163,-310.7071
117.8356,-310.4346
118.1555,-310.1626
118.4769,-309.8929
118.7994,-309.6239
119.1223,-309.3559
119.444,-309.0861
119.7679,-308.8191
120.1048,-308.569
120.4439,-308.3213
120.7815,-308.0721
121.1196,-307.8231
121.4384,-307.5506
121.749,-307.2683
122.0624,-306.9889
122.3748,-306.7087
122.6909,-306.4323
123.0061,-306.1552
123.3205,-305.8771
123.6236,-305.5867
123.92,-305.2896
124.2208,-304.9966
124.5176,-304.6999
124.8171,-304.4058
125.1157,-304.1107
125.4134,-303.8148
125.7135,-303.5211
126.0104,-303.2245
126.3103,-302.9308
126.6083,-302.635
126.9065,-302.3398
127.2064,-302.0458
127.5041,-301.7501
127.8059,-301.4581
128.1037,-301.1624
128.4045,-300.8696
128.7178,-300.5904
129.0388,-300.3206
129.3622,-300.0522
129.6826,-299.7818
130.0039,-299.5112
130.3192,-299.234
130.6322,-298.9549
130.9507,-298.6803
131.2609,-298.3988
131.5493,-298.094
131.8217,-297.7745
132.1015,-297.4619
132.3778,-297.1452
132.6682,-296.8445
132.9906,-296.5733
133.3022,-296.2946
133.6272,-296.026
133.9165,-295.7298
134.0999,-295.3542
134.2754,-294.9714
134.4536,-294.592
134.6507,-294.2248
134.9428,-293.9248
135.246,-293.6327
135.5367,-293.3313
135.8391,-293.0388
136.1116,-292.7204
136.3787,-292.3965
136.6448,-292.0721
136.9081,-291.7448
137.1753,-291.4216
137.4306,-291.0875
137.6926,-290.7604
137.9493,-290.4275
138.2405,-290.134
138.6029,-289.9218
138.9625,-289.7063
139.3277,-289.4976
139.6838,-289.2777
139.9679,-288.9703
140.2397,-288.6486
140.5255,-288.3423
140.7923,-288.0176
141.0244,-287.67
141.2401,-287.3081
141.4713,-286.9586
141.6891,-286.5993
141.9273,-286.2551
142.2235,-285.9585
142.5215,-285.6626
142.8216,-285.3687
143.0983,-285.0569
143.3101,-284.6949
143.5151,-284.3282
143.7254,-283.9651
143.9329,-283.6001
144.1735,-283.2569
144.4265,-282.9216
144.6745,-282.5833
144.928,-282.2484
145.173,-281.9078
145.4141,-281.5642
145.6551,-281.2203
145.894,-280.8753
146.1365,-280.5325
146.3772,-280.1887
146.6194,-279.8459
146.8631,-279.5038
147.1018,-279.159
147.3104,-278.7958
147.4939,-278.4177
147.6876,-278.0459
147.8733,-277.6688
148.0926,-277.3142
148.3626,-276.9919
148.626,-276.6664
148.9003,-276.3468
149.1132,-275.9955
149.2183,-275.5911
149.3145,-275.1812
149.4135,-274.7734
149.5288,-274.372
149.7042,-273.9899
149.8994,-273.6192
150.0703,-273.234
150.2737,-272.8696
150.5704,-272.5772
150.887,-272.2977
151.19,-272.009
151.4995,-271.725
151.7882,-271.4199
152.0692,-271.109
152.3588,-270.8039
152.6386,-270.4919
152.855,-270.1403
153.0122,-269.7499
153.1746,-269.3635
153.3339,-268.9749
153.5072,-268.5931
153.7132,-268.2278
153.9199,-267.8619
154.1258,-267.4965
154.3422,-267.1369
154.5811,-266.7919
154.8194,-266.4466
155.0602,-266.1021
155.2962,-265.7559
155.4674,-265.374
155.6174,-264.9815
155.7777,-264.5941
155.9275,-264.2012
156.1032,-263.8215
156.3088,-263.4554
156.5205,-263.093
156.7286,-262.7284
156.9392,-262.3653
157.1578,-262.007
157.3749,-261.6476
157.5938,-261.2896
157.8112,-260.9303
158.0245,-260.5689
158.2372,-260.207
158.4497,-259.8449
158.6627,-259.4834
158.8758,-259.1215
159.0897,-258.7605
159.3033,-258.399
159.5167,-258.0376
159.6882,-257.6578
159.8087,-257.2554
159.9312,-256.8543
160.0512,-256.4516
160.2038,-256.0639
160.4207,-255.7048
160.6418,-255.3475
160.8583,-254.9885
161.0375,-254.6122
161.1581,-254.2101
161.2821,-253.8091
161.4036,-253.4072
161.5402,-253.0113
161.7244,-252.634
161.9081,-252.2567
162.0928,-251.8797
162.2763,-251.5021
162.4288,-251.1114
162.5761,-250.7181
162.7239,-250.3254
162.8712,-249.9322
163.0356,-249.5463
163.2107,-249.1648
163.387,-248.7838
163.5617,-248.4022
163.7406,-248.0224
163.928,-247.6468
164.1159,-247.2714
164.3044,-246.8963
164.4909,-246.5204
164.6579,-246.1356
164.8071,-245.7433
164.9606,-245.3526
165.1105,-244.9605
165.2649,-244.5703
165.4438,-244.1903
165.6208,-243.8101
165.8014,-243.4307
165.9773,-243.05
166.106,-242.6516
166.2147,-242.2459
166.3271,-241.8417
166.437,-241.4364
166.5536,-241.0333
166.6762,-240.6317
166.8005,-240.2309
166.9218,-239.8289
167.0497,-239.4292
167.1966,-239.0361
167.3512,-238.6457
167.4978,-238.2524
167.6512,-237.8617
167.8306,-237.4823
168.0128,-237.1044
168.1977,-236.7269
168.3765,-236.3479
168.4968,-235.9483
168.5815,-235.5367
168.6732,-235.1275
168.7611,-234.7167
168.8498,-234.3065
168.9434,-233.8974
169.0281,-233.4859
169.1276,-233.0787
169.2724,-232.6851
169.4279,-232.2949
169.576,-231.9022
169.7271,-231.5107
169.8358,-231.107
169.9073,-230.6931
169.9858,-230.2812
170.057,-229.867
170.1539,-229.4602
170.3006,-229.0668
170.4467,-228.6735
170.5966,-228.2811
170.7404,-227.887
170.8284,-227.4784
170.8909,-227.0628
170.9581,-226.6488
171.0229,-226.2339
171.095,-225.8204
171.1698,-225.4075
171.2425,-224.9938
171.3165,-224.5808
171.3784,-224.1657
171.4297,-223.749
171.4858,-223.3332
171.5358,-222.916
171.6019,-222.5024
171.7133,-222.0977
171.8265,-221.6936
171.9415,-221.2896
172.051,-220.8847
172.1001,-220.4685
172.1357,-220.0496
172.1821,-219.6329
172.219,-219.2143
172.2636,-218.7972
172.3058,-218.3795
172.349,-217.9618
172.3938,-217.5446
172.4355,-217.1267
172.4805,-216.7095
172.5229,-216.2918
172.5663,-215.8743
172.6105,-215.457
172.6905,-215.0466
172.8108,-214.6443
172.9281,-214.2414
173.0478,-213.839
173.1505,-213.4325
173.2289,-213.0201
173.3072,-212.6077
173.3857,-212.1954
173.4629,-211.7827
173.5203,-211.367
173.5735,-210.9505
173.6326,-210.535
173.6846,-210.1184
173.736,-209.7018
173.7769,-209.2841
173.8233,-208.8667
173.8663,-208.4494
173.8811,-208.0299
173.8894,-207.6104
173.8957,-207.1905
173.9045,-206.7709
173.898,-206.3517
173.866,-205.9329
173.834,-205.5147
173.801,-205.0958
173.7943,-204.6776
173.8256,-204.2589
173.8583,-203.8404
173.8908,-203.422
173.9218,-203.0032
173.9156,-202.5852
173.8752,-202.1669
173.8396,-201.749
173.7994,-201.331
173.7845,-200.913
173.8303,-200.4961
173.8766,-200.0786
173.9244,-199.6617
173.9688,-199.2443
173.9599,-198.825
173.942,-198.4055
173.9298,-197.9859
173.9121,-197.5666
173.9189,-197.1472
173.9435,-196.7283
173.9707,-196.3094
173.9965,-195.8903
174.025,-195.4717
174.0602,-195.0532
174.0942,-194.635
174.1299,-194.2166
174.1559,-193.7978
174.1637,-193.3783
174.1692,-192.9584
174.1767,-192.5388
174.1825,-192.119
174.1855,-191.6993
174.1866,-191.2795
174.1885,-190.8597
174.1897,-190.4401
174.1871,-190.0201
174.1816,-189.6005
174.1766,-189.1807
174.1714,-188.7609
174.167,-188.3413
174.1652,-187.9214
174.1613,-187.5018
174.1603,-187.0819
174.1559,-186.6622
174.1311,-186.2433
174.1024,-185.8243
174.0762,-185.4056
174.0488,-184.9865
174.041,-184.567
174.0391,-184.1472
174.0343,-183.7274
174.0329,-183.3078
174.0075,-182.8891
173.9638,-182.4717
173.9206,-182.0542
173.8745,-181.6368
173.8383,-181.219
173.8194,-180.7995
173.8084,-180.38
173.7897,-179.9605
173.7774,-179.541
173.7894,-179.1214
173.8031,-178.7018
173.8175,-178.2823
173.8293,-177.8627
173.8132,-177.4437
173.7851,-177.0248
173.7594,-176.6058
173.7331,-176.1869
173.721,-175.7674
173.7195,-175.3476
173.7142,-174.9279
173.7124,-174.5081
173.6873,-174.0901
173.6207,-173.6755
173.5565,-173.261
173.4876,-172.8465
173.4269,-172.4316
173.4218,-172.0122
173.4228,-171.5921
173.4198,-171.1726
173.418,-170.7526
173.3745,-170.3354
173.3253,-169.9183
173.2821,-169.5009
173.2324,-169.084
173.1997,-168.6655
173.1679,-168.247
173.1372,-167.8283
173.1082,-167.4096
173.0735,-166.9912
173.0428,-166.5725
173.0068,-166.1544
172.9751,-165.7356
172.9317,-165.3186
172.8584,-164.9052
172.7861,-164.4918
172.7118,-164.0786
172.6511,-163.6637
172.623,-163.2449
172.5943,-162.8261
172.5683,-162.4071
172.5375,-161.9886
172.4701,-161.5746
172.3911,-161.1622
172.3186,-160.7488
172.241,-160.3362
172.1728,-159.9221
172.1195,-159.5058
172.0645,-159.0897
172.0127,-158.673
171.9572,-158.257
171.878,-157.8449
171.7933,-157.4338
171.709,-157.0225
171.6258,-156.6111
171.5634,-156.1961
171.5043,-155.7804
171.4434,-155.3651
171.383,-154.9497
171.2874,-154.5419
171.1687,-154.1392
171.0546,-153.7353
170.9352,-153.3328
170.8282,-152.9272
170.7469,-152.5155
170.6685,-152.103
170.5891,-151.6908
170.5089,-151.2789
170.4107,-150.8709
170.3015,-150.4656
170.1945,-150.0597
170.0862,-149.6541
169.9768,-149.2489
169.8607,-148.8454
169.7406,-148.4433
169.6257,-148.0394
169.5051,-147.6374
169.3653,-147.242
169.2126,-146.8508
169.0636,-146.4585
168.9124,-146.0668
168.7665,-145.6734
168.6418,-145.2726
168.5157,-144.8722
168.3915,-144.4712
168.265,-144.0709
168.1144,-143.6792
167.9619,-143.288
167.811,-142.8964
167.6587,-142.5052
167.5119,-142.1119
167.3653,-141.7186
167.22,-141.3247
167.0734,-140.9314
166.9299,-140.5369
166.7868,-140.1423
166.6434,-139.7478
166.5015,-139.3526
166.3685,-138.955
166.2541,-138.5506
166.1325,-138.1495
166.0203,-137.744
165.8816,-137.3513
165.6442,-137.0066
165.3928,-136.6688
165.1555,-136.3239
164.905,-135.9856
164.68,-135.6323
164.4622,-135.2732
164.2485,-134.912
164.035,-134.5506
163.8484,-134.1774
163.7195,-133.7768
163.5807,-133.3818
163.4523,-132.9808
163.2906,-132.5992
163.0164,-132.2818
162.7405,-131.9658
162.461,-131.6513
162.1906,-131.3323
162.0499,-130.9428
161.9468,-130.5334
161.8231,-130.1346
161.7207,-129.7249
161.5783,-129.3338
161.3785,-128.9651
161.1639,-128.6038
160.9605,-128.2369
160.7486,-127.8744
160.4972,-127.5385
160.2433,-127.2041
159.9905,-126.869
159.7375,-126.5342
159.52,-126.1758
159.3141,-125.81
159.1072,-125.4449
158.9017,-125.0787
158.7004,-124.7107
158.5196,-124.3315
158.336,-123.9544
158.1553,-123.5752
157.9718,-123.1978
157.7518,-122.8411
157.5214,-122.4899
157.2922,-122.1385
157.0622,-121.7871
156.82,-121.4453
156.5498,-121.1237
156.2827,-120.8002
156.0111,-120.4797
155.7454,-120.1552
155.5332,-119.7947
155.3385,-119.4221
155.1366,-119.0547
154.9408,-118.6829
154.7216,-118.3261
154.4759,-117.9858
154.2299,-117.6455
153.9826,-117.3065
153.7434,-116.9617
153.5199,-116.6065
153.2988,-116.2496
153.0762,-115.8936
152.8308,-115.5547
152.5581,-115.2355
152.2836,-114.9179
152.0113,-114.5985
151.7695,-114.2579
151.5655,-113.891
151.3607,-113.5245
151.1561,-113.1582
150.9287,-112.8072
150.6582,-112.4864
150.387,-112.1659
150.1174,-111.8442
149.8506,-111.5203
149.6032,-111.1811
149.3517,-110.8451
149.1041,-110.5059
148.8478,-110.1741
148.5555,-109.8729
148.2632,-109.5718
147.9692,-109.2719
147.6781,-108.9697
147.4318,-108.6312
147.1999,-108.2811
146.9656,-107.9329
146.7322,-107.5841
146.4588,-107.2685
146.1558,-106.9775
145.8576,-106.6826
145.5535,-106.3926
145.2644,-106.0897
145.0145,-105.7529
144.7698,-105.4114
144.5208,-105.0737
144.2751,-104.7331
144.0206,-104.3995
143.7644,-104.0669
143.5065,-103.7358
143.2504,-103.4031
142.9918,-103.0725
142.7109,-102.7608
142.427,-102.4514
142.1459,-102.1397
141.8625,-101.83
141.5884,-101.5121
141.3151,-101.1935
141.0417,-100.8749
140.7693,-100.5556
140.4931,-100.2394
140.2159,-99.9242
139.9375,-99.6101
139.6597,-99.2953
139.3831,-98.9797
139.1115,-98.6596
138.8414,-98.3382
138.5695,-98.0184
138.2991,-97.6973
138.0252,-97.3793
137.7521,-97.0604
137.479,-96.7417
137.2052,-96.4235
136.9354,-96.1019
136.6645,-95.7813
136.395,-95.4593
136.1246,-95.1384
135.8506,-94.8203
135.574,-94.5046
135.2953,-94.1907
135.0196,-93.8741
134.7348,-93.5661
134.4375,-93.2697
134.1365,-92.9772
133.8387,-92.6812
133.5385,-92.388
133.2156,-92.12
132.8884,-91.8574
132.5606,-91.5947
132.234,-91.3313
131.9597,-91.019
131.7201,-90.6741
131.4796,-90.3303
131.2393,-89.9859
130.9644,-89.6715
130.6598,-89.3826
130.3569,-89.092
130.0519,-88.8035
129.7493,-88.5126
129.4519,-88.2165
129.156,-87.9186
128.8591,-87.622
128.5627,-87.3247
128.275,-87.0191
127.9891,-86.7117
127.7037,-86.4038
127.4178,-86.0965
127.1205,-85.8004
126.8153,-85.5123
126.5098,-85.2244
126.2047,-84.936
125.8944,-84.6535
125.5767,-84.3792
125.2584,-84.1055
124.9405,-83.8313
124.6204,-83.5598
124.2975,-83.2917
123.9747,-83.0232
123.6517,-82.7552
123.3321,-82.4831
123.0253,-82.1967
122.7192,-81.9094
122.4122,-81.6231
122.1064,-81.3357
121.7781,-81.0757
121.433,-80.837
121.0864,-80.5999
120.7413,-80.3612
120.4315,-80.0828
120.1552,-79.7665
119.8782,-79.4514
119.6014,-79.1356
119.2933,-78.8565
118.9398,-78.6299
118.5873,-78.402
118.2337,-78.1758
117.8927,-77.9332
117.5896,-77.6433
117.2869,-77.3521
116.9843,-77.0614
116.681,-76.771
116.3544,-76.5075
116.0248,-76.2476
115.6971,-75.9853
115.3675,-75.7254
115.0423,-75.4599
114.7177,-75.1937
114.393,-74.9278
114.0694,-74.6602
113.7409,-74.3994
113.3961,-74.1601
113.0478,-73.9256
112.7031,-73.6862
112.3551,-73.4511
112.0151,-73.2054
111.6801,-72.9523
111.3455,-72.6989
111.0117,-72.4444
110.676,-72.1923
110.3417,-71.9385
110.0048,-71.688
109.6703,-71.4344
109.3339,-71.1832
108.9863,-70.9481
108.6373,-70.715
108.2881,-70.4817
107.9394,-70.2484
107.5927,-70.0115
107.247,-69.7734
106.9017,-69.5348
106.5556,-69.297
106.209,-69.0606
105.8592,-68.8282
105.5102,-68.5952
105.161,-68.3621
104.8114,-68.1298
104.464,-67.8943
104.1153,-67.6603
103.7681,-67.4247
103.4197,-67.1903
103.0699,-66.9583
102.72,-66.7265
102.3688,-66.4963
102.0196,-66.2637
101.6678,-66.0343
101.3153,-65.8068
100.9609,-65.5816
100.6074,-65.355
100.2542,-65.1287
99.89,-64.9194
99.5256,-64.7119
99.1587,-64.5071
98.7943,-64.2993
98.4493,-64.061
98.1105,-63.8128
97.7707,-63.5668
97.4314,-63.319
97.0949,-63.0686
96.76,-62.8153
96.424,-62.5637
96.0899,-62.3098
95.7512,-62.0615
95.4067,-61.822
95.0589,-61.5868
94.7143,-61.3471
94.3638,-61.1169
93.9927,-60.9204
93.6202,-60.7274
93.2485,-60.5317
92.8764,-60.3379
92.5121,-60.1295
92.1497,-59.9172
91.7884,-59.7043
91.4258,-59.4919
91.0713,-59.2684
90.7259,-59.0293
90.3809,-58.7904
90.0364,-58.5507
89.6926,-58.3095
89.3549,-58.0606
89.0138,-57.8156
88.6765,-57.5657
88.3354,-57.3215
87.9622,-57.1303
87.5835,-56.9494
87.2074,-56.7623
86.8292,-56.5808
86.4628,-56.3762
86.1012,-56.1629
85.7411,-55.948
85.3797,-55.7331
85.0214,-55.5159
84.6659,-55.2915
84.309,-55.0711
83.9549,-54.8458
83.5962,-54.6268
83.2306,-54.4224
82.8606,-54.2222
82.4941,-54.0189
82.1257,-53.8172
81.7508,-53.6277
81.3766,-53.4397
80.9985,-53.2542
80.6248,-53.0659
80.2515,-52.8723
79.8842,-52.6692
79.5195,-52.4635
79.1475,-52.2639
78.7877,-52.0544
78.388,-51.909
78.0056,-51.7509
77.7538,-51.4301
77.5439,-51.0628
77.3189,-50.7121
77.0347,-50.4231
76.6583,-50.2381
76.2835,-50.0463
75.9103,-49.8576
75.5625,-49.632
75.2888,-49.3139
75.0135,-48.9978
74.7373,-48.6802
74.4647,-48.3628
74.1494,-48.0868
73.8151,-47.8355
73.4751,-47.5878
73.169,-47.3016
72.9546,-46.9514
72.7956,-46.5622
72.6415,-46.1718
72.4575,-45.7964
72.2395,-45.4372
72.0737,-45.0601
72.0177,-44.644
72.0213,-44.2254
72.0223,-43.8056
72.0282,-43.3848
72.0657,-42.9691
72.116,-42.5499
72.1617,-42.1348
72.21,-41.7165
72.2918,-41.307
72.4194,-40.9082
72.5504,-40.5074
72.6774,-40.1097
72.8082,-39.7086
72.9325,-39.3091
73.0579,-38.9082
73.1832,-38.5067
73.3074,-38.1075
73.4265,-37.7028
73.5383,-37.3003
73.6523,-36.8949
73.7642,-36.4906
73.888,-36.0907
74.0353,-35.6959
74.1853,-35.3061
74.332,-34.9106
74.4825,-34.5202
74.6347,-34.1286
74.7916,-33.7384
74.9456,-33.3498
75.1013,-32.9575
75.2874,-32.5847
75.4932,-32.2171
75.7005,-31.8526
75.9063,-31.4877
76.0991,-31.1126
76.2889,-30.7414
76.4773,-30.363
76.6678,-29.9914
76.8774,-29.6279
77.1129,-29.2792
77.3516,-28.9372
77.5826,-28.5816
77.8195,-28.2419
77.9955,-27.8522
78.1945,-27.4906
78.5635,-27.3049
78.9602,-27.146
79.3318,-26.9659
79.7333,-26.8227
80.1215,-26.676
80.519,-26.533
80.9018,-26.3624
81.283,-26.1888
81.6688,-26.0186
81.955,-25.7381
82.1782,-25.3817
82.3996,-25.0259
82.6146,-24.6649
82.8313,-24.3053
83.0371,-23.9401
83.2432,-23.5733
83.4446,-23.2064
83.5967,-22.8169
83.7125,-22.4147
83.8735,-22.0294
84.08,-21.6627
84.2478,-21.282
84.3542,-20.8757
84.4472,-20.4667
84.5503,-20.0594
84.5811,-19.6468
84.5356,-19.2294
84.5223,-18.8116
84.5579,-18.3945
84.6095,-17.9762
84.6177,-17.5604
84.5582,-17.1452
84.48,-16.7324
84.418,-16.3173
84.3435,-15.904
84.2028,-15.5103
84.0479,-15.1202
83.8902,-14.7305
83.7406,-14.3395
83.6843,-13.9255
83.6717,-13.5058
83.6842,-13.0879
83.7189,-12.6677
83.7516,-12.2512
83.8175,-11.8351
83.9044,-11.4271
84.0342,-11.0276
84.1574,-10.6248
84.2834,-10.2277
84.4828,-9.8531
84.6686,-9.4829
84.8732,-9.1096
85.0208,-8.7304
84.9924,-8.3142
84.9417,-7.8933
84.8968,-7.4813
84.8222,-7.0626
84.7306,-6.6587
84.6137,-6.2522
84.4664,-5.8634
84.2451,-5.5096
84.009,-5.1572
83.7964,-4.8012
83.589,-4.4317
83.4004,-4.059
83.1627,-3.7211
82.8315,-3.4652
82.5103,-3.2061
82.3027,-2.832
82.0634,-2.5068
81.6864,-2.32
81.3006,-2.1539
80.9231,-1.974
80.5379,-1.7989
80.151,-1.6517
79.7442,-1.532
79.3401,-1.4315
78.9371,-1.3076
78.565,-1.1168
78.1994,-0.91338
77.8248,-0.71366
77.4608,-0.5203
77.0596,-0.37677
76.6592,-0.27745
76.2523,-0.15219
75.8478,-0.051937
