80.0187,-330.8137
80.3587,-330.5816
80.7021,-330.3545
81.042,-330.123
81.3847,-329.8945
81.726,-329.665
82.0671,-329.4347
82.4096,-329.2061
82.7504,-328.9759
83.0923,-328.7464
83.4342,-328.5174
83.775,-328.2871
84.1173,-328.0581
84.4587,-327.8286
84.7999,-327.5984
85.1422,-327.3698
85.4832,-327.1397
85.8248,-326.9099
86.1671,-326.6814
86.5075,-326.4503
86.8502,-326.2222
87.1965,-326
87.5444,-325.7803
87.8932,-325.5615
88.2407,-325.3413
88.5991,-325.1409
88.974,-324.9701
89.3471,-324.7979
89.7215,-324.6262
90.0974,-324.4573
90.458,-324.2626
90.8217,-324.066
91.1701,-323.8507
91.4617,-323.5631
91.7591,-323.2807
92.1016,-323.0523
92.4392,-322.816
92.7794,-322.5863
93.14,-322.3861
93.4977,-322.1835
93.8568,-321.9826
94.2166,-321.7818
94.5755,-321.5817
94.9421,-321.3935
95.305,-321.2001
95.6722,-321.0135
96.0337,-320.8181
96.3438,-320.554
96.6255,-320.2527
96.9181,-319.9638
97.2012,-319.665
97.4618,-319.3473
97.71,-319.0198
97.9538,-318.6871
98.2045,-318.3617
98.4683,-318.0464
98.7486,-317.7445
99.0335,-317.4484
99.3076,-317.1401
99.5964,-316.848
99.9242,-316.6011
100.2649,-316.3688
100.5982,-316.1278
100.9338,-315.8899
101.2709,-315.6532
101.605,-315.4133
101.9415,-315.1762
102.2774,-314.9382
102.6121,-314.6991
102.9488,-314.4622
103.2838,-314.2232
103.6194,-313.9851
103.9558,-313.7478
104.2904,-313.5084
104.627,-313.2714
104.9623,-313.0328
105.2974,-312.7941
105.6346,-312.5577
105.9679,-312.3169
106.3064,-312.0821
106.6391,-311.8405
106.9345,-311.557
107.2084,-311.2494
107.4873,-310.947
107.7709,-310.6488
108.0667,-310.363
108.3743,-310.0897
108.6825,-309.817
108.9908,-309.5442
109.2996,-309.2723
109.6088,-309.0008
109.9169,-308.7277
110.2298,-308.4608
110.5574,-308.2118
110.889,-307.9677
111.2167,-307.7191
111.5472,-307.4735
111.8767,-307.2271
112.2051,-306.9792
112.536,-306.7341
112.8641,-306.4861
113.183,-306.2265
113.4902,-305.9526
113.7947,-305.6758
114.1035,-305.4037
114.4075,-305.1263
114.7041,-304.841
114.999,-304.554
115.2933,-304.2662
115.59,-303.9811
115.8958,-303.7059
116.2091,-303.439
116.5207,-303.1702
116.8327,-302.9018
117.1451,-302.6339
117.448,-302.3553
117.7495,-302.0752
118.0526,-301.7968
118.3534,-301.5159
118.6746,-301.2602
119.0143,-301.0279
119.3516,-300.7925
119.6945,-300.5639
120.0289,-300.3253
120.3305,-300.0463
120.6197,-299.7528
120.9168,-299.4683
121.2091,-299.1785
121.4737,-298.8652
121.7134,-298.5312
121.9513,-298.1949
122.1899,-297.8598
122.4381,-297.5322
122.7116,-297.2247
122.9913,-296.9228
123.2645,-296.615
123.543,-296.3119
123.8305,-296.0178
124.1244,-295.7296
124.4189,-295.442
124.7125,-295.1539
125.001,-294.8604
125.2788,-294.5569
125.556,-294.2528
125.8328,-293.9479
126.1157,-293.6498
126.4249,-293.3784
126.7398,-293.113
127.0495,-292.8424
127.3622,-292.5745
127.6456,-292.2785
127.9029,-291.9569
128.165,-291.6398
128.4226,-291.3188
128.688,-291.0044
128.974,-290.7086
129.2582,-290.411
129.5444,-290.1151
129.8299,-289.8189
130.0876,-289.4993
130.3246,-289.1633
130.5596,-288.8252
130.7942,-288.4869
131.0326,-288.152
131.2872,-287.8287
131.5557,-287.5168
131.8172,-287.1989
132.0828,-286.8846
132.3842,-286.6073
132.7076,-286.3533
133.0306,-286.098
133.3575,-285.8474
133.6662,-285.5782
133.9311,-285.2641
134.1813,-284.9364
134.4445,-284.6204
134.699,-284.2968
134.9302,-283.9569
135.1519,-283.6106
135.3714,-283.262
135.5917,-282.9147
135.8182,-282.5712
136.0558,-282.2351
136.3011,-281.9048
136.5387,-281.5685
136.7823,-281.237
137.0555,-280.9301
137.3404,-280.6331
137.6234,-280.3344
137.9093,-280.0382
138.1825,-279.7311
138.4349,-279.4062
138.6821,-279.0771
138.934,-278.7517
139.1764,-278.4194
139.3931,-278.0697
139.604,-277.7161
139.822,-277.3672
140.0325,-277.0135
140.2399,-276.658
140.4445,-276.3011
140.6471,-275.9425
140.8548,-275.5876
141.04,-275.2203
141.2073,-274.8439
141.3815,-274.4726
141.5396,-274.0897
141.728,-273.7282
142.0091,-273.4315
142.3147,-273.1517
142.603,-272.8602
142.8993,-272.5739
143.1724,-272.2672
143.4169,-271.9364
143.6668,-271.6091
143.9142,-271.2804
144.1601,-270.9504
144.4121,-270.6249
144.659,-270.2958
144.9092,-269.9689
145.1589,-269.6418
145.3889,-269.3009
145.6094,-268.9535
145.8301,-268.6062
146.0482,-268.257
146.2725,-267.9121
146.5059,-267.5732
146.7418,-267.2359
146.9777,-266.8987
147.2118,-266.5602
147.4377,-266.2165
147.6525,-265.8655
147.8653,-265.5131
148.0811,-265.1628
148.2992,-264.8138
148.5306,-264.4736
148.7683,-264.1375
148.9964,-263.7949
149.2355,-263.46
149.4924,-263.1385
149.7491,-262.8175
150.013,-262.5005
150.265,-262.1762
150.4638,-261.8194
150.6305,-261.4424
150.7993,-261.0672
150.9724,-260.6942
151.1613,-260.3287
151.3672,-259.9724
151.5691,-259.6138
151.77,-259.2545
151.9888,-258.9063
152.2209,-258.5667
152.4549,-258.2281
152.6924,-257.8918
152.9212,-257.5501
153.1233,-257.1919
153.3145,-256.8271
153.5129,-256.4667
153.7089,-256.1048
153.9004,-255.7405
154.0944,-255.3776
154.2866,-255.0136
154.4782,-254.6494
154.6791,-254.2903
154.8865,-253.9349
155.0941,-253.5796
155.305,-253.2261
155.5065,-252.8675
155.6842,-252.4965
155.8557,-252.1222
156.0301,-251.7495
156.2053,-251.3772
156.3966,-251.013
156.599,-250.6546
156.7992,-250.2951
156.9988,-249.9352
157.1823,-249.5673
157.3497,-249.1912
157.5206,-248.8169
157.6901,-248.4419
157.861,-248.0674
158.0407,-247.6972
158.2188,-247.3262
158.3972,-246.9553
158.577,-246.5851
158.7536,-246.2134
158.9322,-245.8426
159.11,-245.4715
159.2868,-245.0998
159.4641,-244.7285
159.6361,-244.3546
159.8088,-243.981
159.9824,-243.6079
160.1541,-243.2339
160.3334,-242.8634
160.5137,-242.4935
160.6925,-242.1228
160.8741,-241.7535
161.0412,-241.3776
161.1956,-240.9961
161.3514,-240.6153
161.5034,-240.2327
161.6638,-239.8539
161.8401,-239.4821
162.0171,-239.1105
162.1969,-238.7402
162.3711,-238.3675
162.5192,-237.9839
162.656,-237.5957
162.7959,-237.2087
162.9355,-236.8215
163.084,-236.4379
163.2425,-236.058
163.3998,-235.6777
163.5567,-235.2973
163.7148,-234.9172
163.8706,-234.5364
164.0267,-234.1556
164.1847,-233.7755
164.3379,-233.3937
164.48,-233.0074
164.6179,-232.6197
164.7583,-232.2328
164.8982,-231.8458
165.0421,-231.4603
165.1933,-231.0774
165.3442,-230.6946
165.4942,-230.3114
165.6458,-229.9287
165.7958,-229.5455
165.9457,-229.1622
166.0978,-228.7798
166.2458,-228.3959
166.3805,-228.0071
166.5047,-227.6148
166.6308,-227.223
166.7575,-226.8314
166.8755,-226.4373
166.9849,-226.0406
167.0912,-225.6429
167.199,-225.2458
167.3071,-224.8487
167.4139,-224.4512
167.5228,-224.0544
167.6298,-223.657
167.7381,-223.26
167.8585,-222.8665
167.9824,-222.474
168.105,-222.0812
168.2294,-221.6888
168.3454,-221.2941
168.4528,-220.8968
168.5595,-220.4993
168.6659,-220.1018
168.7731,-219.7044
168.8794,-219.3068
168.9853,-218.9092
169.0927,-218.5118
169.1979,-218.114
169.3075,-217.7173
169.4212,-217.3218
169.5333,-216.9259
169.6492,-216.5308
169.755,-216.1334
169.8383,-215.7305
169.9181,-215.3266
169.9992,-214.9232
170.0812,-214.5199
170.1761,-214.1195
170.2768,-213.7205
170.375,-213.3208
170.4745,-212.9215
170.5709,-212.5214
170.6626,-212.1202
170.7546,-211.7191
170.847,-211.318
170.9362,-210.9162
171.0206,-210.5135
171.1037,-210.1104
171.1876,-209.7075
171.2714,-209.3046
171.3566,-208.9019
171.4426,-208.4995
171.5283,-208.0969
171.6138,-207.6944
171.6962,-207.2912
171.775,-206.8872
171.8536,-206.4833
171.933,-206.0795
172.0111,-205.6754
172.0869,-205.2709
172.1616,-204.8662
172.2363,-204.4615
172.312,-204.057
172.3847,-203.6519
172.4505,-203.2457
172.5144,-202.8391
172.5797,-202.4327
172.6443,-202.0264
172.7085,-201.6198
172.7719,-201.2132
172.8353,-200.8066
172.8984,-200.3998
172.9625,-199.9934
173.0313,-199.5876
173.1005,-199.1819
173.1699,-198.7763
173.2383,-198.3704
173.2937,-197.9627
173.3432,-197.5541
173.3952,-197.1459
173.4451,-196.7374
173.5043,-196.3302
173.5739,-195.9246
173.6427,-195.5189
173.713,-195.1133
173.7709,-194.7062
173.8103,-194.2965
173.8493,-193.8867
173.8881,-193.4771
173.9291,-193.0676
173.9766,-192.6588
174.0218,-192.2498
174.071,-191.841
174.1151,-191.432
174.1369,-191.0211
174.1533,-190.6098
174.1717,-190.1988
174.1906,-189.7876
174.2223,-189.3774
174.2587,-188.9674
174.2913,-188.5571
174.3264,-188.1471
174.3583,-187.7368
174.3862,-187.3262
174.4157,-186.9157
174.4437,-186.5051
174.4727,-186.0946
174.5058,-185.6844
174.5389,-185.2741
174.5719,-184.864
174.6052,-184.4537
174.6352,-184.0433
174.6634,-183.6328
174.6921,-183.2221
174.7197,-182.8116
174.7485,-182.401
174.7773,-181.9904
174.8042,-181.5799
174.8356,-181.1693
174.8574,-180.7587
174.851,-180.3474
174.8369,-179.9358
174.8281,-179.5245
174.8175,-179.1131
174.8171,-178.7015
174.8243,-178.2901
174.827,-177.8785
174.8327,-177.467
174.8384,-177.0555
174.8419,-176.6439
174.8497,-176.2325
174.8532,-175.8209
174.8594,-175.4095
174.8786,-174.9984
174.8982,-174.5873
174.9204,-174.1763
174.9402,-173.7653
174.9304,-173.3547
174.897,-172.9447
174.8625,-172.5345
174.8289,-172.1243
174.8055,-171.7137
174.8004,-171.3022
174.7988,-170.8906
174.7935,-170.4792
174.791,-170.0676
174.7897,-169.6561
174.7877,-169.2445
174.7884,-168.8329
174.786,-168.4215
174.77,-168.0104
174.7431,-167.5998
174.7157,-167.1891
174.6898,-166.7783
174.6623,-166.3678
174.6348,-165.9571
174.6077,-165.5464
174.5792,-165.1359
174.5525,-164.7252
174.53,-164.3143
174.5085,-163.9033
174.4875,-163.4923
174.4657,-163.0814
174.4348,-162.6711
174.3921,-162.2618
174.3474,-161.8527
174.3056,-161.4432
174.2587,-161.0344
174.2045,-160.6264
174.1486,-160.2187
174.0932,-159.8109
174.0382,-159.403
173.9873,-158.9947
173.9413,-158.5857
173.8955,-158.1767
173.8491,-157.7679
173.8019,-157.359
173.7507,-156.9506
173.6988,-156.5424
173.6485,-156.1339
173.594,-155.726
173.5333,-155.319
173.4703,-154.9122
173.4091,-154.5053
173.3467,-154.0985
173.2703,-153.6943
173.1817,-153.2925
173.0938,-152.8903
173.0055,-152.4885
172.9177,-152.0864
172.8324,-151.6837
172.745,-151.2816
172.6603,-150.8788
172.5728,-150.4767
172.4685,-150.0788
172.3565,-149.6827
172.2455,-149.2865
172.134,-148.8903
172.0299,-148.4922
171.9333,-148.0922
171.8372,-147.692
171.7406,-147.292
171.6386,-146.8933
171.5289,-146.4966
171.4179,-146.1004
171.3088,-145.7035
171.1976,-145.3073
171.0792,-144.9132
170.9561,-144.5205
170.8332,-144.1277
170.7106,-143.7349
170.5869,-143.3423
170.4622,-142.9502
170.3376,-142.5579
170.2125,-142.1658
170.0881,-141.7736
169.9689,-141.3796
169.8534,-140.9847
169.7377,-140.5897
169.6222,-140.1947
169.5049,-139.8003
169.3839,-139.4069
169.2612,-139.0141
169.1407,-138.6206
169.0176,-138.2278
168.8798,-137.8402
168.7342,-137.4552
168.5918,-137.0691
168.4464,-136.6841
168.3081,-136.2966
168.184,-135.9042
168.0597,-135.5119
167.9374,-135.1189
167.8114,-134.7272
167.6642,-134.343
167.5118,-133.9605
167.364,-133.5766
167.2131,-133.1936
167.0681,-132.8085
166.9263,-132.4222
166.7817,-132.0368
166.6408,-131.6502
166.4929,-131.2662
166.3317,-130.8875
166.1684,-130.5098
166.0062,-130.1315
165.8436,-129.7535
165.6788,-129.3764
165.5133,-128.9995
165.3478,-128.6228
165.1822,-128.246
165.0267,-127.865
164.8793,-127.4809
164.7306,-127.0971
164.5842,-126.7124
164.4192,-126.3363
164.2222,-125.975
164.0222,-125.6154
163.824,-125.2547
163.6258,-124.894
163.4503,-124.5221
163.2855,-124.1448
163.1158,-123.7701
162.9505,-123.3931
162.7751,-123.0209
162.5865,-122.6552
162.4006,-122.288
162.2098,-121.9232
162.025,-121.5557
161.8655,-121.1764
161.7121,-120.7945
161.5551,-120.4141
161.4006,-120.0325
161.2286,-119.6595
161.0318,-119.298
160.8322,-118.9381
160.6357,-118.5766
160.4364,-118.2163
160.2368,-117.8566
160.0368,-117.4968
159.8358,-117.1377
159.6366,-116.7777
159.4378,-116.4171
159.2406,-116.0561
159.0438,-115.6946
158.8457,-115.3338
158.6569,-114.9684
158.4768,-114.5982
158.2952,-114.229
158.1173,-113.8578
157.9339,-113.4893
157.7284,-113.1332
157.5153,-112.7809
157.3062,-112.4264
157.0951,-112.0733
156.8833,-111.7203
156.6711,-111.3677
156.4578,-111.0158
156.2451,-110.6633
156.0327,-110.311
155.824,-109.9562
155.6172,-109.6004
155.4096,-109.2452
155.202,-108.8896
154.9869,-108.539
154.7657,-108.1919
154.5465,-107.8434
154.3258,-107.4963
154.1075,-107.1473
153.8918,-106.7968
153.6735,-106.4481
153.4592,-106.0964
153.2334,-105.7531
152.9811,-105.4281
152.7244,-105.1061
152.471,-104.7822
152.2157,-104.4591
151.9705,-104.1289
151.734,-103.7921
151.4974,-103.4552
151.2604,-103.1189
151.0255,-102.781
150.7977,-102.4382
150.5722,-102.094
150.3449,-101.7508
150.1183,-101.4073
149.8839,-101.0692
149.6442,-100.7345
149.407,-100.3983
149.1677,-100.0634
148.9329,-99.7254
148.7026,-99.3844
148.4691,-99.0455
148.2402,-98.7034
148.0038,-98.3668
147.7469,-98.0452
147.4871,-97.7262
147.2285,-97.4059
146.9701,-97.0856
146.7209,-96.7583
146.4752,-96.4279
146.2292,-96.0981
145.9829,-95.7684
145.7279,-95.4454
145.4652,-95.1289
145.2019,-94.8124
144.94,-94.495
144.6738,-94.1813
144.4009,-93.873
144.1287,-93.5647
143.8533,-93.2585
143.5834,-92.948
143.3399,-92.6168
143.1046,-92.2786
142.8636,-91.9453
142.6261,-91.6092
142.3739,-91.2844
142.1028,-90.975
141.8326,-90.6644
141.5623,-90.3541
141.2905,-90.0451
141.0175,-89.7371
140.7409,-89.4324
140.4675,-89.1248
140.1922,-88.8188
139.9109,-88.5185
139.6287,-88.2189
139.3445,-87.9212
139.062,-87.6221
138.7756,-87.3264
138.4817,-87.0384
138.1902,-86.748
137.8952,-86.4607
137.6043,-86.17
137.3363,-85.8579
137.0745,-85.5402
136.8096,-85.2255
136.5471,-84.9082
136.275,-84.5998
135.9949,-84.2983
135.7151,-83.9963
135.4343,-83.6957
135.1559,-83.3924
134.8782,-83.0888
134.5998,-82.7857
134.3233,-82.4806
134.0408,-82.1818
133.7489,-81.8916
133.4546,-81.6038
133.1616,-81.315
132.8686,-81.0259
132.5739,-80.7387
132.2798,-80.4508
131.9855,-80.163
131.6905,-79.8763
131.4006,-79.5841
131.1169,-79.286
130.8347,-78.9866
130.5518,-78.6874
130.2687,-78.3889
129.9838,-78.0919
129.6957,-77.7979
129.4081,-77.5037
129.1208,-77.2089
128.8325,-76.9152
128.5456,-76.6202
128.2571,-76.3266
127.9705,-76.0314
127.6814,-75.7385
127.3724,-75.467
127.0556,-75.2044
126.7426,-74.9371
126.4265,-74.6736
126.1213,-74.398
125.8274,-74.1096
125.5311,-73.8243
125.2385,-73.5346
124.9377,-73.2542
124.6194,-72.9937
124.2996,-72.7342
123.9798,-72.4753
123.6609,-72.2153
123.349,-71.9467
123.0407,-71.6744
122.7336,-71.4002
122.4248,-71.1282
122.1149,-70.8575
121.8028,-70.5891
121.4889,-70.3232
121.1777,-70.0537
120.851,-69.8046
120.5057,-69.5808
120.1624,-69.3543
119.8144,-69.1337
119.4727,-68.9052
119.1602,-68.6385
118.858,-68.3589
118.5532,-68.0826
118.2489,-67.8053
117.9436,-67.5296
117.6373,-67.2544
117.328,-66.9835
117.0247,-66.7044
116.7128,-66.4369
116.3613,-66.2267
115.9941,-66.0388
115.6341,-65.8401
115.2697,-65.6488
114.9094,-65.4499
114.5585,-65.235
114.209,-65.0179
113.8568,-64.8043
113.5089,-64.5853
113.189,-64.3293
112.8893,-64.0466
112.5863,-63.7687
112.2843,-63.4889
111.9761,-63.2162
111.6583,-62.955
111.3425,-62.6906
111.0263,-62.4276
110.7083,-62.1663
110.3833,-61.9138
110.0515,-61.6706
109.7244,-61.4204
109.3942,-61.175
109.0564,-60.9402
108.7139,-60.7121
108.3681,-60.489
108.0259,-60.2603
107.671,-60.0535
107.3,-59.875
106.9315,-59.6926
106.5582,-59.5179
106.1922,-59.3313
105.852,-59.1005
105.5169,-58.8606
105.1786,-58.627
104.8416,-58.3903
104.5121,-58.1444
104.1955,-57.8816
103.8783,-57.6193
103.5637,-57.3538
103.244,-57.0951
102.8931,-56.8811
102.5334,-56.68
102.1816,-56.467
101.8241,-56.2629
101.4709,-56.0518
101.1228,-55.8321
100.7716,-55.6177
100.4245,-55.3963
100.0738,-55.1811
99.7059,-54.9994
99.3267,-54.8396
98.9479,-54.6788
98.5675,-54.5208
98.1998,-54.3407
97.8651,-54.1026
97.5371,-53.8526
97.2038,-53.6119
96.8719,-53.3687
96.5088,-53.1782
96.1295,-53.0152
95.7632,-52.83
95.3836,-52.6674
95.0181,-52.4815
94.6918,-52.2307
94.3662,-51.9798
94.0436,-51.7231
93.7167,-51.4739
93.3531,-51.2886
92.9721,-51.1324
92.5908,-50.9776
92.2103,-50.8205
91.8298,-50.6645
91.4368,-50.5418
91.0422,-50.4268
90.6478,-50.3092
90.2501,-50.1995
89.8898,-50.0199
89.5724,-49.7601
89.2622,-49.4889
88.9491,-49.2204
88.6048,-49.0176
88.2073,-48.9246
87.7978,-48.8536
87.3989,-48.7645
86.9986,-48.669
86.6099,-48.5326
86.229,-48.3791
85.8375,-48.2479
85.4554,-48.0966
85.0923,-47.9061
84.7347,-47.7012
84.3802,-47.4927
84.0226,-47.2892
83.6614,-47.0914
83.2957,-46.9044
82.9237,-46.7263
82.5579,-46.5385
82.1874,-46.3605
81.8071,-46.2
81.4319,-46.0345
81.0507,-45.8768
80.6734,-45.712
80.3166,-45.5112
79.9642,-45.2957
79.6139,-45.0814
79.2651,-44.8639
78.942,-44.6117
78.659,-44.315
78.3689,-44.0204
78.076,-43.7334
77.7488,-43.5121
77.3343,-43.4107
77.0026,-43.231
76.8527,-42.8584
76.6979,-42.4758
76.4456,-42.1552
76.2003,-41.8184
76.0635,-41.4466
76.0099,-41.0419
75.9893,-40.6283
76.0733,-40.2318
76.1893,-39.8376
76.1633,-39.4398
76.0586,-39.0428
75.9424,-38.6459
75.8537,-38.2472
75.9062,-37.8446
76.0092,-37.4408
76.0734,-37.0368
76.1591,-36.6334
76.2227,-36.2266
76.269,-35.8176
76.3395,-35.4122
76.3905,-35.0035
76.4578,-34.5972
76.5403,-34.1948
76.6001,-33.7861
76.6846,-33.3842
76.7928,-32.9889
76.9253,-32.5986
77.074,-32.2149
77.1966,-31.8222
77.3435,-31.4362
77.474,-31.0481
77.5089,-30.6398
77.5146,-30.2369
77.5112,-29.817
77.5849,-29.4216
77.859,-29.1319
78.178,-28.8558
78.426,-28.5335
78.6739,-28.2069
78.9107,-27.8645
79.1524,-27.5382
79.4525,-27.2601
79.7908,-27.0271
80.1634,-26.8673
80.5596,-26.7524
80.9552,-26.6424
81.3454,-26.5124
81.7251,-26.3517
82.1067,-26.2012
82.488,-26.0431
82.8665,-25.8822
83.2414,-25.7191
83.5897,-25.4887
83.6896,-25.4485
84.4404,-25.4485
85.1911,-25.4485
85.1911,-25.4485
85.5747,-25.4153
85.8872,-25.1655
86.2136,-24.913
86.4624,-24.6602
86.5429,-24.2538
86.6067,-23.839
86.6867,-23.4492
86.7169,-23.0255
86.7393,-22.6225
86.7597,-22.2117
86.7753,-21.7938
86.8062,-21.3922
86.8364,-20.9753
86.8693,-20.5666
86.9038,-20.1599
86.9438,-19.7445
87.0047,-19.3429
87.0643,-18.9334
87.1235,-18.5245
87.1686,-18.1207
87.1669,-17.7046
87.1577,-17.2955
87.1594,-16.8848
87.1501,-16.4699
87.1244,-16.0641
87.0742,-15.6529
87.02,-15.2448
86.9712,-14.8387
86.9433,-14.4267
86.9822,-14.0206
87.0378,-13.6105
87.071,-13.2001
87.1254,-12.7941
87.1896,-12.385
87.2625,-11.9827
87.3457,-11.5782
87.4139,-11.1716
87.5058,-10.7733
87.623,-10.375
87.7284,-9.9808
87.7934,-9.578
87.7886,-9.1636
87.7869,-8.7554
87.7987,-8.3416
87.777,-7.9298
87.7892,-7.5218
87.7778,-7.1038
87.7733,-6.702
87.964,-6.3178
88.0986,-5.9495
87.9209,-5.6081
87.6475,-5.277
87.4286,-4.9419
87.3131,-4.559
87.273,-4.1474
87.1059,-3.7945
86.8448,-3.4665
86.5989,-3.142
86.309,-2.8523
86.0019,-2.5709
85.691,-2.3124
85.3727,-2.0414
85.0602,-1.7785
84.6676,-1.6718
84.2667,-1.5745
83.9626,-1.309
83.6626,-1.0199
83.3638,-0.73848
83.0593,-0.46788
82.6691,-0.33976
82.2627,-0.26151
81.8736,-0.12754
81.4695,-0.042594
