60.4185,-340.8166
60.7945,-340.5896
61.1705,-340.3629
61.5469,-340.1365
61.9227,-339.9093
62.2992,-339.6832
62.6749,-339.4559
63.0513,-339.2297
63.4273,-339.0027
63.8034,-338.776
64.1797,-338.5496
64.5555,-338.3223
64.9321,-338.0964
65.3077,-337.8689
65.6842,-337.6429
66.0601,-337.4157
66.4362,-337.1891
66.8126,-336.9628
67.1882,-336.7352
67.5651,-336.5099
67.9402,-336.2814
68.3174,-336.0567
68.6925,-335.828
69.0754,-335.6146
69.4789,-335.4416
69.8836,-335.2709
70.2878,-335.099
70.6894,-334.922
71.0785,-334.7184
71.4663,-334.5124
71.8558,-334.3095
72.2435,-334.103
72.626,-333.8882
73,-333.6574
73.3755,-333.4302
73.7496,-333.1997
74.1261,-332.9743
74.5246,-332.7899
74.9247,-332.6086
75.323,-332.4239
75.7234,-332.2429
76.0934,-332.012
76.4408,-331.7437
76.7855,-331.4712
77.1326,-331.2025
77.4945,-330.9545
77.8659,-330.7201
78.237,-330.4854
78.6067,-330.2484
78.9701,-330.0018
79.3305,-329.7507
79.6853,-329.4931
80.0202,-329.2083
80.3593,-328.9299
80.7091,-328.6643
81.067,-328.4102
81.4543,-328.2041
81.8454,-328.0045
82.2371,-327.8056
82.6272,-327.6042
82.9906,-327.3583
83.3498,-327.1052
83.7118,-326.8569
84.0714,-326.6044
84.4231,-326.3427
84.7577,-326.058
85.0915,-325.7728
85.4274,-325.4899
85.7855,-325.2403
86.1754,-325.0373
86.5612,-324.8282
86.951,-324.6253
87.3276,-324.4024
87.6655,-324.1225
88.0012,-323.8389
88.3383,-323.5577
88.6794,-323.2811
89.0268,-323.0125
89.3747,-322.7445
89.7221,-322.4757
90.0715,-322.2101
90.4423,-321.9746
90.8124,-321.7385
91.1838,-321.5038
91.5442,-321.255
91.8693,-320.9599
92.1923,-320.6622
92.5171,-320.3667
92.8744,-320.119
93.2678,-319.9236
93.6614,-319.7287
94.054,-319.5323
94.426,-319.301
94.7838,-319.0463
95.1436,-318.7946
95.5017,-318.5403
95.8647,-318.2934
96.2334,-318.0546
96.6016,-317.8154
96.9711,-317.5779
97.3338,-317.331
97.6766,-317.0569
98.0168,-316.7788
98.3595,-316.5046
98.696,-316.2221
99.0271,-315.9339
99.3576,-315.6445
99.6877,-315.3549
100.0201,-315.0681
100.365,-314.796
100.7127,-314.5281
101.057,-314.2551
101.4051,-313.9878
101.7689,-313.7421
102.1391,-313.5056
102.5049,-313.2629
102.8752,-313.0264
103.2538,-312.8053
103.643,-312.6008
104.0274,-312.3895
104.4168,-312.1852
104.7907,-311.9593
105.1143,-311.6632
105.4328,-311.36
105.756,-311.0634
106.0751,-310.761
106.4028,-310.4693
106.7335,-310.18
107.0655,-309.8927
107.3973,-309.6049
107.7325,-309.3212
108.0696,-309.0398
108.4049,-308.756
108.742,-308.4749
109.0889,-308.2054
109.4399,-307.9419
109.7911,-307.6778
110.1411,-307.4129
110.4585,-307.1121
110.753,-306.7858
111.0513,-306.4641
111.3453,-306.1372
111.6658,-305.8412
112.0278,-305.593
112.3935,-305.3495
112.7562,-305.1023
113.1191,-304.8547
113.4753,-304.5981
113.832,-304.3416
114.1889,-304.086
114.5417,-303.8244
114.8866,-303.5528
115.2302,-303.2791
115.5751,-303.0074
115.9177,-302.7327
116.2595,-302.4568
116.6005,-302.1802
116.942,-301.9039
117.2606,-301.6038
117.5561,-301.2787
117.8514,-300.9538
118.1469,-300.6288
118.4525,-300.3138
118.7684,-300.0088
119.0841,-299.7033
119.3998,-299.3983
119.7221,-299.1
120.0532,-298.8117
120.3847,-298.5235
120.7156,-298.2349
121.053,-297.9537
121.3912,-297.6736
121.7299,-297.3941
122.0684,-297.1141
122.3806,-296.8072
122.6744,-296.4806
122.9673,-296.1535
123.2613,-295.8273
123.5693,-295.5145
123.8861,-295.2106
124.2021,-294.9053
124.5185,-294.6011
124.8515,-294.3147
125.1861,-294.0306
125.5221,-293.7474
125.8507,-293.4573
126.126,-293.1154
126.3982,-292.7704
126.6737,-292.4289
126.9515,-292.0889
127.273,-291.7898
127.5919,-291.4878
127.9128,-291.1881
128.2324,-290.8869
128.5236,-290.5582
128.8146,-290.2294
129.105,-289.8998
129.3964,-289.5714
129.7008,-289.2548
130.0091,-288.9422
130.316,-288.628
130.624,-288.315
130.9231,-287.9935
131.2185,-287.6685
131.5142,-287.344
131.8091,-287.0184
132.1235,-286.7122
132.4436,-286.4117
132.7659,-286.1132
133.0859,-285.8126
133.3801,-285.4872
133.6644,-285.1526
133.9508,-284.8195
134.2354,-284.4852
134.5093,-284.142
134.7776,-283.7944
135.0465,-283.4472
135.3153,-283.0998
135.6036,-282.7693
135.9053,-282.45
136.2061,-282.1303
136.5079,-281.8111
136.7967,-281.4807
137.0736,-281.1398
137.3497,-280.7983
137.6265,-280.4575
137.9156,-280.1271
138.2138,-279.8048
138.5113,-279.4816
138.8098,-279.1596
139.1072,-278.8364
139.4073,-278.5158
139.7049,-278.193
140.0056,-277.8727
140.3027,-277.5495
140.5682,-277.2
140.8263,-276.8447
141.0887,-276.4925
141.3472,-276.1374
141.6042,-275.7815
141.8511,-275.4182
142.0995,-275.0562
142.3473,-274.6935
142.5949,-274.3309
142.8519,-273.9747
143.1078,-273.6178
143.3648,-273.2618
143.6209,-272.9049
143.872,-272.5448
144.1207,-272.1827
144.3686,-271.8203
144.6179,-271.4587
144.8745,-271.1026
145.1403,-270.7529
145.4042,-270.4018
145.6695,-270.052
145.9311,-269.6992
146.1856,-269.3415
146.441,-268.984
146.6948,-268.6258
146.9479,-268.2668
147.1921,-267.9018
147.4374,-267.5376
147.6827,-267.1732
147.9264,-266.8081
148.1857,-266.4533
148.4416,-266.0969
148.7049,-265.7448
148.9592,-265.3874
149.1612,-264.9982
149.3508,-264.6015
149.5492,-264.2101
149.7408,-263.8147
149.9279,-263.4174
150.1148,-263.0205
150.2972,-262.62
150.4886,-262.2261
150.7583,-261.8889
151.0871,-261.5943
151.3963,-261.2856
151.7267,-260.9921
152.0355,-260.6833
152.2396,-260.2971
152.4219,-259.8955
152.6199,-259.5051
152.8059,-259.106
152.9778,-258.7031
153.1399,-258.2945
153.3025,-257.8865
153.4674,-257.4798
153.664,-257.0875
153.8776,-256.704
154.0855,-256.3169
154.2985,-255.933
154.5048,-255.5453
154.7124,-255.1583
154.9191,-254.7709
155.1253,-254.383
155.338,-253.999
155.5534,-253.6162
155.7713,-253.235
155.9871,-252.8524
156.201,-252.469
156.4054,-252.0803
156.6095,-251.6913
156.8147,-251.3032
157.0283,-250.9196
157.2559,-250.5441
157.4821,-250.1676
157.709,-249.7917
157.9058,-249.4003
158.0756,-248.9952
158.248,-248.5915
158.4166,-248.1858
158.5692,-247.7747
158.7014,-247.3555
158.8387,-246.9387
158.9714,-246.5199
159.1218,-246.1082
159.3193,-245.7163
159.5183,-245.3245
159.7172,-244.9332
159.9039,-244.5361
160.0569,-244.1248
160.2073,-243.7119
160.3605,-243.3005
160.5193,-242.8912
160.6903,-242.4865
160.86,-242.0817
161.03,-241.6766
161.1992,-241.2715
161.3644,-240.8644
161.5315,-240.4584
161.6965,-240.0514
161.8702,-239.6481
162.0557,-239.2502
162.2415,-238.8522
162.4282,-238.4548
162.6126,-238.0562
162.7998,-237.6588
162.9822,-237.2595
163.1704,-236.8624
163.352,-236.463
163.482,-236.0441
163.5986,-235.6206
163.7215,-235.199
163.8389,-234.7758
163.9624,-234.3544
164.0839,-233.9323
164.2073,-233.5109
164.33,-233.0892
164.4608,-232.6702
164.6054,-232.2554
164.7488,-231.8405
164.8934,-231.4257
165.0433,-231.013
165.2041,-230.6044
165.3657,-230.196
165.5256,-229.7871
165.6606,-229.3704
165.7561,-228.9417
165.8558,-228.5141
165.9508,-228.0852
166.0535,-227.6585
166.197,-227.2436
166.3453,-226.8302
166.4892,-226.4153
166.637,-226.0017
166.7893,-225.5898
166.9444,-225.179
167.0976,-224.7674
167.2512,-224.356
167.4005,-223.943
167.5497,-223.5299
167.6996,-223.1172
167.8466,-222.7033
167.9876,-222.2875
168.1262,-221.8707
168.2677,-221.455
168.4044,-221.0377
168.5361,-220.6187
168.6638,-220.1986
168.7957,-219.7796
168.9232,-219.3595
169.0241,-218.9322
169.1184,-218.5033
169.2162,-218.0752
169.3111,-217.6463
169.4185,-217.2206
169.5316,-216.7962
169.6451,-216.3721
169.759,-215.9479
169.8559,-215.5197
169.9483,-215.0904
170.0387,-214.6606
170.1313,-214.2314
170.2562,-213.8108
170.393,-213.3935
170.5285,-212.9757
170.6649,-212.5583
170.7728,-212.1332
170.8623,-211.7033
170.9521,-211.2735
171.0414,-210.8434
171.1508,-210.4186
171.2778,-209.9981
171.4047,-209.5778
171.5322,-209.1575
171.6552,-208.736
171.7722,-208.3127
171.8865,-207.8887
172.004,-207.4655
172.109,-207.0395
172.1829,-206.6067
172.2531,-206.173
172.3267,-205.7403
172.4003,-205.3072
172.4886,-204.8771
172.5757,-204.4467
172.6631,-204.0162
172.743,-203.5847
172.8016,-203.1493
172.8628,-202.7146
172.9208,-202.2791
172.9923,-201.8465
173.1022,-201.4214
173.2162,-200.9971
173.3264,-200.5722
173.4398,-200.1477
173.5585,-199.7251
173.6793,-199.3028
173.7999,-198.8806
173.9196,-198.4581
173.9978,-198.0272
174.0486,-197.5909
174.1031,-197.1552
174.1535,-196.7189
174.2088,-196.2833
174.2648,-195.8477
174.3245,-195.4126
174.3813,-194.9771
174.4409,-194.5421
174.5152,-194.1092
174.5892,-193.6764
174.6645,-193.2437
174.7326,-192.81
174.7946,-192.3751
174.8538,-191.94
174.9157,-191.5052
174.9702,-191.0697
174.9969,-190.6313
175.0226,-190.1929
175.0483,-189.7545
175.0759,-189.3163
175.1119,-188.8786
175.1498,-188.4411
175.1855,-188.0033
175.2254,-187.5661
175.2991,-187.1332
175.3742,-186.7005
175.4487,-186.2677
175.523,-185.8349
175.5513,-185.3971
175.5708,-184.9583
175.5924,-184.5197
175.6117,-184.0809
175.6511,-183.6438
175.6982,-183.2071
175.7472,-182.7708
175.7948,-182.3341
175.8406,-181.8974
175.8851,-181.4605
175.9297,-181.0236
175.9745,-180.5868
176.0033,-180.1488
176.0188,-179.7099
176.0342,-179.271
176.0494,-178.8322
176.0705,-178.3935
176.102,-177.9555
176.1342,-177.5175
176.1658,-177.0795
176.1956,-176.6414
176.2168,-176.2027
176.2371,-175.7641
176.259,-175.3254
176.2784,-174.8868
176.2968,-174.448
176.312,-174.0091
176.3307,-173.5703
176.3441,-173.1314
176.3368,-172.6924
176.3262,-172.2533
176.3184,-171.8143
176.3084,-171.3752
176.2976,-170.9362
176.2856,-170.4972
176.2738,-170.0582
176.2622,-169.6192
176.2572,-169.18
176.2541,-168.7409
176.2504,-168.3018
176.2474,-167.8626
176.2408,-167.4235
176.2327,-166.9844
176.2237,-166.5454
176.2158,-166.1063
176.2062,-165.6673
176.1976,-165.2281
176.1867,-164.7892
176.1786,-164.35
176.1673,-163.9111
176.1286,-163.4737
176.0854,-163.0366
176.046,-162.5993
176.003,-162.1622
175.9532,-161.726
175.8932,-161.2909
175.8352,-160.8557
175.776,-160.4205
175.7241,-159.9844
175.6771,-159.5478
175.6289,-159.1113
175.5824,-158.6746
175.5506,-158.237
175.541,-157.7979
175.5294,-157.3589
175.5194,-156.9199
175.4661,-156.4871
175.3488,-156.0639
175.2321,-155.6406
175.114,-155.2176
175.0021,-154.7931
174.9177,-154.3622
174.8364,-153.9306
174.7517,-153.4997
174.6706,-153.068
174.6017,-152.6345
174.5389,-152.1997
174.4731,-151.7656
174.4101,-151.3309
174.3387,-150.8978
174.2524,-150.4672
174.1646,-150.0369
174.078,-149.6064
173.9914,-149.1758
173.9057,-148.7451
173.82,-148.3144
173.734,-147.8838
173.646,-147.4535
173.5563,-147.0236
173.4674,-146.5935
173.3775,-146.1637
173.2787,-145.7359
173.1747,-145.3092
173.0721,-144.8822
172.9681,-144.4555
172.854,-144.0316
172.7319,-143.6097
172.611,-143.1875
172.4891,-142.7656
172.372,-142.3423
172.257,-141.9185
172.1421,-141.4947
172.0273,-141.0708
171.9152,-140.6462
171.8199,-140.2175
171.7235,-139.7891
171.6285,-139.3603
171.5282,-138.9329
171.4011,-138.5126
171.2713,-138.093
171.1445,-137.6726
171.0144,-137.2532
170.87,-136.8386
170.7176,-136.4266
170.5692,-136.0134
170.4168,-135.6015
170.2696,-135.1877
170.1195,-134.775
169.9725,-134.3612
169.8209,-133.9491
169.6397,-133.5491
169.4572,-133.1497
169.2752,-132.7499
169.1048,-132.346
168.9755,-131.9262
168.8475,-131.5062
168.718,-131.0865
168.5793,-130.6706
168.3921,-130.2732
168.2057,-129.8756
168.0191,-129.4781
167.8319,-129.0807
167.6916,-128.6649
167.5536,-128.248
167.4185,-127.8301
167.2796,-127.4136
167.0963,-127.0147
166.9091,-126.6173
166.7258,-126.2183
166.5388,-125.8209
166.354,-125.4225
166.166,-125.0256
165.9806,-124.6274
165.7931,-124.2304
165.5924,-123.8401
165.3778,-123.4569
165.1647,-123.073
164.9501,-122.6897
164.7375,-122.3056
164.5443,-121.9111
164.3522,-121.5163
164.1593,-121.1217
163.9668,-120.7271
163.753,-120.3438
163.5274,-119.9671
163.3036,-119.5892
163.0769,-119.213
162.8265,-118.8535
162.555,-118.5077
162.289,-118.1588
162.0171,-117.8134
161.7704,-117.4524
161.5737,-117.0601
161.3816,-116.6648
161.1862,-116.2719
160.9923,-115.8775
160.7993,-115.4833
160.6039,-115.0899
160.4128,-114.6944
160.2152,-114.3025
159.9766,-113.934
159.7298,-113.5706
159.4915,-113.2017
159.245,-112.8383
158.9857,-112.4841
158.7181,-112.1358
158.4553,-111.784
158.1893,-111.4345
157.9405,-111.0727
157.6973,-110.7071
157.4522,-110.3427
157.2102,-109.9762
156.9185,-109.6505
156.6057,-109.343
156.2884,-109.0387
155.9753,-108.7314
155.7403,-108.3672
155.5475,-107.9723
155.3523,-107.5791
155.1589,-107.1848
154.9311,-106.8113
154.6694,-106.4588
154.4071,-106.1065
154.1453,-105.7539
153.8841,-105.401
153.631,-105.0419
153.377,-104.6838
153.1241,-104.3247
152.8575,-103.9765
152.5672,-103.647
152.2762,-103.3181
151.9855,-102.9889
151.6947,-102.6599
151.4018,-102.3327
151.1104,-102.0041
150.817,-101.6773
150.5261,-101.3484
150.2766,-100.9888
150.0481,-100.6137
149.817,-100.2403
149.5881,-99.8656
149.337,-99.506
149.0637,-99.1626
148.7899,-98.819
148.5161,-98.4758
148.2308,-98.142
147.9413,-97.8117
147.6521,-97.4814
147.3629,-97.1506
147.0541,-96.8407
146.7144,-96.5622
146.3729,-96.2861
146.0339,-96.0072
145.7257,-95.6978
145.4538,-95.3528
145.1788,-95.0104
144.9065,-94.666
144.6444,-94.3139
144.3991,-93.9499
144.1539,-93.5852
143.9074,-93.2221
143.6357,-92.8813
143.3003,-92.5972
142.969,-92.3097
142.6332,-92.0257
142.3074,-91.7335
142.0636,-91.3684
141.8228,-91.001
141.5801,-90.6352
141.329,-90.2763
141.0078,-89.9772
140.6844,-89.6794
140.3645,-89.3795
140.0477,-89.075
139.7629,-88.7412
139.4729,-88.4111
139.1879,-88.0771
138.8982,-87.7471
138.5892,-87.4349
138.2774,-87.126
137.9675,-86.8143
137.6539,-86.5077
137.3184,-86.2237
136.9837,-85.9401
136.6477,-85.6568
136.3132,-85.3725
136.012,-85.0544
135.7252,-84.7215
135.4372,-84.3905
135.15,-84.0577
134.8729,-83.7176
134.602,-83.3717
134.3316,-83.0257
134.0604,-82.6805
133.7425,-82.3868
133.3699,-82.1547
132.9982,-81.9202
132.6258,-81.6881
132.272,-81.433
131.9858,-81.1003
131.6992,-80.7675
131.4136,-80.4336
131.1263,-80.1021
130.7644,-79.8556
130.393,-79.6212
130.0251,-79.3815
129.6532,-79.1476
129.3008,-78.8863
128.9495,-78.6222
128.6028,-78.3534
128.2518,-78.0884
127.938,-77.7863
127.6599,-77.4459
127.3844,-77.1045
127.1071,-76.7634
126.7759,-76.484
126.4056,-76.2477
126.0352,-76.0116
125.6654,-75.7754
125.3044,-75.5245
124.948,-75.269
124.5901,-75.0136
124.2337,-74.7576
123.8832,-74.493
123.5402,-74.2185
123.1957,-73.9468
122.8527,-73.6716
122.5045,-73.4059
122.13,-73.1751
121.7547,-72.9484
121.3799,-72.7184
121.0487,-72.4433
120.7913,-72.0874
120.5352,-71.7301
120.2771,-71.3759
119.9621,-71.0851
119.5732,-70.8811
119.1876,-70.671
118.7989,-70.4664
118.4246,-70.2382
118.0634,-69.9882
117.7023,-69.7388
117.3427,-69.486
116.9995,-69.2159
116.6929,-68.8995
116.3797,-68.5935
116.0742,-68.2763
115.7567,-67.9752
115.3816,-67.7487
114.9993,-67.5301
114.6229,-67.3061
114.2424,-67.0848
113.8645,-66.8627
113.4866,-66.6382
113.1071,-66.4172
112.7303,-66.1922
112.3789,-65.93
112.0415,-65.6499
111.7022,-65.3696
111.3634,-65.092
110.9929,-64.858
110.6051,-64.6521
110.2219,-64.4384
109.833,-64.2325
109.4483,-64.0231
109.0569,-63.8211
108.6694,-63.617
108.28,-63.4119
107.9035,-63.1904
107.5632,-62.9117
107.2179,-62.6407
106.8789,-62.3619
106.5325,-62.0908
106.164,-61.8547
105.7921,-61.6181
105.4203,-61.387
105.0526,-61.1452
104.6838,-60.9073
104.3282,-60.6501
103.9557,-60.4142
103.6038,-60.1557
103.3156,-59.8245
103.1225,-59.4398
103.0026,-59.0182
102.7085,-58.8396
102.2658,-58.8364
101.8275,-58.8364
101.3927,-58.8277
101.0244,-58.5963
100.6653,-58.3366
100.2948,-58.106
99.9364,-57.8479
99.5697,-57.6092
99.2122,-57.3518
98.8491,-57.1063
98.4878,-56.8557
98.1093,-56.6341
97.7248,-56.421
97.3477,-56.1965
96.962,-55.9858
96.5745,-55.781
96.1723,-55.6034
95.7751,-55.4159
95.3757,-55.2346
94.9756,-55.0513
94.5787,-54.8659
94.1768,-54.6861
93.7809,-54.4982
93.379,-54.3196
92.9821,-54.1318
92.582,-53.9519
92.1828,-53.7665
91.785,-53.5834
91.3839,-53.4015
90.9875,-53.2151
90.5856,-53.0361
90.1892,-52.8473
89.7929,-52.6607
89.4156,-52.4322
89.0245,-52.2465
88.5941,-52.1535
88.1643,-52.0705
87.7334,-51.9788
87.3232,-51.8291
86.9164,-51.6613
86.5083,-51.499
86.1031,-51.3317
85.6849,-51.1931
85.2693,-51.0581
84.8477,-50.9272
84.4318,-50.7926
84.0208,-50.6352
83.6156,-50.4667
83.2101,-50.2996
82.8025,-50.1322
82.3993,-49.9639
81.9901,-49.7976
81.5874,-49.6285
81.1787,-49.4625
80.7745,-49.2937
80.3683,-49.1267
79.961,-48.9595
79.558,-48.7907
79.1461,-48.6297
78.7431,-48.4643
78.3296,-48.3061
77.9263,-48.1396
77.5446,-47.9223
77.1698,-47.6923
76.7874,-47.4804
76.4019,-47.2631
76.0277,-47.0422
75.6527,-46.8045
75.29,-46.5652
74.9149,-46.3294
74.5504,-46.0888
74.1489,-45.9094
73.8811,-45.6592
73.9665,-45.2294
73.9731,-44.8157
73.6936,-44.4852
73.391,-44.157
73.2199,-43.775
73.1344,-43.3452
72.9567,-42.9499
72.8267,-42.5464
72.8496,-42.1036
72.852,-41.6676
72.8141,-41.2289
72.7621,-40.7933
72.7158,-40.357
72.7834,-39.9339
72.9367,-39.5244
73.0927,-39.1113
73.2451,-38.702
73.3407,-38.2726
73.419,-37.8415
73.5002,-37.4099
73.5789,-36.9769
73.7146,-36.5623
73.8689,-36.1492
74.0262,-35.7412
74.1803,-35.3282
74.3122,-34.9109
74.4328,-34.4882
74.555,-34.0658
74.6775,-33.6456
74.7997,-33.2215
74.9366,-32.8069
75.0637,-32.3838
75.2038,-31.9697
75.3912,-31.5729
75.5986,-31.1841
75.7888,-30.7913
75.9947,-30.3986
76.1879,-30.0103
76.3895,-29.6128
76.588,-29.2294
76.5391,-28.7843
76.5817,-28.4261
77.0054,-28.3301
77.4457,-28.2612
77.7752,-28.1863
78.2966,-28.1863
78.818,-28.1863
79.3394,-28.1863
79.8608,-28.1863
80.3822,-28.1863
80.9036,-28.1863
80.9036,-28.1863
81.2893,-28.0637
81.6123,-27.7742
81.987,-27.5517
82.3962,-27.3917
82.7954,-27.2132
83.2088,-27.0534
83.5439,-26.8144
83.7258,-26.4187
83.886,-26.0061
84.0673,-25.6089
84.2298,-25.1984
84.3647,-24.785
84.4566,-24.3531
84.5527,-23.9263
84.6498,-23.4971
84.7405,-23.0675
84.8405,-22.6404
84.9295,-22.2093
85.0307,-21.7833
85.123,-21.3522
85.147,-20.917
85.1576,-20.476
85.1654,-20.0383
85.1129,-19.6026
85.0452,-19.1679
84.9895,-18.7336
84.9218,-18.2979
84.821,-17.8729
84.7092,-17.4464
84.5997,-17.0222
84.4932,-16.5961
84.4498,-16.1596
84.4278,-15.7215
84.4042,-15.2821
84.4046,-14.844
84.388,-14.4036
84.4126,-13.9684
84.5353,-13.5482
84.6753,-13.1306
84.8145,-12.7159
84.9968,-12.3152
85.175,-11.9144
85.3525,-11.5126
85.5355,-11.113
85.7167,-10.7139
85.9042,-10.3157
86.0453,-9.9008
86.2042,-9.4895
86.3392,-9.0748
86.3191,-8.6373
86.2531,-8.2019
86.2044,-7.7659
86.1349,-7.3322
86.0894,-6.8948
86.0207,-6.4622
85.861,-6.0544
85.6901,-5.6486
85.5262,-5.2425
85.3599,-4.8344
85.1254,-4.4909
84.7412,-4.2816
84.3466,-4.0828
83.9654,-3.8712
83.5469,-3.7248
83.14,-3.5724
82.7183,-3.4352
82.3095,-3.2842
81.9542,-3.0271
81.6089,-2.7555
81.2602,-2.4892
80.9116,-2.221
80.543,-1.9847
80.1654,-1.7585
79.7931,-1.5274
79.4155,-1.3013
79.0075,-1.1823
78.5682,-1.1554
78.1488,-1.0477
77.7432,-0.87741
77.3351,-0.71747
76.9306,-0.54303
76.5221,-0.38661
76.1172,-0.20964
75.7098,-0.054507
