67.1962,-353.6568
67.6059,-353.4993
68.0172,-353.345
68.4261,-353.186
68.8407,-353.0404
69.2577,-352.9051
69.6784,-352.7769
70.0955,-352.6421
70.4639,-352.4223
70.7886,-352.1261
71.1151,-351.8328
71.4404,-351.5379
71.7664,-351.2436
72.1285,-351.0033
72.5228,-350.81
72.9176,-350.6178
73.3114,-350.4239
73.7066,-350.2322
74.1002,-350.0381
74.4954,-349.8463
74.8893,-349.6527
75.2838,-349.4599
75.6787,-349.2678
76.0721,-349.0732
76.4681,-348.8828
76.8502,-348.6694
77.2097,-348.4177
77.5658,-348.1605
77.9245,-347.9077
78.2816,-347.652
78.6394,-347.3976
78.9973,-347.1432
79.3546,-346.8881
79.7125,-346.6339
80.0701,-346.379
80.4277,-346.1243
80.7856,-345.8699
81.143,-345.6149
81.5008,-345.3604
81.8585,-345.1058
82.216,-344.8509
82.5739,-344.5966
82.9313,-344.3416
83.2891,-344.0871
83.6469,-343.8325
84.0043,-343.5776
84.3623,-343.3233
84.7196,-343.0683
85.0775,-342.8139
85.4352,-342.5592
85.7926,-342.3043
86.1507,-342.0501
86.5079,-341.7949
86.8658,-341.5406
87.2235,-341.2859
87.5809,-341.031
87.939,-340.7768
88.2962,-340.5216
88.6542,-340.2674
89.0118,-340.0125
89.3693,-339.7578
89.7274,-339.5036
90.0844,-339.2481
90.4428,-338.9945
90.8005,-338.7398
91.1599,-338.4879
91.5176,-338.2327
91.8772,-337.9813
92.2589,-337.7651
92.647,-337.5595
93.0325,-337.3498
93.4204,-337.1436
93.7838,-336.9004
94.1285,-336.6282
94.4733,-336.3567
94.8169,-336.0831
95.1692,-335.8215
95.5281,-335.5687
95.8884,-335.3176
96.2484,-335.0664
96.6072,-334.8132
96.968,-334.5631
97.3263,-334.3093
97.6865,-334.0582
98.0381,-333.7958
98.3764,-333.5156
98.7191,-333.2417
99.0554,-332.9586
99.4019,-332.6901
99.7809,-332.4695
100.1655,-332.2568
100.547,-332.0398
100.9286,-331.8228
101.3022,-331.5919
101.6705,-331.3532
102.0446,-331.123
102.4116,-330.8824
102.7501,-330.6035
103.085,-330.319
103.4225,-330.0385
103.7579,-329.7551
104.1111,-329.4939
104.4625,-329.2312
104.8169,-328.9714
105.1684,-328.709
105.4791,-328.3994
105.783,-328.083
106.0847,-327.7633
106.391,-327.4496
106.7534,-327.2059
107.1328,-326.983
107.5054,-326.7524
107.883,-326.5271
108.2403,-326.2728
108.5927,-326.0107
108.9488,-325.7537
109.2993,-325.4897
109.6521,-325.2278
109.9981,-324.958
110.3481,-324.6925
110.696,-324.425
111.0057,-324.1164
111.2937,-323.7854
111.5807,-323.4528
111.8683,-323.1212
112.19,-322.8266
112.5446,-322.5677
112.9001,-322.31
113.2551,-322.0516
113.5873,-321.7676
113.8866,-321.4467
114.1836,-321.1229
114.4834,-320.8025
114.8033,-320.5039
115.1524,-320.2376
115.5009,-319.9705
115.8489,-319.7029
116.1901,-319.4271
116.5136,-319.1302
116.8377,-318.834
117.1624,-318.5385
117.4834,-318.2389
117.8007,-317.9355
118.1139,-317.6277
118.4311,-317.3241
118.7452,-317.0174
119.0536,-316.7048
119.3604,-316.391
119.6658,-316.0753
119.9734,-315.7621
120.2748,-315.4429
120.5678,-315.1158
120.8611,-314.7893
121.1522,-314.4603
121.4519,-314.14
121.7721,-313.8399
122.097,-313.5442
122.4182,-313.2452
122.7372,-312.9434
123.0446,-312.6301
123.3495,-312.3141
123.6585,-312.0021
123.9591,-311.6823
124.253,-311.356
124.5429,-311.0264
124.8353,-310.6988
125.1254,-310.3693
125.4002,-310.0268
125.6763,-309.6854
125.9511,-309.343
126.2306,-309.0046
126.534,-308.6872
126.8353,-308.368
127.1398,-308.0514
127.4379,-307.7297
127.6978,-307.3757
127.9563,-307.0209
128.2141,-306.6653
128.4747,-306.3122
128.7808,-305.9991
129.1012,-305.6983
129.4167,-305.3934
129.7357,-305.0914
130.0386,-304.774
130.3322,-304.4476
130.6287,-304.1236
130.921,-303.7962
131.1946,-303.4534
131.4537,-303.0988
131.7154,-302.7464
131.9761,-302.3931
132.243,-302.0445
132.5183,-301.7025
132.7915,-301.3587
133.0667,-301.0167
133.3351,-300.6692
133.5953,-300.3156
133.8547,-299.9614
134.1147,-299.6076
134.3925,-299.2682
134.6844,-298.9401
134.976,-298.612
135.2673,-298.2835
135.5505,-297.9481
135.8265,-297.6066
136.1051,-297.2672
136.3808,-296.9256
136.6414,-296.5726
136.8913,-296.2116
137.1409,-295.8503
137.3924,-295.4904
137.6559,-295.1395
137.9287,-294.7954
138.1984,-294.449
138.47,-294.104
138.7417,-293.7591
139.0123,-293.4134
139.2853,-293.0694
139.5558,-292.7236
139.8231,-292.3753
140.0847,-292.0227
140.345,-291.6692
140.6079,-291.3175
140.8621,-290.9596
141.1083,-290.5961
141.3532,-290.2317
141.5979,-289.8671
141.8529,-289.51
142.1203,-289.1618
142.39,-288.8152
142.6583,-288.4677
142.9181,-288.1141
143.1647,-287.7508
143.409,-287.386
143.6554,-287.0226
143.9045,-286.661
144.1632,-286.3064
144.4244,-285.9534
144.6822,-285.5981
144.9294,-285.2357
145.1574,-284.8604
145.3849,-284.4849
145.6155,-284.1113
145.8449,-283.7368
146.084,-283.3687
146.3174,-282.9966
146.5548,-282.6275
146.8237,-282.2809
147.1014,-281.9413
147.3823,-281.6033
147.6595,-281.2631
147.8894,-280.8924
148.0848,-280.4991
148.2784,-280.105
148.4761,-279.7131
148.7043,-279.3394
148.9578,-278.9807
149.2074,-278.6196
149.4588,-278.2596
149.6994,-277.8926
149.9216,-277.514
150.146,-277.1366
150.369,-276.7584
150.5931,-276.3808
150.822,-276.006
151.0466,-275.6289
151.2763,-275.2546
151.4979,-274.8758
151.698,-274.485
151.8967,-274.0935
152.0949,-273.7017
152.2949,-273.3108
152.5082,-272.9271
152.7238,-272.5446
152.939,-272.1619
153.1535,-271.7788
153.3561,-271.3895
153.5512,-270.9961
153.7458,-270.6025
153.9426,-270.2101
154.1519,-269.8242
154.3673,-269.4415
154.5774,-269.056
154.7937,-268.6739
155.018,-268.2965
155.2422,-267.919
155.4687,-267.5427
155.6878,-267.1625
155.891,-266.7734
156.0903,-266.3821
156.2926,-265.9925
156.4931,-265.6017
156.6887,-265.2087
156.8837,-264.8153
157.0794,-264.4223
157.2737,-264.0286
157.4661,-263.6339
157.6569,-263.2385
157.8491,-262.8437
158.0405,-262.4485
158.2281,-262.0516
158.4153,-261.6544
158.6025,-261.2573
158.7891,-260.8599
158.969,-260.4594
159.1424,-260.056
159.318,-259.6536
159.492,-259.2505
159.6704,-258.8493
159.8556,-258.4512
160.0374,-258.0516
160.2235,-257.6538
160.3978,-257.2512
160.5473,-256.8384
160.6973,-256.4259
160.8439,-256.0118
160.9964,-255.6002
161.1875,-255.2058
161.393,-254.8174
161.5941,-254.4273
161.7964,-254.0376
161.9803,-253.6391
162.1525,-253.2352
162.3309,-252.834
162.5037,-252.4304
162.6647,-252.0221
162.8162,-251.61
162.966,-251.1973
163.1189,-250.7857
163.2753,-250.3756
163.4438,-249.9701
163.6141,-249.5654
163.78,-249.1589
163.9559,-248.7566
164.1393,-248.3579
164.3266,-247.9607
164.5133,-247.5632
164.6833,-247.159
164.8335,-246.7465
164.9765,-246.3313
165.1258,-245.9185
165.2704,-245.5038
165.4049,-245.0859
165.5424,-244.669
165.6749,-244.2503
165.8141,-243.834
165.9718,-243.4242
166.1293,-243.0145
166.2906,-242.6059
166.4407,-242.1937
166.5587,-241.771
166.6705,-241.3462
166.7857,-240.9226
166.91,-240.5018
167.058,-240.0886
167.2116,-239.6771
167.3596,-239.2639
167.5101,-238.8514
167.656,-238.4372
167.7988,-238.0221
167.9472,-237.6088
168.0787,-237.1903
168.185,-236.7644
168.2893,-236.3379
168.3917,-235.9108
168.5056,-235.4872
168.6512,-235.0732
168.8036,-234.6613
168.9517,-234.248
169.0956,-233.8334
169.2167,-233.4114
169.3313,-232.9875
169.4537,-232.5659
169.5606,-232.1401
169.6539,-231.7112
169.7461,-231.2819
169.8359,-230.852
169.9449,-230.4274
170.0795,-230.0095
170.219,-229.5931
170.3557,-229.1759
170.4748,-228.7539
170.5709,-228.3256
170.664,-227.8963
170.7599,-227.468
170.8533,-227.0389
170.9431,-226.6092
171.0344,-226.1797
171.1239,-225.7498
171.2141,-225.3202
171.3142,-224.8926
171.4105,-224.4644
171.5137,-224.0374
171.608,-223.6088
171.6521,-223.1723
171.6898,-222.7347
171.7308,-222.2975
171.7723,-221.8606
171.8724,-221.4344
171.9948,-221.0123
172.1092,-220.5888
172.2312,-220.1666
172.3085,-219.7366
172.344,-219.299
172.3782,-218.8614
172.4121,-218.4235
172.4512,-217.9863
172.493,-217.5492
172.5349,-217.1121
172.5776,-216.6752
172.6413,-216.2416
172.7366,-215.8129
172.8311,-215.3842
172.9253,-214.9554
173.0086,-214.5246
173.0609,-214.0887
173.1143,-213.6529
173.1683,-213.2172
173.2195,-212.7811
173.278,-212.3459
173.3291,-211.9099
173.3883,-211.4747
173.4402,-211.0389
173.455,-210.6003
173.4635,-210.1614
173.47,-209.7222
173.4817,-209.2835
173.5285,-208.8471
173.5833,-208.4112
173.6326,-207.9752
173.683,-207.5389
173.7163,-207.1012
173.7454,-206.6631
173.7805,-206.2254
173.8078,-205.7872
173.8326,-205.3488
173.8553,-204.9104
173.8773,-204.4718
173.9022,-204.0335
173.9259,-203.5951
173.9542,-203.1569
173.9802,-202.7187
174.0062,-202.2803
174.0426,-201.8427
174.0781,-201.4053
174.1175,-200.9678
174.1541,-200.5304
174.1665,-200.0918
174.1669,-199.6528
174.1645,-199.2137
174.1653,-198.7747
174.1863,-198.3366
174.2229,-197.899
174.2606,-197.4615
174.2958,-197.024
174.3261,-196.5859
174.3468,-196.1474
174.3667,-195.7088
174.3901,-195.2703
174.4027,-194.8316
174.4016,-194.3925
174.3955,-193.9535
174.3915,-193.5144
174.3893,-193.0755
174.3925,-192.6364
174.4039,-192.1974
174.4069,-191.7584
174.416,-191.3194
174.4476,-190.8815
174.4807,-190.444
174.5221,-190.0064
174.5523,-189.5689
174.5335,-189.1311
174.4966,-188.6933
174.4631,-188.2557
174.4321,-187.8177
174.4231,-187.379
174.4264,-186.9397
174.4196,-186.5008
174.4197,-186.0617
174.436,-185.6229
174.4516,-185.1845
174.4757,-184.7455
174.4889,-184.3071
174.4555,-183.8697
174.4123,-183.4325
174.3724,-182.9954
174.3338,-182.558
174.3287,-182.1193
174.3307,-181.6799
174.3264,-181.241
174.3266,-180.802
174.3065,-180.3633
174.2812,-179.9251
174.258,-179.4866
174.2326,-179.0483
174.232,-178.6095
174.2402,-178.1703
174.2459,-177.7315
174.2554,-177.2923
174.2328,-176.8551
174.1758,-176.4199
174.1163,-175.9847
174.0582,-175.5497
173.9994,-175.1145
173.9407,-174.6794
173.8816,-174.2443
173.823,-173.8091
173.7719,-173.3733
173.7351,-172.9357
173.6997,-172.4981
173.6617,-172.0607
173.626,-171.623
173.5855,-171.186
173.5475,-170.7484
173.5091,-170.3111
173.4653,-169.8742
173.4224,-169.4372
173.3733,-169.0011
173.3303,-168.5638
173.273,-168.1292
173.1751,-167.701
173.0803,-167.2727
172.9787,-166.845
172.8863,-166.4162
172.8653,-165.9785
172.8565,-165.539
172.8418,-165.1005
172.8294,-164.6615
172.7628,-164.2283
172.682,-163.7966
172.6066,-163.3642
172.5252,-162.9326
172.4785,-162.4963
172.4391,-162.0592
172.404,-161.6214
172.3654,-161.1842
172.2636,-160.759
172.1373,-160.3386
172.0091,-159.9184
171.8861,-159.4973
171.8272,-159.0633
171.789,-158.6252
171.737,-158.19
171.6984,-157.7518
171.6189,-157.3224
171.4872,-156.9036
171.3549,-156.4851
171.2182,-156.0676
171.106,-155.6444
171.0456,-155.21
170.9906,-154.7741
170.9349,-154.3386
170.8745,-153.904
170.7716,-153.4774
170.6556,-153.0537
170.551,-152.6274
170.4383,-152.2029
170.3254,-151.7787
170.2147,-151.3538
170.0975,-150.9306
169.988,-150.5054
169.8917,-150.0771
169.7979,-149.6483
169.7082,-149.2181
169.6057,-148.7919
169.4605,-148.3779
169.3031,-147.9676
169.1551,-147.5545
169.0024,-147.1427
168.8669,-146.7253
168.7409,-146.3046
168.6084,-145.886
168.4817,-145.4656
168.3408,-145.0498
168.1905,-144.6374
168.0442,-144.2233
167.8921,-143.8114
167.7518,-143.3955
167.6242,-142.9754
167.497,-142.5553
167.3724,-142.1341
167.2432,-141.7146
167.1089,-141.2966
166.9712,-140.8796
166.8347,-140.4625
166.6989,-140.0447
166.5538,-139.6305
166.4065,-139.2169
166.2623,-138.802
166.1113,-138.39
165.9334,-137.9892
165.7341,-137.5977
165.5445,-137.2018
165.3491,-136.8086
165.1399,-136.4224
164.9354,-136.0344
164.7197,-135.6512
164.5174,-135.2621
164.3664,-134.851
164.2315,-134.4328
164.0929,-134.0162
163.9526,-133.6004
163.7832,-133.196
163.592,-132.8006
163.407,-132.4025
163.2189,-132.0057
163.0334,-131.6079
162.8562,-131.206
162.673,-130.8071
162.4958,-130.4053
162.3084,-130.0085
162.0911,-129.6271
161.8744,-129.2452
161.6557,-128.8644
161.4391,-128.4826
161.2511,-128.0862
161.0713,-127.6857
160.8933,-127.2842
160.7134,-126.8838
160.5102,-126.4951
160.2964,-126.1116
160.0788,-125.7302
159.8664,-125.3459
159.6826,-124.948
159.5136,-124.5427
159.3445,-124.1373
159.1714,-123.7343
158.9752,-123.3415
158.7651,-122.9559
158.5645,-122.5653
158.3569,-122.1784
158.116,-121.8132
157.8507,-121.4635
157.582,-121.1159
157.3176,-120.7658
157.0766,-120.4004
156.8716,-120.0124
156.6697,-119.6222
156.4622,-119.2355
156.2713,-118.8399
156.0823,-118.4437
155.8944,-118.0471
155.7096,-117.6484
155.495,-117.2671
155.25,-116.9032
154.997,-116.5439
154.7489,-116.1819
154.5069,-115.8156
154.269,-115.4466
154.0389,-115.0727
153.7999,-114.7041
153.5702,-114.3303
153.3714,-113.9386
153.1715,-113.5482
152.9772,-113.1538
152.7727,-112.7659
152.5202,-112.4073
152.2589,-112.0538
152.0042,-111.6967
151.7452,-111.3417
151.4735,-110.9979
151.1796,-110.6714
150.8896,-110.342
150.5934,-110.0174
150.3114,-109.6822
150.0879,-109.3051
149.8732,-108.9214
149.6523,-108.5423
149.4265,-108.1664
149.163,-107.8152
148.8941,-107.4679
148.6322,-107.1158
148.3638,-106.7679
148.102,-106.4157
147.8395,-106.0636
147.5745,-105.7135
147.3141,-105.3602
147.0632,-104.9999
146.8224,-104.633
146.5802,-104.2664
146.337,-103.9012
146.0818,-103.5443
145.8093,-103.1998
145.5378,-102.8551
145.2681,-102.5083
144.9896,-102.1692
144.6945,-101.8445
144.392,-101.5257
144.0954,-101.2025
143.7966,-100.8805
143.5019,-100.5551
143.2127,-100.2249
142.9154,-99.9013
142.6298,-99.5685
142.3675,-99.2164
142.1085,-98.8619
141.8504,-98.5065
141.5847,-98.1573
141.2929,-97.8299
140.9928,-97.5086
140.6998,-97.1822
140.4024,-96.8589
140.1058,-96.5351
139.8115,-96.2096
139.5125,-95.8875
139.2194,-95.5612
138.939,-95.2233
138.6654,-94.8797
138.389,-94.5389
138.1138,-94.1964
137.8509,-93.8452
137.5914,-93.4909
137.3333,-93.1356
137.0736,-92.7819
136.7923,-92.4452
136.4963,-92.1212
136.2031,-91.7941
135.9067,-91.4702
135.5977,-91.1587
135.2822,-90.853
134.9691,-90.5456
134.6548,-90.2388
134.341,-89.9317
134.0294,-89.6227
133.7144,-89.3162
133.4037,-89.0065
133.103,-88.6865
132.8071,-88.362
132.5078,-88.041
132.2107,-87.7174
131.9268,-87.3827
131.6425,-87.0482
131.3607,-86.7111
131.075,-86.3784
130.7468,-86.0893
130.3976,-85.8229
130.0533,-85.5506
129.705,-85.2829
129.3789,-84.991
129.0755,-84.6733
128.7715,-84.3569
128.4694,-84.0379
128.1609,-83.7257
127.8436,-83.4226
127.5245,-83.1205
127.2061,-82.8187
126.8846,-82.5194
126.5554,-82.2289
126.228,-81.9366
125.899,-81.6454
125.571,-81.3541
125.2594,-81.0446
124.9513,-80.732
124.6443,-80.4181
124.3362,-80.105
124.0124,-79.8094
123.6821,-79.5196
123.3515,-79.2309
123.0215,-78.9413
122.688,-78.6556
122.3476,-78.3786
122.0092,-78.0986
121.6674,-77.823
121.3374,-77.5345
121.0339,-77.2172
120.7361,-76.8947
120.4331,-76.5767
120.1082,-76.2839
119.7598,-76.0164
119.4122,-75.7479
119.0653,-75.4795
118.7226,-75.2044
118.3866,-74.9222
118.0481,-74.6424
117.7118,-74.36
117.3866,-74.066
117.0728,-73.7582
116.7593,-73.4514
116.4449,-73.1447
116.1187,-72.852
115.7671,-72.5894
115.4154,-72.3258
115.0648,-72.0622
114.7173,-71.7939
114.3895,-71.5016
114.0587,-71.2136
113.7307,-70.9208
113.4004,-70.6324
113.037,-70.3868
112.6658,-70.1523
112.296,-69.9161
111.9241,-69.682
111.5616,-69.4351
111.1991,-69.187
110.8421,-68.9312
110.4795,-68.6843
110.0869,-68.4926
109.6791,-68.3308
109.2709,-68.1667
108.866,-68.0005
108.4951,-67.7771
108.1725,-67.4788
107.8461,-67.1855
107.5197,-66.892
107.2486,-66.5491
107.0037,-66.1892
106.7738,-65.8092
106.5267,-65.4522
106.1717,-65.2237
105.7588,-65.0656
105.3559,-64.8965
104.9475,-64.7317
104.5438,-64.561
104.1428,-64.3814
103.7427,-64.2011
103.3392,-64.0268
102.9566,-63.8196
102.6396,-63.52
102.3331,-63.2014
102.0176,-62.8991
101.6965,-62.601
101.3195,-62.3766
100.9362,-62.1615
100.5637,-61.9297
100.1528,-61.7859
99.7269,-61.695
99.2927,-61.6169
98.8616,-61.5338
98.4509,-61.3925
98.0499,-61.2103
97.6568,-61.0179
97.2566,-60.8344
96.8894,-60.6044
96.5746,-60.2979
96.2571,-59.995
95.9444,-59.6869
95.6265,-59.3834
95.2664,-59.1375
94.8899,-58.9101
94.5134,-58.6846
94.1382,-58.4572
93.7635,-58.2271
93.3891,-57.9992
93.0164,-57.7659
92.6406,-57.5394
92.2697,-57.3048
91.8961,-57.0731
91.5241,-56.8412
91.1522,-56.6066
90.7559,-56.4186
90.3574,-56.2354
89.958,-56.0516
89.5578,-55.8723
89.1841,-55.6411
88.8109,-55.4104
88.44,-55.1761
88.0692,-54.9392
87.6681,-54.7649
87.2634,-54.5962
86.8508,-54.4423
86.4447,-54.2794
86.1019,-54.0158
85.7529,-53.7932
85.3247,-53.7238
84.8777,-53.6998
84.4526,-53.6259
84.0393,-53.4787
83.6445,-53.2856
83.2425,-53.1109
82.8393,-52.9335
82.4685,-52.7025
82.0992,-52.464
81.736,-52.2181
81.3726,-51.9716
80.9919,-51.7501
80.6322,-51.5022
80.2456,-51.2845
79.8863,-51.0409
79.6491,-50.6727
79.4321,-50.2965
79.2143,-49.9078
78.9401,-49.5938
78.5371,-49.4308
78.1228,-49.2702
77.7124,-49.127
77.3819,-48.8532
77.1196,-48.5303
76.6941,-48.5162
76.3271,-48.4066
76.1989,-47.975
76.0393,-47.5741
75.8533,-47.1754
75.7075,-46.7568
75.4968,-46.3734
75.3461,-45.9593
75.3946,-45.5481
75.5329,-45.1237
75.638,-44.6953
75.709,-44.2719
75.7575,-43.8261
75.7954,-43.3952
75.8472,-42.9574
75.9295,-42.5255
76.0603,-42.113
76.1962,-41.6874
76.3203,-41.2726
76.462,-40.8544
76.601,-40.4361
76.747,-40.0274
76.8936,-39.6068
77.0321,-39.1956
77.1808,-38.7801
77.3148,-38.3605
77.4614,-37.9509
77.6001,-37.5289
77.6794,-37.1022
77.7498,-36.6676
77.817,-36.2316
77.886,-35.8024
77.9755,-35.368
78.0763,-34.9444
78.1887,-34.519
78.288,-34.0889
78.4211,-33.6764
78.5992,-33.2702
78.7738,-32.8714
78.9609,-32.4724
79.1163,-32.061
79.2303,-31.6424
79.3276,-31.2091
79.4306,-30.7838
79.5441,-30.3643
79.539,-29.9089
79.5903,-29.5036
79.9313,-29.2424
80.3261,-29.0292
80.6945,-28.8161
81.1126,-28.6457
81.498,-28.4513
81.8905,-28.2476
82.307,-28.1123
82.7247,-28.0201
83.1767,-27.9781
83.5939,-27.8868
83.9242,-27.6169
84.2203,-27.2867
84.5231,-26.9741
84.8286,-26.654
85.1503,-26.3604
85.4876,-26.0756
85.8186,-25.7886
86.1512,-25.5028
86.4596,-25.1892
86.7475,-24.8602
86.9966,-24.5
87.138,-24.086
87.2443,-23.659
87.3615,-23.2362
87.4478,-22.8062
87.5166,-22.3724
87.58,-21.9384
87.6413,-21.5033
87.6588,-21.0666
87.6378,-20.6275
87.6196,-20.1889
87.5778,-19.7523
87.5455,-19.3134
87.4932,-18.8797
87.3762,-18.4556
87.2617,-18.0321
87.1461,-17.6089
87.0334,-17.1837
86.9349,-16.7568
86.8274,-16.3304
86.7277,-15.9028
86.6371,-15.4745
86.5823,-15.0382
86.5629,-14.6
86.5556,-14.1627
86.5675,-13.7214
86.607,-13.2898
86.7133,-12.8627
86.8279,-12.4369
86.9235,-12.0126
87.0533,-11.5874
87.1806,-11.1726
87.3217,-10.7545
87.4514,-10.3331
87.5564,-9.9123
87.6893,-9.4856
87.7824,-9.0638
87.8593,-8.6286
87.9136,-8.1917
87.9085,-7.7582
87.9221,-7.3113
87.9045,-6.8801
87.8764,-6.4382
87.8239,-6.0017
87.6774,-5.5938
87.5563,-5.1617
87.3851,-4.7703
87.0902,-4.4488
86.7916,-4.1315
86.5563,-3.7567
86.3317,-3.3816
85.9322,-3.2142
85.5639,-3.0609
85.3963,-2.701
85.0848,-2.4118
84.6807,-2.1984
84.3501,-1.922
84.0032,-1.6491
83.6905,-1.3414
83.3719,-1.0395
83.0489,-0.74104
82.7323,-0.43954
82.339,-0.24322
81.9348,-0.079529
81.5153,-0.0047949
