89.4701,-55.338
88.7703,-54.8893
88.0729,-54.4386
87.3786,-53.9866
86.6863,-53.5338
85.9941,-53.0804
85.3007,-52.6288
84.6039,-52.1819
83.9035,-51.7402
83.2013,-51.3008
82.4993,-50.8605
81.7976,-50.4191
81.0947,-49.9798
80.3885,-49.546
79.6795,-49.1168
78.9733,-48.6837
78.2786,-48.2339
77.6056,-47.7555
76.9676,-47.238
76.384,-46.672
75.8836,-46.0505
75.5006,-45.3719
75.2689,-44.6451
75.2052,-43.8865
75.3009,-43.1165
75.5269,-42.3526
75.8466,-41.6054
76.2306,-40.8805
76.6636,-40.1808
77.1356,-39.5057
77.6341,-38.8479
78.1425,-38.1968
78.646,-37.5428
79.1373,-36.8821
79.6124,-36.2133
80.0614,-35.5307
80.4713,-34.8257
80.8394,-34.0949
81.1797,-33.3455
81.5102,-32.588
81.8393,-31.8288
82.1623,-31.0679
82.466,-30.3005
82.7393,-29.5218
82.9802,-28.7313
83.1971,-27.9322
83.4,-27.1285
83.5987,-26.3234
83.8014,-25.5193
84.0122,-24.7176
84.2283,-23.9181
84.4295,-23.1234
84.578,-22.3407
84.6204,-21.5871
84.5069,-20.884
84.2271,-20.2381
83.8292,-19.6302
83.4125,-19.021
83.0874,-18.377
82.9354,-17.6965
82.9997,-17.0185
83.2876,-16.4031
83.7714,-15.8873
84.3877,-15.4558
85.0503,-15.0484
85.6787,-14.595
86.2092,-14.0534
86.5968,-13.4178
86.8251,-12.7075
86.9046,-11.9518
86.8618,-11.1777
86.7316,-10.4003
86.544,-9.6246
86.3149,-8.8523
86.0486,-8.0848
85.7514,-7.3219
85.433,-6.5641
85.0893,-5.8171
84.7072,-5.0909
84.2759,-4.3966
