76.5174,-313.863
76.8846,-313.7124
77.2526,-313.5636
77.6198,-313.4134
77.9829,-313.2533
78.3422,-313.0849
78.7005,-312.9143
79.0602,-312.7464
79.4226,-312.5848
79.7862,-312.4258
80.1493,-312.2657
80.5126,-312.1059
80.876,-311.9464
81.2392,-311.7863
81.6025,-311.6268
81.9658,-311.467
82.329,-311.307
82.6924,-311.1476
83.0556,-310.9876
83.4189,-310.8278
83.7823,-310.6684
84.1454,-310.5081
84.5088,-310.3486
84.8722,-310.1891
85.2351,-310.0285
85.5988,-309.8697
85.962,-309.7097
86.3247,-309.5486
86.6896,-309.3922
87.0457,-309.219
87.3815,-309.0083
87.7106,-308.7858
88.0452,-308.5727
88.3767,-308.3545
88.6997,-308.1241
89.0174,-307.8867
89.3328,-307.6455
89.6498,-307.4067
89.9667,-307.168
90.2823,-306.9272
90.5997,-306.6891
90.916,-306.4493
91.2321,-306.2092
91.554,-305.9773
91.8787,-305.7492
92.2043,-305.5222
92.5303,-305.2959
92.8549,-305.0675
93.1809,-304.8412
93.5065,-304.6144
93.831,-304.3859
94.1578,-304.1606
94.4751,-303.9228
94.7808,-303.6696
95.0877,-303.4184
95.3913,-303.1622
95.6995,-302.9127
96.0331,-302.6994
96.3771,-302.5011
96.7185,-302.2991
97.0617,-302.0995
97.3859,-301.8737
97.685,-301.613
97.9825,-301.3501
98.2811,-301.0889
98.5795,-300.8272
98.8873,-300.5769
99.1993,-300.3316
99.51,-300.0846
99.8213,-299.8385
100.1314,-299.5908
100.4391,-299.3402
100.7466,-299.0894
101.0554,-298.84
101.362,-298.5881
101.6612,-298.3275
101.9573,-298.0632
102.2533,-297.7987
102.5509,-297.5363
102.8614,-297.2898
103.1817,-297.0553
103.5002,-296.8186
103.8197,-296.5831
104.1336,-296.3407
104.433,-296.0803
104.7301,-295.817
105.03,-295.5573
105.3274,-295.2944
105.6261,-295.0331
105.9251,-294.7722
106.2226,-294.5094
106.5218,-294.2487
106.8201,-293.987
107.1176,-293.7243
107.4168,-293.4636
107.7143,-293.2009
108.0125,-292.939
108.316,-292.6834
108.6212,-292.4297
108.9265,-292.1762
109.2337,-291.9249
109.5368,-291.6688
109.8295,-291.401
110.1167,-291.127
110.4063,-290.8556
110.6968,-290.5853
110.9827,-290.31
111.2625,-290.0287
111.539,-289.7439
111.8162,-289.4598
112.0951,-289.1776
112.3758,-288.8971
112.6611,-288.6211
112.9469,-288.3459
113.2299,-288.0676
113.5195,-287.7963
113.8172,-287.534
114.1156,-287.2723
114.4156,-287.0124
114.7125,-286.7493
114.9956,-286.4717
115.2684,-286.1834
115.541,-285.895
115.8152,-285.608
116.0857,-285.3177
116.35,-285.0217
116.6139,-284.7252
116.8773,-284.4285
117.1417,-284.1324
117.4189,-283.8488
117.7047,-283.5735
117.9881,-283.2956
118.2752,-283.0215
118.5573,-282.7426
118.8196,-282.4449
119.0767,-282.1424
119.3369,-281.8429
119.5959,-281.5422
119.8641,-281.2499
120.1425,-280.9671
120.4203,-280.6837
120.6981,-280.4003
120.9764,-280.1173
121.2529,-279.8326
121.5292,-279.5478
121.8066,-279.2638
122.0821,-278.9783
122.3466,-278.6827
122.6022,-278.379
122.8599,-278.0774
123.1153,-277.7734
123.3761,-277.4747
123.6597,-277.1972
123.948,-276.9241
124.2313,-276.6466
124.519,-276.3729
124.7894,-276.0835
125.0364,-275.773
125.2836,-275.4625
125.5294,-275.1508
125.7777,-274.8414
126.0427,-274.546
126.3102,-274.2527
126.5755,-273.9577
126.8424,-273.6639
127.0982,-273.3607
127.3446,-273.0497
127.5914,-272.7389
127.8374,-272.4274
128.0843,-272.1168
128.3318,-271.8065
128.5798,-271.4967
128.8284,-271.1873
129.0753,-270.8766
129.3357,-270.5778
129.6138,-270.2947
129.8925,-270.0122
130.1732,-269.7315
130.4487,-269.4461
130.6965,-269.1369
130.9317,-268.8168
131.1736,-268.5024
131.4128,-268.1856
131.6419,-267.8617
131.8594,-267.5302
132.0713,-267.1943
132.2865,-266.8609
132.5025,-266.5282
132.7267,-266.2007
132.9621,-265.8812
133.194,-265.5592
133.4251,-265.2364
133.6616,-264.9178
133.8991,-264.6
134.1417,-264.2857
134.3836,-263.9712
134.6214,-263.6534
134.8715,-263.3454
135.1327,-263.0468
135.3951,-262.7492
135.6611,-262.4542
135.9206,-262.1544
136.1626,-261.8404
136.3922,-261.5166
136.6197,-261.1916
136.8524,-260.8699
137.0797,-260.5447
137.2934,-260.2104
137.5057,-259.875
137.7176,-259.5396
137.9285,-259.2032
138.1549,-258.8779
138.3992,-258.5655
138.6483,-258.2563
138.8962,-257.9463
139.1406,-257.634
139.3776,-257.3155
139.6046,-256.9901
139.8317,-256.6648
140.0659,-256.3438
140.2809,-256.0113
140.462,-255.6587
140.6344,-255.301
140.8075,-254.9437
140.9875,-254.5905
141.1996,-254.2562
141.4322,-253.9342
141.6587,-253.6085
141.887,-253.2839
142.1148,-252.9588
142.3268,-252.6235
142.5356,-252.2858
142.7495,-251.9516
142.9589,-251.6145
143.1638,-251.2746
143.3642,-250.9322
143.5596,-250.5867
143.7591,-250.2436
143.958,-249.9003
144.1492,-249.5523
144.3434,-249.2063
144.5368,-248.8599
144.7254,-248.5102
144.9367,-248.1758
145.1809,-247.8637
145.4335,-247.5572
145.6844,-247.2495
145.9301,-246.9385
146.1509,-246.61
146.3464,-246.2644
146.5433,-245.9199
146.7454,-245.5784
146.9297,-245.2269
147.0993,-244.8684
147.2679,-244.5094
147.4294,-244.1461
147.6044,-243.7908
147.8223,-243.4603
148.0575,-243.1398
148.2851,-242.8151
148.5151,-242.4916
148.74,-242.1647
148.9521,-241.8294
149.1639,-241.4936
149.3774,-241.1592
149.5888,-240.8233
149.799,-240.4866
150.0082,-240.1495
150.2174,-239.8121
150.4263,-239.4747
150.6401,-239.1405
150.8609,-238.8106
151.0813,-238.4807
151.3046,-238.1524
151.5221,-237.8207
151.7105,-237.4722
151.8849,-237.1153
152.0655,-236.7621
152.2425,-236.4069
152.4238,-236.0538
152.6182,-235.7079
152.8119,-235.3615
153.0061,-235.0153
153.1999,-234.6691
153.38,-234.3155
153.5543,-233.9589
153.7308,-233.6036
153.9049,-233.2468
154.0811,-232.8913
154.2638,-232.539
154.4477,-232.1872
154.6309,-231.8353
154.8148,-231.4836
155.0001,-231.1326
155.1863,-230.7822
155.3726,-230.4317
155.5587,-230.0812
155.7445,-229.7306
155.9296,-229.3794
156.1131,-229.0276
156.2986,-228.6768
156.4824,-228.3249
156.648,-227.9649
156.7976,-227.5973
156.9472,-227.2296
157.096,-226.8618
157.2473,-226.4949
157.4124,-226.1341
157.5836,-225.7761
157.7512,-225.4163
157.9203,-225.0573
158.0949,-224.7009
158.2727,-224.3461
158.4512,-223.9917
158.6314,-223.638
158.8072,-223.2822
158.9688,-222.92
159.1251,-222.555
159.2846,-222.1916
159.4439,-221.8282
159.6109,-221.4682
159.7854,-221.1118
159.9574,-220.7542
160.1301,-220.3968
160.2977,-220.0372
160.4543,-219.6725
160.6119,-219.3082
160.7697,-218.9442
160.9263,-218.5794
161.0904,-218.2181
161.2545,-217.8568
161.4183,-217.4952
161.5833,-217.1344
161.7281,-216.7654
161.8558,-216.3895
161.9852,-216.0145
162.1114,-215.6381
162.2415,-215.2632
162.3883,-214.8947
162.5392,-214.5274
162.6879,-214.1596
162.8381,-213.7923
162.986,-213.4238
163.131,-213.0546
163.2751,-212.6847
163.4199,-212.3152
163.5642,-211.9456
163.6994,-211.5725
163.8277,-211.1969
163.9571,-210.8219
164.085,-210.446
164.2146,-210.071
164.3525,-209.6989
164.4934,-209.3278
164.6339,-208.9568
164.7745,-208.5856
164.9095,-208.2124
165.0373,-207.8368
165.1638,-207.4605
165.2917,-207.0849
165.4185,-206.7089
165.5413,-206.3314
165.6615,-205.9533
165.7814,-205.5749
165.901,-205.1964
166.0218,-204.8186
166.1462,-204.4416
166.2728,-204.0654
166.3983,-203.6891
166.5238,-203.3124
166.6521,-202.9369
166.781,-202.5616
166.9095,-202.186
167.0403,-201.8114
167.1671,-201.4354
167.2833,-201.0559
167.3954,-200.6753
167.5093,-200.295
167.6234,-199.9149
167.7394,-199.5355
167.8596,-199.1571
167.9796,-198.7789
168.098,-198.4002
168.2201,-198.0224
168.347,-197.6466
168.4747,-197.2708
168.6035,-196.8953
168.7299,-196.5193
168.8418,-196.1387
168.94,-195.7542
169.0379,-195.3697
169.1372,-194.9853
169.2352,-194.6008
169.3374,-194.2174
169.442,-193.8344
169.5446,-193.4512
169.6487,-193.0681
169.7528,-192.6851
169.8556,-192.302
169.9606,-191.9191
170.064,-191.5359
170.1676,-191.153
170.2816,-190.7727
170.4012,-190.3944
170.5197,-190.0157
170.6419,-189.6379
170.7581,-189.2587
170.8559,-188.8741
170.9476,-188.4878
171.0431,-188.1028
171.1374,-187.7172
171.2314,-187.3316
171.3276,-186.9467
171.4232,-186.5613
171.5185,-186.1762
171.6146,-185.7912
171.7112,-185.4061
171.8084,-185.0216
171.9059,-184.6367
172.0034,-184.252
172.0956,-183.8662
172.1778,-183.4778
172.2578,-183.0891
172.3397,-182.7009
172.4207,-182.3122
172.5063,-181.9249
172.5961,-181.5382
172.6837,-181.1511
172.7742,-180.7648
172.8569,-180.3767
172.9162,-179.9844
172.9701,-179.5913
173.0293,-179.1987
173.0844,-178.8058
173.1465,-178.4139
173.2192,-178.0236
173.2894,-177.6332
173.3625,-177.243
173.4336,-176.8525
173.4849,-176.4594
173.5253,-176.0645
173.5662,-175.6698
173.6052,-175.2749
173.6477,-174.8802
173.6967,-174.4865
173.7481,-174.093
173.7994,-173.6993
173.8487,-173.3057
173.8997,-172.912
173.9495,-172.5182
173.9965,-172.1244
174.05,-171.7308
174.0942,-171.3366
174.1089,-170.9404
174.1158,-170.5432
174.1282,-170.1468
174.1371,-169.7499
174.1555,-169.3535
174.1903,-168.9584
174.2268,-168.5631
174.2626,-168.1678
174.2975,-167.7727
174.326,-167.3767
174.3505,-166.9806
174.3765,-166.5847
174.4036,-166.1885
174.4156,-165.7925
174.4013,-165.3961
174.3815,-164.9994
174.366,-164.6031
174.3477,-164.2065
174.3458,-163.8101
174.3689,-163.4141
174.3941,-163.0178
174.4175,-162.6218
174.4415,-162.2257
174.4546,-161.8289
174.4609,-161.4323
174.4701,-161.0355
174.4784,-160.6386
174.4783,-160.2421
174.4624,-159.8455
174.4397,-159.4492
174.4225,-159.0529
174.403,-158.6563
174.3796,-158.2602
174.3579,-157.864
174.3329,-157.4678
174.3093,-157.0718
174.286,-156.6756
174.253,-156.2799
174.2209,-155.8846
174.1899,-155.4888
174.1564,-155.0933
174.1459,-154.6971
174.1519,-154.3
174.1524,-153.9035
174.1627,-153.5063
174.16,-153.1098
174.1093,-152.7168
174.0474,-152.3243
173.994,-151.9312
173.9349,-151.5388
173.8938,-151.1444
173.8751,-150.748
173.8554,-150.3518
173.8392,-149.9549
173.8172,-149.559
173.77,-149.1652
173.7132,-148.7721
173.6601,-148.3791
173.606,-147.9858
173.5503,-147.5928
173.4938,-147.2002
173.4368,-146.8072
173.3788,-146.4147
173.3227,-146.022
173.2735,-145.6279
173.2268,-145.2341
173.1802,-144.8399
173.1335,-144.4456
173.0711,-144.0544
172.9877,-143.6663
172.9006,-143.279
172.8166,-142.8914
172.7314,-142.5035
172.6466,-142.1159
172.5641,-141.7278
172.48,-141.3397
172.3954,-140.9523
172.3184,-140.5629
172.2464,-140.1725
172.1749,-139.7824
172.1075,-139.3909
172.0252,-139.0033
171.9081,-138.6247
171.7796,-138.2486
171.659,-137.8708
171.5354,-137.4937
171.4073,-137.1178
171.2803,-136.7422
171.1514,-136.3666
171.0221,-135.9913
170.8955,-135.6155
170.7721,-135.238
170.6503,-134.8604
170.529,-134.4827
170.4058,-134.1052
170.2696,-133.7329
170.1202,-133.3652
169.9711,-132.9972
169.822,-132.6297
169.6737,-132.2614
169.5368,-131.8889
169.4039,-131.5151
169.2676,-131.1422
169.1332,-130.7688
168.9962,-130.3965
168.8542,-130.0257
168.7142,-129.6545
168.5736,-129.2834
168.4214,-128.9169
168.2541,-128.5575
168.0822,-128.1995
167.9142,-127.8399
167.7439,-127.4817
167.5687,-127.1253
167.3934,-126.7694
167.2176,-126.4137
167.0419,-126.0576
166.8647,-125.7028
166.6835,-125.3496
166.5027,-124.9961
166.3218,-124.6432
166.141,-124.2897
165.9669,-123.9331
165.795,-123.5756
165.6219,-123.2182
165.4498,-122.8607
165.2722,-122.506
165.0887,-122.1538
164.9061,-121.8017
164.723,-121.4495
164.5393,-121.0976
164.3553,-120.7462
164.1691,-120.3956
163.9841,-120.0444
163.7997,-119.6932
163.6113,-119.3437
163.418,-118.9973
163.221,-118.6528
163.0264,-118.3067
162.8312,-117.9614
162.6259,-117.6217
162.4165,-117.2845
162.2077,-116.9473
161.9964,-116.6111
161.7899,-116.2722
161.5884,-115.9305
161.3866,-115.5886
161.189,-115.2444
160.984,-114.9049
160.7562,-114.58
160.5192,-114.2618
160.285,-113.9413
160.0522,-113.6199
159.8271,-113.2935
159.6118,-112.9598
159.3963,-112.6266
159.177,-112.296
158.9642,-111.9607
158.763,-111.6189
158.5654,-111.2749
158.3701,-110.9289
158.1683,-110.5878
157.9343,-110.2693
157.674,-109.9693
157.4159,-109.668
157.1585,-109.366
156.903,-109.0623
156.6664,-108.744
156.4357,-108.4208
156.1958,-108.1046
155.9654,-107.7817
155.7617,-107.442
155.5765,-107.0916
155.3932,-106.7389
155.2072,-106.3886
155.0165,-106.041
154.8107,-105.7012
154.5972,-105.367
154.3917,-105.0275
154.1813,-104.6906
153.9509,-104.3686
153.7063,-104.0564
153.4562,-103.7476
153.2095,-103.4373
152.9635,-103.1258
152.7141,-102.8166
152.4702,-102.5042
152.2227,-102.1933
151.9759,-101.8828
151.7709,-101.5458
151.5989,-101.1876
151.4229,-100.833
151.2554,-100.4719
151.0764,-100.1186
150.8363,-99.8079
150.5621,-99.5197
150.2929,-99.2286
150.0214,-98.9393
149.7609,-98.6401
149.5248,-98.3217
149.2927,-97.9996
149.0569,-97.6801
148.8226,-97.3603
148.5844,-97.0425
148.3414,-96.7287
148.0993,-96.4148
147.8605,-96.0969
147.6132,-95.7872
147.3402,-95.5003
147.0527,-95.2256
146.7725,-94.945
146.491,-94.6655
146.1943,-94.4016
145.8905,-94.1472
145.5855,-93.8932
145.2763,-93.6433
144.9762,-93.3852
144.7026,-93.0986
144.4451,-92.7961
144.184,-92.4978
143.9215,-92.1997
143.661,-91.9005
143.3949,-91.6062
143.1282,-91.3119
142.8667,-91.0137
142.5966,-90.723
142.3075,-90.4512
142.0104,-90.1885
141.7176,-89.92
141.4236,-89.6537
141.121,-89.3972
140.8171,-89.1415
140.5135,-88.8864
140.208,-88.6329
139.9186,-88.3622
139.6519,-88.0691
139.3882,-87.772
139.123,-87.4767
138.8578,-87.1821
138.577,-86.9019
138.2801,-86.6387
137.9829,-86.3761
137.6878,-86.11
137.389,-85.8493
137.0835,-85.5961
136.7743,-85.3467
136.4662,-85.0973
136.1592,-84.8455
135.8578,-84.5873
135.5646,-84.3205
135.2709,-84.0529
134.9759,-83.7877
134.6828,-83.5205
134.3865,-83.2557
134.0894,-82.9933
133.7954,-82.7265
133.4971,-82.4643
133.1899,-82.214
132.878,-81.9682
132.566,-81.7226
132.2549,-81.477
131.9443,-81.2292
131.6365,-80.979
131.3307,-80.7264
131.0232,-80.4747
130.716,-80.2242
130.4081,-79.9737
130.096,-79.728
129.7842,-79.4833
129.4748,-79.2342
129.1605,-78.9918
128.8366,-78.7635
128.5072,-78.5412
128.1795,-78.3177
127.8526,-78.0933
127.525,-77.8681
127.2023,-77.6379
126.8816,-77.4041
126.5572,-77.1747
126.2363,-76.9423
125.924,-76.6969
125.6163,-76.4465
125.3101,-76.1946
125.004,-75.941
124.6932,-75.695
124.3714,-75.4634
124.0422,-75.2405
123.7178,-75.0128
123.3931,-74.7844
123.0555,-74.5755
122.7108,-74.3807
122.3646,-74.186
122.0144,-73.9979
121.6732,-73.7976
121.3566,-73.559
121.0522,-73.3039
120.7436,-73.0551
120.4348,-72.8048
120.1233,-72.5601
119.7984,-72.332
119.4708,-72.1071
119.1483,-71.8771
118.821,-71.6517
118.4912,-71.431
118.1612,-71.2117
117.8275,-70.9954
117.4966,-70.7771
117.1642,-70.5607
116.8256,-70.352
116.4916,-70.1394
116.1552,-69.9281
115.8173,-69.7192
115.5007,-69.4825
115.1953,-69.2279
114.8881,-68.9779
114.5897,-68.7146
114.2758,-68.4735
113.9218,-68.2987
113.5561,-68.1418
113.1955,-67.9752
112.8361,-67.8094
112.4952,-67.6091
112.1739,-67.3749
111.8511,-67.1457
111.5275,-66.9148
111.2035,-66.6857
110.8676,-66.4758
110.5283,-66.2677
110.1936,-66.0559
109.8556,-65.8481
109.5168,-65.6397
109.1779,-65.4354
108.8348,-65.2349
108.4947,-65.0295
108.1541,-64.828
107.8043,-64.6384
107.4531,-64.4545
107.1015,-64.2717
106.7483,-64.0881
106.3977,-63.9043
106.0452,-63.7218
105.6922,-63.5384
105.3416,-63.3554
104.9883,-63.1727
104.6393,-62.9834
104.2956,-62.7872
103.9491,-62.5912
103.6052,-62.3942
103.2604,-62.199
102.9077,-62.0141
102.5562,-61.8323
102.2048,-61.6475
101.8512,-61.4651
101.5025,-61.2789
101.1535,-61.0878
100.8038,-60.8999
100.4581,-60.7074
100.1068,-60.5197
99.7462,-60.3559
99.3829,-60.1977
99.0186,-60.0365
98.6558,-59.8791
98.305,-59.6959
97.9733,-59.4767
97.6477,-59.2524
97.3173,-59.0303
96.9875,-58.8096
96.6489,-58.6061
96.2973,-58.4178
95.9497,-58.2289
95.6036,-58.0354
95.2497,-57.852
94.8894,-57.6915
94.5215,-57.5399
94.1553,-57.3842
93.7932,-57.2276
93.4311,-57.0611
93.0781,-56.8801
92.7265,-56.6996
92.369,-56.5217
92.018,-56.3399
91.6662,-56.1571
91.3117,-55.9739
90.9638,-55.7883
90.6102,-55.6056
90.2512,-55.4345
89.8902,-55.2767
89.5216,-55.1223
89.158,-54.965
88.7956,-54.808
88.4291,-54.6473
88.071,-54.482
87.7086,-54.3206
87.3435,-54.158
86.9918,-53.9823
86.6372,-53.7999
86.2835,-53.6176
85.9367,-53.4316
85.5786,-53.2525
85.2166,-53.0937
84.8516,-52.9435
84.4803,-52.7911
84.1183,-52.6379
83.7601,-52.4679
83.411,-52.2723
83.0732,-52.0734
82.7232,-51.8797
82.3783,-51.6813
82.0401,-51.4829
81.6896,-51.2852
81.3504,-51.0841
81.0094,-50.8861
80.6636,-50.6792
80.3453,-50.452
80.0191,-50.2236
79.6857,-49.9998
79.3739,-49.7675
79.0551,-49.5218
78.7554,-49.2613
78.4647,-49.0014
78.1447,-48.7492
77.8617,-48.4806
77.5864,-48.1982
77.3013,-47.9068
77.0965,-47.5826
76.875,-47.2454
76.6734,-46.9012
76.6661,-46.5106
76.6017,-46.1276
76.3965,-45.8094
76.3764,-45.4767
76.4314,-45.0893
76.3883,-44.7022
76.4594,-44.3221
76.6098,-43.9386
76.7009,-43.5614
76.8179,-43.1804
76.9419,-42.7981
77.0416,-42.4213
77.1634,-42.0384
77.277,-41.658
77.3864,-41.2813
77.5007,-40.8948
77.6236,-40.5223
77.8231,-40.183
78.0574,-39.8538
78.2599,-39.5192
78.4785,-39.1857
78.7127,-38.8622
78.9482,-38.5499
79.2027,-38.2396
79.4481,-37.9282
79.6889,-37.617
79.9352,-37.3001
80.1666,-36.9809
80.4041,-36.6639
80.6442,-36.3437
80.8817,-36.0305
81.1469,-35.7332
81.4145,-35.4381
81.675,-35.143
81.9414,-34.8453
82.1743,-34.5255
82.3878,-34.1926
82.6152,-33.8644
82.8316,-33.5336
83.0505,-33.2028
83.2789,-32.876
83.4945,-32.5453
83.721,-32.2181
83.9436,-31.8888
84.1256,-31.5389
84.2953,-31.179
84.4631,-30.8196
84.6251,-30.458
84.8023,-30.1019
84.9932,-29.7549
85.1934,-29.4129
85.392,-29.0671
85.5867,-28.7239
85.8482,-28.4319
86.1599,-28.1827
86.3522,-27.8749
86.3849,-27.4843
86.385,-27.0818
86.4153,-26.69
86.4746,-26.2967
86.5477,-25.9062
86.5913,-25.5134
86.6249,-25.1161
86.6676,-24.7226
86.6306,-24.3355
86.5072,-23.9567
86.3891,-23.5805
86.2624,-23.2022
86.1433,-22.8239
86.133,-22.4355
86.1617,-22.0383
86.1009,-21.6505
86.0054,-21.2635
85.93,-20.8735
85.8052,-20.4995
85.6533,-20.131
85.645,-19.766
85.8128,-19.4151
85.9924,-19.0513
86.1845,-18.7188
86.5143,-18.4956
86.8504,-18.2822
87.0307,-17.957
87.1351,-17.5736
87.2305,-17.1878
87.3584,-16.8177
87.5954,-16.5029
87.8655,-16.2065
88.1026,-15.8918
88.3622,-15.5894
88.6177,-15.2849
88.8591,-14.9726
89.1249,-14.6741
89.3695,-14.3626
89.6228,-14.0596
89.934,-13.8043
90.2187,-13.5368
90.4531,-13.2166
90.6701,-12.8812
90.9032,-12.568
91.1852,-12.2779
91.3217,-11.9529
91.2248,-11.5717
91.2297,-11.199
91.3989,-10.8425
91.4654,-10.4604
91.491,-10.0671
91.5487,-9.6813
91.5011,-9.2927
91.4145,-8.8993
91.3668,-8.5078
91.2908,-8.1185
91.2134,-7.727
91.1429,-7.3385
91.0538,-6.9516
90.987,-6.5578
90.9016,-6.1736
90.7434,-5.8124
90.5501,-5.466
90.3514,-5.1239
90.1591,-4.7745
89.9663,-4.4289
89.7973,-4.0745
89.6982,-3.6812
89.556,-3.3233
89.2711,-3.0534
88.9395,-2.8254
88.59,-2.6836
88.1929,-2.6264
87.819,-2.5048
87.4771,-2.3098
87.1254,-2.121
86.7805,-1.925
86.4403,-1.7234
86.0997,-1.5175
85.7645,-1.3042
85.4241,-1.1042
85.0888,-0.88628
84.7447,-0.69445
84.3609,-0.60754
83.9651,-0.54258
83.58,-0.45714
83.1897,-0.38944
82.7979,-0.30391
82.4147,-0.22134
82.024,-0.14359
81.633,-0.048168
