82.5803,-315.8575
82.9106,-315.6281
83.2409,-315.399
83.5713,-315.1699
83.9015,-314.9404
84.2319,-314.7115
84.5622,-314.4821
84.8925,-314.2529
85.2229,-314.0239
85.5531,-313.7944
85.8835,-313.5654
86.2139,-313.3361
86.5441,-313.1068
86.8746,-312.8779
87.2048,-312.6484
87.5351,-312.4194
87.8655,-312.1902
88.1957,-311.9607
88.5262,-311.7319
88.8564,-311.5024
89.1867,-311.2732
89.5172,-311.0443
89.8473,-310.8147
90.1778,-310.5858
90.5081,-310.3565
90.8383,-310.1271
91.1688,-309.8983
91.4989,-309.6686
91.8294,-309.4398
92.1598,-309.2105
92.4899,-308.981
92.8205,-308.7523
93.1506,-308.5226
93.4809,-308.2937
93.8114,-308.0646
94.1414,-307.8349
94.4721,-307.6064
94.8022,-307.3766
95.1325,-307.1475
95.4631,-306.9187
95.793,-306.6887
96.1238,-306.4605
96.4538,-306.2305
96.7841,-306.0014
97.1149,-305.773
97.4442,-305.542
97.7761,-305.3155
98.1045,-305.083
98.4369,-304.8573
98.7923,-304.6709
99.1552,-304.4973
99.5151,-304.3183
99.8774,-304.1437
100.225,-303.9443
100.5543,-303.7136
100.8802,-303.4785
101.2113,-303.2496
101.5292,-303.0055
101.8046,-302.7138
102.0688,-302.4091
102.3447,-302.1182
102.6098,-301.8144
102.9032,-301.5448
103.2453,-301.3342
103.589,-301.1255
103.9341,-300.919
104.2756,-300.7073
104.581,-300.4485
104.8716,-300.1698
105.1668,-299.8974
105.4575,-299.6194
105.759,-299.3542
106.0854,-299.1202
106.4169,-298.892
106.7437,-298.6581
107.0738,-298.4286
107.3861,-298.1767
107.6784,-297.9005
107.9753,-297.6299
108.2657,-297.3509
108.5631,-297.0812
108.8953,-296.8565
109.2376,-296.6455
109.5785,-296.4322
109.9193,-296.219
110.2483,-295.9891
110.5674,-295.744
110.8818,-295.494
111.2041,-295.2527
111.5161,-294.9999
111.786,-294.703
112.0458,-294.3953
112.3132,-294.0954
112.576,-293.7911
112.8533,-293.5005
113.1458,-293.2246
113.4399,-292.9508
113.7306,-292.6724
114.0269,-292.4013
114.3515,-292.1652
114.6858,-291.9407
115.0141,-291.7095
115.3457,-291.4816
115.6617,-291.2337
115.9679,-290.9732
116.2789,-290.7181
116.585,-290.4577
116.8943,-290.2007
117.203,-289.943
117.5086,-289.6821
117.8208,-289.4281
118.1235,-289.164
118.4103,-288.8828
118.6848,-288.588
118.9705,-288.3061
119.29,-288.0624
119.6138,-287.8241
119.9379,-287.5857
120.2572,-287.3421
120.5315,-287.0502
120.7907,-286.7414
121.0593,-286.4432
121.3211,-286.1376
121.5914,-285.8398
121.8635,-285.5442
122.1323,-285.2449
122.4044,-284.949
122.6759,-284.6527
122.9753,-284.3849
123.2869,-284.13
123.5867,-283.863
123.8986,-283.6079
124.1731,-283.3193
124.3954,-282.9837
124.6219,-282.6531
124.838,-282.3118
125.0786,-281.994
125.3935,-281.7466
125.719,-281.5085
126.0395,-281.2665
126.3592,-281.0232
126.6271,-280.7284
126.863,-280.4022
127.1044,-280.081
127.3427,-279.757
127.5767,-279.4303
127.8041,-279.0985
128.0311,-278.767
128.256,-278.4331
128.4865,-278.1046
128.7762,-277.8345
129.109,-277.6061
129.4305,-277.3665
129.7622,-277.1379
130.0855,-276.8994
130.3617,-276.6088
130.6307,-276.3089
130.9043,-276.015
131.1738,-275.7164
131.4626,-275.4369
131.7613,-275.1683
132.0592,-274.8981
132.3606,-274.6317
132.6489,-274.3526
132.919,-274.0547
133.1831,-273.7516
133.4516,-273.4522
133.7176,-273.1508
133.9681,-272.8365
134.2166,-272.5202
134.4666,-272.2056
134.7133,-271.8879
134.9816,-271.5899
135.2749,-271.3156
135.5731,-271.0454
135.8688,-270.773
136.1493,-270.4864
136.4102,-270.1803
136.666,-269.8702
136.927,-269.5643
137.1842,-269.2553
137.4197,-268.9306
137.6368,-268.5922
137.8507,-268.2517
138.0685,-267.9138
138.2827,-267.5736
138.4806,-267.2236
138.6755,-266.872
138.8718,-266.5211
139.0669,-266.1696
139.3022,-265.8474
139.5797,-265.5565
139.8564,-265.265
140.1357,-264.9755
140.4058,-264.6784
140.6416,-264.3532
140.8712,-264.0226
141.1062,-263.6969
141.3376,-263.3678
141.5807,-263.0478
141.8341,-262.7358
142.0858,-262.4219
142.3393,-262.1102
142.5876,-261.794
142.8248,-261.4691
143.0636,-261.1463
143.2987,-260.8191
143.5401,-260.4987
143.8298,-260.2219
144.1388,-259.9621
144.43,-259.6879
144.7428,-259.4303
145.0318,-259.1549
145.2266,-258.8077
145.3926,-258.4389
145.5737,-258.0817
145.7464,-257.7177
145.9076,-257.3499
146.05,-256.9746
146.1882,-256.5961
146.3294,-256.2203
146.4708,-255.8439
146.6626,-255.4937
146.8949,-255.1654
147.1197,-254.832
147.35,-254.5026
147.5561,-254.1588
147.7264,-253.7939
147.9049,-253.4347
148.072,-253.0677
148.2515,-252.7089
148.4952,-252.3913
148.7557,-252.0841
149.011,-251.7743
149.2683,-251.4649
149.4997,-251.1369
149.7193,-250.8001
149.9417,-250.4649
150.1611,-250.1282
150.3896,-249.7975
150.6257,-249.4719
150.8652,-249.1494
151.1007,-248.8229
151.3411,-248.5012
151.6184,-248.2111
151.9085,-247.932
152.191,-247.6468
152.4818,-247.3679
152.7392,-247.0636
152.9444,-246.7184
153.1412,-246.3672
153.3457,-246.0214
153.5434,-245.6712
153.7069,-245.3058
153.8402,-244.9264
153.9768,-244.5481
154.1113,-244.1695
154.2485,-243.7914
154.404,-243.4207
154.5583,-243.0495
154.7148,-242.6789
154.8679,-242.3074
154.9851,-241.9233
155.0892,-241.5347
155.2011,-241.1489
155.3039,-240.7596
155.431,-240.3799
155.6106,-240.0207
155.7989,-239.665
155.9808,-239.3067
156.1662,-238.9499
156.3354,-238.5851
156.5013,-238.2191
156.6684,-237.853
156.8364,-237.4883
157.0675,-237.1646
157.3429,-236.8697
157.6028,-236.5653
157.8819,-236.2726
158.1405,-235.9673
158.3165,-235.6086
158.4704,-235.2356
158.6351,-234.8698
158.7932,-234.4996
158.9302,-234.1226
159.0438,-233.7368
159.1631,-233.3531
159.2737,-232.9659
159.3958,-232.5838
159.5969,-232.239
159.8272,-231.9084
160.0473,-231.5726
160.2738,-231.24
160.4486,-230.8824
160.5702,-230.4989
160.6948,-230.117
160.8161,-229.7334
160.9398,-229.3508
161.0862,-228.9771
161.2436,-228.6068
161.4015,-228.2373
161.5592,-227.8674
161.7158,-227.4969
161.8672,-227.1247
162.0168,-226.7513
162.1682,-226.3789
162.3182,-226.006
162.4673,-225.6324
162.6142,-225.2583
162.762,-224.8844
162.9082,-224.5097
163.057,-224.1365
163.2373,-223.7778
163.4353,-223.4278
163.6286,-223.0755
163.8263,-222.725
163.9964,-222.3626
164.1267,-221.9822
164.2539,-221.6008
164.3847,-221.2207
164.5109,-220.8388
164.6199,-220.4523
164.7188,-220.0622
164.8247,-219.6746
164.9245,-219.285
165.0527,-218.9055
165.2283,-218.544
165.402,-218.1816
165.5804,-217.8208
165.7522,-217.4578
165.873,-217.0751
165.9797,-216.6872
166.0914,-216.3013
166.2005,-215.914
166.3313,-215.5343
166.4715,-215.1573
166.6082,-214.7792
166.7488,-214.4026
166.8832,-214.0236
167.013,-213.6432
167.1422,-213.2624
167.2707,-212.8813
167.4006,-212.501
167.5237,-212.1182
167.6439,-211.7345
167.7655,-211.3514
167.884,-210.967
168.0106,-210.5857
168.152,-210.2093
168.2977,-209.8344
168.4405,-209.4588
168.5843,-209.0832
168.7315,-208.7091
168.8774,-208.3345
169.025,-207.9604
169.1722,-207.5864
169.2967,-207.2049
169.3947,-206.8151
169.4884,-206.4241
169.5862,-206.034
169.6813,-205.6435
169.7742,-205.2522
169.868,-204.8613
169.9583,-204.4695
170.0531,-204.0788
170.1731,-203.6956
170.3082,-203.3168
170.4382,-202.9364
170.5742,-202.5579
170.7026,-202.1771
170.7908,-201.7853
170.8666,-201.3902
170.9517,-200.9973
171.03,-200.6029
171.1222,-200.2118
171.2317,-199.8248
171.336,-199.4368
171.4475,-199.0501
171.552,-198.6621
171.6286,-198.2677
171.6975,-197.8715
171.7661,-197.4755
171.836,-197.0795
171.911,-196.6845
171.9884,-196.29
172.07,-195.8963
172.1456,-195.5014
172.2314,-195.1088
172.3471,-194.7238
172.4651,-194.3396
172.5831,-193.955
172.6999,-193.5705
172.7753,-193.1776
172.8143,-192.7775
172.8502,-192.377
172.8902,-191.977
172.9308,-191.5769
172.9747,-191.1773
173.0233,-190.7783
173.0626,-190.3778
173.1186,-189.9803
173.2238,-189.5928
173.339,-189.2073
173.449,-188.8206
173.5588,-188.434
173.6313,-188.0394
173.683,-187.6403
173.742,-187.2429
173.796,-186.8443
173.8628,-186.448
173.9434,-186.0542
174.0192,-185.6592
174.1012,-185.2656
174.1768,-184.8708
174.2282,-184.4721
174.274,-184.0728
174.3231,-183.6735
174.3703,-183.2744
174.4207,-182.8755
174.474,-182.4768
174.5243,-182.0782
174.5791,-181.6796
174.6286,-181.2808
174.6531,-180.8798
174.6702,-180.4779
174.6886,-180.0764
174.7083,-179.6748
174.7556,-179.276
174.8196,-178.879
174.8781,-178.4812
174.9417,-178.0842
174.9899,-177.6856
175.0076,-177.2839
175.0225,-176.8822
175.0401,-176.4804
175.0549,-176.0786
175.0781,-175.6774
175.1104,-175.2765
175.1442,-174.876
175.1779,-174.4753
175.2103,-174.0745
175.237,-173.6735
175.26,-173.272
175.2849,-172.8708
175.3092,-172.4695
175.3245,-172.0677
175.3279,-171.6659
175.3286,-171.2637
175.3317,-170.8617
175.3334,-170.4597
175.3399,-170.0575
175.351,-169.6558
175.3593,-169.2538
175.371,-168.8518
175.3795,-168.45
175.3701,-168.0481
175.3505,-167.6467
175.3307,-167.2451
175.312,-166.8434
175.2987,-166.4417
175.2911,-166.0396
175.2833,-165.6377
175.2744,-165.2358
175.2681,-164.8336
175.2661,-164.4318
175.2668,-164.0296
175.2653,-163.6275
175.2652,-163.2256
175.2736,-162.8234
175.2828,-162.4217
175.2928,-162.0197
175.302,-161.6176
175.2847,-161.2169
175.2442,-160.8167
175.2048,-160.4167
175.1638,-160.0167
175.127,-159.6163
175.1043,-159.2151
175.0837,-158.8134
175.0616,-158.412
175.0402,-158.0106
175.0165,-157.609
174.9916,-157.2079
174.967,-156.8066
174.9426,-156.4052
174.9163,-156.0042
174.8862,-155.603
174.8548,-155.2023
174.8245,-154.8014
174.7935,-154.4004
174.7539,-154.0006
174.7083,-153.601
174.6644,-153.2013
174.618,-152.8021
174.5767,-152.402
174.5482,-152.0012
174.5214,-151.5999
174.4945,-151.1987
174.4662,-150.7978
174.4253,-150.3978
174.3762,-149.9988
174.3275,-149.5998
174.2806,-149.2003
174.2297,-148.8017
174.1668,-148.4045
174.0989,-148.0082
174.0348,-147.6114
173.969,-147.2146
173.8983,-146.819
173.8241,-146.4238
173.7473,-146.029
173.6731,-145.6341
173.5965,-145.2392
173.5034,-144.8483
173.4033,-144.4589
173.3066,-144.0685
173.2064,-143.6793
173.1216,-143.2865
173.057,-142.8895
172.9885,-142.4939
172.9283,-142.0955
172.8561,-141.7009
172.7218,-141.3236
172.5637,-140.953
172.4159,-140.5798
172.2623,-140.2078
172.1309,-139.8286
172.0237,-139.4411
171.9115,-139.0549
171.8045,-138.6674
171.6801,-138.2857
171.521,-137.9164
171.3629,-137.5471
171.2016,-137.1783
171.0451,-136.8084
170.9305,-136.4235
170.8269,-136.0346
170.7169,-135.6484
170.6124,-135.2596
170.4694,-134.8862
170.286,-134.5285
170.105,-134.1694
169.9185,-133.8132
169.7404,-133.4528
169.5954,-133.0781
169.4565,-132.7007
169.3143,-132.3246
169.1722,-131.9487
169.0138,-131.5792
168.8451,-131.2142
168.6789,-130.8483
168.5121,-130.4823
168.3359,-130.1212
168.1466,-129.7666
167.9553,-129.4128
167.7644,-129.0591
167.5764,-128.7037
167.4032,-128.3409
167.2335,-127.9765
167.0616,-127.6128
166.8895,-127.2497
166.6917,-126.9004
166.4744,-126.5619
166.262,-126.2209
166.045,-125.8819
165.856,-125.53
165.7247,-125.1501
165.5981,-124.768
165.4648,-124.3895
165.3405,-124.006
165.1657,-123.6496
164.9271,-123.327
164.6805,-123.0087
164.4379,-122.6885
164.2071,-122.3599
164.0025,-122.014
163.8036,-121.6644
163.5997,-121.3179
163.3981,-120.9702
163.1955,-120.6226
162.9891,-120.278
162.7884,-119.9291
162.5812,-119.5851
162.328,-119.2757
162.0479,-118.9865
161.7751,-118.692
161.494,-118.4033
161.2491,-118.0898
161.0715,-117.7298
160.8994,-117.3659
160.7265,-117.0031
160.5447,-116.6451
160.3076,-116.3215
160.0571,-116.0057
159.82,-115.6818
159.5727,-115.3643
159.3313,-115.0427
159.0913,-114.7206
158.8461,-114.4015
158.6079,-114.0778
158.3624,-113.7594
158.1097,-113.4464
157.8555,-113.1354
157.6013,-112.8234
157.3468,-112.5125
157.0662,-112.2257
156.7708,-111.9521
156.4823,-111.6731
156.1864,-111.3999
155.91,-111.1097
155.6672,-110.7896
155.4256,-110.4679
155.1845,-110.1463
154.9427,-109.8251
154.6862,-109.5158
154.4208,-109.2139
154.1515,-108.9153
153.8871,-108.6123
153.618,-108.3139
153.3235,-108.0405
153.021,-107.776
152.7204,-107.5089
152.4176,-107.2441
152.1408,-106.9555
151.8978,-106.6353
151.6588,-106.3118
151.4167,-105.9911
151.1758,-105.6689
150.9264,-105.3539
150.6706,-105.0435
150.4191,-104.7298
150.1637,-104.4195
149.8901,-104.1255
149.6027,-103.8446
149.3148,-103.5637
149.0276,-103.2824
148.7424,-102.9992
148.4675,-102.7057
148.1957,-102.4096
147.9201,-102.1168
147.6478,-101.8209
147.3766,-101.5243
147.1061,-101.2267
146.8373,-100.9277
146.5662,-100.6309
146.3053,-100.325
146.055,-100.0105
145.8023,-99.6979
145.5538,-99.3814
145.3001,-99.07
145.0263,-98.7755
144.7474,-98.4858
144.4716,-98.1935
144.194,-97.9024
143.9119,-97.6162
143.6267,-97.3327
143.3424,-97.0483
143.057,-96.7654
142.7773,-96.4764
142.5081,-96.178
142.2381,-95.8802
141.9702,-95.58
141.699,-95.2837
141.4096,-95.0045
141.1156,-94.7301
140.8251,-94.4524
140.5323,-94.1765
140.2407,-93.9001
139.9493,-93.6229
139.6575,-93.3462
139.3661,-93.0694
139.0746,-92.7922
138.786,-92.5125
138.4986,-92.2313
138.2104,-91.9508
137.9229,-91.67
137.6392,-91.385
137.3599,-91.0958
137.08,-90.8074
136.8012,-90.5173
136.5171,-90.2335
136.2166,-89.9663
135.9133,-89.7022
135.6126,-89.4357
135.3101,-89.1704
135.016,-88.8965
134.725,-88.6191
134.4316,-88.344
134.1416,-88.0658
133.8361,-87.8058
133.5047,-87.5787
133.1695,-87.3565
132.8376,-87.1294
132.5031,-86.9065
132.1815,-86.6661
131.8753,-86.4053
131.5677,-86.147
131.263,-85.8839
130.9504,-85.6324
130.6115,-85.4164
130.2697,-85.2043
129.9285,-84.9918
129.5898,-84.7755
129.2897,-84.5105
129.0065,-84.2241
128.7139,-83.949
128.4303,-83.6633
128.1286,-83.3999
127.7914,-83.1814
127.4512,-82.9671
127.1126,-82.7502
126.773,-82.5351
126.4423,-82.307
126.1179,-82.0691
125.7948,-81.8303
125.4711,-81.5915
125.1461,-81.3548
124.8169,-81.1243
124.4853,-80.8964
124.1559,-80.6664
123.8253,-80.4373
123.4964,-80.2059
123.1709,-79.9704
122.8435,-79.7365
122.5175,-79.5015
122.1931,-79.264
121.8699,-79.0245
121.5489,-78.783
121.2258,-78.5432
120.9036,-78.3028
120.5811,-78.063
120.2564,-77.8253
119.9344,-77.5851
119.6104,-77.3468
119.2825,-77.1141
118.951,-76.8874
118.6161,-76.6641
118.2851,-76.4363
117.9506,-76.2132
117.6069,-76.0042
117.2625,-75.7976
116.9178,-75.5898
116.5735,-75.3825
116.2311,-75.1723
115.8896,-74.959
115.55,-74.7448
115.2087,-74.5317
114.8683,-74.3177
114.5302,-74.1008
114.1913,-73.8834
113.854,-73.6654
113.5158,-73.448
113.1774,-73.2303
112.8408,-73.0113
112.5024,-72.7934
112.1654,-72.5744
111.8281,-72.356
111.4884,-72.14
111.1499,-71.9241
110.8093,-71.7097
110.4702,-71.4936
110.1299,-71.2805
109.7819,-71.0778
109.4345,-70.8763
109.0872,-70.6737
108.7387,-70.4723
108.3945,-70.266
108.0508,-70.0561
107.7085,-69.8457
107.3663,-69.6352
107.0225,-69.4254
106.6787,-69.2184
106.3311,-69.0155
105.9844,-68.8118
105.6384,-68.6081
105.2913,-68.4037
104.9497,-68.1928
104.6066,-67.983
104.2637,-67.7722
103.9217,-67.5624
103.5672,-67.3714
103.2092,-67.1892
102.8524,-67.0046
102.4929,-66.8226
102.1366,-66.6386
101.7767,-66.4578
101.417,-66.2782
101.0596,-66.0956
100.6981,-65.917
100.3504,-65.7184
100.0173,-65.4928
99.6841,-65.2673
99.3538,-65.0393
99.0191,-64.8152
98.6706,-64.6172
98.3121,-64.4355
97.9526,-64.2535
97.5964,-64.0695
97.2351,-63.8913
96.8705,-63.7222
96.5056,-63.5553
96.1385,-63.388
95.7747,-63.2197
95.4064,-63.0574
95.0343,-62.9036
94.6656,-62.7469
94.2912,-62.5957
93.923,-62.4371
93.5756,-62.2371
93.2355,-62.0202
92.8955,-61.8086
92.5543,-61.5937
92.203,-61.4005
91.8374,-61.2355
91.4683,-61.0719
91.1034,-60.9068
90.7363,-60.7412
90.3731,-60.5676
90.0137,-60.3909
89.6475,-60.22
89.2892,-60.0409
88.9467,-59.8309
88.6075,-59.6123
88.2678,-59.4011
87.9273,-59.1839
87.5727,-59.0014
87.1927,-58.8739
86.8077,-58.7501
86.4287,-58.6231
86.0452,-58.4982
85.6713,-58.3501
85.3035,-58.1922
84.9296,-58.0381
84.5619,-57.8796
84.1906,-57.7249
83.8174,-57.5712
83.4503,-57.4138
83.0747,-57.2633
82.7068,-57.1041
82.3562,-56.911
82.0093,-56.7025
81.6656,-56.4994
81.319,-56.2922
80.9619,-56.1107
80.5844,-55.981
80.1976,-55.8576
79.8204,-55.7275
79.4374,-55.6029
79.0597,-55.4597
78.6931,-55.3045
78.3178,-55.1503
77.9479,-54.9962
77.5805,-54.838
77.2254,-54.6421
76.89,-54.4275
76.539,-54.2267
76.1943,-54.0174
75.8638,-53.7979
75.5423,-53.5489
75.2481,-53.2781
74.9327,-53.0299
74.6202,-52.7688
74.2993,-52.5632
73.8796,-52.4898
73.5446,-52.3401
73.4216,-51.9835
73.3324,-51.5668
73.2475,-51.1887
73.29,-50.8126
73.4645,-50.4006
73.5264,-50.0628
73.2366,-49.9548
72.7845,-49.9887
72.4203,-49.928
72.1951,-49.6576
72.1556,-49.2592
72.2116,-48.8635
72.271,-48.471
72.2632,-48.0789
72.0708,-47.7255
71.9273,-47.3646
72.034,-46.9798
72.1748,-46.6001
72.2816,-46.2153
72.4156,-45.8321
72.5314,-45.451
72.6514,-45.0644
72.7783,-44.6837
72.8922,-44.2993
73.0099,-43.9123
73.1176,-43.5277
73.2255,-43.1386
73.3398,-42.7533
73.4584,-42.3709
73.5969,-41.991
73.7321,-41.6143
73.8648,-41.2341
74.0237,-40.8646
74.2031,-40.5072
74.3907,-40.1493
74.5726,-39.7918
74.7574,-39.4352
74.9607,-39.0869
75.1673,-38.7438
75.3727,-38.3969
75.5798,-38.0525
75.7861,-37.7083
75.9966,-37.3642
76.2078,-37.0236
76.4173,-36.6797
76.6287,-36.3374
76.8522,-36.0047
77.0925,-35.6811
77.3335,-35.3602
77.5743,-35.038
77.8135,-34.7144
78.0348,-34.3799
78.2512,-34.0398
78.4726,-33.705
78.6905,-33.367
78.9145,-33.0326
79.1459,-32.7047
79.3751,-32.3735
79.6057,-32.0447
79.837,-31.7159
80.0684,-31.3865
80.3046,-31.062
80.5386,-30.7342
80.7713,-30.4067
81.0223,-30.0939
81.2999,-29.8032
81.5867,-29.5217
81.8668,-29.2324
82.1489,-28.9469
82.434,-28.6628
82.7131,-28.3731
82.9977,-28.0904
83.2807,-27.803
83.56,-27.5155
83.85,-27.2357
84.0997,-26.9242
84.2918,-26.5744
84.4767,-26.2147
84.6617,-25.8589
84.8568,-25.5077
85.0078,-25.1387
85.0454,-24.7432
85.0665,-24.3388
85.1007,-23.938
85.095,-23.5383
85.0943,-23.133
85.0808,-22.7335
85.0484,-22.3334
85.0293,-21.9274
84.9902,-21.5342
84.9937,-21.1234
84.9743,-20.7289
84.7477,-20.4355
84.4718,-20.1501
84.3089,-19.7863
84.154,-19.412
83.9808,-19.0504
83.7929,-18.6971
83.5873,-18.3491
83.4711,-17.966
83.4341,-17.5643
83.3625,-17.1699
83.3165,-16.7718
83.3805,-16.3774
83.4645,-15.9831
83.5169,-15.5839
83.5756,-15.187
83.6349,-14.7888
83.7302,-14.4013
83.88,-14.0279
84.0265,-13.6533
84.1739,-13.2797
84.3219,-12.9055
84.4548,-12.5263
84.5852,-12.1458
84.6693,-11.7557
84.7071,-11.355
84.7478,-10.9552
84.8042,-10.5576
84.8721,-10.1609
84.8658,-9.7685
84.7643,-9.3786
84.6676,-8.9881
84.5528,-8.6054
84.3834,-8.2385
84.2149,-7.876
84.0432,-7.5107
83.8766,-7.145
83.7568,-6.7635
83.6518,-6.3726
83.5362,-5.9901
83.4332,-5.5999
83.3024,-5.2212
83.0952,-4.8803
82.8733,-4.5413
82.6642,-4.1999
82.4456,-3.8627
82.2561,-3.5063
82.0805,-3.1478
81.899,-2.7868
81.7164,-2.4288
81.4645,-2.1255
81.1647,-1.8534
80.8706,-1.5836
80.5663,-1.3187
80.2884,-1.0247
79.9939,-0.76067
79.6257,-0.59503
79.2497,-0.45852
78.8774,-0.30348
78.5084,-0.13794
78.1367,-0.016946
