70.2261,-316.3176
70.5958,-316.1476
70.9648,-315.976
71.3352,-315.8076
71.7042,-315.6359
72.0739,-315.466
72.4439,-315.2967
72.8127,-315.1248
73.1831,-314.9562
73.5523,-314.7851
73.9217,-314.6145
74.292,-314.4457
74.6607,-314.2736
75.0309,-314.1048
75.4005,-313.9343
75.7695,-313.7629
76.14,-313.5947
76.5088,-313.4225
76.8787,-313.2532
77.2487,-313.0836
77.6173,-312.9113
77.9881,-312.7438
78.3568,-312.5712
78.7266,-312.402
79.1023,-312.2459
79.4814,-312.0982
79.8626,-311.9559
80.2418,-311.808
80.6262,-311.6761
81.0184,-311.5668
81.4096,-311.4557
81.8019,-311.3472
82.176,-311.1953
82.5259,-310.9872
82.8787,-310.7855
83.2275,-310.5742
83.5873,-310.3908
83.9819,-310.2918
84.3773,-310.1971
84.774,-310.1031
85.1678,-310.0043
85.5124,-309.8044
85.8305,-309.5493
86.1495,-309.2974
86.4695,-309.0461
86.8218,-308.8495
87.1976,-308.6924
87.5712,-308.5317
87.9453,-308.3716
88.3112,-308.1937
88.6729,-308.0075
89.038,-307.8273
89.4004,-307.6427
89.7551,-307.4446
90.0926,-307.2178
90.4271,-306.9856
90.7654,-306.7596
91.1003,-306.5287
91.4506,-306.3216
91.8063,-306.1242
92.1599,-305.9229
92.5161,-305.7259
92.8127,-305.4615
93.0485,-305.1293
93.2892,-304.8026
93.5211,-304.4663
93.7648,-304.1421
94.0729,-303.8805
94.4018,-303.6382
94.7209,-303.3876
95.0461,-303.1419
95.369,-302.8944
95.6912,-302.6466
96.0157,-302.3999
96.3378,-302.1522
96.6647,-301.9095
96.9937,-301.6697
97.3215,-301.4294
97.6508,-301.1896
97.9791,-300.9496
98.3076,-300.7094
98.6366,-300.4696
98.9647,-300.2295
99.2937,-299.9895
99.6222,-299.7496
99.9506,-299.5095
100.2796,-299.2695
100.6079,-299.0297
100.9365,-298.7894
101.2653,-298.5496
101.5936,-298.3096
101.9225,-298.0694
102.2511,-297.8298
102.5795,-297.5894
102.9083,-297.3495
103.2368,-297.1098
103.5653,-296.8692
103.8942,-296.6299
104.2225,-296.3895
104.5512,-296.1492
104.8802,-295.9103
105.2078,-295.6685
105.5428,-295.4381
105.8911,-295.2284
106.2419,-295.0215
106.5916,-294.8139
106.9406,-294.6045
107.2802,-294.3803
107.6159,-294.1507
107.9547,-293.925
108.2917,-293.6969
108.6288,-293.4693
108.9671,-293.2428
109.3038,-293.0145
109.6416,-292.7875
109.9793,-292.5605
110.3161,-292.3324
110.6542,-292.1056
110.9917,-291.8784
111.3209,-291.64
111.6348,-291.3812
111.9441,-291.1168
112.2587,-290.8586
112.5688,-290.5951
112.8726,-290.3244
113.1755,-290.0527
113.4771,-289.7796
113.7807,-289.5086
114.0862,-289.2399
114.3946,-288.9745
114.7053,-288.7116
115.0125,-288.4448
115.3254,-288.1847
115.6478,-287.9365
115.9705,-287.6888
116.2947,-287.4425
116.6165,-287.1937
116.9292,-286.9336
117.2372,-286.6674
117.5445,-286.4009
117.8536,-286.1362
118.1581,-285.8663
118.4535,-285.5866
118.7489,-285.3065
119.0429,-285.0253
119.3404,-284.7479
119.651,-284.4849
119.9629,-284.2237
120.2748,-283.9621
120.5854,-283.6995
120.8753,-283.415
121.1504,-283.115
121.4273,-282.8171
121.703,-282.5176
121.9796,-282.2191
122.2617,-281.926
122.5451,-281.6339
122.8272,-281.3407
123.1107,-281.0488
123.4022,-280.765
123.6995,-280.4872
123.9966,-280.2091
124.2937,-279.9311
124.5844,-279.6466
124.8649,-279.3518
125.144,-279.0557
125.4248,-278.7612
125.7041,-278.4652
125.9827,-278.1687
126.2615,-277.8722
126.5392,-277.5748
126.8183,-277.2787
127.1042,-276.9893
127.3962,-276.706
127.6885,-276.4227
127.9802,-276.1391
128.2714,-275.8549
128.5581,-275.5661
128.8427,-275.2754
129.1302,-274.9872
129.4149,-274.6966
129.6861,-274.3938
129.9457,-274.0804
130.2045,-273.7664
130.4645,-273.4534
130.7279,-273.1433
131.0023,-272.8429
131.2802,-272.5456
131.553,-272.2437
131.8313,-271.9469
132.1232,-271.6636
132.4208,-271.3862
132.7182,-271.1082
133.0145,-270.8296
133.2992,-270.5396
133.5651,-270.2315
133.8282,-269.9211
134.0959,-269.6147
134.3584,-269.3037
134.6135,-268.9869
134.8618,-268.6644
135.1094,-268.3415
135.3595,-268.0207
135.6071,-267.6975
135.8595,-267.3785
136.1136,-267.0606
136.3639,-266.7397
136.6185,-266.4225
136.8641,-266.0979
137.103,-265.7685
137.3471,-265.4432
137.5825,-265.1106
137.8348,-264.7927
138.1244,-264.5073
138.4192,-264.2267
138.7133,-263.9453
139.0043,-263.6611
139.2775,-263.36
139.5433,-263.0514
139.8101,-262.7448
140.0798,-262.4395
140.3299,-262.1201
140.5421,-261.7737
140.7479,-261.4219
140.9574,-261.0735
141.1665,-260.7244
141.3918,-260.3855
141.6237,-260.0513
141.8529,-259.7149
142.0834,-259.3796
142.3197,-259.0486
142.5675,-258.7256
142.8142,-258.4024
143.0647,-258.0812
143.3084,-257.7558
143.509,-257.4025
143.6974,-257.0411
143.895,-256.686
144.0857,-256.3261
144.3115,-255.9906
144.5806,-255.6855
144.8488,-255.3795
145.1193,-255.0754
145.3865,-254.7687
145.626,-254.44
145.857,-254.1049
146.0938,-253.7741
146.3249,-253.439
146.5681,-253.1133
146.8299,-252.8014
147.0878,-252.4873
147.3547,-252.179
147.6083,-251.862
147.7969,-251.5032
147.9665,-251.1321
148.1478,-250.7685
148.3225,-250.4007
148.5355,-250.0566
148.7873,-249.7368
149.0349,-249.4141
149.2863,-249.0939
149.5359,-248.7725
149.7778,-248.4456
150.0216,-248.1194
150.2634,-247.7924
150.5058,-247.4655
150.7347,-247.1295
150.9467,-246.7822
151.1607,-246.436
151.3748,-246.09
151.5796,-245.7387
151.7624,-245.3755
151.9367,-245.0074
152.1191,-244.6438
152.2963,-244.2775
152.4992,-243.926
152.7337,-243.593
152.9595,-243.2551
153.1958,-242.923
153.4205,-242.5845
153.5966,-242.2179
153.7688,-241.849
153.942,-241.481
154.1157,-241.1129
154.3267,-240.7666
154.5592,-240.4328
154.7929,-240.0994
155.0254,-239.7657
155.2469,-239.4246
155.4557,-239.0753
155.6589,-238.723
155.87,-238.3746
156.0607,-238.0165
156.2064,-237.6368
156.3473,-237.2549
156.4895,-236.8737
156.6336,-236.4932
156.8197,-236.1331
157.0304,-235.7846
157.2364,-235.4339
157.4462,-235.0852
157.6483,-234.7321
157.8321,-234.3692
158.0133,-234.0048
158.1972,-233.6418
158.3788,-233.2777
158.5667,-232.9168
158.7603,-232.5588
158.9493,-232.1986
159.1453,-231.8416
159.3329,-231.4809
159.4859,-231.1041
159.6311,-230.7238
159.78,-230.3452
159.9278,-229.966
160.0964,-229.5962
160.2803,-229.2332
160.4632,-228.8697
160.646,-228.5062
160.8301,-228.1432
161.0196,-227.7832
161.2097,-227.4234
161.4008,-227.0641
161.589,-226.7035
161.752,-226.3311
161.9021,-225.9527
162.0558,-225.5761
162.2076,-225.1984
162.3734,-224.8271
162.5523,-224.4616
162.728,-224.0946
162.9075,-223.7294
163.0791,-223.3606
163.2296,-222.9826
163.377,-222.6033
163.5269,-222.2249
163.675,-221.846
163.8324,-221.4708
163.9957,-221.098
164.1572,-220.7246
164.3217,-220.3523
164.4704,-219.9741
164.592,-219.5859
164.7114,-219.1968
164.8314,-218.8081
164.9523,-218.4195
165.0912,-218.0372
165.2379,-217.6577
165.3826,-217.2773
165.5286,-216.8975
165.6788,-216.5194
165.8354,-216.1437
165.9887,-215.767
166.1476,-215.3919
166.2984,-215.0145
166.3951,-214.6207
166.4694,-214.22
166.5531,-213.8223
166.6296,-213.4222
166.7424,-213.0336
166.9042,-212.6602
167.0653,-212.2866
167.2285,-211.9138
167.3889,-211.5398
167.5202,-211.155
167.6442,-210.7673
167.7726,-210.3812
167.8961,-209.9935
168.0289,-209.6089
168.1766,-209.2299
168.3264,-208.8515
168.4768,-208.4733
168.6239,-208.0941
168.7553,-207.7089
168.8801,-207.3216
169.0107,-206.9362
169.1373,-206.5495
169.2518,-206.1592
169.3569,-205.7661
169.4608,-205.3726
169.5657,-204.9796
169.6709,-204.5864
169.7833,-204.1954
169.8982,-203.805
170.0104,-203.4138
170.1246,-203.0233
170.2351,-202.6317
170.3427,-202.2392
170.4509,-201.847
170.5593,-201.4547
170.6655,-201.062
170.7496,-200.6641
170.8221,-200.2635
170.9032,-199.865
170.9754,-199.4642
171.0604,-199.0667
171.181,-198.6782
171.3062,-198.2909
171.4283,-197.9029
171.5526,-197.5153
171.677,-197.1279
171.8038,-196.7412
171.9292,-196.3541
172.0552,-195.9673
172.1462,-195.5728
172.1887,-195.1679
172.2356,-194.764
172.2768,-194.3587
172.3241,-193.9551
172.4408,-193.5673
172.5815,-193.1855
172.722,-192.8033
172.8587,-192.4207
172.8959,-192.0237
172.8637,-191.6165
172.8472,-191.2114
172.8128,-190.8043
172.8111,-190.4003
172.902,-190.005
173.0071,-189.6106
173.1023,-189.2158
173.2026,-188.821
173.2716,-188.4207
173.3204,-188.0168
173.3735,-187.6132
173.4224,-187.2094
173.4797,-186.8065
173.5478,-186.4053
173.6142,-186.004
173.6836,-185.6029
173.7453,-185.2009
173.7906,-184.7965
173.8352,-184.392
173.879,-183.9875
173.9247,-183.5831
173.9881,-183.1813
174.0583,-182.7805
174.1271,-182.3794
174.1965,-181.9785
174.2457,-181.5751
174.2726,-181.1691
174.2992,-180.7631
174.3266,-180.357
174.3561,-179.9512
174.3906,-179.5458
174.4236,-179.1401
174.4579,-178.7347
174.4866,-178.3289
174.502,-177.9222
174.5173,-177.5157
174.5323,-177.1089
174.548,-176.7024
174.5802,-176.2968
174.6183,-175.8916
174.6537,-175.4864
174.6922,-175.0811
174.7152,-174.6753
174.7175,-174.2684
174.718,-173.8614
174.7193,-173.4546
174.7207,-173.0476
174.7264,-172.6408
174.7343,-172.234
174.7416,-171.8271
174.7489,-171.4203
174.7609,-171.0135
174.7793,-170.607
174.7987,-170.2006
174.8174,-169.7941
174.8361,-169.3877
174.8527,-168.981
174.8676,-168.5744
174.8844,-168.1679
174.8994,-167.7612
174.9035,-167.3544
174.9006,-166.9475
174.8979,-166.5405
174.8953,-166.1337
174.8977,-165.7268
174.9075,-165.32
174.9177,-164.9133
174.9274,-164.5064
174.9374,-164.0997
174.945,-163.6928
174.9508,-163.2859
174.9595,-162.8791
174.9641,-162.4722
174.9489,-162.0658
174.9248,-161.6595
174.9053,-161.253
174.882,-160.8468
174.8706,-160.4403
174.8819,-160.0335
174.8925,-159.6269
174.9056,-159.2199
174.9143,-158.8134
174.8832,-158.4081
174.8375,-158.0034
174.8012,-157.5986
174.7548,-157.1937
174.7431,-156.7895
174.7957,-156.3863
174.853,-155.9833
174.9095,-155.5802
174.9626,-155.1772
174.9346,-154.7768
174.8472,-154.3784
174.7721,-153.9793
174.6842,-153.5812
174.6085,-153.1819
174.6007,-152.7765
174.6116,-152.3692
174.6151,-151.9626
174.624,-151.5556
174.6002,-151.1506
174.5435,-150.7477
174.4876,-150.3447
174.4294,-149.9419
174.3745,-149.5387
174.3319,-149.1341
174.2913,-148.7291
174.2501,-148.3244
174.2084,-147.9196
174.1666,-147.5148
174.1243,-147.1101
174.0795,-146.7057
174.0401,-146.3005
173.9909,-145.8969
173.9104,-145.4982
173.8213,-145.101
173.7388,-144.7026
173.6528,-144.3048
173.5689,-143.9067
173.4882,-143.5078
173.4052,-143.1095
173.3233,-142.7108
173.2423,-142.3121
173.167,-141.9123
173.096,-141.5115
173.0218,-141.1115
172.949,-140.7111
172.8721,-140.3115
172.7884,-139.9134
172.7085,-139.5142
172.6258,-139.1159
172.5337,-138.7197
172.4319,-138.3257
172.3248,-137.9332
172.2243,-137.5388
172.1175,-137.1462
171.9914,-136.7594
171.8616,-136.3737
171.7325,-135.9879
171.6032,-135.602
171.4786,-135.2146
171.3587,-134.8259
171.2422,-134.4359
171.1222,-134.0471
171.0051,-133.6575
170.8943,-133.2657
170.7792,-132.8758
170.6715,-132.4828
170.5545,-132.0937
170.3871,-131.7246
170.1951,-131.3653
170.009,-131.0038
169.8196,-130.6434
169.6338,-130.2814
169.4556,-129.9157
169.277,-129.5499
169.0985,-129.1844
168.9203,-128.8186
168.7412,-128.4531
168.5618,-128.088
168.3831,-127.7223
168.2033,-127.3573
168.0259,-126.9911
167.8543,-126.622
167.6805,-126.2544
167.5114,-125.8838
167.3349,-125.5176
167.1188,-125.1732
166.8931,-124.8341
166.6762,-124.4902
166.4528,-124.1498
166.2658,-123.7906
166.1163,-123.4119
165.9614,-123.036
165.8158,-122.6553
165.653,-122.2837
165.4329,-121.9423
165.2001,-121.6077
164.9778,-121.2673
164.7483,-120.931
164.5148,-120.5979
164.2792,-120.2662
164.0423,-119.9352
163.8073,-119.6031
163.5757,-119.2685
163.3512,-118.9292
163.1276,-118.5892
162.9023,-118.2504
162.6787,-117.9104
162.4552,-117.5703
162.232,-117.2301
162.0094,-116.8895
161.786,-116.5493
161.558,-116.2124
161.3219,-115.881
161.0848,-115.5502
160.8491,-115.2186
160.6124,-114.8876
160.3781,-114.5549
160.1436,-114.2223
159.909,-113.8898
159.6745,-113.5573
159.4336,-113.2294
159.1891,-112.9041
158.9452,-112.5784
158.701,-112.2529
158.4563,-111.9278
158.2074,-111.6059
157.9558,-111.2861
157.7062,-110.9647
157.4551,-110.6445
157.1989,-110.3284
156.9378,-110.0164
156.6758,-109.705
156.4145,-109.3931
156.1533,-109.081
155.8982,-108.764
155.6468,-108.4441
155.3933,-108.1258
155.1412,-107.8063
154.8913,-107.4852
154.6441,-107.162
154.3983,-106.8377
154.1515,-106.5142
153.9043,-106.1909
153.6501,-105.8732
153.3918,-105.5588
153.1376,-105.241
152.88,-104.9261
152.6175,-104.6152
152.3531,-104.3058
152.0876,-103.9975
151.8236,-103.6878
151.5503,-103.3866
151.2681,-103.0933
150.9886,-102.7977
150.7054,-102.5054
150.4258,-102.2098
150.1622,-101.9001
149.9054,-101.5845
149.6491,-101.2684
149.3916,-100.9534
149.1357,-100.637
148.8821,-100.3187
148.6255,-100.003
148.3739,-99.6829
148.1162,-99.3684
147.8328,-99.0768
147.5413,-98.7926
147.2535,-98.5051
146.9636,-98.2194
146.6747,-97.9329
146.386,-97.6462
146.0976,-97.3592
145.8085,-97.0728
145.5203,-96.7854
145.2478,-96.4839
144.9887,-96.1702
144.7294,-95.8565
144.4697,-95.5434
144.2092,-95.2306
143.9469,-94.9196
143.6846,-94.6085
143.4231,-94.2967
143.1573,-93.9888
142.8807,-93.6903
142.601,-93.3947
142.3246,-93.0961
142.0451,-92.8003
141.7598,-92.5103
141.4713,-92.2233
141.1836,-91.9354
140.896,-91.6477
140.6041,-91.3641
140.3123,-91.0806
140.0199,-90.7976
139.7277,-90.5143
139.45,-90.2175
139.1833,-89.91
138.9159,-89.6034
138.6505,-89.2949
138.3743,-88.9968
138.0737,-88.723
137.7673,-88.4547
137.4663,-88.1811
137.1614,-87.9117
136.8548,-87.644
136.5478,-87.3771
136.2393,-87.1115
135.9326,-86.8442
135.6172,-86.5874
135.2946,-86.3389
134.976,-86.0864
134.6514,-85.8403
134.3349,-85.5851
134.0455,-85.2996
133.7613,-85.008
133.4742,-84.7198
133.1876,-84.431
132.8864,-84.1576
132.576,-83.8946
132.2678,-83.6288
131.9581,-83.3649
131.6477,-83.1019
131.3368,-82.8392
131.0249,-82.5779
130.7142,-82.3153
130.4013,-82.055
130.0863,-81.7976
129.7715,-81.5396
129.456,-81.2826
129.1415,-81.0245
128.832,-80.7602
128.5258,-80.4925
128.2188,-80.2251
127.9124,-79.9574
127.6043,-79.6918
127.2905,-79.4326
126.9751,-79.1756
126.662,-78.9155
126.3459,-78.6592
126.0201,-78.4161
125.6883,-78.1801
125.359,-77.9412
125.0285,-77.704
124.6929,-77.4735
124.3553,-77.2469
124.0163,-77.0214
123.6782,-76.795
123.3403,-76.5687
123.0018,-76.3423
122.6651,-76.1143
122.3265,-75.8883
121.9893,-75.6605
121.6613,-75.4204
121.3389,-75.1717
121.0177,-74.9221
120.6952,-74.674
120.367,-74.4333
120.0345,-74.1992
119.7018,-73.9645
119.3695,-73.7298
119.0371,-73.4953
118.7054,-73.2591
118.3741,-73.0233
118.0424,-72.7873
117.711,-72.5511
117.3804,-72.3144
117.0503,-72.0758
116.7192,-71.8399
116.3904,-71.5996
116.0577,-71.3656
115.7018,-71.1709
115.3347,-70.9936
114.9731,-70.808
114.6074,-70.6291
114.2574,-70.4242
113.9335,-70.1783
113.6082,-69.9339
113.2849,-69.6863
112.9598,-69.4423
112.6091,-69.2374
112.2486,-69.049
111.8887,-68.8593
111.5278,-68.6707
111.1802,-68.4613
110.8442,-68.2313
110.5104,-67.9987
110.1753,-67.7681
109.8353,-67.5442
109.489,-67.3314
109.1392,-67.123
108.7934,-66.9083
108.4439,-66.7007
108.0821,-66.5136
107.7191,-66.3305
107.3563,-66.1458
106.9939,-65.9606
106.6385,-65.7634
106.2854,-65.5602
105.9322,-65.3588
105.5792,-65.1563
105.2253,-64.9547
104.8717,-64.7545
104.5166,-64.5549
104.1627,-64.3542
103.8083,-64.1549
103.4482,-63.9645
103.0861,-63.78
102.7232,-63.5953
102.3606,-63.4104
102.0005,-63.222
101.642,-63.0281
101.2853,-62.8333
100.9272,-62.6399
100.5698,-62.4445
100.2148,-62.247
99.8587,-62.0489
99.5036,-61.8507
99.1482,-61.6531
98.7926,-61.4538
98.4391,-61.2538
98.0838,-61.0546
97.7297,-60.8539
97.3722,-60.661
97.0069,-60.4799
96.6428,-60.2997
96.2779,-60.1192
95.9127,-59.9387
95.5506,-59.7549
95.1871,-59.5702
94.8252,-59.3852
94.4629,-59.2004
94.0986,-59.0173
93.7346,-58.8377
93.3681,-58.6593
93.0029,-58.4798
92.6383,-58.3006
92.2765,-58.1123
91.9201,-57.9177
91.56,-57.7277
91.2024,-57.5324
90.8415,-57.3472
90.4656,-57.1886
90.0906,-57.0324
89.7155,-56.875
89.3389,-56.7182
88.9683,-56.5536
88.5958,-56.3872
88.2261,-56.2179
87.855,-56.0524
87.4849,-55.8806
87.1313,-55.6821
86.7769,-55.4806
86.4219,-55.2811
86.0692,-55.0806
85.7009,-54.9047
85.3298,-54.7406
84.9582,-54.5748
84.5841,-54.4115
84.215,-54.2451
83.8402,-54.0819
83.4695,-53.916
83.0979,-53.7517
82.7238,-53.5872
82.382,-53.3755
82.0597,-53.1254
81.7379,-52.8761
81.4202,-52.6239
81.0929,-52.3789
80.7587,-52.1503
80.4178,-51.9268
80.0781,-51.7009
79.7435,-51.4737
79.3996,-51.2509
79.0646,-51.0229
78.7263,-50.7976
78.3819,-50.5753
78.0539,-50.3423
77.7019,-50.1275
77.3796,-49.8861
77.1539,-49.5531
76.9431,-49.199
76.7253,-48.86
76.5103,-48.5124
76.2904,-48.1688
76.0838,-47.8223
75.8361,-47.4921
75.615,-47.1606
75.5452,-46.765
75.5178,-46.3518
75.4578,-45.9552
75.4148,-45.5464
75.3719,-45.1433
75.315,-44.7409
75.2794,-44.3336
75.3304,-43.9429
75.4612,-43.5549
75.5878,-43.1672
75.7237,-42.7876
75.8851,-42.4095
76.0364,-42.0349
76.1938,-41.659
76.3531,-41.2827
76.5111,-40.9109
76.6799,-40.5378
76.8364,-40.1632
77.0056,-39.7942
77.2124,-39.4417
77.4253,-39.0976
77.6345,-38.7467
77.846,-38.3992
78.0663,-38.0588
78.2964,-37.7208
78.5252,-37.3864
78.7547,-37.0495
78.9843,-36.7129
79.212,-36.3774
79.4411,-36.0391
79.6686,-35.703
79.8971,-35.3663
80.1287,-35.0306
80.3644,-34.7006
80.6035,-34.37
80.8378,-34.0376
81.0776,-33.7096
81.3353,-33.3936
81.5996,-33.0855
81.8618,-32.7736
82.1243,-32.4626
82.3875,-32.153
82.6494,-31.8405
82.9115,-31.53
83.1747,-31.2194
83.4386,-30.9096
83.7092,-30.6061
83.9821,-30.3039
84.2478,-29.9955
84.526,-29.6992
84.8427,-29.4458
85.1759,-29.2099
85.4962,-28.9595
85.8225,-28.7171
86.155,-28.4804
86.4807,-28.2391
86.8169,-28.0075
87.1464,-27.7688
87.474,-27.5306
87.8176,-27.3046
88.0965,-27.0312
88.2983,-26.6982
88.488,-26.3486
88.6412,-25.9764
88.7651,-25.5863
88.8966,-25.2014
88.9913,-24.8076
89.0158,-24.4031
88.9933,-23.9995
88.9668,-23.592
88.9405,-23.1858
88.9017,-22.782
88.8695,-22.3748
88.8352,-21.9703
88.7923,-21.5659
88.717,-21.1662
88.6057,-20.7736
88.5768,-20.3692
88.5598,-19.9786
88.3673,-19.633
88.1168,-19.2985
87.9109,-18.955
87.6919,-18.6087
87.4895,-18.2562
87.307,-17.8946
87.1931,-17.5083
87.2062,-17.1009
87.226,-16.6945
87.2336,-16.2883
87.3051,-15.8876
87.4001,-15.4944
87.4991,-15.0985
87.6019,-14.7044
87.7002,-14.3112
87.8104,-13.9172
87.9144,-13.5255
88.0178,-13.1316
88.1261,-12.7382
88.221,-12.3445
88.3245,-11.949
88.4258,-11.5558
88.5195,-11.1605
88.6206,-10.7641
88.6712,-10.3654
88.6619,-9.9582
88.6418,-9.5516
88.6257,-9.146
88.6308,-8.7371
88.5918,-8.3386
88.4486,-7.9586
88.2919,-7.5817
88.1422,-7.2051
87.9462,-6.8466
87.7459,-6.4938
87.5538,-6.1344
87.3523,-5.7805
87.1596,-5.4233
86.9635,-5.065
86.7679,-4.7099
86.5763,-4.3497
86.3672,-4.0008
86.1659,-3.6476
85.9542,-3.2995
85.6717,-3.0178
85.3451,-2.7749
85.0191,-2.5294
84.6963,-2.2846
84.3681,-2.0419
84.0149,-1.8462
83.64,-1.6903
83.265,-1.5267
82.8931,-1.3675
82.5166,-1.2103
82.1326,-1.0738
81.7455,-0.95728
81.3578,-0.8212
80.9723,-0.70035
80.5869,-0.57114
80.2013,-0.42361
79.8223,-0.30965
79.4317,-0.14534
79.056,-0.041119
