77.8828,-309.0361
78.2652,-308.9501
78.6458,-308.86
79.0267,-308.7726
79.4093,-308.6864
79.7887,-308.5936
80.1614,-308.4781
80.5279,-308.3378
80.8941,-308.2022
81.2627,-308.0714
81.6279,-307.9271
81.9963,-307.8
82.3772,-307.7123
82.7623,-307.6404
83.146,-307.5688
83.5311,-307.4945
83.9149,-307.4199
84.2966,-307.3384
84.6757,-307.2355
85.0527,-307.1342
85.4327,-307.0426
85.8096,-306.9304
86.1797,-306.8114
86.5488,-306.6806
86.9167,-306.5372
87.2941,-306.4938
87.6758,-306.518
88.0148,-306.3884
88.3208,-306.1302
88.6462,-305.9127
88.9485,-305.6735
89.189,-305.3577
89.448,-305.0754
89.7671,-304.8499
90.0928,-304.6267
90.4095,-304.4034
90.7345,-304.1825
91.0577,-303.96
91.3778,-303.7396
91.7043,-303.52
92.0239,-303.2949
92.3229,-303.0456
92.6165,-302.7837
92.9279,-302.55
93.2571,-302.3399
93.5894,-302.1303
93.9176,-301.9197
94.2361,-301.6931
94.5437,-301.4495
94.8506,-301.2089
95.1607,-300.9692
95.4665,-300.7244
95.7662,-300.4748
96.0629,-300.2183
96.3595,-299.9629
96.657,-299.7102
96.9539,-299.4537
97.2504,-299.199
97.5479,-298.9456
97.8451,-298.6896
98.1404,-298.4339
98.4407,-298.1834
98.7549,-297.9494
99.0756,-297.7262
99.3921,-297.4956
99.7094,-297.2661
100.028,-297.04
100.3415,-296.805
100.6566,-296.5731
100.973,-296.3437
101.2857,-296.1073
101.6086,-295.8874
101.9444,-295.687
102.2802,-295.4856
102.6182,-295.2887
102.9535,-295.0874
103.2663,-294.8546
103.5595,-294.5965
103.8502,-294.334
104.1433,-294.0746
104.4342,-293.8137
104.7202,-293.5459
105.0068,-293.2795
105.2944,-293.015
105.5783,-292.7447
105.8696,-292.4841
106.1761,-292.2416
106.4867,-292.0026
106.7957,-291.7632
107.1048,-291.5234
107.4135,-291.2822
107.721,-291.041
108.0253,-290.7948
108.3318,-290.551
108.6387,-290.3091
108.9242,-290.0424
109.1912,-289.7566
109.4577,-289.4712
109.7185,-289.1772
109.991,-288.8986
110.3036,-288.6675
110.6357,-288.4583
110.9658,-288.2486
111.2884,-288.0287
111.5828,-287.7722
111.8582,-287.4936
112.1431,-287.2255
112.4255,-286.9546
112.6958,-286.6718
112.9664,-286.3893
113.2347,-286.1043
113.5018,-285.8185
113.7768,-285.5401
114.0557,-285.2657
114.3358,-284.9927
114.617,-284.7202
114.8962,-284.4464
115.1767,-284.1736
115.4581,-283.9013
115.7378,-283.6281
116.0186,-283.3554
116.2999,-283.0833
116.583,-282.8136
116.8687,-282.5459
117.1531,-282.2771
117.4373,-282.0086
117.7183,-281.736
117.9908,-281.4553
118.2627,-281.1741
118.5358,-280.8935
118.808,-280.6128
119.0907,-280.3425
119.3817,-280.0805
119.6704,-279.8169
119.9612,-279.5549
120.2488,-279.2895
120.5243,-279.0121
120.798,-278.732
121.0742,-278.4549
121.3478,-278.1755
121.6212,-277.8952
121.8947,-277.6155
122.1664,-277.3341
122.4395,-277.0535
122.72,-276.7813
123.0093,-276.5178
123.3,-276.2559
123.5921,-275.9953
123.8787,-275.7295
124.1312,-275.4336
124.3544,-275.1117
124.5817,-274.7931
124.8096,-274.4756
125.0466,-274.1651
125.3222,-273.8875
125.6061,-273.6177
125.874,-273.3327
126.1605,-273.0656
126.4645,-272.8204
126.772,-272.5808
127.0952,-272.3542
127.3905,-272.1028
127.618,-271.7879
127.8245,-271.4527
128.039,-271.1264
128.2576,-270.8025
128.5095,-270.5051
128.7909,-270.2331
129.0665,-269.9551
129.3433,-269.6787
129.6206,-269.4029
129.874,-269.105
130.1161,-268.7976
130.3631,-268.4944
130.6066,-268.1877
130.8502,-267.8817
131.0994,-267.5802
131.3496,-267.279
131.6024,-266.9807
131.8556,-266.6822
132.1058,-266.3812
132.3563,-266.0809
132.6044,-265.7781
132.8522,-265.4753
133.1026,-265.1749
133.3431,-264.8661
133.5727,-264.5495
133.8015,-264.2322
134.029,-263.9134
134.2662,-263.603
134.5222,-263.3072
134.7814,-263.0137
135.0386,-262.7192
135.2963,-262.4246
135.5433,-262.1212
135.7805,-261.8104
136.0186,-261.4996
136.2567,-261.189
136.494,-260.8783
136.7289,-260.565
136.9618,-260.2507
137.1961,-259.9375
137.428,-259.6218
137.6682,-259.3138
137.9308,-259.024
138.1992,-258.7386
138.4635,-258.4506
138.7288,-258.1628
138.9801,-257.8632
139.2162,-257.5515
139.4544,-257.2408
139.6931,-256.9309
139.9293,-256.6191
140.1576,-256.3014
140.3692,-255.9725
140.5787,-255.642
140.7913,-255.3132
141.0028,-254.9844
141.235,-254.6701
141.4838,-254.3674
141.7256,-254.0604
141.971,-253.7554
142.2179,-253.4514
142.451,-253.1378
142.6857,-252.8242
142.9216,-252.512
143.151,-252.1956
143.3852,-251.8815
143.6125,-251.5632
143.8334,-251.2407
144.069,-250.9269
144.2874,-250.6035
144.4629,-250.2551
144.6224,-249.8984
144.7741,-249.5367
144.938,-249.1822
145.162,-248.8677
145.4279,-248.5804
145.6915,-248.291
145.9592,-248.0054
146.2171,-247.7122
146.4281,-247.3845
146.6133,-247.0391
146.8089,-246.7005
147.0035,-246.361
147.1845,-246.0139
147.3628,-245.666
147.5387,-245.3164
147.7095,-244.9641
147.8901,-244.6173
148.0901,-244.2815
148.3018,-243.9525
148.5147,-243.624
148.7258,-243.2946
148.9345,-242.9638
149.1312,-242.6255
149.3163,-242.2807
149.5085,-241.9399
149.701,-241.5992
149.8769,-241.2497
150.052,-240.8998
150.2281,-240.5506
150.393,-240.1951
150.5753,-239.8494
150.7909,-239.5244
151.0215,-239.209
151.2614,-238.8979
151.4838,-238.5777
151.6508,-238.2285
151.7804,-237.8591
151.9038,-237.4869
152.0409,-237.1216
152.2225,-236.7779
152.4389,-236.4518
152.6541,-236.1247
152.869,-235.7978
153.0802,-235.4688
153.2656,-235.1244
153.4371,-234.7724
153.617,-234.4252
153.7965,-234.0772
153.9564,-233.7207
154.0954,-233.3556
154.2269,-232.9866
154.3594,-232.6184
154.4965,-232.2522
154.645,-231.8902
154.801,-231.5314
154.9558,-231.172
155.1106,-230.8126
155.2694,-230.455
155.4337,-230.0999
155.5974,-229.7446
155.7567,-229.387
155.9321,-229.0377
156.1337,-228.703
156.3438,-228.3728
156.5561,-228.0432
156.7542,-227.7072
156.9049,-227.3482
157.0267,-226.975
157.1574,-226.6067
157.2911,-226.2392
157.4297,-225.8731
157.5884,-225.5157
157.7462,-225.1575
157.896,-224.7959
158.0601,-224.4409
158.231,-224.0886
158.4002,-223.7364
158.5804,-223.3882
158.7453,-223.034
158.8584,-222.6622
158.9417,-222.2798
159.0248,-221.897
159.1104,-221.5156
159.218,-221.1407
159.3617,-220.7768
159.5136,-220.4161
159.6565,-220.0519
159.8061,-219.6902
159.969,-219.3347
160.1365,-218.9811
160.3049,-218.6278
160.4732,-218.2747
160.6354,-217.9186
160.7885,-217.5585
160.9387,-217.1973
161.0911,-216.8368
161.2429,-216.4762
161.391,-216.1141
161.5328,-215.7493
161.67,-215.383
161.8107,-215.0178
161.9509,-214.6525
162.0856,-214.2851
162.2214,-213.9182
162.3533,-213.5498
162.4849,-213.1813
162.6433,-212.8245
162.8265,-212.4792
163.0136,-212.1356
163.2054,-211.7937
163.3785,-211.4444
163.4989,-211.0733
163.5969,-210.693
163.7103,-210.3192
163.8189,-209.9433
163.9118,-209.5626
164.0084,-209.1841
164.102,-208.804
164.1911,-208.4224
164.3144,-208.0536
164.4809,-207.6999
164.6558,-207.3495
164.8292,-206.9989
164.9977,-206.6458
165.1323,-206.2799
165.2403,-205.9036
165.3534,-205.5289
165.4646,-205.154
165.5753,-204.7785
165.7094,-204.4115
165.8601,-204.0507
166.0133,-203.6903
166.1649,-203.3297
166.2944,-202.9615
166.399,-202.5843
166.5011,-202.2066
166.6041,-201.8293
166.7139,-201.4537
166.8454,-201.0855
166.9849,-200.7197
167.1178,-200.3516
167.2533,-199.9848
167.3897,-199.6178
167.5193,-199.2486
167.6504,-198.8802
167.7842,-198.5122
167.9114,-198.1423
168.0326,-197.7704
168.1499,-197.3968
168.266,-197.0234
168.3875,-196.6514
168.5024,-196.2772
168.5965,-195.8979
168.6833,-195.5163
168.7703,-195.1346
168.8565,-194.7531
168.9639,-194.3775
169.0961,-194.0093
169.23,-193.6419
169.3662,-193.2746
169.4957,-192.9058
169.5874,-192.5268
169.6547,-192.1408
169.7265,-191.7564
169.7968,-191.3716
169.8703,-190.987
169.9612,-190.6068
170.0562,-190.2271
170.1468,-189.8463
170.2398,-189.4665
170.3327,-189.0862
170.4229,-188.7054
170.5149,-188.3253
170.6083,-187.9451
170.6966,-187.564
170.7778,-187.1814
170.8557,-186.7977
170.9321,-186.414
171.0144,-186.0316
171.1144,-185.6533
171.2234,-185.2777
171.3282,-184.9006
171.4357,-184.5242
171.5398,-184.1474
171.6249,-183.7654
171.7015,-183.3815
171.782,-182.999
171.8636,-182.6159
171.9386,-182.2321
171.9935,-181.8453
172.0328,-181.4555
172.0762,-181.0668
172.1205,-180.6782
172.1635,-180.2889
172.2173,-179.9017
172.2728,-179.5143
172.3231,-179.126
172.3793,-178.7391
172.4441,-178.3532
172.5177,-177.9689
172.5962,-177.5857
172.6688,-177.201
172.7456,-176.8174
172.8335,-176.4362
172.9211,-176.0548
173.0127,-175.6744
173.0995,-175.293
173.1527,-174.906
173.1855,-174.5162
173.2224,-174.1266
173.2566,-173.7367
173.2915,-173.3472
173.3363,-172.9584
173.3832,-172.5699
173.431,-172.1817
173.4799,-171.7933
173.5234,-171.4045
173.5645,-171.0155
173.6048,-170.6261
173.6435,-170.2368
173.6851,-169.8478
173.7244,-169.4583
173.7556,-169.0685
173.7869,-168.6784
173.8182,-168.2882
173.8466,-167.8981
173.8881,-167.5092
173.9488,-167.1227
174.0132,-166.7371
174.0797,-166.3509
174.1383,-165.9646
174.1487,-165.5759
174.1211,-165.1849
174.0998,-164.7946
174.075,-164.404
174.0612,-164.0136
174.1074,-163.6257
174.1687,-163.2382
174.2101,-162.85
174.2728,-162.4625
174.308,-162.0747
174.2627,-161.6867
174.2056,-161.2991
174.1579,-160.9112
174.1029,-160.5232
174.0835,-160.1338
174.0901,-159.7423
174.0916,-159.3511
174.1005,-158.96
174.1038,-158.5685
174.1154,-158.1779
174.1554,-157.788
174.1863,-157.3987
174.2261,-157.0084
174.2591,-156.6198
174.1862,-156.2408
174.0619,-155.8683
173.96,-155.494
173.823,-155.1207
173.7366,-154.7468
173.8068,-154.3668
173.9143,-153.9857
173.9974,-153.6062
174.0924,-153.2252
174.127,-152.8417
174.0799,-152.4541
174.0277,-152.0649
173.9828,-151.6775
173.9313,-151.2891
173.8802,-150.9007
173.8295,-150.5137
173.776,-150.1253
173.7237,-149.7375
173.7059,-149.349
173.7255,-148.9575
173.7447,-148.5673
173.7725,-148.1763
173.7802,-147.786
173.7002,-147.4056
173.5908,-147.0275
173.506,-146.6462
173.4067,-146.268
173.3184,-145.8863
173.2574,-145.4998
173.1849,-145.1159
173.1233,-144.7285
173.0548,-144.3441
172.9244,-143.9767
172.7738,-143.6154
172.6262,-143.2537
172.4705,-142.8936
172.36,-142.5221
172.3104,-142.1352
172.2748,-141.7446
172.2315,-141.3559
172.1879,-140.9674
172.151,-140.5774
172.087,-140.1926
171.9778,-139.8175
171.8653,-139.4426
171.7509,-139.0676
171.6594,-138.6909
171.6593,-138.2998
171.6797,-137.9069
171.6693,-137.5198
171.7005,-137.1223
171.6831,-136.7384
171.5104,-136.3937
171.2985,-136.0595
171.1048,-135.7217
170.9119,-135.3815
170.796,-135.0148
170.744,-134.6259
170.6807,-134.2397
170.6196,-133.8539
170.5415,-133.4712
170.4178,-133.0999
170.2918,-132.7296
170.1749,-132.3561
170.0456,-131.9866
169.8981,-131.6253
169.7328,-131.2705
169.5672,-130.9156
169.4026,-130.5611
169.2408,-130.2047
169.1112,-129.8358
168.9957,-129.4618
168.868,-129.0919
168.7489,-128.7191
168.623,-128.349
168.4686,-127.9892
168.3119,-127.6308
168.1587,-127.2709
168.0024,-126.9117
167.8402,-126.5564
167.6574,-126.2104
167.4683,-125.8674
167.2845,-125.5224
167.0999,-125.1773
166.9452,-124.8194
166.8234,-124.4474
166.6956,-124.0775
166.5688,-123.7075
166.4466,-123.3356
166.3017,-122.9726
166.1403,-122.6164
165.9756,-122.2614
165.8111,-121.9062
165.6473,-121.5511
165.4604,-121.2081
165.2516,-120.8768
165.0474,-120.5435
164.8391,-120.212
164.6338,-119.8789
164.4565,-119.5304
164.2838,-119.1788
164.1042,-118.8315
163.9332,-118.4794
163.7435,-118.1379
163.518,-117.8186
163.2883,-117.5017
163.0626,-117.1819
162.831,-116.8666
162.6088,-116.5448
162.4053,-116.2105
162.2084,-115.8725
162.0095,-115.5355
161.8091,-115.1994
161.6095,-114.863
161.4075,-114.5276
161.2003,-114.1958
160.9984,-113.8608
160.7963,-113.5253
160.5637,-113.2131
160.2995,-112.9262
160.0247,-112.6469
159.7495,-112.3672
159.5126,-112.0627
159.3453,-111.7119
159.2017,-111.3452
159.0467,-110.9866
158.8861,-110.6311
158.6845,-110.2993
158.433,-109.9985
158.1874,-109.6939
157.9515,-109.3823
157.6962,-109.0846
157.4348,-108.7946
157.1659,-108.5115
156.8832,-108.2377
156.6244,-107.9466
156.406,-107.6238
156.2026,-107.2886
156.0007,-106.9533
155.7909,-106.6238
155.5475,-106.3212
155.2657,-106.0513
154.975,-105.7876
154.693,-105.5168
154.4087,-105.249
154.1247,-104.9784
153.8551,-104.6953
153.5858,-104.4126
153.3041,-104.1378
153.0451,-103.8474
152.8524,-103.5141
152.7047,-103.15
152.5504,-102.79
152.3934,-102.4332
152.2413,-102.0714
152.0522,-101.7308
151.8289,-101.4101
151.6123,-101.0833
151.3933,-100.7595
151.1693,-100.439
150.9557,-100.1101
150.7339,-99.7886
150.5124,-99.4661
150.3,-99.1363
150.0464,-98.843
149.7517,-98.586
149.4567,-98.33
149.152,-98.0822
148.8621,-97.8212
148.6281,-97.5108
148.4126,-97.1834
148.1923,-96.8604
147.9784,-96.532
147.7333,-96.2314
147.4387,-95.9762
147.1295,-95.7347
146.8265,-95.4869
146.5515,-95.2137
146.322,-94.8989
146.1076,-94.5694
145.8848,-94.2485
145.6607,-93.9284
145.4194,-93.621
145.1492,-93.3384
144.8789,-93.0552
144.6161,-92.765
144.3317,-92.4975
144.0271,-92.2521
143.7221,-92.0077
143.4123,-91.7677
143.1073,-91.5228
142.8358,-91.2451
142.5917,-90.9399
142.3529,-90.6293
142.1146,-90.3189
141.865,-90.0186
141.5892,-89.7416
141.2984,-89.479
141.0142,-89.2106
140.7348,-88.9362
140.4425,-88.6762
140.1336,-88.4372
139.8164,-88.2081
139.4981,-87.9795
139.1856,-87.7449
138.8782,-87.5031
138.5767,-87.2532
138.2823,-86.9963
137.979,-86.748
137.6818,-86.4942
137.4314,-86.1965
137.2052,-85.8774
136.9741,-85.5629
136.7558,-85.235
136.5105,-84.9355
136.1958,-84.707
135.8637,-84.4963
135.5405,-84.2771
135.2163,-84.0583
134.9328,-83.7962
134.6961,-83.4853
134.4613,-83.1712
134.2233,-82.8611
133.9847,-82.5517
133.7358,-82.2485
133.4812,-81.9519
133.229,-81.6545
132.9837,-81.3445
132.7069,-81.0824
132.3494,-80.9417
131.9619,-80.844
131.599,-80.7115
131.2219,-80.5991
130.8482,-80.4817
130.559,-80.2519
130.3392,-79.931
130.1251,-79.6013
129.9081,-79.2769
129.6907,-78.9513
129.4575,-78.6367
129.2159,-78.33
128.9864,-78.0112
128.7417,-77.7078
128.4375,-77.4706
128.1003,-77.2692
127.7708,-77.0587
127.4386,-76.8535
127.1065,-76.6437
126.7733,-76.4417
126.4083,-76.3039
126.0315,-76.1898
125.6681,-76.0527
125.2898,-75.9389
124.9262,-75.8037
124.6374,-75.5563
124.3874,-75.2525
124.1284,-74.9611
123.8746,-74.6623
123.6208,-74.3642
123.3358,-74.1014
123.0176,-73.8744
122.6895,-73.6605
122.3691,-73.4357
122.0449,-73.2175
121.6938,-73.0527
121.3218,-72.9332
120.9485,-72.8157
120.5761,-72.6946
120.2022,-72.5798
119.8316,-72.4554
119.4685,-72.3086
119.1099,-72.1528
118.7494,-72.0011
118.3872,-71.8511
118.0288,-71.6962
117.6799,-71.5215
117.3486,-71.313
117.0261,-71.0926
116.69,-70.8892
116.3687,-70.6689
116.1163,-70.3793
115.9062,-70.0487
115.6885,-69.7247
115.4799,-69.3907
115.259,-69.0721
114.954,-68.8509
114.5904,-68.7001
114.2345,-68.5398
113.8774,-68.3808
113.517,-68.2253
113.1778,-68.0338
112.8454,-67.8262
112.5096,-67.6254
112.1788,-67.4173
111.8449,-67.212
111.5089,-67.0121
111.1758,-66.8071
110.8385,-66.6078
110.5022,-66.4087
110.169,-66.2033
109.8321,-66.0036
109.4988,-65.7996
109.1664,-65.5924
108.8295,-65.3933
108.5037,-65.1776
108.186,-64.948
107.8644,-64.7266
107.5499,-64.4923
107.229,-64.2693
106.8735,-64.1189
106.4977,-64.0121
106.1215,-63.9036
105.7416,-63.8049
105.3714,-63.6859
105.0326,-63.4963
104.7126,-63.2682
104.3866,-63.0534
104.0593,-62.8386
103.7376,-62.6151
103.3964,-62.4288
103.031,-62.2863
102.669,-62.141
102.304,-61.9989
101.9368,-61.8601
101.6183,-61.6515
101.3497,-61.3696
101.0887,-61.0773
100.8313,-60.78
100.5498,-60.5164
100.2016,-60.3486
99.8285,-60.2155
99.4717,-60.0595
99.1108,-59.9095
98.7544,-59.7462
98.4148,-59.5531
98.0696,-59.3687
97.7247,-59.1826
97.383,-58.9936
97.0233,-58.8395
96.6586,-58.6965
96.298,-58.5472
95.9326,-58.4049
95.5834,-58.2319
95.2538,-58.0215
94.9213,-57.8148
94.591,-57.6051
94.2609,-57.3952
93.9163,-57.2101
93.5667,-57.0349
93.2166,-56.8605
92.8648,-56.6882
92.5153,-56.5132
92.1597,-56.3499
91.8015,-56.1912
91.4475,-56.026
91.0899,-55.8664
90.7449,-55.6835
90.4185,-55.4679
90.0877,-55.2592
89.7607,-55.0432
89.4315,-54.8334
89.0694,-54.6867
88.6993,-54.5577
88.3368,-54.4146
87.9635,-54.2898
87.6121,-54.1261
87.2954,-53.8976
86.979,-53.6671
86.668,-53.4284
86.3488,-53.2046
85.9862,-53.0624
85.6124,-52.9454
85.2451,-52.8134
84.8685,-52.6976
84.5278,-52.527
84.2489,-52.2554
83.9835,-51.9646
83.7104,-51.6871
83.4379,-51.4046
83.1546,-51.1357
82.8592,-50.8799
82.5651,-50.62
82.2735,-50.3606
81.9783,-50.1036
81.6842,-49.8442
81.3934,-49.5843
81.096,-49.3287
80.8053,-49.0663
80.5416,-48.7797
80.2849,-48.4829
80.0245,-48.1906
79.7717,-47.894
79.5081,-47.6017
79.2532,-47.3067
79.0728,-46.9681
78.9362,-46.6022
78.7515,-46.2614
78.525,-45.9387
78.3171,-45.6076
78.1136,-45.2768
77.8808,-44.9541
77.6935,-44.6183
77.6477,-44.2479
77.6898,-43.8553
77.7206,-43.4649
77.7447,-43.0765
77.7836,-42.6853
77.8363,-42.2988
77.9155,-41.9168
77.9983,-41.5327
78.0766,-41.1501
78.1956,-40.7784
78.3319,-40.4101
78.4498,-40.0373
78.6173,-39.6893
78.8646,-39.3871
79.1267,-39.097
79.3792,-38.7975
79.6371,-38.5027
79.8926,-38.2078
80.1394,-37.9029
80.381,-37.5955
80.6208,-37.2872
80.8617,-36.9775
81.1028,-36.6701
81.3431,-36.3615
81.583,-36.0516
81.8264,-35.7458
82.0624,-35.434
82.2582,-35.0972
82.423,-34.7425
82.5951,-34.3908
82.7627,-34.0371
82.9339,-33.686
83.1588,-33.3682
83.4144,-33.0714
83.6592,-32.767
83.9129,-32.4681
84.163,-32.1678
84.3846,-31.8453
84.6052,-31.522
84.8255,-31.1994
85.0372,-30.8686
85.2879,-30.5747
85.5975,-30.3403
85.9256,-30.1236
86.2448,-29.897
86.5627,-29.6712
86.8931,-29.4594
87.2253,-29.252
87.5529,-29.0424
87.8916,-28.8405
88.2217,-28.6318
88.5415,-28.4132
88.8885,-28.2107
89.1726,-27.9654
89.2805,-27.6047
89.319,-27.2006
89.4102,-26.8258
89.5177,-26.4517
89.6398,-26.0769
89.7829,-25.7138
89.8507,-25.3356
89.8209,-24.9459
89.7756,-24.5592
89.7371,-24.1681
89.6797,-23.7812
89.6008,-23.4004
89.5171,-23.0154
89.439,-22.633
89.3576,-22.2516
89.2799,-21.8656
89.2171,-21.4813
89.1502,-21.0958
89.0828,-20.7083
89.0222,-20.3244
88.9392,-19.9405
88.8519,-19.5582
88.7731,-19.1789
88.6648,-18.7953
88.6131,-18.4167
88.7333,-18.0552
88.9223,-17.6998
89.0497,-17.335
89.1421,-16.9566
89.2241,-16.5711
89.2956,-16.1879
89.4037,-15.8136
89.5605,-15.4545
89.7316,-15.1046
89.8993,-14.7494
90.0617,-14.3932
90.2266,-14.0405
90.3829,-13.6793
90.4816,-13.306
90.52,-12.9207
90.5629,-12.5239
90.582,-12.1429
90.4361,-11.8042
90.1589,-11.4915
90.0212,-11.167
90.1432,-10.8201
90.3624,-10.4706
90.5174,-10.1217
90.5487,-9.7549
90.4685,-9.3734
90.3728,-8.991
90.2864,-8.6123
90.1427,-8.248
89.9728,-7.8937
89.8282,-7.532
89.6674,-7.174
89.4836,-6.8286
89.3011,-6.4843
89.1057,-6.1435
88.914,-5.8028
88.7607,-5.445
88.637,-5.0746
88.5017,-4.7096
88.3163,-4.3649
88.1113,-4.0313
87.9364,-3.6794
87.7323,-3.3487
87.4333,-3.11
87.0957,-2.9158
86.7999,-2.6675
86.5609,-2.3588
86.3376,-2.0376
86.0758,-1.749
85.7688,-1.5106
85.4378,-1.3029
85.0926,-1.1144
84.7467,-0.93675
84.3987,-0.75765
84.0369,-0.60482
83.6685,-0.48425
83.2953,-0.36087
82.922,-0.23697
82.5559,-0.11241
82.1774,-0.0068004
81.7882,0.0022907
