99.8763,-51.8379
98.9975,-51.5477
98.1145,-51.2564
97.2231,-50.972
96.3339,-50.709
95.4409,-50.462
94.5407,-50.2158
93.642,-49.9616
92.7542,-49.698
91.8661,-49.4208
90.975,-49.1329
90.0929,-48.8415
89.2151,-48.5432
88.3341,-48.2362
87.4522,-47.9306
86.5739,-47.6406
85.6874,-47.3641
84.7935,-47.0913
83.9065,-46.8162
83.0241,-46.5331
82.1398,-46.2379
81.2628,-45.9243
80.411,-45.5775
79.588,-45.1707
78.8093,-44.689
78.1127,-44.1321
77.5419,-43.4884
77.1311,-42.7441
76.8829,-41.9098
76.761,-41.019
76.7036,-40.0988
76.6764,-39.1676
76.6784,-38.2385
76.716,-37.3118
76.7892,-36.386
76.9047,-35.4646
77.072,-34.5535
77.2856,-33.6528
77.5514,-32.7679
77.883,-31.9076
78.2773,-31.0709
78.7161,-30.2552
79.1938,-29.4615
79.707,-28.687
80.2325,-27.92
80.7593,-27.1584
81.3049,-26.4174
81.8975,-25.7179
82.5479,-25.0764
83.252,-24.4912
83.9889,-23.9399
84.7084,-23.3793
85.3615,-22.7655
85.924,-22.0759
86.3806,-21.3083
86.7071,-20.4747
86.9046,-19.593
87.0069,-18.6839
87.0402,-17.7606
87.0226,-16.8337
86.9655,-15.912
86.8789,-14.9946
86.7827,-14.0774
86.7179,-13.1573
86.71,-12.2345
86.7318,-11.3094
86.7351,-10.3877
86.6746,-9.4786
86.5198,-8.5861
86.2668,-7.7084
85.9532,-6.839
85.6206,-5.9746
85.2693,-5.1153
84.8863,-4.2685
84.4647,-3.4439
84.0001,-2.6499
83.4749,-1.9017
82.875,-1.2251
82.1981,-0.63958
81.4456,-0.13535
