90.2758,-309.6196
90.5902,-309.3723
90.9024,-309.1223
91.2143,-308.8706
91.5499,-308.6636
91.9271,-308.5339
92.3114,-308.417
92.6887,-308.2873
93.0719,-308.1687
93.4363,-308.0114
93.7722,-307.7951
94.1052,-307.5721
94.4414,-307.3559
94.7821,-307.1461
95.1306,-306.9492
95.4777,-306.7504
95.8243,-306.5501
96.1728,-306.3537
96.5192,-306.1534
96.8663,-305.9542
97.2153,-305.7583
97.5599,-305.5551
97.8934,-305.3348
98.2183,-305.101
98.5452,-304.87
98.8732,-304.6412
99.1986,-304.408
99.5273,-304.1797
99.855,-303.9505
100.1802,-303.7165
100.5196,-303.5071
100.8796,-303.3342
101.2458,-303.1714
101.6085,-303.0028
101.9717,-302.8352
102.3364,-302.6698
102.6993,-302.5017
103.0629,-302.3346
103.4273,-302.1687
103.79,-302.0005
104.1541,-301.834
104.5181,-301.6676
104.8809,-301.4993
105.2454,-301.3335
105.6087,-301.1663
105.9719,-300.9983
106.3365,-300.8329
106.6993,-300.6647
107.0631,-300.4977
107.4275,-300.3322
107.7898,-300.1629
108.1547,-299.998
108.5177,-299.83
108.8715,-299.6437
109.2218,-299.4498
109.5714,-299.2557
109.9201,-299.059
110.2729,-298.8705
110.6347,-298.7003
111.0017,-298.5398
111.3649,-298.3722
111.7294,-298.2077
112.1035,-298.0644
112.4783,-297.9254
112.8524,-297.7838
113.2305,-297.6503
113.5984,-297.4968
113.9457,-297.2989
114.285,-297.0857
114.6298,-296.8833
114.9722,-296.6758
115.2999,-296.4468
115.622,-296.2097
115.9446,-295.9726
116.2652,-295.7333
116.5946,-295.5065
116.9322,-295.2916
117.2692,-295.0761
117.609,-294.8644
117.9427,-294.644
118.2669,-294.4094
118.5919,-294.1762
118.9125,-293.936
119.2401,-293.7071
119.5958,-293.5268
119.9623,-293.3655
120.3259,-293.1983
120.6903,-293.0332
121.0359,-292.8367
121.3546,-292.5945
121.6699,-292.3481
121.9903,-292.1086
122.3028,-291.8583
122.6072,-291.5991
122.9107,-291.3381
123.2124,-291.075
123.5173,-290.8164
123.8349,-290.5733
124.1617,-290.3426
124.4889,-290.1122
124.8148,-289.8799
125.139,-289.6457
125.4582,-289.404
125.7741,-289.1585
126.095,-288.9194
126.4101,-288.6729
126.7032,-288.401
126.9902,-288.1221
127.2798,-287.8457
127.5684,-287.5688
127.8794,-287.3191
128.2115,-287.0953
128.54,-286.8677
128.8735,-286.6455
129.2011,-286.4165
129.4976,-286.149
129.7842,-285.869
130.076,-285.5958
130.3635,-285.3172
130.657,-285.0452
130.9615,-284.786
131.2678,-284.5281
131.5732,-284.2697
131.8786,-284.0113
132.1867,-283.7556
132.4955,-283.5015
132.8033,-283.2457
133.1142,-282.9934
133.4182,-282.734
133.704,-282.4538
133.9835,-282.1673
134.2675,-281.8857
134.5495,-281.6015
134.8253,-281.3118
135.0992,-281.02
135.3725,-280.7277
135.6446,-280.4345
135.9197,-280.1437
136.2024,-279.8608
136.4901,-279.5826
136.7769,-279.3033
137.0626,-279.0235
137.3492,-278.7441
137.6332,-278.4621
137.9161,-278.1794
138.2021,-277.8991
138.4842,-277.6156
138.7596,-277.3254
139.0308,-277.0309
139.2999,-276.7351
139.5728,-276.4421
139.8297,-276.1366
140.0551,-275.806
140.2785,-275.474
140.5035,-275.1431
140.7264,-274.8107
140.9955,-274.5205
141.3079,-274.2706
141.6183,-274.0187
141.9361,-273.7737
142.2407,-273.5164
142.4857,-273.2028
142.7089,-272.8686
142.945,-272.5467
143.1751,-272.219
143.4053,-271.8913
143.6439,-271.5707
143.8784,-271.2459
144.1129,-270.9218
144.352,-270.6013
144.5977,-270.2854
144.858,-269.9817
145.1192,-269.6785
145.3728,-269.3686
145.6434,-269.0746
145.9369,-268.8032
146.2356,-268.5372
146.5378,-268.2736
146.8288,-268.0004
147.0791,-267.691
147.3049,-267.3593
147.5378,-267.0345
147.7704,-266.709
147.9968,-266.3784
148.2271,-266.0518
148.4556,-265.7231
148.6819,-265.3928
148.9129,-265.0666
149.1418,-264.7378
149.3717,-264.4105
149.6052,-264.0858
149.8322,-263.7556
150.0724,-263.4366
150.3387,-263.1378
150.6062,-262.8403
150.8748,-262.5437
151.142,-262.2457
151.369,-261.9195
151.5623,-261.5694
151.7548,-261.2182
151.9453,-260.8664
152.1456,-260.5205
152.3733,-260.1916
152.6106,-259.8693
152.8411,-259.5422
153.0736,-259.2165
153.3203,-258.9018
153.5752,-258.5933
153.8304,-258.2854
154.0915,-257.9814
154.3328,-257.6638
154.5272,-257.3153
154.7072,-256.9569
154.8959,-256.6043
155.0831,-256.251
155.2827,-255.9042
155.5015,-255.5692
155.7199,-255.2342
155.932,-254.8943
156.1564,-254.5635
156.4083,-254.2532
156.6701,-253.9502
156.9294,-253.6452
157.1832,-253.3366
157.3982,-253.002
157.5775,-252.6436
157.7635,-252.2894
157.9488,-251.935
158.13,-251.5777
158.3278,-251.2302
158.527,-250.8832
158.7243,-250.5349
158.928,-250.1906
159.1222,-249.8406
159.3057,-249.4851
159.4859,-249.128
159.6654,-248.7701
159.848,-248.4142
160.0277,-248.0567
160.2078,-247.6991
160.3905,-247.3434
160.5686,-246.9849
160.7567,-246.6317
160.9541,-246.2838
161.1489,-245.9343
161.3503,-245.5882
161.5326,-245.2332
161.6735,-244.8589
161.8069,-244.4814
161.9441,-244.1057
162.0817,-243.7298
162.2364,-243.361
162.3981,-242.9947
162.5531,-242.6259
162.7135,-242.2594
162.8849,-241.8978
163.0648,-241.5406
163.2466,-241.184
163.4255,-240.8261
163.607,-240.4696
163.7903,-240.1137
163.9731,-239.7579
164.1576,-239.4027
164.3405,-239.0467
164.5185,-238.6886
164.6893,-238.3266
164.8567,-237.9631
165.0282,-237.6017
165.1963,-237.2384
165.353,-236.8705
165.5031,-236.4996
165.6513,-236.1277
165.8021,-235.7572
165.9505,-235.3856
166.0874,-235.0095
166.2209,-234.6325
166.3558,-234.2556
166.4894,-233.8784
166.6322,-233.5048
166.7836,-233.1342
166.9331,-232.7633
167.0864,-232.3935
167.2344,-232.0217
167.3557,-231.641
167.4653,-231.2558
167.5798,-230.8725
167.6903,-230.488
167.8099,-230.1062
167.9523,-229.7324
168.0982,-229.3597
168.241,-228.9859
168.3857,-228.6129
168.5201,-228.236
168.6473,-227.8566
168.778,-227.4785
168.9049,-227.0988
169.037,-226.7213
169.1857,-226.3498
169.3353,-225.9786
169.484,-225.6072
169.6346,-225.2363
169.7602,-224.8574
169.8565,-224.4693
169.95,-224.0799
170.0439,-223.6911
170.1406,-223.3028
170.2558,-222.9197
170.379,-222.539
170.4968,-222.1565
170.6175,-221.775
170.7415,-221.3946
170.8664,-221.0144
170.9939,-220.6351
171.1198,-220.2553
171.2456,-219.8753
171.3719,-219.4957
171.4958,-219.1152
171.6215,-218.7352
171.7468,-218.3553
171.8682,-217.974
171.9867,-217.5918
172.1027,-217.2089
172.2214,-216.8266
172.3328,-216.4426
172.423,-216.0527
172.5092,-215.6618
172.5994,-215.2721
172.6864,-214.8814
172.782,-214.493
172.8848,-214.1063
172.9854,-213.7189
173.0889,-213.3324
173.1899,-212.9452
173.2865,-212.5568
173.3838,-212.1688
173.4796,-211.7802
173.5767,-211.392
173.6726,-211.0035
173.7666,-210.6145
173.8633,-210.2263
173.9568,-209.8372
174.0586,-209.4503
174.1768,-209.068
174.294,-208.6854
174.4141,-208.3036
174.5298,-207.9207
174.6166,-207.5304
174.6931,-207.1375
174.774,-206.7457
174.8521,-206.3532
174.929,-205.9605
174.997,-205.5662
175.0622,-205.1714
175.1299,-204.777
175.1976,-204.3827
175.2986,-203.9963
175.4217,-203.615
175.5312,-203.2308
175.657,-202.8498
175.766,-202.4658
175.7997,-202.0681
175.8168,-201.6678
175.8429,-201.2689
175.8625,-200.8688
175.9344,-200.479
176.0616,-200.0997
176.1896,-199.7205
176.3195,-199.342
176.445,-198.9621
176.5468,-198.5755
176.6376,-198.1856
176.7298,-197.7964
176.8251,-197.4076
176.9017,-197.0155
176.943,-196.618
176.9767,-196.2189
177.0139,-195.8205
177.0529,-195.4225
177.1202,-195.0285
177.207,-194.6377
177.2872,-194.2458
177.371,-193.8544
177.4473,-193.4619
177.5004,-193.0653
177.5532,-192.6685
177.6085,-192.2723
177.6594,-191.8753
177.7226,-191.4802
177.7904,-191.0859
177.8539,-190.6909
177.9267,-190.2971
177.9874,-189.9019
178.011,-189.5032
178.0171,-189.1031
178.0256,-188.7028
178.0359,-188.303
178.0422,-187.9029
178.0482,-187.5025
178.0581,-187.103
178.0588,-186.7021
178.0725,-186.3028
178.1435,-185.911
178.2422,-185.5224
178.3308,-185.1326
178.4268,-184.744
178.51,-184.3529
178.5551,-183.9556
178.5946,-183.5572
178.6396,-183.1596
178.6801,-182.7616
178.7307,-182.3646
178.79,-181.9689
178.8468,-181.5729
178.9074,-181.1772
178.9634,-180.7811
179.0038,-180.383
179.0413,-179.9845
179.0808,-179.5865
179.1191,-179.188
179.1685,-178.7911
179.2258,-178.3951
179.28,-177.9985
179.3393,-177.6028
179.3919,-177.2062
179.418,-176.807
179.4372,-176.4073
179.4617,-176.0078
179.483,-175.6082
179.5051,-175.2087
179.5275,-174.8091
179.548,-174.4096
179.5706,-174.0101
179.5915,-173.6104
179.6096,-173.2107
179.6267,-172.8109
179.6437,-172.4111
179.6611,-172.0114
179.6704,-171.6113
179.6731,-171.2112
179.6768,-170.8111
179.6786,-170.4109
179.6828,-170.0108
179.6916,-169.6107
179.7014,-169.2107
179.7118,-168.8107
179.7205,-168.4106
179.7389,-168.011
179.7682,-167.6118
179.794,-167.2127
179.8276,-166.8136
179.8495,-166.4145
179.8201,-166.0162
179.7731,-165.6183
179.7365,-165.2201
179.6941,-164.8221
179.6537,-164.424
179.6166,-164.0256
179.5761,-163.6274
179.5379,-163.2291
179.4999,-162.8308
179.4719,-162.4317
179.4506,-162.032
179.4235,-161.6328
179.4013,-161.2332
179.3611,-160.8357
179.2889,-160.4421
179.2187,-160.0483
179.1448,-159.6548
179.0757,-159.2609
179.0515,-158.8625
179.0469,-158.4621
179.0372,-158.0623
179.0327,-157.662
179.014,-157.2627
178.9712,-156.865
178.9231,-156.4675
178.8799,-156.0698
178.8325,-155.6725
178.7659,-155.2781
178.6896,-154.8854
178.6148,-154.4922
178.5391,-154.0992
178.4638,-153.7064
178.3733,-153.3167
178.269,-152.9303
178.17,-152.5429
178.0625,-152.1568
177.9663,-151.7691
177.9199,-151.3723
177.8906,-150.9727
177.852,-150.5749
177.8183,-150.1758
177.7873,-149.777
177.7579,-149.3781
177.7312,-148.9785
177.7038,-148.5796
177.6738,-148.1804
177.6295,-147.7828
177.576,-147.3864
177.5274,-146.9889
177.4771,-146.5922
177.4234,-146.1956
177.3712,-145.7987
177.3164,-145.4026
177.2612,-145.006
177.2218,-144.6082
177.2071,-144.2089
177.1983,-143.8082
177.1869,-143.4085
177.173,-143.0088
177.1301,-142.6111
177.068,-142.216
177.0156,-141.8192
176.9568,-141.4232
176.9122,-141.0264
176.8995,-140.6256
176.8805,-140.2268
176.8694,-139.826
176.8499,-139.427
176.7389,-139.0493
176.573,-138.684
176.4185,-138.3157
176.251,-137.9516
176.0969,-137.5826
175.9945,-137.1966
175.902,-136.8067
175.8043,-136.4189
175.7081,-136.0306
175.5884,-135.6491
175.4518,-135.273
175.3175,-134.8962
175.1809,-134.5198
175.0658,-134.1378
174.9861,-133.7457
174.9096,-133.3527
174.8308,-132.9607
174.752,-132.5681
174.6502,-132.1814
174.5397,-131.7968
174.4366,-131.41
174.3273,-131.0252
174.2234,-130.6388
174.1261,-130.2504
174.0224,-129.8643
173.9274,-129.4751
173.8238,-129.0889
173.6815,-128.7159
173.5233,-128.3481
173.3676,-127.9796
173.2099,-127.6118
173.0575,-127.2418
172.9145,-126.8683
172.7747,-126.4932
172.6329,-126.119
172.4911,-125.7449
172.3473,-125.3713
172.1991,-124.9997
172.0538,-124.627
171.9064,-124.2547
171.7629,-123.8816
171.6416,-123.5001
171.5227,-123.1178
171.4007,-122.7372
171.2814,-122.3547
171.1311,-121.9849
170.9606,-121.6229
170.797,-121.2574
170.625,-120.8965
170.4659,-120.5292
170.3225,-120.1552
170.1704,-119.7864
170.036,-119.407
169.8777,-119.042
169.6346,-118.7267
169.3692,-118.4247
169.119,-118.1137
168.8613,-117.807
168.6192,-117.4891
168.3996,-117.1547
168.18,-116.82
167.9575,-116.4876
167.745,-116.1487
167.5572,-115.7957
167.3775,-115.4379
167.1916,-115.0836
167.0093,-114.7275
166.8125,-114.3795
166.595,-114.0435
166.3788,-113.7069
166.1611,-113.3711
165.945,-113.0343
165.7422,-112.6895
165.5425,-112.3426
165.3416,-111.9967
165.1414,-111.6501
164.9411,-111.3037
164.7411,-110.9572
164.5402,-110.611
164.3413,-110.2639
164.1394,-109.9184
163.9278,-109.5788
163.7125,-109.2415
163.4985,-108.9034
163.2847,-108.5651
163.0663,-108.2299
162.8427,-107.8979
162.6213,-107.5648
162.3946,-107.2347
162.1758,-106.9
161.9903,-106.5458
161.8135,-106.1865
161.6311,-105.8305
161.451,-105.4732
161.2397,-105.1354
160.995,-104.8186
160.7525,-104.5004
160.5089,-104.183
160.2651,-103.8655
160.0337,-103.5392
159.8027,-103.2123
159.5709,-102.8863
159.3413,-102.5585
159.1049,-102.2357
158.862,-101.9178
158.6173,-101.6011
158.3726,-101.2844
158.1296,-100.9666
157.8889,-100.6469
157.6504,-100.3256
157.4105,-100.0054
157.1708,-99.6848
156.9348,-99.3618
156.6989,-99.0386
156.4635,-98.7149
156.2286,-98.391
155.9906,-98.0693
155.7482,-97.7509
155.5025,-97.4352
155.2601,-97.1167
155.0149,-96.8006
154.7505,-96.5008
154.4744,-96.2111
154.1993,-95.9206
153.9233,-95.6308
153.6492,-95.3393
153.3785,-95.0446
153.1082,-94.7495
152.838,-94.4545
152.5673,-94.1597
152.2986,-93.8631
152.0306,-93.5661
151.7615,-93.2699
151.4945,-92.9718
151.222,-92.6789
150.9399,-92.3951
150.6559,-92.1133
150.3725,-91.8307
150.0895,-91.5479
149.8022,-91.2693
149.5115,-90.9942
149.2234,-90.7168
148.9304,-90.4439
148.644,-90.1648
148.3839,-89.8611
148.1301,-89.5514
147.8728,-89.245
147.6163,-88.938
147.3369,-88.6529
147.0372,-88.3876
146.74,-88.1198
146.4412,-87.8536
146.1457,-87.5839
145.8602,-87.3035
145.5737,-87.0241
145.2882,-86.7437
145.002,-86.4641
144.7024,-86.1992
144.3955,-85.9425
144.089,-85.6851
143.782,-85.4285
143.4758,-85.1709
143.1702,-84.9125
142.8647,-84.6542
142.5593,-84.3956
142.2537,-84.1372
141.9521,-83.8744
141.6541,-83.6072
141.3555,-83.3409
141.0578,-83.0734
140.759,-82.8073
140.4528,-82.5498
140.144,-82.2953
139.8367,-82.039
139.5279,-81.7845
139.2236,-81.5247
138.9274,-81.2557
138.6308,-80.9872
138.3354,-80.717
138.0381,-80.4494
137.7215,-80.2059
137.3918,-79.979
137.0645,-79.749
136.7348,-79.5219
136.4075,-79.2919
136.0942,-79.0434
135.7854,-78.7886
135.4746,-78.5368
135.1655,-78.2825
134.851,-78.0354
134.5274,-77.8001
134.2032,-77.5653
133.8795,-77.3302
133.5554,-77.0955
133.2362,-76.8542
132.919,-76.6102
132.6006,-76.3678
132.2846,-76.1223
131.9644,-75.8826
131.6324,-75.6592
131.2972,-75.4407
130.9642,-75.2188
130.6302,-74.9983
130.2969,-74.7771
129.9654,-74.5527
129.6334,-74.3294
129.3017,-74.1057
128.97,-73.8817
128.6355,-73.6623
128.2999,-73.4442
127.965,-73.2252
127.6287,-73.0085
127.2963,-72.7857
126.974,-72.5487
126.6546,-72.3077
126.3325,-72.07
126.0125,-71.8299
125.6955,-71.5857
125.3792,-71.3406
125.0632,-71.0951
124.7465,-70.8505
124.4233,-70.6151
124.0908,-70.3925
123.757,-70.1715
123.4257,-69.9473
123.0903,-69.7291
122.7504,-69.5179
122.4085,-69.3101
122.0672,-69.101
121.7266,-68.8911
121.3785,-68.6941
121.0242,-68.5079
120.6706,-68.3211
120.3144,-68.138
119.9641,-67.9454
119.6296,-67.7265
119.2992,-67.5001
118.9661,-67.2787
118.634,-67.0555
118.3011,-66.8331
117.9669,-66.6134
117.633,-66.3927
117.2998,-66.1709
116.9624,-65.9564
116.615,-65.7577
116.2649,-65.5639
115.9169,-65.3665
115.5676,-65.1709
115.22,-64.9732
114.8742,-64.7716
114.5279,-64.571
114.1823,-64.3697
113.836,-64.1687
113.4893,-63.9691
113.1426,-63.7695
112.7954,-63.5701
112.4489,-63.3704
112.0991,-63.1758
111.7469,-62.9857
111.3961,-62.7939
111.0424,-62.6059
110.6926,-62.4121
110.3549,-62.1979
110.0212,-61.9764
109.6858,-61.7588
109.3501,-61.5408
109.0188,-61.3163
108.6942,-61.0829
108.3703,-60.8474
108.0476,-60.6106
107.7218,-60.3791
107.3776,-60.1763
107.0214,-59.9938
106.668,-59.8063
106.3138,-59.6197
105.9529,-59.4479
105.5857,-59.2888
105.2174,-59.1324
104.8487,-58.977
104.4822,-58.8164
104.1301,-58.6279
103.7867,-58.4219
103.4398,-58.2225
103.0951,-58.0196
102.7465,-57.8231
102.3872,-57.647
102.0287,-57.4697
101.6693,-57.293
101.3107,-57.116
100.9655,-56.9142
100.626,-56.7018
100.2846,-56.4939
99.9455,-56.2807
99.6036,-56.0731
99.2551,-55.8771
98.9049,-55.6825
98.556,-55.4873
98.2061,-55.2931
97.8527,-55.1048
97.4974,-54.9216
97.1423,-54.7367
96.7878,-54.5509
96.43,-54.3726
96.0633,-54.2121
95.6931,-54.0603
95.326,-53.9014
94.957,-53.7458
94.5856,-53.5975
94.2151,-53.4461
93.8432,-53.2979
93.4722,-53.1489
93.1105,-52.9786
92.7593,-52.7876
92.4097,-52.5927
92.0594,-52.3987
91.7082,-52.2079
91.3478,-52.0342
90.9811,-51.8734
90.6176,-51.707
90.2521,-51.5431
89.8873,-51.3791
89.5305,-51.1983
89.1733,-51.017
88.8155,-50.839
88.4596,-50.6554
88.0975,-50.4851
87.7302,-50.3274
87.3623,-50.1692
86.993,-50.0151
86.6265,-49.8554
86.2659,-49.6812
85.9104,-49.4986
85.5553,-49.3136
85.1978,-49.1334
84.8437,-48.9481
84.4958,-48.7494
84.1491,-48.5501
83.8028,-48.35
83.4555,-48.1503
83.0997,-47.9697
82.7326,-47.8104
82.363,-47.6557
81.9964,-47.4971
81.6277,-47.3404
81.2577,-47.188
80.8886,-47.0345
80.5179,-46.8822
80.1482,-46.73
79.7778,-46.579
79.4033,-46.4366
79.0301,-46.2938
78.6566,-46.1497
78.2819,-46.0081
77.9126,-45.8561
77.5437,-45.6995
77.1745,-45.5452
76.8074,-45.3875
76.4392,-45.2288
76.0796,-45.0546
75.7239,-44.8717
75.3598,-44.7026
75.0065,-44.518
74.6659,-44.3079
74.333,-44.0846
74.0195,-43.8392
73.6945,-43.6004
73.386,-43.3505
73.2006,-43.0133
73.0774,-42.6324
72.8806,-42.2867
72.6529,-41.9547
72.45,-41.6133
72.2508,-41.2645
72.0971,-40.8968
72.031,-40.5084
72.0363,-40.1093
72.0793,-39.7104
72.1155,-39.3124
72.1592,-38.9149
72.2562,-38.5284
72.3828,-38.1493
72.5083,-37.7689
72.6337,-37.389
72.7648,-37.0112
72.9104,-36.6383
73.0585,-36.2667
73.2044,-35.8939
73.351,-35.5218
73.4684,-35.14
73.5633,-34.751
73.6639,-34.3642
73.7584,-33.9748
73.8618,-33.5887
73.9918,-33.2104
74.1239,-32.8322
74.2542,-32.4545
74.3868,-32.0764
74.5166,-31.6979
74.649,-31.3209
74.7803,-30.942
74.9105,-30.5644
75.0489,-30.1888
75.1918,-29.8144
75.3365,-29.4425
75.4822,-29.0688
75.6214,-28.6939
75.7472,-28.3149
75.8691,-27.9325
75.9918,-27.5523
76.1179,-27.1732
76.3071,-26.8269
76.5638,-26.5198
76.761,-26.1806
76.8611,-25.795
76.9388,-25.4017
77.0434,-25.0152
77.2191,-24.6603
77.4307,-24.3185
77.619,-23.9639
77.8209,-23.6219
78.0139,-23.2681
78.1876,-22.9082
78.4396,-22.6114
78.7518,-22.3576
79.0653,-22.1146
79.4014,-21.8955
79.7515,-21.7034
80.1112,-21.5342
80.4669,-21.3369
80.8191,-21.1632
81.2225,-21.1411
81.6169,-21.1202
81.9293,-20.9073
82.2136,-20.6125
82.5024,-20.3456
82.8052,-20.0818
83.0855,-19.7954
83.3029,-19.4681
83.5302,-19.1308
83.7345,-18.7922
83.847,-18.411
83.9664,-18.0233
84.1218,-17.6609
84.292,-17.2954
84.4483,-16.926
84.4717,-16.5435
84.4239,-16.1409
84.4308,-15.744
84.4561,-15.3475
84.4963,-14.944
84.4749,-14.5567
84.3298,-14.1833
84.2103,-13.8036
84.1028,-13.4313
83.9097,-13.0798
83.7107,-12.732
83.4883,-12.406
83.1978,-12.129
82.8987,-11.8654
82.6043,-11.5908
82.3146,-11.32
82.0049,-11.0591
81.7143,-10.7912
81.5863,-10.4589
81.5648,-10.0582
81.5096,-9.6613
81.4573,-9.2678
81.462,-8.8636
81.5538,-8.4882
81.7309,-8.1303
81.9148,-7.7702
82.0829,-7.4127
82.2512,-7.0461
82.4143,-6.6807
82.5773,-6.3183
82.7191,-5.9415
82.8267,-5.5584
82.93,-5.172
83.0429,-4.7856
83.1256,-4.3987
83.1418,-3.9983
83.1465,-3.5971
83.1638,-3.1991
83.1623,-2.798
83.1913,-2.3955
83.1755,-2.0036
82.9661,-1.6726
82.6885,-1.377
82.4641,-1.0439
82.2024,-0.74476
81.8706,-0.54523
81.4984,-0.40579
81.1141,-0.28453
80.7447,-0.12695
80.3646,-0.017121
