67.5343,-316.6339
67.9315,-316.5333
68.3497,-316.4765
68.7524,-316.3868
69.1635,-316.3149
69.573,-316.2395
69.9787,-316.1547
70.3907,-316.0855
70.7957,-315.9968
71.1956,-315.8826
71.5946,-315.7631
71.992,-315.6434
72.3904,-315.5216
72.7835,-315.3868
73.1765,-315.2512
73.5717,-315.1198
73.9636,-314.9824
74.3583,-314.8499
74.7522,-314.7164
75.1442,-314.5788
75.5405,-314.4495
75.9315,-314.3103
76.3095,-314.1397
76.6758,-313.9424
77.0402,-313.7425
77.4091,-313.5495
77.773,-313.3487
78.1399,-313.1527
78.5076,-312.9577
78.8413,-312.7164
79.1397,-312.4285
79.4302,-312.1294
79.7257,-311.8371
80.0215,-311.5456
80.311,-311.2449
80.6242,-310.9768
80.9841,-310.7714
81.356,-310.5818
81.7194,-310.3814
82.0868,-310.1857
82.4542,-309.9903
82.8172,-309.7882
83.1807,-309.5852
83.5428,-309.3811
83.9047,-309.1762
84.2727,-308.9824
84.6476,-308.8031
85.0242,-308.6262
85.3993,-308.4463
85.7763,-308.2713
86.1617,-308.1148
86.551,-307.9678
86.9359,-307.8109
87.3243,-307.6615
87.716,-307.5214
88.1047,-307.3752
88.5002,-307.2425
88.8863,-307.0914
89.2404,-306.8756
89.5847,-306.6407
89.9342,-306.4161
90.2819,-306.1875
90.6364,-305.9703
90.998,-305.7649
91.3583,-305.557
91.7191,-305.3503
92.076,-305.1368
92.4232,-304.908
92.7687,-304.6764
93.1173,-304.4496
93.4599,-304.214
93.7961,-303.9688
94.1326,-303.7249
94.465,-303.4741
94.8061,-303.2372
95.1727,-303.0423
95.5465,-302.8587
95.9165,-302.6692
96.286,-302.4786
96.6427,-302.2647
96.9919,-302.0386
97.3475,-301.823
97.6984,-301.5997
98.0402,-301.3628
98.3811,-301.1246
98.7213,-300.8852
99.0619,-300.6467
99.4055,-300.4122
99.7501,-300.1794
100.0955,-299.9477
100.441,-299.7161
100.782,-299.4781
101.119,-299.2344
101.4545,-298.9886
101.7901,-298.7428
102.1399,-298.5199
102.5075,-298.3259
102.8775,-298.1357
103.2468,-297.9441
103.6048,-297.7349
103.939,-297.4878
104.2681,-297.2329
104.6015,-296.9848
104.9336,-296.7341
105.2736,-296.4948
105.6171,-296.2602
105.9565,-296.0196
106.2987,-295.7834
106.6385,-295.5433
106.9755,-295.2996
107.3169,-295.0622
107.6539,-294.8182
107.9833,-294.5646
108.311,-294.3086
108.6367,-294.0496
108.9658,-293.7956
109.3044,-293.5543
109.6476,-293.3193
109.991,-293.0847
110.3326,-292.8473
110.6681,-292.6019
110.9996,-292.3505
111.3325,-292.1011
111.6649,-291.8513
111.9939,-291.5967
112.322,-291.3412
112.6502,-291.0858
112.978,-290.8297
113.3058,-290.5739
113.6333,-290.3173
113.9605,-290.0607
114.2883,-289.8047
114.6164,-289.5489
114.9451,-289.2942
115.2741,-289.0397
115.6025,-288.7845
115.9299,-288.5281
116.256,-288.2699
116.5816,-288.0111
116.9079,-287.7533
117.2377,-287.4998
117.5716,-287.252
117.9065,-287.0053
118.2401,-286.757
118.5683,-286.5018
118.8865,-286.2339
119.2027,-285.9638
119.5221,-285.6974
119.8342,-285.4225
120.1399,-285.1406
120.4458,-284.8589
120.749,-284.5739
121.0596,-284.2978
121.3868,-284.0413
121.7177,-283.7891
122.0473,-283.5355
122.3755,-283.28
122.6925,-283.0111
123.0041,-282.7354
123.3193,-282.4642
123.6325,-282.1905
123.9422,-281.9127
124.2508,-281.6342
124.5586,-281.3542
124.8668,-281.075
125.1739,-280.7946
125.4787,-280.5115
125.7842,-280.2294
126.0897,-279.9471
126.3894,-279.6589
126.6822,-279.3637
126.9734,-279.0664
127.2657,-278.7707
127.5615,-278.4784
127.8624,-278.1912
128.1642,-277.9052
128.4652,-277.618
128.7636,-277.3283
129.0566,-277.0333
129.3489,-276.7372
129.6422,-276.4424
129.9342,-276.1463
130.2263,-275.8501
130.518,-275.5538
130.8099,-275.2574
131.1014,-274.9608
131.3899,-274.6613
131.6783,-274.3614
131.9668,-274.062
132.255,-273.7621
132.5443,-273.4632
132.8324,-273.1634
133.1224,-272.865
133.41,-272.5648
133.6847,-272.2526
133.9541,-271.9357
134.2244,-271.6197
134.495,-271.3037
134.774,-270.9955
135.0581,-270.6918
135.3413,-270.387
135.6244,-270.0824
135.9007,-269.7717
136.1709,-269.4554
136.4427,-269.1407
136.7137,-268.825
136.9824,-268.5077
137.2509,-268.1901
137.5178,-267.871
137.7861,-267.5533
138.0622,-267.2423
138.3448,-266.9372
138.6281,-266.6327
138.9108,-266.3276
139.1875,-266.0174
139.4534,-265.6975
139.7174,-265.3761
139.9837,-265.0568
140.2465,-264.7343
140.5046,-264.4082
140.7611,-264.0808
141.0189,-263.7543
141.274,-263.426
141.5227,-263.0926
141.7711,-262.759
142.0193,-262.4253
142.2683,-262.092
142.524,-261.7642
142.7809,-261.437
143.0375,-261.1096
143.2932,-260.7817
143.5376,-260.4453
143.776,-260.1044
144.017,-259.7656
144.2565,-259.4254
144.4934,-259.0836
144.729,-258.7409
144.9624,-258.3966
145.1976,-258.0537
145.4425,-257.7177
145.6991,-257.3905
145.9581,-257.065
146.2144,-256.7374
146.4656,-256.4062
146.7083,-256.0683
146.95,-255.7298
147.1936,-255.3928
147.435,-255.054
147.6772,-254.7159
147.919,-254.3776
148.1605,-254.0389
148.4001,-253.6991
148.6315,-253.3534
148.8614,-253.0068
149.0934,-252.6617
149.3237,-252.3152
149.5592,-251.9725
149.7961,-251.6306
150.0297,-251.2865
150.2695,-250.9467
150.5163,-250.6119
150.7653,-250.2788
151.0148,-249.946
151.2591,-249.6095
151.4929,-249.2657
151.7209,-248.9177
151.954,-248.5733
152.1837,-248.2266
152.3989,-247.8707
152.6108,-247.513
152.821,-247.1539
153.0333,-246.7964
153.2667,-246.4529
153.514,-246.1183
153.7613,-245.784
154.0076,-245.4488
154.2434,-245.1063
154.4702,-244.7578
154.6989,-244.4103
154.9262,-244.0621
155.1437,-243.7077
155.3519,-243.3476
155.5591,-242.9871
155.7675,-242.6271
155.9772,-242.268
156.1934,-241.9127
156.4107,-241.558
156.6264,-241.2025
156.8423,-240.847
157.051,-240.4872
157.2578,-240.1264
157.4684,-239.7676
157.6722,-239.4052
157.8668,-239.0377
158.058,-238.6682
158.2505,-238.2996
158.4438,-237.9313
158.637,-237.563
158.8327,-237.1961
159.0274,-236.8284
159.2209,-236.4603
159.4117,-236.0908
159.5961,-235.7179
159.7864,-235.3481
159.9716,-234.9757
160.1354,-234.5935
160.2978,-234.2107
160.4583,-233.8268
160.6224,-233.4448
160.8175,-233.0781
161.0242,-232.717
161.2295,-232.3554
161.4336,-231.993
161.611,-231.6173
161.7764,-231.2355
161.948,-230.8567
162.1146,-230.4756
162.2885,-230.0978
162.466,-229.7216
162.6398,-229.3439
162.8185,-228.9682
162.984,-228.5868
163.1376,-228.2003
163.2928,-227.8145
163.4439,-227.4269
163.6082,-227.0451
163.7878,-226.6699
163.9668,-226.2946
164.1501,-225.921
164.3156,-225.5403
164.4515,-225.1473
164.5837,-224.7529
164.715,-224.3582
164.8559,-223.9672
165.0226,-223.5863
165.1944,-223.2075
165.3658,-222.8284
165.5315,-222.4473
165.662,-222.0529
165.7756,-221.6524
165.8991,-221.2555
166.0188,-220.857
166.1457,-220.461
166.2845,-220.069
166.4132,-219.6733
166.5491,-219.2803
166.6997,-218.8926
166.8483,-218.5044
167.0069,-218.1195
167.1548,-217.7311
167.266,-217.3309
167.3676,-216.9276
167.4663,-216.5233
167.5707,-216.121
167.7079,-215.7291
167.8605,-215.3422
168.0157,-214.9562
168.1649,-214.5682
168.2774,-214.169
168.3679,-213.7628
168.46,-213.3572
168.5539,-212.9522
168.6708,-212.5536
168.8085,-212.1611
168.9444,-211.7681
169.0799,-211.3749
169.2058,-210.9787
169.3149,-210.5773
169.4241,-210.176
169.5349,-209.7752
169.6369,-209.3719
169.7344,-208.9677
169.8312,-208.5632
169.9268,-208.1583
170.0318,-207.7561
170.1461,-207.3561
170.2605,-206.9563
170.3772,-206.557
170.483,-206.155
170.5684,-205.7481
170.6511,-205.3404
170.7343,-204.9329
170.8216,-204.5264
170.9205,-204.1224
171.0197,-203.7185
171.1209,-203.315
171.2178,-202.9106
171.2976,-202.5024
171.376,-202.0941
171.4517,-201.6849
171.5342,-201.2775
171.6499,-200.8783
171.774,-200.4811
171.8948,-200.0831
172.0129,-199.6845
172.097,-199.2777
172.1654,-198.8671
172.2432,-198.4587
172.3159,-198.0491
172.3961,-197.641
172.4849,-197.2347
172.5678,-196.8271
172.6546,-196.4204
172.7358,-196.0125
172.8066,-195.6026
172.8831,-195.1938
172.9553,-194.7842
173.0012,-194.3719
173.0181,-193.9567
173.0274,-193.5404
173.0443,-193.1252
173.0655,-192.7099
173.0994,-192.2953
173.1389,-191.8813
173.1707,-191.4665
173.2098,-191.0524
173.2492,-190.6384
173.284,-190.224
173.3285,-189.8102
173.3496,-189.3957
173.3295,-188.9806
173.3026,-188.5655
173.2774,-188.1502
173.2584,-187.735
173.2619,-187.3193
173.272,-186.9031
173.276,-186.4875
173.2901,-186.0719
173.3228,-185.6572
173.3604,-185.2432
173.3926,-184.8283
173.4301,-184.4142
173.4794,-184.0013
173.5329,-183.5887
173.5874,-183.1766
173.638,-182.7637
173.6736,-182.3494
173.7001,-181.9344
173.7336,-181.5196
173.761,-181.1048
173.7597,-180.6894
173.7434,-180.2736
173.7292,-179.8582
173.7148,-179.4423
173.7089,-179.0266
173.7101,-178.6107
173.7061,-178.1946
173.7074,-177.7789
173.7235,-177.3634
173.7477,-176.9482
173.7725,-176.5331
173.7949,-176.1177
173.8166,-175.7024
173.8332,-175.2868
173.849,-174.8712
173.8672,-174.4557
173.8677,-174.04
173.8538,-173.6243
173.8412,-173.2087
173.825,-172.7929
173.8199,-172.3773
173.8276,-171.9614
173.8335,-171.5455
173.8454,-171.1298
173.8401,-170.7143
173.8036,-170.3001
173.7653,-169.8863
173.7212,-169.4719
173.6941,-169.0581
173.7244,-168.644
173.7702,-168.2297
173.8072,-167.816
173.8334,-167.4015
173.8128,-166.9867
173.7749,-166.5718
173.7551,-166.1566
173.7211,-165.742
173.6764,-165.3284
173.6347,-164.9149
173.5846,-164.5017
173.5439,-164.0878
173.5186,-163.6729
173.495,-163.2575
173.4751,-162.8421
173.4492,-162.4271
173.409,-162.0131
173.3634,-161.5998
173.316,-161.1865
173.2727,-160.7729
173.2389,-160.3585
173.2092,-159.9435
173.1817,-159.5286
173.1488,-159.114
173.0982,-158.7013
173.0377,-158.2899
172.9794,-157.878
172.922,-157.4661
172.8683,-157.0538
172.8198,-156.6406
172.77,-156.2277
172.7194,-155.8149
172.6656,-155.4024
172.6057,-154.991
172.5474,-154.5791
172.4891,-154.1673
172.4252,-153.7564
172.3596,-153.3456
172.293,-152.9351
172.2261,-152.5246
172.1598,-152.1139
172.0921,-151.7037
172.0245,-151.2932
171.9582,-150.8827
171.8979,-150.4713
171.8455,-150.0585
171.7929,-149.6461
171.7381,-149.2338
171.6733,-148.823
171.5941,-148.4149
171.5204,-148.0053
171.443,-147.5968
171.3326,-147.1966
171.2042,-146.8011
171.0732,-146.4064
170.9451,-146.0107
170.8426,-145.6082
170.7556,-145.2013
170.6656,-144.7953
170.5801,-144.3882
170.4755,-143.9864
170.3368,-143.5946
170.1924,-143.2045
170.0502,-142.8134
169.9296,-142.4171
169.8578,-142.0078
169.7975,-141.5956
169.7251,-141.1866
169.6649,-140.7747
169.6096,-140.3625
169.5527,-139.9509
169.5021,-139.5375
169.4331,-139.1282
169.3345,-138.7243
169.2295,-138.3215
169.128,-137.9186
169.0179,-137.5174
168.8925,-137.1209
168.766,-136.7248
168.6421,-136.3275
168.499,-135.9378
168.3333,-135.5563
168.1636,-135.1765
167.9967,-134.7957
167.8293,-134.4148
167.663,-134.0337
167.498,-133.6519
167.3312,-133.2708
167.1725,-132.8867
167.0296,-132.496
166.8888,-132.1046
166.7464,-131.714
166.6001,-131.3246
166.4389,-130.9413
166.2751,-130.559
166.1151,-130.175
165.9493,-129.7937
165.7838,-129.412
165.6168,-129.0311
165.4494,-128.6505
165.2975,-128.2633
165.1538,-127.8732
165.0103,-127.4828
164.8691,-127.0914
164.7131,-126.7065
164.5361,-126.3301
164.3537,-125.9563
164.1747,-125.5809
164.001,-125.203
163.834,-124.8223
163.6694,-124.4402
163.5029,-124.0591
163.3416,-123.6758
163.1867,-123.2896
163.0302,-122.9045
162.8748,-122.5186
162.7111,-122.1364
162.529,-121.7627
162.3487,-121.3877
162.1679,-121.0133
161.9664,-120.6498
161.752,-120.2938
161.5292,-119.9421
161.3156,-119.5857
161.1449,-119.2086
161.0031,-118.8175
160.8612,-118.4264
160.7159,-118.037
160.5551,-117.6537
160.3759,-117.2783
160.1996,-116.9017
160.0232,-116.525
159.8254,-116.1597
159.6121,-115.8029
159.3963,-115.447
159.1813,-115.0912
158.9857,-114.7251
158.818,-114.3446
158.6547,-113.962
158.4872,-113.5813
158.3234,-113.199
158.1592,-112.817
157.9946,-112.4349
157.8318,-112.0522
157.6571,-111.675
157.4664,-111.3054
157.2734,-110.9371
157.0818,-110.5678
156.8909,-110.1984
156.7045,-109.8266
156.5187,-109.4544
156.3329,-109.0824
156.1457,-108.7109
155.9454,-108.3465
155.7399,-107.985
155.5396,-107.6203
155.3347,-107.2585
155.1244,-106.8996
154.9124,-106.5417
154.7001,-106.1843
154.4885,-105.826
154.2672,-105.4741
154.0397,-105.1259
153.815,-104.7757
153.5873,-104.4279
153.3635,-104.0772
153.1429,-103.7246
152.9198,-103.3738
152.7005,-103.0201
152.4706,-102.6739
152.2282,-102.3359
151.9874,-101.9967
151.7426,-101.6605
151.5071,-101.3178
151.2857,-100.9657
151.0634,-100.6145
150.8463,-100.2591
150.6111,-99.9176
150.3379,-99.6045
150.0583,-99.2961
149.7809,-98.9865
149.511,-98.6703
149.2654,-98.3351
149.0242,-97.996
148.7813,-97.6583
148.5352,-97.3234
148.2668,-97.0057
147.9918,-96.6935
147.7218,-96.3774
147.4508,-96.0617
147.1932,-95.7354
146.9422,-95.4036
146.6839,-95.0776
146.4308,-94.7477
146.1807,-94.4151
145.9282,-94.0848
145.6809,-93.7503
145.4278,-93.4202
145.1594,-93.103
144.885,-92.7902
144.6111,-92.4773
144.3374,-92.1642
144.0631,-91.8513
143.7876,-91.54
143.5137,-91.227
143.2382,-90.9152
142.9528,-90.6132
142.6585,-90.3192
142.3625,-90.0271
142.0681,-89.7333
141.7776,-89.4356
141.4911,-89.1343
141.2066,-88.8308
140.9202,-88.5292
140.6266,-88.2349
140.3253,-87.9482
140.0211,-87.6646
139.72,-87.3777
139.4287,-87.0812
139.1478,-86.7747
138.869,-86.4657
138.5877,-86.1596
138.299,-85.8608
137.993,-85.5791
137.6806,-85.3044
137.3773,-85.0197
137.0648,-84.7452
136.736,-84.4908
136.4058,-84.2384
136.071,-83.9907
135.7463,-83.7318
135.452,-83.4386
135.1654,-83.1366
134.8751,-82.8392
134.5842,-82.5418
134.2777,-82.2612
133.9607,-81.9919
133.6462,-81.7196
133.3318,-81.4475
133.0226,-81.1694
132.7173,-80.8868
132.41,-80.6067
132.1024,-80.3267
131.7888,-80.0536
131.4695,-79.7871
131.1533,-79.5167
130.8359,-79.2481
130.5097,-78.9903
130.1763,-78.7417
129.841,-78.4958
129.5056,-78.2496
129.1763,-77.9961
128.8629,-77.7231
128.5558,-77.4418
128.2442,-77.167
127.9332,-76.8907
127.6124,-76.6257
127.2818,-76.3743
126.9631,-76.105
126.6321,-75.8552
126.2605,-75.6723
125.8781,-75.508
125.4971,-75.3405
125.1189,-75.1687
124.7751,-74.94
124.451,-74.6774
124.1208,-74.4258
123.7949,-74.1669
123.4529,-73.932
123.0886,-73.7317
122.7266,-73.5268
122.3616,-73.3271
122.0124,-73.1045
121.6933,-72.8373
121.3741,-72.5711
121.0565,-72.3023
120.7325,-72.0419
120.3828,-71.8178
120.0314,-71.5943
119.6805,-71.3715
119.3301,-71.1477
118.9956,-70.8997
118.661,-70.6541
118.3293,-70.4015
117.9922,-70.1595
117.6161,-69.9861
117.2281,-69.8329
116.8468,-69.6692
116.4614,-69.5116
116.0954,-69.3169
115.7462,-69.0913
115.3921,-68.8727
115.0429,-68.6468
114.705,-68.4056
114.3766,-68.1502
114.0515,-67.8904
113.7205,-67.6395
113.378,-67.4035
113.0223,-67.1888
112.671,-66.9648
112.3176,-66.747
111.9301,-66.6121
111.5226,-66.5298
111.1162,-66.4433
110.7063,-66.3652
110.3152,-66.2426
109.9604,-66.0285
109.6152,-65.793
109.2612,-65.5773
108.9135,-65.3474
108.574,-65.1072
108.2321,-64.8723
107.8964,-64.6233
107.5521,-64.3937
107.1701,-64.2377
106.7709,-64.1166
106.3768,-63.9861
105.981,-63.8574
105.5872,-63.7235
105.1971,-63.58
104.8036,-63.4438
104.4126,-63.3033
104.0346,-63.1327
103.6696,-62.9339
103.3078,-62.7284
102.9422,-62.5301
102.5692,-62.3475
102.1879,-62.1809
101.8071,-62.0136
101.4272,-61.8448
101.0434,-61.6836
100.66,-61.5233
100.2753,-61.3651
99.8908,-61.206
99.5139,-61.0315
99.1412,-60.8463
98.7701,-60.6588
98.3979,-60.4733
98.0197,-60.3005
97.6355,-60.1419
97.2498,-59.9857
96.8658,-59.8261
96.4793,-59.673
96.0898,-59.5263
95.7012,-59.3789
95.3109,-59.2347
94.9255,-59.0788
94.5496,-58.9016
94.1742,-58.7218
93.7995,-58.5415
93.4195,-58.3738
93.0276,-58.2344
92.6342,-58.1
92.2412,-57.9632
91.8516,-57.8187
91.4728,-57.6477
91.0959,-57.4707
90.7176,-57.2987
90.3382,-57.1283
89.9515,-56.9749
89.5632,-56.8265
89.1766,-56.6726
88.789,-56.522
88.4054,-56.3616
88.0237,-56.1955
87.6402,-56.0355
87.258,-55.8709
86.8738,-55.7114
86.4876,-55.558
86.1049,-55.3937
85.7181,-55.2419
85.3219,-55.1155
84.925,-54.9915
84.5258,-54.8736
84.1317,-54.7424
83.7623,-54.5553
83.4035,-54.3434
83.0407,-54.1401
82.6785,-53.9366
82.3057,-53.7521
81.9257,-53.5825
81.5516,-53.4017
81.1731,-53.2281
80.79,-53.0671
80.4057,-52.9087
80.0182,-52.7557
79.6337,-52.599
79.249,-52.4401
78.8681,-52.2728
78.4931,-52.0943
78.1102,-51.929
77.735,-51.7518
77.3828,-51.532
77.0379,-51.2991
76.6946,-51.0651
76.3475,-50.835
75.9893,-50.6248
75.6268,-50.4209
75.2651,-50.2146
74.9043,-50.0092
74.5433,-49.8016
74.1836,-49.5926
73.8241,-49.3848
73.4638,-49.1752
73.1205,-48.9432
72.793,-48.6867
72.4616,-48.434
72.1354,-48.1784
71.8206,-47.9052
71.5154,-47.6233
71.2164,-47.3357
70.9047,-47.0561
70.6105,-46.7674
70.385,-46.4249
70.2192,-46.0432
70.0888,-45.6505
69.9742,-45.2494
69.8748,-44.8472
69.8345,-44.438
69.8675,-44.0224
69.9516,-43.6168
70.0662,-43.2168
70.177,-42.8149
70.2876,-42.4155
70.4329,-42.0256
70.601,-41.6459
70.7713,-41.2667
70.9419,-40.8864
71.1033,-40.5043
71.255,-40.1165
71.4039,-39.728
71.5547,-39.3411
71.7154,-38.9567
71.8836,-38.577
72.0515,-38.1963
72.2193,-37.8154
72.3926,-37.438
72.5752,-37.0638
72.76,-36.6914
72.9422,-36.3176
73.1268,-35.9445
73.3145,-35.5739
73.5028,-35.2027
73.6914,-34.8321
73.8797,-34.4614
74.0706,-34.0916
74.2643,-33.7238
74.4558,-33.3545
74.649,-32.9862
74.8537,-32.6246
75.0721,-32.2705
75.2946,-31.9192
75.5126,-31.5648
75.7282,-31.2093
75.9387,-30.8508
76.1442,-30.4886
76.3728,-30.1432
76.6384,-29.8234
76.9125,-29.5104
77.1895,-29.2012
77.4979,-28.9218
77.8343,-28.6785
78.1759,-28.442
78.5273,-28.2193
78.904,-28.0548
79.303,-27.9387
79.7042,-27.8238
80.1,-27.7016
80.4986,-27.5796
80.8898,-27.4378
81.2658,-27.2645
81.6422,-27.0836
82.0081,-26.8895
82.3368,-26.6411
82.6296,-26.3439
82.9023,-26.0316
83.1689,-25.7123
83.4112,-25.3758
83.6058,-25.0108
83.7905,-24.6359
83.9866,-24.2698
84.1635,-23.8944
84.3266,-23.5102
84.4898,-23.1292
84.6481,-22.7439
84.8157,-22.3627
84.9916,-21.9873
85.1666,-21.6088
85.3509,-21.2356
85.5175,-20.8565
85.6223,-20.4543
85.6946,-20.0452
85.7857,-19.6392
85.8677,-19.2303
85.9178,-18.8199
85.9702,-18.4047
85.9763,-17.9904
85.8683,-17.5937
85.7005,-17.2095
85.4842,-16.8637
85.1598,-16.6189
84.7767,-16.4486
84.4015,-16.2781
84.0191,-16.1085
83.6371,-15.9434
83.2798,-15.7411
82.962,-15.4723
82.7376,-15.1275
82.6172,-14.7306
82.5284,-14.3244
82.4506,-13.918
82.4243,-13.5046
82.4709,-13.0935
82.592,-12.6981
82.7459,-12.3117
82.9021,-11.9268
83.0974,-11.5605
83.3218,-11.21
83.5304,-10.85
83.7483,-10.4962
84.0222,-10.184
84.3028,-9.8818
84.4344,-9.5122
84.4501,-9.0933
84.5626,-8.6972
84.6719,-8.3038
84.631,-7.8888
84.631,-7.4752
84.6657,-7.0634
84.5617,-6.6635
84.4212,-6.272
84.301,-5.8732
84.1498,-5.485
84.0088,-5.0961
83.8613,-4.7034
83.719,-4.3164
83.6401,-3.9072
83.5754,-3.4946
83.5027,-3.0897
83.4379,-2.673
83.3722,-2.2667
83.3117,-1.8547
83.2247,-1.444
83.1263,-1.0474
83.0411,-0.63234
82.8294,-0.33638
82.4414,-0.22095
82.03,-0.1009
81.6383,-0.011907
