71.2581,-309.6239
71.6358,-309.4817
72.0137,-309.3402
72.3909,-309.1973
72.7687,-309.0554
73.1465,-308.9137
73.5237,-308.7708
73.9015,-308.6291
74.2792,-308.487
74.6566,-308.3445
75.0343,-308.2024
75.4087,-308.0523
75.7798,-307.894
76.1518,-307.7376
76.5236,-307.581
76.8943,-307.422
77.267,-307.267
77.6384,-307.1094
78.0085,-306.9493
78.3838,-306.7992
78.7502,-306.6323
79.0892,-306.4157
79.4172,-306.1792
79.7513,-305.9536
80.0838,-305.7251
80.4143,-305.4933
80.7483,-305.2671
81.0796,-305.0369
81.4113,-304.807
81.745,-304.5803
82.0665,-304.3373
82.3736,-304.0757
82.6782,-303.8113
82.9839,-303.5478
83.2897,-303.2845
83.595,-303.0209
83.9003,-302.7569
84.2067,-302.4946
84.5106,-302.229
84.8182,-301.9681
85.1461,-301.7349
85.4889,-301.5218
85.8298,-301.3059
86.1704,-301.0898
86.513,-300.8766
86.8532,-300.6596
87.1946,-300.4447
87.5373,-300.2318
87.8759,-300.0118
88.2204,-299.8027
88.5831,-299.6281
88.9559,-299.4734
89.3269,-299.3146
89.6974,-299.1552
90.0695,-298.9991
90.4403,-298.8398
90.8113,-298.6813
91.1833,-298.5251
91.5535,-298.3646
91.9255,-298.2085
92.302,-298.0633
92.679,-297.9198
93.0559,-297.7758
93.4332,-297.6327
93.8097,-297.4879
94.1871,-297.3449
94.5642,-297.2014
94.9403,-297.0556
95.3191,-296.9158
95.6937,-296.7669
96.0532,-296.5853
96.4053,-296.3876
96.76,-296.1954
97.114,-296.002
97.467,-295.8064
97.8217,-295.6143
98.1752,-295.4198
98.5286,-295.2249
98.8837,-295.0334
99.2337,-294.8329
99.5745,-294.6171
99.9126,-294.397
100.2522,-294.1791
100.5916,-293.9608
100.9305,-293.7419
101.2699,-293.5237
101.6091,-293.3053
101.9481,-293.0865
102.2875,-292.8683
102.6271,-292.6505
102.967,-292.433
103.3072,-292.2161
103.6473,-291.999
103.9871,-291.7815
104.3274,-291.5648
104.6674,-291.3476
105.0071,-291.1298
105.3481,-290.914
105.6869,-290.6951
106.0162,-290.4624
106.338,-290.2189
106.6604,-289.9763
106.9833,-289.7345
107.305,-289.4909
107.6279,-289.2489
107.9504,-289.0065
108.2719,-288.7628
108.5958,-288.5221
108.9165,-288.2773
109.2273,-288.0202
109.5347,-287.7588
109.8438,-287.4994
110.1522,-287.2394
110.4606,-286.9791
110.7693,-286.7194
111.0777,-286.4592
111.3864,-286.1994
111.6947,-285.9391
112.0047,-285.6809
112.3196,-285.4287
112.6359,-285.1782
112.9509,-284.926
113.2666,-284.6749
113.5824,-284.4237
113.8976,-284.1718
114.2135,-283.9208
114.529,-283.6693
114.8443,-283.4175
115.1618,-283.1686
115.4809,-282.9217
115.8004,-282.6754
116.1201,-282.4292
116.4393,-282.1823
116.7588,-281.936
117.0785,-281.6898
117.3974,-281.4427
117.7175,-281.1971
118.0365,-280.95
118.3473,-280.6931
118.651,-280.4274
118.954,-280.161
119.2578,-279.8955
119.5611,-279.6294
119.8645,-279.3634
120.1681,-279.0977
120.4714,-278.8315
120.7751,-278.5659
121.0782,-278.2996
121.3781,-278.0298
121.6762,-277.7578
121.9748,-277.4865
122.2733,-277.215
122.5714,-276.9431
122.8701,-276.672
123.1685,-276.4003
123.4665,-276.1283
123.7658,-275.8577
124.0631,-275.585
124.3555,-275.307
124.6462,-275.0272
124.9377,-274.7482
125.2292,-274.4692
125.5203,-274.1899
125.8117,-273.9108
126.1031,-273.6317
126.3943,-273.3525
126.6857,-273.0734
126.9769,-272.7941
127.2675,-272.5143
127.5582,-272.2344
127.849,-271.9548
128.1396,-271.6748
128.4303,-271.395
128.7212,-271.1154
129.0115,-270.8352
129.3026,-270.5559
129.5931,-270.2759
129.8761,-269.9885
130.1507,-269.6929
130.424,-269.3961
130.6986,-269.1004
130.9724,-268.8041
131.2463,-268.5078
131.5205,-268.2119
131.7944,-267.9156
132.0684,-267.6194
132.3426,-267.3234
132.6168,-267.0275
132.8915,-266.732
133.1663,-266.4365
133.4408,-266.1408
133.7155,-265.8453
133.9903,-265.5499
134.2648,-265.2542
134.5393,-264.9584
134.8147,-264.6636
135.088,-264.3668
135.3535,-264.0631
135.6148,-263.7556
135.8781,-263.4499
136.1411,-263.1439
136.4029,-262.8369
136.6665,-262.5314
136.9289,-262.225
137.1908,-261.918
137.4553,-261.6133
137.7124,-261.3026
137.9554,-260.9806
138.1945,-260.6555
138.436,-260.3323
138.6767,-260.0085
138.9171,-259.6844
139.1582,-259.3609
139.3987,-259.0369
139.6394,-258.7131
139.8803,-258.3894
140.12,-258.0649
140.3588,-257.7397
140.5975,-257.4144
140.8362,-257.0891
141.0748,-256.7638
141.3136,-256.4385
141.5523,-256.1132
141.7907,-255.7878
142.0298,-255.4627
142.268,-255.1371
142.5012,-254.8079
142.7303,-254.4757
142.9595,-254.1437
143.1889,-253.8118
143.4179,-253.4796
143.6473,-253.1477
143.8766,-252.8157
144.1056,-252.4835
144.3353,-252.1518
144.5641,-251.8194
144.7899,-251.4851
145.0141,-251.1496
145.2389,-250.8146
145.4637,-250.4795
145.688,-250.1441
145.913,-249.8092
146.1375,-249.474
146.3617,-249.1385
146.5875,-248.8041
146.8082,-248.4665
147.0175,-248.1216
147.2233,-247.7745
147.4316,-247.4289
147.6389,-247.0828
147.8458,-246.7364
148.0538,-246.3907
148.2609,-246.0444
148.4682,-245.6983
148.6759,-245.3524
148.884,-245.0067
149.0944,-244.6624
149.3054,-244.3185
149.5153,-243.9739
149.7261,-243.6299
149.9367,-243.2858
150.1468,-242.9413
150.3578,-242.5974
150.568,-242.253
150.7784,-241.9087
150.9918,-241.5663
151.2066,-241.2248
151.4218,-240.8835
151.6372,-240.5423
151.8519,-240.2007
152.0673,-239.8595
152.2826,-239.5183
152.497,-239.1765
152.7132,-238.8358
152.9273,-238.4939
153.1333,-238.147
153.3351,-237.7976
153.5371,-237.4483
153.7389,-237.099
153.9411,-236.7498
154.1428,-236.4004
154.3447,-236.051
154.5472,-235.7021
154.7481,-235.3522
154.9512,-235.0036
155.1611,-234.659
155.3731,-234.3157
155.5844,-233.972
155.7959,-233.6284
156.0072,-233.2847
156.2189,-232.9412
156.4304,-232.5975
156.6413,-232.2536
156.8541,-231.9108
157.0609,-231.5644
157.2535,-231.21
157.4418,-230.8531
157.6333,-230.498
157.8235,-230.1422
158.0132,-229.786
158.2043,-229.4307
158.3941,-229.0747
158.5844,-228.7189
158.7752,-228.3634
158.9618,-228.0057
159.144,-227.6457
159.3255,-227.2853
159.5073,-226.9251
159.689,-226.5649
159.8708,-226.2047
160.0526,-225.8445
160.234,-225.4841
160.4164,-225.1242
160.5973,-224.7636
160.7681,-224.3982
160.9292,-224.0283
161.0903,-223.6583
161.2524,-223.2889
161.413,-222.9188
161.5748,-222.5491
161.7364,-222.1794
161.8971,-221.8093
162.0595,-221.4399
162.22,-221.0698
162.3747,-220.6972
162.5272,-220.3236
162.6801,-219.9502
162.8328,-219.5768
162.9857,-219.2034
163.1384,-218.8299
163.2911,-218.4565
163.444,-218.0831
163.5966,-217.7096
163.7496,-217.3362
163.9032,-216.9632
164.0568,-216.5901
164.2106,-216.217
164.3642,-215.844
164.5177,-215.4708
164.6716,-215.0979
164.8251,-214.7247
164.9787,-214.3516
165.1328,-213.9787
165.284,-213.6047
165.4306,-213.2288
165.5761,-212.8524
165.7222,-212.4764
165.8681,-212.1002
166.014,-211.724
166.1601,-211.3479
166.3058,-210.9717
166.452,-210.5956
166.5977,-210.2194
166.7386,-209.8413
166.8739,-209.4612
167.0089,-209.081
167.1447,-208.7011
167.2795,-208.3208
167.415,-207.9407
167.5506,-207.5607
167.6852,-207.1804
167.8215,-206.8006
167.9558,-206.4202
168.0806,-206.0365
168.1989,-205.6508
168.3175,-205.2652
168.4364,-204.8796
168.5548,-204.4939
168.6736,-204.1083
168.7922,-203.7226
168.9108,-203.337
169.0296,-202.9514
169.1479,-202.5657
169.2642,-202.1793
169.3791,-201.7926
169.4948,-201.406
169.6104,-201.0194
169.7253,-200.6327
169.8413,-200.2462
169.9565,-199.8596
170.0713,-199.4728
170.1883,-199.0866
170.3,-198.699
170.3989,-198.3078
170.4936,-197.9156
170.591,-197.5241
170.6876,-197.1323
170.7836,-196.7404
170.8807,-196.3488
170.977,-195.957
171.0733,-195.5652
171.1703,-195.1736
171.2647,-194.7813
171.3556,-194.3882
171.446,-193.995
171.5367,-193.6018
171.6272,-193.2086
171.7178,-192.8154
171.8086,-192.4223
171.8987,-192.029
171.99,-191.636
172.0799,-191.2427
172.1598,-190.8473
172.2299,-190.45
172.2995,-190.0526
172.3702,-189.6554
172.4398,-189.2579
172.51,-188.8606
172.5803,-188.4633
172.6499,-188.0659
172.7204,-187.6686
172.7902,-187.2712
172.8577,-186.8734
172.9244,-186.4755
172.9912,-186.0776
173.0578,-185.6797
173.1246,-185.2817
173.1913,-184.8838
173.2579,-184.4859
173.3247,-184.088
173.3915,-183.6901
173.4579,-183.2921
173.5227,-182.8938
173.5864,-182.4954
173.6509,-182.0972
173.7153,-181.6988
173.7792,-181.3005
173.8439,-180.9022
173.9079,-180.5038
173.9719,-180.1055
174.037,-179.7073
174.0965,-179.3083
174.1461,-178.9079
174.1933,-178.5072
174.2423,-178.1067
174.2905,-177.7061
174.3386,-177.3055
174.3873,-176.905
174.4353,-176.5044
174.4837,-176.1038
174.5322,-175.7033
174.5758,-175.3022
174.6136,-174.9005
174.6504,-174.4987
174.6879,-174.097
174.725,-173.6952
174.7622,-173.2934
174.7997,-172.8917
174.8366,-172.4899
174.8742,-172.0882
174.911,-171.6864
174.9427,-171.2842
174.9705,-170.8817
174.9986,-170.4792
175.0268,-170.0767
175.0544,-169.6742
175.0828,-169.2717
175.1108,-168.8692
175.1383,-168.4667
175.1673,-168.0642
175.1941,-167.6616
175.2138,-167.2587
175.2299,-166.8555
175.2473,-166.4524
175.2646,-166.0493
175.2811,-165.6462
175.2987,-165.2431
175.3156,-164.84
175.3322,-164.4368
175.3504,-164.0338
175.3633,-163.6305
175.366,-163.2271
175.3658,-162.8236
175.3677,-162.4201
175.3686,-162.0167
175.3694,-161.6132
175.371,-161.2097
175.3718,-160.8062
175.3729,-160.4028
175.3743,-159.9993
175.3748,-159.5958
175.3753,-159.1923
175.3756,-158.7889
175.3756,-158.3854
175.3762,-157.9819
175.3764,-157.5784
175.3765,-157.175
175.3771,-156.7715
175.3773,-156.368
175.3773,-155.9645
175.3755,-155.5611
175.3708,-155.1576
175.3668,-154.7542
175.3631,-154.3507
175.3581,-153.9473
175.3547,-153.5438
175.3507,-153.1403
175.3451,-152.7369
175.3436,-152.3334
175.3362,-151.9301
175.3094,-151.5277
175.2731,-151.1258
175.2393,-150.7238
175.2052,-150.3217
175.1701,-149.9198
175.1362,-149.5177
175.1016,-149.1157
175.067,-148.7137
175.0329,-148.3117
174.9982,-147.9097
174.9633,-147.5078
174.9283,-147.1058
174.8933,-146.7039
174.8583,-146.3019
174.8233,-145.9
174.7884,-145.498
174.7533,-145.0961
174.7183,-144.6941
174.6837,-144.2921
174.6438,-143.8907
174.5955,-143.4901
174.5453,-143.0897
174.4966,-142.6892
174.4472,-142.2888
174.3977,-141.8884
174.3488,-141.4879
174.2992,-141.0874
174.25,-140.687
174.2008,-140.2865
174.1486,-139.8864
174.0945,-139.4866
174.0406,-139.0867
173.9866,-138.6869
173.9324,-138.2871
173.8787,-137.8872
173.8246,-137.4874
173.7701,-137.0876
173.7175,-136.6875
173.6614,-136.288
173.5934,-135.8904
173.5188,-135.4938
173.4466,-135.0969
173.374,-134.7
173.3002,-134.3033
173.2281,-133.9063
173.155,-133.5095
173.0815,-133.1128
173.0099,-132.7157
172.9335,-132.3196
172.8482,-131.9253
172.7606,-131.5314
172.6743,-131.1373
172.5876,-130.7432
172.5007,-130.3492
172.4142,-129.9551
172.3273,-129.5611
172.2408,-129.167
172.154,-128.773
172.0627,-128.38
171.9658,-127.9884
171.8681,-127.5969
171.7714,-127.2052
171.6738,-126.8137
171.5767,-126.4221
171.4797,-126.0304
171.3819,-125.639
171.2855,-125.2472
171.1875,-124.8558
171.0814,-124.4666
170.9694,-124.079
170.8578,-123.6912
170.7463,-123.3035
170.6343,-122.9159
170.523,-122.528
170.4112,-122.1403
170.2992,-121.7528
170.1884,-121.3647
170.0755,-120.9774
169.955,-120.5924
169.8299,-120.2088
169.7064,-119.8247
169.5826,-119.4407
169.4579,-119.0569
169.3347,-118.6728
169.2105,-118.2889
169.0858,-117.9051
168.9634,-117.5207
168.8335,-117.1388
168.689,-116.7621
168.5404,-116.387
168.3946,-116.0108
168.2476,-115.635
168.1003,-115.2594
167.9542,-114.8833
167.8069,-114.5077
167.6602,-114.1318
167.5137,-113.7559
167.3601,-113.3829
167.1989,-113.013
167.0367,-112.6435
166.8754,-112.2738
166.7134,-111.9042
166.5518,-111.5345
166.3902,-111.1648
166.2281,-110.7953
166.0671,-110.4254
165.9043,-110.0562
165.733,-109.691
165.5556,-109.3286
165.3793,-108.9657
165.2031,-108.6027
165.0257,-108.2403
164.8498,-107.8772
164.6732,-107.5144
164.4957,-107.1522
164.3211,-106.7883
164.1419,-106.4269
163.9497,-106.0722
163.7527,-105.72
163.5585,-105.3664
163.3634,-105.0132
163.1676,-104.6604
162.9733,-104.3069
162.7778,-103.9539
162.5824,-103.6009
162.3882,-103.2472
162.1881,-102.8969
161.9794,-102.5516
161.7687,-102.2076
161.5593,-101.8627
161.3493,-101.5181
161.1393,-101.1737
160.9296,-100.8289
160.7196,-100.4844
160.5099,-100.1398
160.2999,-99.7952
160.0862,-99.453
159.8686,-99.1132
159.6509,-98.7735
159.4335,-98.4336
159.2156,-98.094
158.9982,-97.7541
158.7807,-97.4143
158.5626,-97.0749
158.3459,-96.7345
158.1271,-96.3955
157.9004,-96.0618
157.6696,-95.7309
157.4398,-95.3993
157.2098,-95.0677
156.9794,-94.7366
156.7496,-94.4049
156.5194,-94.0735
156.2891,-93.7422
156.0594,-93.4105
155.8284,-93.0797
155.5951,-92.7506
155.3609,-92.422
155.1272,-92.0931
154.8934,-91.7643
154.6595,-91.4355
154.4258,-91.1066
154.1918,-90.778
153.9581,-90.449
153.7243,-90.1202
153.4832,-89.7969
153.2322,-89.481
152.9795,-89.1664
152.7286,-88.8505
152.4764,-88.5355
152.2246,-88.2203
151.9733,-87.9046
151.7209,-87.5898
151.4697,-87.2741
151.2176,-86.959
150.9579,-86.6503
150.6925,-86.3465
150.4269,-86.0428
150.1615,-85.7388
149.8959,-85.4351
149.6305,-85.1312
149.365,-84.8275
149.0994,-84.5237
148.8342,-84.2196
148.5682,-83.9163
148.2991,-83.6156
148.0279,-83.3169
147.7573,-83.0176
147.4868,-82.7183
147.2156,-82.4195
146.9452,-82.1201
146.6744,-81.8209
146.4032,-81.5222
146.1334,-81.2222
145.8614,-80.9242
145.5829,-80.6323
145.302,-80.3427
145.0224,-80.0517
144.7424,-79.7613
144.4621,-79.4711
144.1825,-79.1802
143.9023,-78.8899
143.622,-78.5996
143.3427,-78.3085
143.0589,-78.0218
142.7674,-77.7428
142.4739,-77.466
142.1819,-77.1876
141.8892,-76.9098
141.5964,-76.6323
141.3042,-76.354
141.0113,-76.0764
140.7188,-75.7986
140.4264,-75.5205
140.1312,-75.2455
139.8338,-74.973
139.536,-74.7006
139.2383,-74.4283
138.9407,-74.1559
138.6431,-73.8834
138.3453,-73.6112
138.0478,-73.3387
137.7502,-73.0662
137.4522,-72.7942
137.1531,-72.5234
136.8526,-72.2541
136.5525,-71.9845
136.2525,-71.7146
135.952,-71.4454
135.6521,-71.1755
135.352,-70.9058
135.0514,-70.6367
134.7521,-70.3662
134.4509,-70.0976
134.1444,-69.8353
133.8363,-69.5748
133.5291,-69.3132
133.2216,-69.0521
132.914,-68.7909
132.6066,-68.5295
132.299,-68.2685
131.9916,-68.0071
131.6841,-67.7458
131.3761,-67.4853
131.067,-67.2258
130.7574,-66.9671
130.4484,-66.7079
130.139,-66.4487
129.8295,-66.1899
129.5206,-65.9304
129.2109,-65.6717
128.9017,-65.4126
128.5927,-65.1531
128.2759,-64.9036
127.9492,-64.6671
127.6207,-64.4326
127.2937,-64.1963
126.9659,-63.9612
126.6382,-63.7256
126.3108,-63.4898
125.983,-63.2547
125.6555,-63.0189
125.3279,-62.7834
124.9995,-62.5491
124.6708,-62.315
124.3419,-62.0813
124.0131,-61.8475
123.6843,-61.6135
123.3555,-61.3798
123.0267,-61.1459
122.6978,-60.9122
122.3693,-60.6781
122.04,-60.4448
121.707,-60.2171
121.3716,-59.9929
121.037,-59.7673
120.7022,-59.5422
120.367,-59.3177
120.0325,-59.0919
119.6975,-58.8672
119.3623,-58.6426
119.0282,-58.4162
118.6918,-58.1937
118.35,-57.9792
118.0065,-57.7675
117.664,-57.5544
117.3213,-57.3413
116.9782,-57.129
116.6356,-56.916
116.2928,-56.703
115.9498,-56.4906
115.6073,-56.2775
115.2639,-56.0654
114.9194,-55.8556
114.5748,-55.6458
114.2301,-55.4358
113.8855,-55.2262
113.5409,-55.0162
113.1963,-54.8063
112.8516,-54.5968
112.5071,-54.3867
112.1624,-54.1769
111.8173,-53.968
111.4716,-53.7597
111.1258,-53.552
110.7801,-53.344
110.4343,-53.1359
110.0885,-52.9282
109.7429,-52.72
109.397,-52.5121
109.0515,-52.304
108.7054,-52.0965
108.3553,-51.896
108.0017,-51.7019
107.6484,-51.5068
107.2952,-51.3117
106.9416,-51.1177
106.5885,-50.9221
106.2352,-50.7274
105.8814,-50.5336
105.5288,-50.3371
105.1747,-50.1441
104.8156,-49.9602
104.4541,-49.7808
104.0928,-49.6014
103.7317,-49.4214
103.3705,-49.2415
103.009,-49.0624
102.6479,-48.8823
102.2869,-48.702
101.9249,-48.5242
101.5653,-48.3409
101.2126,-48.1452
100.8625,-47.9447
100.5108,-47.7467
100.1595,-47.5485
99.8087,-47.3493
99.4572,-47.1509
99.1059,-46.9527
98.7549,-46.7537
98.4038,-46.5547
98.0491,-46.3631
97.6867,-46.1858
97.3217,-46.0134
96.959,-45.8372
96.5952,-45.6623
96.231,-45.4886
95.8681,-45.3125
95.5039,-45.1384
95.1403,-44.9637
94.7771,-44.7883
94.4081,-44.625
94.0347,-44.4727
93.6611,-44.3204
93.2871,-44.1683
92.9135,-44.0166
92.54,-43.8638
92.1659,-43.7122
91.7926,-43.56
91.4189,-43.4074
91.0448,-43.2559
90.6726,-43.101
90.3007,-42.9438
89.9288,-42.7875
89.5575,-42.6301
89.1855,-42.473
88.8137,-42.3167
88.4425,-42.159
88.0702,-42.0025
87.6988,-41.8456
87.3273,-41.6883
86.9524,-41.5384
86.5763,-41.3934
86.2,-41.2472
85.8233,-41.1023
85.4473,-40.9571
85.071,-40.8107
84.6942,-40.6662
84.3183,-40.5207
83.9419,-40.374
83.565,-40.2308
83.1857,-40.0942
82.8031,-39.9643
82.4215,-39.8344
82.0405,-39.7022
81.6577,-39.5726
81.2765,-39.4422
80.8952,-39.3102
80.5124,-39.1808
80.1314,-39.0504
79.7501,-38.9175
79.3716,-38.777
79.0002,-38.6218
78.6259,-38.4691
78.2511,-38.3191
77.895,-38.1348
77.5538,-37.9183
77.2153,-37.6988
76.8797,-37.4771
76.5366,-37.2602
76.1997,-37.0415
75.952,-36.7552
75.8376,-36.3752
75.764,-35.9697
75.6287,-35.5957
75.4293,-35.2505
75.1905,-34.9194
74.9688,-34.584
74.884,-34.2195
74.95,-33.827
75.0371,-33.4283
75.0917,-33.0307
75.153,-32.6314
75.2167,-32.2325
75.2738,-31.8339
75.3373,-31.4348
75.3962,-31.0358
75.459,-30.6376
75.5496,-30.244
75.6481,-29.8532
75.7391,-29.4599
75.835,-29.0676
75.9307,-28.6764
76.0223,-28.2827
76.1191,-27.8912
76.2137,-27.4995
76.3051,-27.1055
76.417,-26.7193
76.5569,-26.3413
76.705,-25.9648
76.849,-25.589
76.9931,-25.2118
77.139,-24.8349
77.2835,-24.4596
77.428,-24.0818
77.5734,-23.7054
77.7181,-23.33
77.8644,-22.9523
78.0135,-22.5782
78.1622,-22.204
78.3102,-21.8266
78.4597,-21.4536
78.6082,-21.0784
78.756,-20.7008
78.9062,-20.3294
79.0535,-19.9522
79.2028,-19.5757
79.3708,-19.2136
79.547,-18.8463
79.7151,-18.479
79.9014,-18.1298
80.1403,-17.7981
80.449,-17.5511
80.8286,-17.4462
81.2362,-17.3951
81.6299,-17.3138
82.0238,-17.2363
82.3486,-17.1857
82.8267,-17.1857
83.3049,-17.1857
83.7831,-17.1857
84.2612,-17.1857
84.7394,-17.1857
85.2175,-17.1857
85.2175,-17.1857
85.5796,-17.0606
85.9118,-16.8251
86.2448,-16.601
86.5849,-16.3835
86.9149,-16.1485
87.2518,-15.9301
87.5892,-15.7062
87.863,-15.4234
88.0598,-15.0784
88.2413,-14.7123
88.4387,-14.3615
88.5964,-13.9948
88.702,-13.6049
88.9115,-13.3092
89.2872,-13.1357
89.6144,-12.9156
89.8002,-12.5706
89.9865,-12.2001
90.1512,-11.8404
90.1877,-11.4461
90.1684,-11.0352
90.1497,-10.638
90.1056,-10.2367
90.0624,-9.8314
90.0282,-9.434
89.9835,-9.0313
89.944,-8.6276
89.9069,-8.2299
89.8628,-7.8261
89.8238,-7.4238
89.7878,-7.0254
89.7331,-6.6225
89.6299,-6.2348
89.5022,-5.8535
89.3928,-5.4608
89.2182,-5.1131
88.9232,-4.8318
88.6538,-4.5357
88.5166,-4.1728
88.4458,-3.7675
88.3466,-3.3789
88.1444,-3.0557
87.8463,-2.781
87.5419,-2.5132
87.249,-2.243
86.9449,-1.97
86.6476,-1.7001
86.3496,-1.4326
86.0471,-1.1562
85.7514,-0.88896
85.4451,-0.62831
85.1426,-0.34694
84.8386,-0.10361
84.4707,0.0076283
83.41,0.0076283
84.4707,0.0076283
83.2531,0.019727
