134.1708,-300.5694
134.3412,-300.2586
134.512,-299.9481
134.6823,-299.6368
134.8529,-299.3264
135.0236,-299.0156
135.1939,-298.7044
135.3647,-298.3941
135.535,-298.0829
135.7059,-297.7722
135.8725,-297.4597
136.0259,-297.1398
136.176,-296.8187
136.3306,-296.4999
136.4802,-296.178
136.6344,-295.8591
136.8047,-295.5483
136.9794,-295.2395
137.1527,-294.9306
137.3269,-294.6216
137.5003,-294.3123
137.6744,-294.0038
137.8482,-293.6945
138.0216,-293.3854
138.1961,-293.077
138.3694,-292.7673
138.5432,-292.4586
138.7176,-292.1499
138.8905,-291.8401
139.065,-291.5319
139.2389,-291.2227
139.4118,-290.9131
139.5868,-290.6052
139.7599,-290.2954
139.9333,-289.9863
140.1085,-289.6784
140.2807,-289.368
140.4553,-289.0598
140.6299,-288.7513
140.8016,-288.4406
140.9776,-288.1335
141.1507,-287.8238
141.3228,-287.5135
141.5001,-287.2074
141.6673,-286.8938
141.8338,-286.581
142.0052,-286.2718
142.1616,-285.9508
142.3459,-285.6519
142.5944,-285.4017
142.8599,-285.1647
143.1205,-284.9245
143.3666,-284.6716
143.5646,-284.3793
143.7431,-284.0712
143.9365,-283.7747
144.1235,-283.4736
144.3003,-283.1658
144.4749,-282.858
144.6445,-282.5464
144.8153,-282.2355
144.9889,-281.9269
145.1741,-281.6248
145.3756,-281.333
145.576,-281.0407
145.7754,-280.7475
145.9753,-280.4547
146.1614,-280.1531
146.344,-279.849
146.5315,-279.5483
146.7149,-279.2449
146.8998,-278.9422
147.0863,-278.6409
147.2694,-278.3372
147.4555,-278.0353
147.6406,-277.7332
147.8245,-277.43
148.0157,-277.1313
148.2064,-276.8326
148.3944,-276.532
148.5889,-276.2353
148.7741,-275.9335
148.9292,-275.6149
149.074,-275.2911
149.2274,-274.9718
149.3726,-274.6477
149.5269,-274.3293
149.7287,-274.0385
149.9449,-273.7564
150.1466,-273.4661
150.3632,-273.1837
150.5656,-272.894
150.7065,-272.5707
150.8265,-272.2359
150.9576,-271.9077
151.0783,-271.5732
151.2083,-271.2442
151.3941,-270.9482
151.6241,-270.6778
151.8526,-270.4068
152.08,-270.1352
152.31,-269.8649
152.4924,-269.5666
152.6206,-269.2364
152.7478,-268.9051
152.8748,-268.5744
153.003,-268.2438
153.1752,-267.9361
153.3736,-267.6421
153.5657,-267.3443
153.7666,-267.0516
153.9557,-266.7525
154.107,-266.4322
154.249,-266.107
154.3965,-265.7849
154.5434,-265.4619
154.6861,-265.1377
154.8025,-264.8037
154.9001,-264.4622
155.0064,-264.1247
155.1054,-263.7835
155.2105,-263.4455
155.3744,-263.1348
155.572,-262.8397
155.7627,-262.5416
155.9607,-262.2468
156.1321,-261.9393
156.2415,-261.6029
156.3424,-261.2621
156.4544,-260.9267
156.5516,-260.5844
156.6754,-260.2544
156.8596,-259.9532
157.0617,-259.6603
157.2519,-259.3617
157.4453,-259.0648
157.6445,-258.7706
157.8151,-258.4624
157.9381,-258.131
158.0474,-257.7927
158.1657,-257.459
158.2807,-257.1236
158.3909,-256.7864
158.497,-256.4485
158.5988,-256.1087
158.7045,-255.7703
158.8068,-255.4309
158.9126,-255.0926
159.0482,-254.7657
159.2003,-254.4454
159.3474,-254.1229
159.4985,-253.8021
159.6474,-253.4805
159.7723,-253.1495
159.8746,-252.8103
159.9739,-252.4699
160.0771,-252.1307
160.1758,-251.7902
160.2814,-251.4518
160.4081,-251.1208
160.5397,-250.7917
160.667,-250.4607
160.7975,-250.1311
160.9257,-249.8006
161.0498,-249.4684
161.1748,-249.1367
161.2983,-248.8044
161.4233,-248.4725
161.5472,-248.1405
161.6635,-247.8056
161.7772,-247.4698
161.8903,-247.1339
162.0042,-246.798
162.1174,-246.4621
162.2161,-246.1219
162.3046,-245.7784
162.3947,-245.4357
162.4821,-245.092
162.5836,-244.7529
162.7147,-244.4238
162.8509,-244.0962
162.9826,-243.7672
163.1177,-243.4394
163.2337,-243.1051
163.321,-242.7617
163.4058,-242.4174
163.4941,-242.074
163.5779,-241.7295
163.6692,-241.3871
163.7729,-241.048
163.879,-240.7098
163.9841,-240.3712
164.0894,-240.0326
164.1944,-239.6942
164.2976,-239.3549
164.3984,-239.0149
164.501,-238.6758
164.6016,-238.3355
164.7047,-237.9966
164.8378,-237.669
164.9913,-237.3487
165.1362,-237.0261
165.2914,-236.7062
165.4359,-236.3834
165.5055,-236.041
165.5298,-235.6866
165.5612,-235.334
165.5851,-234.9799
165.6213,-234.6277
165.7002,-234.2826
165.7896,-233.939
165.8713,-233.5943
165.9556,-233.2499
166.0503,-232.9084
166.1672,-232.5742
166.2919,-232.242
166.4113,-231.9082
166.5321,-231.5751
166.6147,-231.2338
166.6382,-230.88
166.6586,-230.5258
166.688,-230.1731
166.7032,-229.8178
166.7482,-229.4682
166.8468,-229.1283
166.9559,-228.7905
167.06,-228.4519
167.165,-228.1131
167.2542,-227.7705
167.3258,-227.4233
167.3957,-227.0756
167.4688,-226.7288
167.5384,-226.3812
167.5895,-226.0309
167.6206,-225.6779
167.6511,-225.3245
167.6833,-224.9716
167.713,-224.6183
167.7608,-224.2675
167.8341,-223.9209
167.9114,-223.5747
167.9853,-223.228
168.0613,-222.8818
168.1362,-222.5352
168.2097,-222.1884
168.284,-221.8418
168.3579,-221.495
168.4314,-221.1482
168.5009,-220.8007
168.5636,-220.4516
168.6254,-220.1026
168.6894,-219.7539
168.7506,-219.4046
168.8059,-219.0546
168.8568,-218.7036
168.9075,-218.3528
168.9588,-218.0021
169.01,-217.6511
169.0743,-217.303
169.1602,-216.959
169.2469,-216.6151
169.3295,-216.2707
169.4205,-215.9274
169.4822,-215.5805
169.4827,-215.227
169.469,-214.8718
169.468,-214.5178
169.4561,-214.1632
169.4552,-213.8089
169.493,-213.4567
169.5395,-213.105
169.5787,-212.7527
169.6228,-212.4009
169.6626,-212.0487
169.6902,-211.6952
169.7177,-211.3418
169.7475,-210.9886
169.7713,-210.6346
169.8045,-210.282
169.8745,-209.9356
169.9674,-209.5931
170.054,-209.2495
170.143,-208.9063
170.2325,-208.5632
170.2939,-208.215
170.3324,-207.8626
170.37,-207.5101
170.4084,-207.1576
170.4454,-206.805
170.4737,-206.4519
170.4891,-206.0975
170.5057,-205.7435
170.5236,-205.3895
170.5376,-205.035
170.5623,-204.6817
170.6002,-204.3292
170.6408,-203.9769
170.6818,-203.6249
170.7196,-203.2722
170.764,-202.9207
170.8318,-202.5728
170.9058,-202.2259
170.973,-201.878
171.048,-201.5312
171.1142,-201.1832
171.1455,-200.8308
171.1618,-200.4764
171.1833,-200.1226
171.203,-199.7686
171.2218,-199.4145
171.2424,-199.0607
171.261,-198.7066
171.2799,-198.3526
171.3,-197.9986
171.3182,-197.6446
171.329,-197.2903
171.3294,-196.9359
171.329,-196.5813
171.3295,-196.2268
171.33,-195.8723
171.3493,-195.5187
171.3854,-195.1659
171.4174,-194.813
171.4534,-194.4601
171.4861,-194.1072
171.4825,-193.7541
171.4526,-193.4008
171.4232,-193.0475
171.394,-192.6941
171.3638,-192.3409
171.3315,-191.9879
171.2952,-191.6351
171.2615,-191.2823
171.2258,-190.9296
171.1914,-190.5767
171.1788,-190.2229
171.1809,-189.8683
171.1802,-189.5139
171.1847,-189.1592
171.1816,-188.8049
171.1405,-188.4538
171.0791,-188.1042
171.0262,-187.754
170.9669,-187.4041
170.9117,-187.0542
170.9107,-186.703
170.954,-186.3512
170.9963,-185.9992
171.0397,-185.6473
171.0819,-185.2953
171.0944,-184.942
171.0838,-184.5876
171.0722,-184.2333
171.0624,-183.8789
171.0506,-183.5246
171.0228,-183.1717
170.9764,-182.8201
170.9301,-182.4686
170.8841,-182.1171
170.8381,-181.7656
170.8156,-181.4125
170.8129,-181.0578
170.8078,-180.7034
170.805,-180.3489
170.8006,-179.9943
170.7735,-179.6414
170.7311,-179.2895
170.6886,-178.9374
170.6449,-178.5857
170.6044,-178.2334
170.5585,-177.882
170.4883,-177.5347
170.4091,-177.1889
170.3367,-176.842
170.2591,-176.496
170.1849,-176.1493
170.129,-175.7995
170.0801,-175.4483
170.031,-175.0972
169.9813,-174.7461
169.9333,-174.395
169.9023,-174.042
169.8808,-173.6879
169.853,-173.3347
169.8324,-172.9804
169.8043,-172.6274
169.7314,-172.2819
169.6344,-171.9406
169.5437,-171.5982
169.4474,-171.2567
169.3557,-170.9144
169.2991,-170.5658
169.2673,-170.2126
169.2349,-169.8596
169.2027,-169.5066
169.1701,-169.1535
169.1232,-168.8024
169.064,-168.4528
169.0057,-168.1031
168.9473,-167.7535
168.888,-167.4039
168.8344,-167.0535
168.7831,-166.7027
168.731,-166.352
168.682,-166.0009
168.628,-165.6505
168.5621,-165.3022
168.4914,-164.9548
168.4221,-164.6071
168.3548,-164.259
168.2829,-163.9119
168.1973,-163.568
168.1041,-163.2259
168.0138,-162.8831
167.9224,-162.5406
167.831,-162.198
167.7488,-161.8532
167.6704,-161.5074
167.59,-161.1622
167.5124,-160.8162
167.4319,-160.471
167.3373,-160.1295
167.2339,-159.7903
167.1314,-159.451
167.0285,-159.1117
166.9257,-158.7724
166.8322,-158.4306
166.748,-158.0862
166.6639,-157.7418
166.5799,-157.3974
166.4955,-157.0531
166.3996,-156.712
166.2934,-156.3737
166.1883,-156.0351
166.0825,-155.6968
165.9769,-155.3583
165.8793,-155.0175
165.7849,-154.6758
165.6896,-154.3343
165.5958,-153.9924
165.5003,-153.651
165.4014,-153.3105
165.3,-152.9709
165.1977,-152.6315
165.0967,-152.2916
164.9948,-151.952
164.8936,-151.6123
164.7944,-151.2718
164.6924,-150.9324
164.5935,-150.5918
164.4918,-150.2523
164.3613,-149.9236
164.2111,-149.6024
164.0641,-149.28
163.9122,-148.9594
163.7669,-148.6362
163.6499,-148.3019
163.5425,-147.9638
163.4298,-147.6278
163.3199,-147.2907
163.2096,-146.9537
163.0963,-146.6179
162.9838,-146.2816
162.8701,-145.9458
162.7571,-145.6099
162.6436,-145.2739
162.5243,-144.9401
162.4035,-144.6068
162.2842,-144.2729
162.1635,-143.9396
162.0454,-143.6054
161.9324,-143.2693
161.8191,-142.9334
161.7059,-142.5974
161.5935,-142.2612
161.4725,-141.9281
161.3394,-141.5995
161.2035,-141.2721
161.0697,-140.9438
160.9351,-140.6158
160.7933,-140.2911
160.6394,-139.9717
160.4829,-139.6535
160.3291,-139.3342
160.1727,-139.0159
160.0258,-138.6936
159.896,-138.3637
159.768,-138.033
159.6386,-137.7031
159.5098,-137.3727
159.3815,-137.0422
159.265,-136.7075
159.1524,-136.3712
159.0346,-136.037
158.9235,-135.7
158.7951,-135.3706
158.625,-135.06
158.4464,-134.7533
158.2755,-134.443
158.0985,-134.1356
157.9254,-133.8263
157.7601,-133.5127
157.5955,-133.1987
157.4322,-132.8841
157.267,-132.5703
157.1106,-132.2524
156.9734,-131.9256
156.8381,-131.5978
156.7006,-131.2712
156.5657,-130.9432
156.4161,-130.6223
156.2487,-130.3098
156.0793,-129.9983
155.911,-129.6863
155.7425,-129.3744
155.5734,-129.0628
155.4014,-128.7528
155.2288,-128.4431
155.0568,-128.1331
154.884,-127.8236
154.7124,-127.5133
154.5457,-127.2005
154.3833,-126.8854
154.2199,-126.5707
154.0566,-126.2561
153.8942,-125.9409
153.7223,-125.631
153.5389,-125.3277
153.354,-125.0252
153.1699,-124.7222
152.9855,-124.4194
152.8014,-124.1164
152.6172,-123.8135
152.4341,-123.51
152.249,-123.2075
152.0666,-122.9037
151.8997,-122.5912
151.7427,-122.2732
151.5837,-121.9564
151.426,-121.6388
151.2678,-121.3216
151.1005,-121.0092
150.9256,-120.7007
150.749,-120.3934
150.5746,-120.0847
150.3978,-119.7774
150.2094,-119.4774
150.0126,-119.1824
149.8159,-118.8875
149.6204,-118.5918
149.4227,-118.2975
149.2167,-118.0091
149.0046,-117.725
148.7941,-117.4397
148.5827,-117.1552
148.3718,-116.8702
148.1695,-116.5791
147.972,-116.2848
147.7737,-115.9908
147.5762,-115.6964
147.3781,-115.4024
147.1787,-115.1092
146.9792,-114.8162
146.7792,-114.5235
146.5795,-114.2305
146.38,-113.9375
146.1789,-113.6456
145.9762,-113.3546
145.7726,-113.0645
145.5695,-112.7738
145.3664,-112.4832
145.1637,-112.1925
144.9655,-111.8984
144.7683,-111.6038
144.5685,-111.3112
144.3731,-111.015
144.1717,-110.7236
143.9446,-110.4521
143.7055,-110.1899
143.4719,-109.9236
143.2342,-109.6603
142.9993,-109.3948
142.7864,-109.1119
142.5826,-108.8216
142.375,-108.5344
142.1722,-108.2434
141.964,-107.9566
141.7346,-107.6869
141.4959,-107.4247
141.2596,-107.1604
141.0226,-106.8968
140.7849,-106.6337
140.5519,-106.3666
140.3265,-106.093
140.1036,-105.8172
139.8781,-105.5438
139.6555,-105.2678
139.4296,-104.9946
139.1868,-104.7364
138.9396,-104.4821
138.6976,-104.2232
138.4497,-103.9694
138.2079,-103.7105
137.9914,-103.4306
137.7869,-103.1409
137.58,-102.8529
137.3738,-102.5646
137.1682,-102.2758
136.9622,-101.9872
136.7569,-101.6983
136.5514,-101.4093
136.3458,-101.1205
136.1376,-100.8337
135.9236,-100.5509
135.7076,-100.2699
135.4942,-99.9867
135.2785,-99.7053
135.0515,-99.4336
134.8128,-99.1715
134.5715,-98.9116
134.3338,-98.6487
134.0927,-98.3888
133.8376,-98.143
133.5725,-97.9078
133.3083,-97.6713
133.0432,-97.4359
132.7794,-97.1993
132.5321,-96.946
132.299,-96.6789
132.0656,-96.4121
131.831,-96.1461
131.5989,-95.8783
131.3731,-95.6052
131.154,-95.3262
130.9337,-95.0487
130.7131,-94.7711
130.494,-94.4923
130.2594,-94.2275
130.0062,-93.9794
129.7509,-93.7334
129.4973,-93.4857
129.2424,-93.2391
128.9875,-92.993
128.7307,-92.7485
128.4735,-92.5043
128.2174,-92.2595
127.9598,-92.0156
127.7048,-91.7694
127.4556,-91.5175
127.2072,-91.2642
126.9586,-91.0117
126.7096,-90.7593
126.4614,-90.5059
126.2221,-90.245
125.9922,-89.9749
125.7614,-89.7057
125.5309,-89.4366
125.3011,-89.1663
125.0522,-88.916
124.7783,-88.6913
124.5009,-88.4699
124.2267,-88.2457
123.9503,-88.0235
123.6744,-87.8007
123.3966,-87.5809
123.117,-87.3625
122.84,-87.1414
122.5597,-86.9242
122.2859,-86.6993
122.0339,-86.4503
121.7874,-86.1954
121.5352,-85.9461
121.2882,-85.6918
121.0371,-85.4417
120.7692,-85.2099
120.4943,-84.9863
120.2202,-84.7612
119.9454,-84.5371
119.6715,-84.3124
119.4033,-84.0803
119.1416,-83.8413
118.8798,-83.6024
118.6176,-83.3635
118.356,-83.1245
118.0841,-82.8976
117.7997,-82.6857
117.5152,-82.4746
117.2312,-82.2621
116.9457,-82.0518
116.6708,-81.8292
116.4125,-81.5861
116.1584,-81.3389
115.9005,-81.0959
115.6456,-80.849
115.3885,-80.6054
115.1156,-80.3794
114.8358,-80.1614
114.5589,-79.9406
114.2785,-79.7231
114.0019,-79.5015
113.7418,-79.2613
113.4871,-79.014
113.2293,-78.7711
112.9743,-78.5248
112.7168,-78.2808
112.4472,-78.0514
112.1703,-77.8298
111.8935,-77.6081
111.6174,-77.3863
111.3401,-77.1648
111.0604,-76.9472
110.7788,-76.7321
110.4971,-76.5164
110.216,-76.3006
109.9341,-76.0857
109.6422,-75.8853
109.3368,-75.7056
109.0313,-75.5256
108.7266,-75.3442
108.4202,-75.1661
108.1402,-74.9539
107.8964,-74.6972
107.6576,-74.4349
107.414,-74.1772
107.1739,-73.9164
106.9356,-73.6543
106.7044,-73.3851
106.4765,-73.1137
106.244,-72.8463
106.0164,-72.5737
105.7846,-72.3065
105.5297,-72.0608
105.2621,-71.828
104.9945,-71.5962
104.728,-71.3615
104.4599,-71.1301
104.1815,-70.9114
103.8946,-70.7021
103.6074,-70.4954
103.3216,-70.2851
103.0338,-70.0776
102.7288,-69.9021
102.4047,-69.7575
102.0804,-69.614
101.7566,-69.4707
101.4329,-69.325
101.1223,-69.1562
100.8204,-68.9703
100.5175,-68.7853
100.2132,-68.6041
99.9137,-68.4145
99.6336,-68.198
99.3645,-67.9673
99.0887,-67.7439
98.816,-67.5177
98.5441,-67.2904
98.2594,-67.0788
97.9695,-66.8756
97.6782,-66.6736
97.3856,-66.4725
97.0959,-66.2692
96.8002,-66.0732
96.4976,-65.888
96.1963,-65.7026
95.8924,-65.5185
95.591,-65.3325
95.3067,-65.1234
95.0376,-64.8913
94.7701,-64.6596
94.5003,-64.4297
94.2332,-64.1951
93.9589,-63.9728
93.668,-63.7695
93.3731,-63.5719
93.0805,-63.374
92.7892,-63.169
92.492,-62.9782
92.1666,-62.8449
91.8254,-62.7394
91.494,-62.6182
91.1567,-62.5075
90.8212,-62.3907
90.516,-62.2174
90.2217,-62.018
89.9242,-61.8254
89.6323,-61.6251
89.3347,-61.431
89.0234,-61.2648
88.7008,-61.1196
88.3737,-60.9792
88.0517,-60.8337
87.7269,-60.6912
87.398,-60.5564
87.0719,-60.421
86.7427,-60.2871
86.4138,-60.1536
86.0879,-60.0177
85.7587,-59.8822
85.4344,-59.7404
85.111,-59.5969
84.7834,-59.4574
84.4607,-59.3136
84.1314,-59.1832
83.7919,-59.0762
83.4564,-58.9679
83.1178,-58.8594
82.7782,-58.7549
82.4442,-58.6429
82.1043,-58.5343
81.7682,-58.4231
81.4362,-58.3051
81.0913,-58.2046
80.7647,-58.0789
80.4862,-57.8684
80.2297,-57.6191
79.9692,-57.382
79.7071,-57.1421
79.4478,-56.8992
79.1851,-56.6637
78.9191,-56.4268
78.6563,-56.1897
78.3931,-55.9535
78.1258,-55.7181
77.8456,-55.5054
77.5446,-55.3172
77.2444,-55.1261
76.9489,-54.9343
76.6463,-54.7465
76.3568,-54.5416
76.0744,-54.3304
75.7831,-54.1249
75.5029,-53.908
75.215,-53.7042
74.901,-53.5354
74.5869,-53.3762
74.2674,-53.2224
73.9483,-53.0605
73.6365,-52.9034
73.2895,-52.8474
72.9394,-52.8429
72.662,-52.6956
72.4425,-52.4106
72.2337,-52.126
72.0064,-51.8587
71.7627,-51.5923
71.5211,-51.3416
71.2769,-51.082
71.0758,-50.7868
70.9083,-50.4847
70.656,-50.2214
70.4177,-49.9674
70.3703,-49.6535
70.3732,-49.3036
70.2767,-48.9696
70.1489,-48.6346
70.0445,-48.2944
70.0077,-47.957
70.061,-47.6058
70.1298,-47.2544
70.1858,-46.9102
70.2474,-46.556
70.3063,-46.2074
70.3468,-45.8609
70.3481,-45.4939
70.4028,-45.1581
70.632,-44.9051
70.9291,-44.6844
71.1621,-44.4294
71.3706,-44.1422
71.5763,-43.8499
71.7722,-43.5591
71.9771,-43.2666
72.168,-42.968
72.3482,-42.6649
72.5419,-42.3649
72.7266,-42.0639
72.9141,-41.7638
73.1271,-41.4776
73.336,-41.1936
73.5412,-40.9042
73.7596,-40.6225
73.9594,-40.3327
74.1229,-40.0176
74.2736,-39.6964
74.4264,-39.3777
74.581,-39.0572
74.7354,-38.7389
74.8851,-38.4179
75.0259,-38.0915
75.1593,-37.764
75.2934,-37.4357
75.4353,-37.1097
75.5634,-36.781
75.6348,-36.4375
75.6572,-36.0838
75.6811,-35.73
75.7088,-35.3763
75.7315,-35.0229
75.796,-34.677
75.9129,-34.342
76.0298,-34.008
76.143,-33.6717
76.2656,-33.3384
76.3438,-32.997
76.3569,-32.6429
76.3582,-32.2885
76.3677,-31.9341
76.3708,-31.579
76.3531,-31.2273
76.2989,-30.8749
76.2592,-30.524
76.3004,-30.1778
76.3857,-29.8317
76.4663,-29.4875
76.5468,-29.1427
76.6231,-28.7947
76.698,-28.4503
76.772,-28.1024
76.8465,-27.7551
76.9879,-27.4447
77.2219,-27.1794
77.4708,-26.924
77.7038,-26.66
77.9501,-26.4023
78.2075,-26.1594
78.4648,-25.917
78.7234,-25.672
78.9843,-25.4335
79.2369,-25.1851
79.4633,-24.9119
79.6764,-24.6296
79.8969,-24.351
80.1174,-24.0734
80.3321,-23.7922
80.5424,-23.5057
80.748,-23.2177
80.9525,-22.928
81.1624,-22.6416
81.3939,-22.3754
81.6421,-22.1213
81.885,-21.8631
82.1339,-21.6107
82.374,-21.3502
82.5597,-21.0519
82.7164,-20.7332
82.8825,-20.4198
83.0459,-20.1057
83.2049,-19.7884
83.3593,-19.4695
83.5013,-19.145
83.645,-18.8203
83.7941,-18.4989
83.9331,-18.173
84.0513,-17.8391
84.15,-17.4993
84.2474,-17.1578
84.3508,-16.8186
84.4477,-16.4783
84.5209,-16.132
84.5592,-15.7806
84.5888,-15.4269
84.6295,-15.0741
84.6605,-14.722
84.6848,-14.3677
84.704,-14.0135
84.7121,-13.6605
84.7397,-13.3042
84.7404,-12.9526
84.6412,-12.6149
84.5119,-12.2814
84.4065,-11.9449
84.2878,-11.6102
84.1703,-11.2749
84.0584,-10.9398
83.9319,-10.6077
83.814,-10.2732
83.6819,-9.9456
83.5206,-9.6286
83.3721,-9.3067
83.1862,-9.0121
82.9133,-8.7836
82.6458,-8.5554
82.4491,-8.2627
82.2773,-7.9498
82.0928,-7.6506
81.9163,-7.3407
81.7701,-7.0179
81.63,-6.6945
81.4824,-6.3694
81.3478,-6.0421
81.1957,-5.7241
80.9863,-5.4375
80.7539,-5.1718
80.531,-4.8953
80.3055,-4.62
80.0645,-4.3642
79.8075,-4.1178
79.5452,-3.879
79.2858,-3.6403
79.0264,-3.3946
78.7649,-3.1577
78.4911,-2.9347
78.2022,-2.7249
77.914,-2.5231
77.6266,-2.3139
77.3377,-2.1054
77.0622,-1.889
76.7978,-1.6474
76.531,-1.4148
76.2663,-1.1842
76.0023,-0.93849
75.711,-0.75678
75.3747,-0.65619
75.0251,-0.56776
74.6879,-0.47948
74.3437,-0.38469
73.998,-0.29106
73.6626,-0.21299
73.3106,-0.097876
72.9774,-0.03643
