90.215,-52.1021
89.4233,-51.7949
88.6311,-51.4873
87.8408,-51.1733
87.0578,-50.8513
86.2782,-50.5194
85.5008,-50.1799
84.7244,-49.8357
83.9511,-49.4898
83.1773,-49.1484
82.3976,-48.8253
81.61,-48.5319
80.8199,-48.2639
80.0428,-47.9898
79.2993,-47.6637
78.6025,-47.2535
77.9491,-46.7593
77.3367,-46.2039
76.7779,-45.6056
76.3068,-44.9693
75.9711,-44.2892
75.8107,-43.5611
75.8183,-42.7905
75.938,-41.9898
76.1029,-41.1709
76.2717,-40.3432
76.4233,-39.5098
76.5579,-38.6727
76.686,-37.8342
76.8213,-36.997
76.9719,-36.1627
77.1418,-35.332
77.332,-34.5055
77.54,-33.6829
77.7606,-32.8634
77.9881,-32.0459
78.2174,-31.2307
78.4525,-30.4261
78.7176,-29.6574
79.0539,-28.9688
79.5101,-28.4091
80.1001,-27.9956
80.7972,-27.6924
81.5355,-27.4208
82.2346,-27.0904
82.8321,-26.6359
83.3084,-26.042
83.6858,-25.3394
84.0056,-24.5762
84.2983,-23.7902
84.5736,-23.0008
84.8058,-22.2092
84.9636,-21.4073
85.0391,-20.5891
85.0567,-19.7558
85.0556,-18.9134
85.0676,-18.068
85.1151,-17.2251
85.2042,-16.3861
85.3301,-15.5518
85.4799,-14.7214
85.6331,-13.8927
85.7579,-13.0627
85.8273,-12.2299
85.8235,-11.3959
85.7422,-10.5652
85.588,-9.743
85.3675,-8.9377
85.0764,-8.1576
84.7127,-7.4066
84.2893,-6.6815
83.8286,-5.9737
83.3491,-5.2759
82.8562,-4.5889
82.344,-3.9245
81.7935,-3.3075
81.1828,-2.766
80.5032,-2.3139
79.7661,-1.9455
78.9873,-1.6439
77.4618,-1.1189
76.6563,-1.0364
75.8518,-0.95383
75.0864,-0.68529
74.3173,-0.41192
73.5229,-0.42128
-48.0726,-27.6052