91.8279,-53.3615
91.094,-52.9746
90.359,-52.5862
89.6262,-52.1973
88.8976,-51.8048
88.1697,-51.4058
87.4427,-51.0047
86.716,-50.6062
85.986,-50.2107
85.2532,-49.8171
84.5231,-49.4242
83.7959,-49.0278
83.0694,-48.626
82.3441,-48.2238
81.617,-47.8285
80.8854,-47.4413
80.1578,-47.0503
79.4561,-46.6318
78.7955,-46.1579
78.1818,-45.6193
77.6114,-45.0288
77.0717,-44.4042
76.551,-43.7602
76.0434,-43.106
75.5514,-42.4507
75.0781,-41.7929
74.6573,-41.1228
74.3513,-40.4254
74.2081,-39.6912
74.2347,-38.9289
74.3908,-38.1524
74.618,-37.3712
74.8546,-36.5824
75.0745,-35.7902
75.2777,-35.0063
75.4694,-34.2468
75.6725,-33.5319
75.9175,-32.8722
76.2478,-32.2775
76.7006,-31.7612
77.2893,-31.3358
77.9859,-30.9868
78.7303,-30.6721
79.4736,-30.3441
80.1763,-29.9562
80.8158,-29.4802
81.381,-28.9128
81.8753,-28.2709
82.3074,-27.5755
82.6796,-26.8418
82.999,-26.0816
83.2743,-25.3032
83.5104,-24.5118
83.7075,-23.7108
83.8606,-22.903
83.957,-22.0896
83.9846,-21.2708
83.9513,-20.4484
83.8796,-19.6262
83.7901,-18.806
83.7003,-17.99
83.6351,-17.1809
83.6249,-16.3784
83.6905,-15.5791
83.8289,-14.7802
84.0214,-13.9832
84.2358,-13.1904
84.4418,-12.4047
84.6056,-11.6285
84.6937,-10.8602
84.6892,-10.0942
84.588,-9.3273
84.3925,-8.5664
84.0995,-7.8209
83.7225,-7.0994
83.284,-6.4061
82.7951,-5.742
82.2702,-5.1026
81.7216,-4.482
81.1632,-3.876
80.3512,-3.009
79.9065,-2.3906
79.2538,-1.9734
78.5594,-1.6642
77.7965,-1.539
77.035,-1.4167
76.2647,-1.3707
-47.0454,-30.6274