93.6442,-53.7266
92.8695,-53.3866
92.098,-53.0355
91.3367,-52.6531
90.5813,-52.249
89.8212,-51.8471
89.0488,-51.4657
88.2672,-51.111
87.4771,-50.7713
86.6862,-50.4343
85.8998,-50.0894
85.1205,-49.7275
84.3521,-49.342
83.5964,-48.931
82.8496,-48.5027
82.1098,-48.0733
81.3683,-47.6539
80.6226,-47.2501
79.8766,-46.8518
79.1372,-46.4363
78.4109,-45.9888
77.6975,-45.512
76.9944,-45.0146
76.3101,-44.4989
75.6564,-43.9525
75.0579,-43.3626
74.5453,-42.7265
74.1477,-42.055
73.898,-41.3652
73.8124,-40.6601
73.8759,-39.9291
74.0499,-39.1663
74.2817,-38.3765
74.5298,-37.5691
74.7801,-36.7535
75.0423,-35.9403
75.3363,-35.1393
75.6751,-34.3612
76.0682,-33.6184
76.5293,-32.9283
77.065,-32.3061
77.674,-31.763
78.3515,-31.3084
79.0742,-30.9258
79.8016,-30.5616
80.475,-30.1438
81.0352,-29.6183
81.4538,-28.9716
81.7399,-28.2239
81.9308,-27.4143
82.0643,-26.5779
82.1572,-25.7326
82.2306,-24.8858
82.3034,-24.038
82.3818,-23.1877
82.4551,-22.3354
82.5085,-21.4813
82.5472,-20.6276
82.605,-19.7807
82.722,-18.9493
82.9265,-18.1403
83.2159,-17.3545
83.5617,-16.5874
83.9377,-15.8373
84.3406,-15.1098
84.7626,-14.4021
85.1786,-13.6962
85.5365,-12.9689
85.7892,-12.2072
85.907,-11.415
85.8812,-10.6071
85.7235,-9.8066
85.456,-9.0287
85.1081,-8.2724
84.7151,-7.5317
84.2834,-6.8053
83.8119,-6.0996
83.304,-5.4209
82.7662,-4.7781
82.201,-4.1865
81.5888,-3.3921
80.9775,-3.0181
80.218,-2.7561
79.4351,-2.5175
78.6527,-2.2899
77.8684,-2.1183
77.0824,-1.9387
-43.3508,-30.8598