87.9117,-342.4037
88.1211,-342.0322
88.3326,-341.6631
88.6567,-341.4027
89.0224,-341.1833
89.3844,-340.9595
89.7608,-340.7586
90.1345,-340.5554
90.512,-340.3565
90.8861,-340.1537
91.2668,-339.9615
91.6462,-339.7684
92.0272,-339.5772
92.4072,-339.3849
92.7721,-339.166
93.1291,-338.9336
93.4853,-338.6999
93.8427,-338.4679
94.1987,-338.2339
94.5562,-338.0021
94.9122,-337.7681
95.2695,-337.536
95.6258,-337.3025
95.9828,-337.0698
96.3395,-336.837
96.696,-336.6036
97.0533,-336.3716
97.4092,-336.1373
97.7669,-335.9061
98.1225,-335.6712
98.4805,-335.4404
98.8359,-335.2051
99.1939,-334.9747
99.5687,-334.7731
99.9522,-334.5877
100.3337,-334.3975
100.7273,-334.2413
101.1416,-334.1417
101.5565,-334.046
101.9574,-333.9109
102.3305,-333.7069
102.7037,-333.4997
103.0767,-333.2957
103.4105,-333.0304
103.7393,-332.7611
104.0674,-332.4878
104.3968,-332.2191
104.7759,-332.0307
105.1708,-331.8699
105.5616,-331.7018
105.9575,-331.542
106.3418,-331.3609
106.7243,-331.171
107.0989,-330.9703
107.482,-330.7809
107.8556,-330.5791
108.1884,-330.3132
108.5123,-330.0363
108.8447,-329.7697
109.1694,-329.4937
109.4481,-329.1735
109.7166,-328.8416
109.9891,-328.515
110.259,-328.1847
110.5622,-327.886
110.8679,-327.5889
111.1722,-327.291
111.4789,-326.995
111.7898,-326.7042
112.1101,-326.4228
112.4268,-326.1383
112.7467,-325.8565
113.068,-325.5773
113.405,-325.3163
113.7423,-325.0562
114.0776,-324.7934
114.4167,-324.5352
114.7826,-324.3212
115.1653,-324.1302
115.4606,-323.8442
115.6927,-323.4896
115.9125,-323.1216
116.1504,-322.7718
116.4452,-322.4635
116.7539,-322.1703
117.049,-321.8623
117.3571,-321.5684
117.7242,-321.356
118.1019,-321.1551
118.4706,-320.9444
118.8465,-320.7415
119.1814,-320.4839
119.4922,-320.1927
119.8013,-319.8993
120.1106,-319.6065
120.4255,-319.3196
120.7546,-319.0494
121.0864,-318.7818
121.4152,-318.5112
121.7471,-318.2437
122.0721,-317.9685
122.3996,-317.6958
122.7252,-317.4212
123.0519,-317.1477
123.3686,-316.8628
123.6778,-316.5699
123.9884,-316.2781
124.297,-315.9845
124.6342,-315.727
124.993,-315.498
125.3544,-315.2716
125.7133,-315.0427
126.0352,-314.7699
126.3175,-314.4507
126.6011,-314.1328
126.884,-313.8142
127.1735,-313.502
127.4784,-313.2043
127.7823,-312.9058
128.0875,-312.6084
128.3915,-312.3101
128.7019,-312.0181
129.0109,-311.7248
129.321,-311.4327
129.6303,-311.1397
129.9265,-310.8337
130.2192,-310.524
130.5113,-310.214
130.8045,-309.9048
131.1029,-309.601
131.4118,-309.3074
131.7188,-309.0122
132.0278,-308.7187
132.3273,-308.4163
132.6036,-308.0921
132.8786,-307.7666
133.1546,-307.4422
133.43,-307.1169
133.702,-306.7892
133.9731,-306.4604
134.2441,-306.1318
134.5153,-305.8031
134.8037,-305.4906
135.1114,-305.196
135.4194,-304.9015
135.7268,-304.6067
136.0217,-304.2999
136.2938,-303.9722
136.5673,-303.6454
136.8392,-303.3175
137.1157,-302.9933
137.4094,-302.685
137.705,-302.378
137.999,-302.0698
138.2942,-301.7625
138.5882,-301.4541
138.8823,-301.146
139.1768,-300.838
139.4703,-300.5295
139.7623,-300.2188
140.0521,-299.9069
140.3442,-299.5963
140.6339,-299.2843
140.8872,-298.9448
141.1036,-298.5777
141.3217,-298.2118
141.5387,-297.845
141.7712,-297.4891
142.0321,-297.1519
142.2917,-296.8146
142.5532,-296.4778
142.8123,-296.14
143.0462,-295.7836
143.2775,-295.4261
143.511,-295.0694
143.7429,-294.7123
144.0291,-294.3998
144.3384,-294.1065
144.6451,-293.8115
144.9563,-293.5191
145.2335,-293.2007
145.4664,-292.8434
145.6885,-292.4803
145.9233,-292.1241
146.1502,-291.7659
146.4879,-291.5002
146.8047,-291.2228
146.9261,-290.8166
147.0304,-290.4012
147.1514,-289.9948
147.3423,-289.6215
147.6023,-289.2825
147.8496,-288.9367
148.1076,-288.5967
148.3503,-288.2473
148.5804,-287.8886
148.8066,-287.5276
149.0345,-287.1677
149.2627,-286.8078
149.5104,-286.4615
149.7621,-286.1174
150.0097,-285.7711
150.262,-285.4273
150.4827,-285.0633
150.7012,-284.6976
150.9153,-284.3292
151.1332,-283.9632
151.391,-283.6253
151.6637,-283.2979
151.935,-282.9693
152.2069,-282.6416
152.44,-282.2881
152.6287,-281.9063
152.8182,-281.5246
153.0068,-281.1427
153.1978,-280.7617
153.3914,-280.3823
153.5852,-280.0028
153.7793,-279.6236
153.9988,-279.261
154.2683,-278.9308
154.5361,-278.5998
154.8061,-278.2698
155.0568,-277.9279
155.2429,-277.5448
155.4264,-277.1602
155.6125,-276.7771
155.7965,-276.3926
155.9984,-276.0176
156.1986,-275.6413
156.4001,-275.2662
156.6006,-274.89
156.8145,-274.5222
157.0434,-274.1626
157.2727,-273.8037
157.5016,-273.4442
157.7322,-273.0862
157.9851,-272.7433
158.2391,-272.4013
158.4917,-272.0582
158.7462,-271.7164
158.9517,-271.347
159.1132,-270.953
159.2716,-270.5573
159.4334,-270.1633
159.6177,-269.7802
159.8299,-269.4106
160.0383,-269.0392
160.2504,-268.6695
160.4498,-268.2938
160.6078,-267.8982
160.7633,-267.5015
160.9208,-267.1057
161.0769,-266.7092
161.2477,-266.319
161.422,-265.9302
161.5962,-265.5414
161.7709,-265.1529
161.9593,-264.771
162.1568,-264.3934
162.3528,-264.0152
162.5505,-263.6377
162.7291,-263.2516
162.8837,-262.8547
163.0365,-262.4569
163.191,-262.0599
163.3517,-261.6656
163.538,-261.2824
163.7227,-260.8985
163.909,-260.5154
164.0903,-260.1301
164.2312,-259.7281
164.3701,-259.3252
164.5112,-258.9233
164.65,-258.5204
164.7855,-258.1166
164.917,-257.7113
165.051,-257.3069
165.1825,-256.9016
165.3265,-256.5008
165.4786,-256.1029
165.6331,-255.7058
165.7853,-255.3079
165.9313,-254.9078
166.0613,-254.502
166.1928,-254.0968
166.3231,-253.6912
166.4561,-253.2866
166.6286,-252.897
166.8015,-252.5076
166.9742,-252.1181
167.147,-251.7287
167.2989,-251.3309
167.4447,-250.9306
167.5905,-250.5302
167.7364,-250.1299
167.868,-249.7249
167.9909,-249.317
168.1136,-248.909
168.2365,-248.5011
168.3458,-248.0897
168.4334,-247.6727
168.5212,-247.2558
168.6086,-246.8388
168.6997,-246.4227
168.8106,-246.0114
168.9229,-245.6004
169.0335,-245.189
169.1461,-244.778
169.2535,-244.3658
169.3631,-243.9541
169.4705,-243.5418
169.5801,-243.1301
169.6961,-242.7202
169.8164,-242.3114
169.9355,-241.9024
170.0553,-241.4935
170.1679,-241.0828
170.2711,-240.6694
170.3758,-240.2564
170.4782,-239.8429
170.5643,-239.4267
170.6022,-239.0021
170.6445,-238.5785
170.6819,-238.1537
170.7291,-237.7312
170.8694,-237.3293
171.0156,-236.9287
171.1559,-236.5268
171.3019,-236.1261
171.4294,-235.72
171.5568,-235.3132
171.6801,-234.9056
171.8068,-234.4987
171.9083,-234.0856
171.988,-233.6671
172.0664,-233.2484
172.1455,-232.8297
172.2233,-232.4108
172.2982,-231.9914
172.3738,-231.5722
172.4483,-231.1527
172.5241,-230.7334
172.586,-230.3119
172.6481,-229.8904
172.709,-229.4687
172.7709,-229.0472
172.8647,-228.6323
172.9751,-228.2208
173.0852,-227.8092
173.1955,-227.3977
173.2935,-226.9834
173.3712,-226.5645
173.4487,-226.1456
173.5265,-225.7267
173.6078,-225.3086
173.708,-224.8945
173.8071,-224.4802
173.9077,-224.0661
174.0064,-223.6517
174.082,-223.2326
174.1487,-222.8119
174.2183,-222.3915
174.2848,-221.9707
174.3277,-221.5475
174.3495,-221.1219
174.3746,-220.6967
174.3967,-220.2711
174.4334,-219.8471
174.5002,-219.4264
174.569,-219.0059
174.6363,-218.5853
174.7045,-218.1647
174.77,-217.7437
174.8354,-217.3227
174.9015,-216.9018
174.9664,-216.4808
175.0167,-216.0578
175.062,-215.6341
175.1093,-215.2107
175.1546,-214.7871
175.2057,-214.3642
175.2599,-213.9416
175.3153,-213.5191
175.3699,-213.0966
175.4212,-212.6737
175.4638,-212.2498
175.5055,-211.8258
175.5487,-211.402
175.5898,-210.9779
175.6424,-210.5551
175.692,-210.132
175.7451,-209.7092
175.7945,-209.2861
175.8009,-208.8607
175.7945,-208.4346
175.7917,-208.0087
175.7856,-207.5826
175.8054,-207.1575
175.8421,-206.7331
175.8809,-206.3088
175.9183,-205.8844
175.9367,-205.459
175.9447,-205.033
175.9524,-204.6071
175.9609,-204.1811
175.9742,-203.7554
175.9965,-203.3298
176.0174,-202.9044
176.0398,-202.4789
176.0594,-202.0534
176.0449,-201.6276
176.0293,-201.2018
176.0144,-200.776
175.9992,-200.3503
176.0248,-199.9254
176.06,-199.5008
176.0941,-199.0762
176.1297,-198.6516
176.1461,-198.2262
176.1476,-197.8002
176.1466,-197.3742
176.1483,-196.9481
176.1468,-196.5221
176.1467,-196.096
176.1436,-195.67
176.1434,-195.2439
176.1404,-194.8179
176.1085,-194.3932
176.0726,-193.9686
176.039,-193.544
176.0033,-193.1194
175.9911,-192.6938
175.9895,-192.2678
175.9893,-191.8417
175.9879,-191.4157
175.9733,-190.99
175.9552,-190.5643
175.9379,-190.1386
175.92,-189.7129
175.9063,-189.2871
175.8986,-188.8612
175.891,-188.4352
175.8835,-188.0092
175.8635,-187.5839
175.8258,-187.1595
175.7873,-186.7352
175.7498,-186.3109
175.7108,-185.8866
175.6648,-185.4631
175.6174,-185.0396
175.5715,-184.6161
175.5242,-184.1927
175.4815,-183.7688
175.4385,-183.3449
175.3968,-182.9209
175.3539,-182.497
175.3138,-182.0729
175.2823,-181.648
175.2513,-181.2231
175.22,-180.7982
175.1888,-180.3733
175.1582,-179.9484
175.1273,-179.5235
175.0969,-179.0985
175.066,-178.6736
175.0222,-178.25
174.9671,-177.8275
174.9123,-177.405
174.8573,-176.9825
174.8009,-176.5603
174.7395,-176.1387
174.6779,-175.7171
174.6167,-175.2955
174.555,-174.8739
174.5029,-174.4511
174.4514,-174.0282
174.4003,-173.6052
174.3489,-173.1823
174.2874,-172.7608
174.2202,-172.34
174.1526,-171.9194
174.0857,-171.4986
174.0187,-171.0779
173.9565,-170.6564
173.8929,-170.2352
173.8309,-169.8136
173.7671,-169.3924
173.6854,-168.9743
173.6016,-168.5566
173.5198,-168.1385
173.436,-167.7207
173.3536,-167.3027
173.2695,-166.8851
173.1869,-166.4671
173.103,-166.0494
173.0183,-165.6319
172.9325,-165.2146
172.8471,-164.7972
172.7615,-164.3798
172.6589,-163.9665
172.5458,-163.5558
172.4325,-163.1451
172.3196,-162.7343
172.2222,-162.3197
172.1346,-161.9028
172.0462,-161.486
171.9588,-161.069
171.8615,-160.6544
171.7545,-160.242
171.6464,-159.8299
171.5394,-159.4175
171.4266,-159.0067
171.3023,-158.5992
171.177,-158.192
171.0527,-157.7845
170.9285,-157.377
170.8064,-156.9688
170.6838,-156.5608
170.5615,-156.1527
170.4381,-155.7449
170.3109,-155.3383
170.1843,-154.9315
170.0568,-154.5249
169.9306,-154.1181
169.8203,-153.7066
169.7132,-153.2942
169.604,-152.8824
169.497,-152.47
169.3785,-152.0609
169.2511,-151.6544
169.1214,-151.2486
168.9939,-150.842
168.8613,-150.4372
168.718,-150.036
168.5733,-149.6353
168.4296,-149.2342
168.2852,-148.8334
168.1404,-148.4327
167.9956,-148.032
167.8502,-147.6315
167.7058,-147.2307
167.5676,-146.8278
167.4401,-146.4213
167.3108,-146.0154
167.1835,-145.6087
167.0542,-145.2029
166.905,-144.8038
166.7536,-144.4055
166.6041,-144.0066
166.453,-143.6083
166.3007,-143.2104
166.1454,-142.8136
165.991,-142.4166
165.836,-142.0197
165.6788,-141.6237
165.5177,-141.2293
165.3561,-140.8352
165.1952,-140.4406
165.0327,-140.0468
164.8667,-139.6544
164.6992,-139.2627
164.5334,-138.8702
164.3658,-138.4786
164.1913,-138.0899
164.0142,-137.7024
163.8389,-137.3141
163.662,-136.9265
163.4805,-136.5411
163.2958,-136.1571
163.1121,-135.7728
162.9277,-135.3887
162.7473,-135.0028
162.5723,-134.6143
162.397,-134.226
162.2223,-133.8374
162.0465,-133.4493
161.8658,-133.0636
161.6841,-132.6782
161.5034,-132.2924
161.3217,-131.907
161.1421,-131.5207
160.9618,-131.1346
160.7821,-130.7484
160.6021,-130.3622
160.4146,-129.9797
160.2205,-129.6005
160.0256,-129.2216
159.8319,-128.8422
159.6367,-128.4635
159.4412,-128.0849
159.2438,-127.7074
159.0485,-127.3287
158.851,-126.9513
158.6259,-126.5907
158.3784,-126.2439
158.133,-125.8957
157.8856,-125.5488
157.6569,-125.1904
157.4622,-124.8116
157.2686,-124.4319
157.0743,-124.0529
156.8722,-123.6781
156.6446,-123.318
156.4168,-122.958
156.1896,-122.5976
155.9614,-122.2378
155.7532,-121.866
155.5438,-121.4951
155.336,-121.123
155.1264,-120.7523
154.885,-120.4015
154.637,-120.0551
154.391,-119.7072
154.143,-119.3608
153.8916,-119.0169
153.6368,-118.6754
153.3836,-118.3328
153.129,-117.9911
152.8806,-117.6451
152.6342,-117.2974
152.3885,-116.9495
152.1424,-116.6016
151.8955,-116.2545
151.6485,-115.9073
151.4007,-115.5608
151.154,-115.2134
150.9085,-114.8652
150.6688,-114.5131
150.4273,-114.162
150.1876,-113.8099
149.9461,-113.4588
149.6877,-113.1202
149.4272,-112.7829
149.1681,-112.4449
148.9078,-112.1075
148.6602,-111.761
148.4193,-111.4097
148.1788,-111.0579
147.9382,-110.7065
147.6787,-110.3693
147.3978,-110.0492
147.1164,-109.7291
146.8355,-109.409
146.5584,-109.0853
146.2928,-108.7523
146.0268,-108.4195
145.7611,-108.0864
145.4967,-107.7524
145.2384,-107.4135
144.9801,-107.0749
144.7218,-106.7358
144.4626,-106.398
144.1788,-106.08
143.8947,-105.7627
143.6112,-105.4445
143.3268,-105.1274
143.0609,-104.7948
142.8017,-104.4567
142.5444,-104.1171
142.2849,-103.7792
142.0079,-103.4569
141.7075,-103.1543
141.4101,-102.8497
141.1097,-102.5471
140.8122,-102.2425
140.5543,-101.9036
140.3011,-101.561
140.0456,-101.2201
139.792,-100.8776
139.5025,-100.5664
139.2007,-100.2655
138.8983,-99.9657
138.5961,-99.665
138.3127,-99.3474
138.0312,-99.0273
137.7504,-98.7072
137.4688,-98.3872
137.1849,-98.0697
136.8991,-97.7537
136.6139,-97.4372
136.3283,-97.1212
136.0275,-96.8195
135.7206,-96.5244
135.4131,-96.2291
135.1064,-95.9338
134.813,-95.6251
134.535,-95.3025
134.2557,-94.9807
133.9777,-94.6578
133.6954,-94.339
133.3957,-94.036
133.0948,-93.7347
132.795,-93.4317
132.4942,-93.1303
132.1915,-92.8301
131.8875,-92.532
131.5839,-92.2328
131.2801,-91.9343
130.9734,-91.6385
130.6619,-91.3478
130.3502,-91.0576
130.0388,-90.7665
129.7268,-90.4768
129.4143,-90.1867
129.1013,-89.8983
128.7888,-89.6081
128.4758,-89.3196
128.1553,-89.0386
127.8326,-88.7606
127.5102,-88.4821
127.1877,-88.2036
126.8792,-87.9113
126.5968,-87.5918
126.3136,-87.2741
126.0317,-86.9539
125.7481,-86.6368
125.419,-86.3671
125.0808,-86.1081
124.7456,-85.8451
124.4071,-85.5862
124.0844,-85.309
123.7733,-85.0177
123.4658,-84.7232
123.1549,-84.4314
122.8422,-84.1428
122.5194,-83.864
122.1986,-83.5843
121.8766,-83.3048
121.5566,-83.024
121.2492,-82.7287
120.9409,-82.4348
120.6341,-82.1393
120.3252,-81.8455
120.0083,-81.5614
119.6875,-81.2803
119.3692,-80.998
119.0486,-80.7166
118.7241,-80.4414
118.3939,-80.1715
118.0643,-79.902
117.7349,-79.6316
117.3989,-79.3697
117.0577,-79.1151
116.7141,-78.8623
116.3734,-78.6075
116.0506,-78.3303
115.7491,-78.0299
115.4442,-77.7317
115.1425,-77.4314
114.8372,-77.1338
114.5195,-76.8503
114.1998,-76.5686
113.8816,-76.2852
113.5617,-76.0043
113.2338,-75.7315
112.9058,-75.4606
112.5777,-75.1878
112.2497,-74.9169
111.9056,-74.6653
111.5543,-74.425
111.2037,-74.1825
110.852,-73.9422
110.5068,-73.6928
110.1622,-73.4417
109.8199,-73.1889
109.4752,-72.9373
109.1354,-72.6817
108.8003,-72.4173
108.467,-72.1532
108.1325,-71.8883
107.7986,-71.6245
107.4669,-71.3566
107.134,-71.0908
106.8032,-70.8226
106.4694,-70.5572
106.1307,-70.2998
105.7883,-70.045
105.4497,-69.7878
105.1075,-69.5326
104.7535,-69.2973
104.3947,-69.0663
104.0377,-68.8347
103.6798,-68.6033
103.3217,-68.3721
102.9647,-68.1404
102.6058,-67.9095
102.2494,-67.6778
101.9107,-67.4187
101.5833,-67.1476
101.2532,-66.8768
100.9253,-66.6061
100.5726,-66.3681
100.2055,-66.1525
99.839,-65.9353
99.4708,-65.7202
99.1067,-65.5005
98.7401,-65.2813
98.3779,-65.0595
98.0109,-64.8402
97.6528,-64.6127
97.321,-64.3439
96.9928,-64.0735
96.662,-63.8043
96.3325,-63.5344
95.9741,-63.3056
95.608,-63.0865
95.2445,-62.8663
94.8773,-62.6476
94.5245,-62.4114
94.1682,-62.1751
93.8167,-61.9368
93.4609,-61.7004
93.0932,-61.4881
92.716,-61.2888
92.3397,-61.0891
91.964,-60.8893
91.5904,-60.6825
91.2228,-60.47
90.8506,-60.2591
90.4837,-60.0462
90.1083,-59.8411
89.7304,-59.6482
89.3477,-59.4577
88.9689,-59.2649
88.5875,-59.0742
88.1998,-58.8968
87.812,-58.7228
87.422,-58.5475
87.0356,-58.3731
86.6475,-58.1917
86.2667,-58.0062
85.8805,-57.8206
85.4993,-57.6351
85.1102,-57.4581
84.719,-57.2914
84.3272,-57.1241
83.9341,-56.9577
83.5473,-56.7836
83.1672,-56.5863
82.7937,-56.387
82.4125,-56.1899
82.0396,-55.9904
81.6548,-55.8009
81.2771,-55.6088
80.8938,-55.4194
80.5141,-55.2273
80.1474,-55.0125
79.7868,-54.7826
79.4298,-54.5549
79.067,-54.3251
78.7031,-54.1139
78.3039,-53.9529
77.9132,-53.794
77.5148,-53.6328
77.1224,-53.4741
76.7252,-53.3164
76.3278,-53.162
75.9341,-53.0044
75.5329,-52.8502
75.1515,-52.6727
74.7583,-52.4926
74.3816,-52.3094
73.9875,-52.1287
73.6133,-51.9405
73.2319,-51.7379
72.8611,-51.5362
72.4856,-51.332
72.1074,-51.1321
71.7455,-50.9172
71.3624,-50.7105
71.0112,-50.4932
70.6067,-50.3108
70.255,-50.1255
69.9399,-49.8142
69.6953,-49.4857
69.3043,-49.2638
69.0679,-49.0313
69.2686,-48.6899
68.9966,-48.4283
68.6107,-48.1898
68.5,-47.8248
68.45,-47.4057
68.4986,-46.975
68.4989,-46.5536
68.5371,-46.1252
68.577,-45.7044
68.6463,-45.2824
68.7076,-44.8607
68.7691,-44.4406
68.862,-44.0223
68.9536,-43.61
69.059,-43.1928
69.1499,-42.7809
69.2568,-42.3642
69.3512,-41.9524
69.4551,-41.5363
69.5606,-41.1256
69.6812,-40.7161
69.8043,-40.308
69.9211,-39.8995
70.0603,-39.4955
70.2419,-39.114
70.4366,-38.7307
70.618,-38.3495
70.812,-37.966
70.9828,-37.5791
71.1552,-37.1869
71.3224,-36.7969
71.4913,-36.4048
71.6943,-36.0339
71.956,-35.6997
72.2455,-35.3857
72.5655,-35.1111
72.9008,-34.8402
73.1865,-34.5375
73.4057,-34.17
73.6197,-33.8062
73.9599,-33.5458
74.3189,-33.3261
74.6963,-33.1185
75.0563,-32.8975
75.3586,-32.6032
75.6254,-32.2693
75.6909,-31.8778
75.6655,-31.4452
75.6505,-31.026
75.6524,-30.5952
75.6863,-30.1747
75.714,-29.7467
75.7464,-29.3233
75.6995,-28.9033
75.6144,-28.4844
75.7597,-28.1581
76.1005,-27.8998
76.4448,-27.6513
76.7747,-27.3814
77.0503,-27.0601
77.318,-26.7255
77.5949,-26.4039
77.8616,-26.0704
78.1077,-25.7251
78.318,-25.3545
78.4364,-24.9539
78.4836,-24.5311
78.5407,-24.1066
78.5226,-23.6872
78.4722,-23.2599
78.3906,-22.8471
78.3146,-22.4217
78.2316,-22.0105
78.0362,-21.6292
77.8171,-21.2688
77.6063,-20.8946
77.3858,-20.5324
77.0864,-20.2373
76.9551,-19.8919
77.1851,-19.5981
77.5268,-19.3763
77.833,-19.0725
78.1174,-18.7613
78.4079,-18.4463
78.6418,-18.0916
78.8049,-17.715
78.843,-17.2836
78.9216,-16.8763
79.1963,-16.5526
79.4567,-16.2161
79.6823,-15.8545
79.7824,-15.4623
79.7681,-15.0325
79.749,-14.6104
79.6829,-14.1877
79.6303,-13.765
79.5645,-13.3454
79.4991,-12.922
79.4178,-12.507
79.3518,-12.082
79.2692,-11.6684
79.0006,-11.3424
78.7046,-11.0329
78.505,-10.6676
78.3678,-10.2666
78.2515,-9.8546
78.0949,-9.4608
77.9027,-9.0813
77.6954,-8.7082
77.4993,-8.3306
77.2966,-7.9555
77.1043,-7.5753
76.9176,-7.1929
76.7203,-6.814
76.5397,-6.4297
76.4042,-6.0272
76.3111,-5.6104
76.1862,-5.2037
76.0964,-4.7856
75.9695,-4.3799
75.8147,-3.987
75.7914,-3.5877
75.6105,-3.2624
75.2655,-2.9988
74.9734,-2.6983
74.688,-2.3779
74.423,-2.0466
74.1422,-1.7245
73.8261,-1.443
73.4741,-1.206
73.0869,-1.03
72.6988,-0.85356
72.307,-0.68693
71.9123,-0.5254
71.5158,-0.3725
71.1203,-0.2086
70.7252,-0.057741
