121.12,-312.2251
121.3798,-311.9637
121.6409,-311.7039
121.9016,-311.4434
122.1613,-311.1819
122.4228,-310.9225
122.6831,-310.6614
122.943,-310.4002
123.2049,-310.1411
123.4643,-309.8792
123.7248,-309.6187
123.9873,-309.3603
124.2441,-309.0953
124.5095,-308.8404
124.8004,-308.6151
125.1009,-308.4012
125.3965,-308.1815
125.6935,-307.9633
125.9918,-307.7468
126.2878,-307.5275
126.5854,-307.31
126.8832,-307.093
127.1787,-306.8731
127.4779,-306.6574
127.7734,-306.4379
128.0396,-306.1868
128.276,-305.9045
128.5104,-305.6197
128.7483,-305.3386
128.9824,-305.0539
129.2191,-304.7714
129.4558,-304.4891
129.6892,-304.2039
129.9291,-303.9238
130.1602,-303.6374
130.3617,-303.3294
130.5514,-303.0133
130.7462,-302.7006
130.9394,-302.3867
131.1315,-302.0723
131.3255,-301.759
131.5187,-301.4452
131.7105,-301.1306
131.9057,-300.8181
132.1196,-300.5192
132.3558,-300.2364
132.5933,-299.9544
132.826,-299.6689
133.0656,-299.3889
133.3173,-299.1202
133.5801,-298.8621
133.843,-298.6035
134.1016,-298.3413
134.3677,-298.086
134.6247,-297.8222
134.8515,-297.5324
135.0701,-297.2355
135.2943,-296.943
135.5151,-296.648
135.7377,-296.3545
135.9628,-296.0624
136.1868,-295.7701
136.4125,-295.4789
136.636,-295.1854
136.8794,-294.9119
137.1621,-294.6756
137.4494,-294.4442
137.7312,-294.2078
138.0191,-293.9765
138.2646,-293.7097
138.4499,-293.3921
138.628,-293.0683
138.8128,-292.7506
138.995,-292.4297
139.1846,-292.1137
139.3741,-291.798
139.5613,-291.4802
139.7512,-291.1647
139.9332,-290.8443
140.1152,-290.5236
140.2996,-290.2048
140.4806,-289.8837
140.694,-289.5861
140.9452,-289.3164
141.1937,-289.0448
141.4469,-288.7762
141.6946,-288.5043
141.8868,-288.1934
142.05,-287.8622
142.2203,-287.5365
142.3815,-287.2038
142.5725,-286.8929
142.828,-286.6289
143.094,-286.3724
143.3515,-286.1098
143.6154,-285.8519
143.8451,-285.5678
144.0285,-285.2487
144.2084,-284.9267
144.3911,-284.607
144.5722,-284.2859
144.7731,-283.9777
144.9905,-283.6802
145.2072,-283.3821
145.4243,-283.0844
145.6359,-282.7829
145.8342,-282.4723
146.0308,-282.1606
146.2298,-281.8504
146.4265,-281.5389
146.6346,-281.2353
146.8602,-280.9437
147.0861,-280.6527
147.3102,-280.3602
147.5385,-280.0707
147.7607,-279.7771
147.9733,-279.4761
148.1828,-279.1728
148.3913,-278.8693
148.6046,-278.5683
148.811,-278.2634
148.9902,-277.9419
149.1594,-277.6141
149.3349,-277.2905
149.5029,-276.962
149.6845,-276.6423
149.9087,-276.3508
150.1447,-276.0669
150.3705,-275.7761
150.604,-275.4907
150.832,-275.2013
151.0351,-274.8943
151.2317,-274.5824
151.4315,-274.2729
151.6292,-273.9619
151.8271,-273.6511
152.0166,-273.3352
152.1938,-273.012
152.3726,-272.6899
152.5511,-272.3675
152.7291,-272.0449
152.9249,-271.7331
153.1314,-271.4277
153.3333,-271.1197
153.5408,-270.8148
153.7436,-270.5073
153.9122,-270.1814
154.0574,-269.8427
154.203,-269.5041
154.3468,-269.1649
154.4945,-268.8274
154.6613,-268.4991
154.8393,-268.1764
155.0148,-267.8524
155.1909,-267.5287
155.3671,-267.2051
155.5347,-266.8769
155.6995,-266.5473
155.8681,-266.2197
156.0329,-265.89
156.2004,-265.5618
156.3867,-265.2442
156.5802,-264.9305
156.771,-264.6154
156.9671,-264.3031
157.1508,-263.9842
157.3043,-263.6497
157.4497,-263.3107
157.6007,-262.9747
157.7493,-262.6375
157.8958,-262.2993
158.0402,-261.9604
158.1826,-261.6205
158.3261,-261.281
158.4697,-260.9417
158.6292,-260.6104
158.8149,-260.292
159.0019,-259.9745
159.185,-259.6549
159.3747,-259.3385
159.5415,-259.0114
159.6708,-258.6667
159.7932,-258.3188
159.9201,-257.9731
160.0447,-257.6262
160.1715,-257.2802
160.3007,-256.9352
160.4311,-256.5904
160.5609,-256.2456
160.6895,-255.9003
160.8357,-255.5626
161.0057,-255.2359
161.1791,-254.9107
161.352,-254.5852
161.522,-254.2585
161.6689,-253.9212
161.7977,-253.5758
161.9291,-253.2316
162.0611,-252.8876
162.1896,-252.5421
162.3182,-252.197
162.4453,-251.851
162.572,-251.5049
162.7001,-251.1595
162.8266,-250.8133
162.9527,-250.4671
163.0799,-250.1213
163.2059,-249.7749
163.3324,-249.4289
163.4613,-249.0837
163.5904,-248.7384
163.7196,-248.3935
163.8499,-248.0487
163.9783,-247.7033
164.1024,-247.3564
164.2237,-247.0084
164.3447,-246.6603
164.4669,-246.3128
164.5876,-245.9645
164.7004,-245.6138
164.8064,-245.261
164.9128,-244.9081
165.0187,-244.5551
165.1254,-244.2025
165.2407,-243.8524
165.3596,-243.5037
165.4755,-243.154
165.5956,-242.8054
165.7105,-242.4555
165.8045,-242.0994
165.8908,-241.7409
165.9815,-241.3839
166.0686,-241.0258
166.1621,-240.6695
166.2759,-240.3191
166.3938,-239.9698
166.5072,-239.6193
166.625,-239.2702
166.7336,-238.9182
166.8196,-238.56
166.902,-238.2008
166.9883,-237.8425
167.0706,-237.4833
167.166,-237.1278
167.282,-236.7778
167.3978,-236.4282
167.5147,-236.0786
167.6307,-235.7288
167.7104,-235.371
167.7563,-235.0054
167.8021,-234.6397
167.846,-234.2738
167.8945,-233.9086
167.9764,-233.5502
168.0766,-233.1954
168.1707,-232.8391
168.2689,-232.484
168.3644,-232.1281
168.4405,-231.7675
168.5125,-231.4061
168.5888,-231.0457
168.6608,-230.6842
168.7368,-230.3237
168.8223,-229.9652
168.9077,-229.6067
168.9932,-229.2484
169.0796,-228.8901
169.1564,-228.5298
169.2227,-228.1674
169.287,-227.8045
169.3519,-227.4418
169.4173,-227.0792
169.4841,-226.7167
169.5523,-226.3547
169.6213,-225.9927
169.6893,-225.6304
169.7578,-225.2685
169.8306,-224.9072
169.9047,-224.5462
169.9776,-224.1851
170.0531,-223.8243
170.1248,-223.4629
170.182,-223.0991
170.2311,-222.7338
170.2811,-222.3687
170.3316,-222.0038
170.3857,-221.6392
170.4463,-221.2758
170.5075,-220.9124
170.5676,-220.5488
170.6287,-220.1855
170.6875,-219.8217
170.7425,-219.4573
170.7973,-219.0929
170.8526,-218.7286
170.9071,-218.3641
170.9628,-217.9999
171.0198,-217.6358
171.076,-217.2716
171.1334,-216.9077
171.1897,-216.5435
171.2361,-216.178
171.2762,-215.8117
171.3174,-215.4455
171.3565,-215.0791
171.3996,-214.7132
171.4568,-214.3492
171.5178,-213.9857
171.5755,-213.6218
171.6359,-213.2582
171.6899,-212.8939
171.7296,-212.5276
171.7669,-212.1609
171.8062,-211.7946
171.8444,-211.428
171.8844,-211.0617
171.926,-210.6956
171.9667,-210.3293
172.0079,-209.9631
172.0492,-209.597
172.0908,-209.2308
172.1335,-208.8648
172.1756,-208.4988
172.2185,-208.1327
172.2603,-207.7666
172.2956,-207.3999
172.3263,-207.0326
172.3576,-206.6655
172.3895,-206.2984
172.4195,-205.9311
172.4442,-205.5635
172.4657,-205.1956
172.4888,-204.8278
172.5116,-204.4601
172.5331,-204.0921
172.5547,-203.7243
172.5752,-203.3564
172.596,-202.9884
172.6173,-202.6206
172.6335,-202.2525
172.6439,-201.8841
172.6535,-201.5158
172.6634,-201.1474
172.6735,-200.779
172.6834,-200.4107
172.6934,-200.0423
172.7041,-199.674
172.7134,-199.3056
172.7245,-198.9373
172.7428,-198.5692
172.7638,-198.2014
172.7832,-197.8334
172.8038,-197.4654
172.8235,-197.0975
172.8398,-196.7293
172.8547,-196.3612
172.8693,-195.993
172.8848,-195.6248
172.8989,-195.2566
172.9051,-194.8882
172.9078,-194.5196
172.9122,-194.1512
172.9149,-193.7827
172.9202,-193.4142
172.9339,-193.0461
172.9493,-192.6778
172.9632,-192.3096
172.9784,-191.9415
172.9875,-191.5731
172.9865,-191.2047
172.9835,-190.8362
172.9824,-190.4676
172.9801,-190.0992
172.9782,-189.7307
172.9775,-189.3622
172.9756,-188.9937
172.9746,-188.6252
172.9735,-188.2567
172.9636,-187.8885
172.9448,-187.5205
172.9253,-187.1525
172.906,-186.7845
172.8868,-186.4165
172.8723,-186.0483
172.8622,-185.68
172.8529,-185.3116
172.8432,-184.9432
172.833,-184.5749
172.824,-184.2064
172.8142,-183.8381
172.8033,-183.4698
172.7963,-183.1012
172.7828,-182.7332
172.7485,-182.3664
172.707,-182.0001
172.6703,-181.6336
172.6311,-181.2671
172.601,-180.9001
172.5923,-180.5318
172.5862,-180.1632
172.5762,-179.7949
172.5707,-179.4264
172.552,-179.0587
172.5094,-178.6928
172.4638,-178.3271
172.4211,-177.9611
172.3755,-177.5954
172.3436,-177.2286
172.3314,-176.8603
172.3206,-176.492
172.3084,-176.1237
172.2984,-175.7553
172.2731,-175.3882
172.2257,-175.0228
172.1745,-174.6578
172.1258,-174.2926
172.0765,-173.9274
172.0349,-173.5613
172.002,-173.1943
171.9677,-172.8274
171.934,-172.4605
171.9001,-172.0936
171.854,-171.728
171.7993,-171.3637
171.7463,-170.999
171.6914,-170.6345
171.6382,-170.27
171.5951,-169.904
171.5548,-169.5377
171.5125,-169.1717
171.473,-168.8053
171.4302,-168.4393
171.3781,-168.0746
171.3233,-167.7101
171.2696,-167.3456
171.2157,-166.9811
171.1614,-166.6165
171.1046,-166.2525
171.0465,-165.8886
170.9897,-165.5245
170.9317,-165.1606
170.8743,-164.7966
170.8197,-164.4321
170.764,-164.068
170.7092,-163.7035
170.6547,-163.339
170.5859,-162.9774
170.5014,-162.6187
170.4147,-162.2606
170.3284,-161.9024
170.2439,-161.5437
170.1687,-161.183
170.0999,-160.821
170.0298,-160.4592
169.959,-160.0976
169.8901,-159.7356
169.8249,-159.3729
169.7619,-159.0099
169.6987,-158.6468
169.6365,-158.2836
169.5688,-157.9215
169.4862,-157.5624
169.398,-157.2046
169.3143,-156.8458
169.2285,-156.4873
169.1437,-156.1288
169.0681,-155.7681
168.9924,-155.4074
168.9147,-155.0473
168.8411,-154.6862
168.7558,-154.3279
168.65,-153.9751
168.541,-153.623
168.4338,-153.2704
168.3258,-152.9182
168.2312,-152.5623
168.1501,-152.2028
168.068,-151.8436
167.9877,-151.4839
167.9052,-151.1248
167.8035,-150.771
167.6904,-150.4201
167.5799,-150.0687
167.466,-149.7182
167.3564,-149.3664
167.2665,-149.0093
167.1857,-148.6497
167.1024,-148.2908
167.0202,-147.9316
166.9314,-147.5741
166.8276,-147.2205
166.7208,-146.8679
166.6177,-146.514
166.5119,-146.1611
166.4011,-145.8097
166.2846,-145.4601
166.1642,-145.1118
166.0471,-144.7625
165.9289,-144.4134
165.801,-144.0678
165.6712,-143.723
165.5424,-143.3777
165.4095,-143.0339
165.2858,-142.6871
165.1811,-142.3338
165.0808,-141.9792
164.9787,-141.6251
164.8771,-141.2709
164.7631,-140.921
164.6303,-140.5773
164.4929,-140.2352
164.3596,-139.8918
164.2246,-139.5489
164.0822,-139.209
163.9353,-138.8712
163.7875,-138.5336
163.6372,-138.197
163.4928,-137.8582
163.368,-137.5118
163.2554,-137.1609
163.1403,-136.8108
163.0248,-136.4609
162.9106,-136.1106
162.7932,-135.7612
162.674,-135.4126
162.5574,-135.063
162.4396,-134.7138
162.3021,-134.373
162.1363,-134.0442
161.9642,-133.718
161.7975,-133.3896
161.6279,-133.0624
161.4726,-132.7288
161.3429,-132.3839
161.2142,-132.0386
161.0827,-131.6944
160.9552,-131.3486
160.8117,-131.0096
160.6524,-130.6772
160.4948,-130.3443
160.3329,-130.0131
160.1768,-129.6794
160.0463,-129.3351
159.9232,-128.9875
159.795,-128.6422
159.6714,-128.295
159.5417,-127.9501
159.3969,-127.6114
159.2492,-127.2737
159.1029,-126.9355
158.957,-126.5971
158.809,-126.2597
158.6517,-125.9265
158.4905,-125.5951
158.3325,-125.2622
158.1728,-124.9301
158.0127,-124.5982
157.8533,-124.2659
157.6914,-123.9349
157.5319,-123.6027
157.3707,-123.2714
157.1957,-122.9472
157.0148,-122.6262
156.8358,-122.3041
156.6538,-121.9836
156.4767,-121.6606
156.3126,-121.3307
156.1514,-120.9993
155.9885,-120.6688
155.8263,-120.3379
155.6618,-120.0082
155.4939,-119.6801
155.3255,-119.3524
155.1577,-119.0243
154.9895,-118.6964
154.8166,-118.3711
154.6375,-118.049
154.4573,-117.7276
154.2783,-117.4056
154.0984,-117.084
153.9142,-116.7648
153.725,-116.4486
153.5355,-116.1325
153.3464,-115.8162
153.1571,-115.5002
152.9773,-115.1787
152.8086,-114.8511
152.6393,-114.5238
152.4706,-114.1961
152.3016,-113.8687
152.1118,-113.5539
151.8997,-113.2526
151.6863,-112.9521
151.4743,-112.6508
151.2611,-112.3502
151.0615,-112.0409
150.8767,-111.7221
150.692,-111.4032
150.5077,-111.0842
150.3223,-110.7657
150.122,-110.4567
149.9116,-110.1541
149.7039,-109.8498
149.4935,-109.5472
149.2856,-109.243
149.0945,-108.9281
148.9093,-108.6095
148.7202,-108.2933
148.5358,-107.9741
148.3457,-107.6586
148.1378,-107.3544
147.9265,-107.0524
147.7178,-106.7488
147.507,-106.4465
147.3064,-106.1376
147.1181,-105.8209
146.9295,-105.5044
146.7432,-105.1862
146.5527,-104.8712
146.3329,-104.5771
146.0893,-104.3005
145.8473,-104.0226
145.6064,-103.7438
145.3627,-103.4673
145.1304,-103.1817
144.9111,-102.8855
144.6925,-102.5889
144.4735,-102.2925
144.2558,-101.9951
144.0335,-101.7014
143.8043,-101.4128
143.5725,-101.1263
143.3418,-100.8391
143.1115,-100.5514
142.8803,-100.2645
142.6511,-99.976
142.4234,-99.6861
142.1936,-99.3981
141.9656,-99.1086
141.7371,-98.8195
141.499,-98.5383
141.259,-98.2587
141.0217,-97.9769
140.7783,-97.6999
140.5434,-97.4163
140.3334,-97.1139
140.1308,-96.8059
139.9249,-96.5002
139.7197,-96.1942
139.5023,-95.8974
139.2683,-95.6126
139.0326,-95.3293
138.799,-95.0444
138.5643,-94.7602
138.3257,-94.4795
138.0794,-94.2056
137.8305,-93.9336
137.5834,-93.6605
137.3356,-93.3877
137.0912,-93.1119
136.853,-92.8309
136.6159,-92.5487
136.3773,-92.2678
136.1397,-91.9864
135.9065,-91.7008
135.6759,-91.4134
135.4445,-91.1269
135.2168,-90.8367
134.982,-90.5532
134.7208,-90.2942
134.4484,-90.0451
134.183,-89.7899
133.9133,-89.5387
133.6471,-89.2838
133.4012,-89.0098
133.1593,-88.7315
132.9123,-88.4581
132.67,-88.1806
132.4249,-87.9052
132.1711,-87.6382
131.916,-87.3724
131.6599,-87.1072
131.4031,-86.8431
131.1488,-86.5765
130.8961,-86.3081
130.6463,-86.0374
130.3977,-85.7654
130.1462,-85.4959
129.898,-85.2237
129.656,-84.9457
129.4137,-84.6681
129.1718,-84.3902
128.9314,-84.1107
128.6808,-83.8411
128.4131,-83.5884
128.1387,-83.3419
127.8683,-83.0917
127.598,-82.8415
127.3213,-82.5979
127.0393,-82.361
126.7548,-82.1269
126.47,-81.8926
126.1877,-81.6562
125.9083,-81.416
125.6325,-81.1713
125.3582,-80.9256
125.0807,-80.6829
124.8067,-80.4365
124.5488,-80.1743
124.3025,-79.9
124.0557,-79.6264
123.8096,-79.3522
123.5621,-79.0792
123.2927,-78.8304
122.9978,-78.6096
122.7016,-78.3898
122.4091,-78.1664
122.111,-77.949
121.8293,-77.7132
121.5778,-77.4447
121.3311,-77.1705
121.0809,-76.9
120.8331,-76.6274
120.5708,-76.3695
120.2897,-76.1312
120.0071,-75.8949
119.7263,-75.6561
119.4436,-75.4197
119.1568,-75.1888
118.8642,-74.9645
118.5722,-74.7398
118.2806,-74.5148
117.9879,-74.2904
117.7075,-74.0521
117.4383,-73.8007
117.1679,-73.55
116.9,-73.2971
116.6275,-73.0494
116.3372,-72.8224
116.0424,-72.6014
115.7516,-72.375
115.4579,-72.1522
115.1676,-71.9257
114.885,-71.6889
114.6022,-71.4527
114.3194,-71.2168
114.0377,-70.9787
113.7512,-70.7473
113.4576,-70.525
113.1607,-70.3063
112.8656,-70.0858
112.5705,-69.8653
112.2691,-69.6528
111.9658,-69.444
111.6635,-69.2334
111.3577,-69.027
111.0571,-68.8148
110.7731,-68.5804
110.496,-68.3369
110.2169,-68.0969
109.9387,-67.8549
109.657,-67.6174
109.366,-67.392
109.0721,-67.1691
108.7809,-66.9435
108.4884,-66.7197
108.1905,-66.5024
107.8858,-66.2957
107.5779,-66.0932
107.2728,-65.886
106.9659,-65.6828
106.6506,-65.4919
106.3333,-65.3041
106.0173,-65.1153
105.6995,-64.9283
105.3878,-64.7321
105.0875,-64.5192
104.7889,-64.3025
104.4891,-64.0885
104.1901,-63.8737
103.8853,-63.6659
103.5752,-63.4673
103.266,-63.2671
102.9561,-63.067
102.646,-62.8685
102.3438,-62.6581
102.0494,-62.436
101.7564,-62.2133
101.4641,-61.9885
101.1685,-61.7683
100.8607,-61.5672
100.5448,-61.3764
100.2318,-61.182
99.9189,-60.9882
99.6036,-60.7965
99.2903,-60.6027
98.9762,-60.4108
98.6605,-60.2196
98.348,-60.0248
98.0322,-59.8354
97.709,-59.6573
97.3848,-59.4832
97.0605,-59.3081
96.7363,-59.1319
96.4113,-58.9598
96.0795,-58.7987
95.7464,-58.6403
95.4164,-58.4783
95.0819,-58.3218
94.7532,-58.156
94.4427,-57.9591
94.1359,-57.7531
93.8257,-57.5552
93.5194,-57.3507
93.2084,-57.1518
92.8849,-56.9769
92.5577,-56.8073
92.2324,-56.6329
91.9069,-56.4616
91.5805,-56.2901
91.2533,-56.1197
90.926,-55.9521
90.5984,-55.7823
90.2708,-55.613
89.9519,-55.4314
89.6458,-55.2248
89.3418,-55.0165
89.0352,-54.8139
88.732,-54.6017
88.4203,-54.408
88.0859,-54.2556
87.7445,-54.1129
87.4087,-53.9638
87.0703,-53.8178
86.7332,-53.6668
86.4021,-53.5078
86.0689,-53.3491
85.7355,-53.1908
85.4046,-53.0315
85.0761,-52.8632
84.7569,-52.6788
84.4401,-52.4926
84.1185,-52.3105
83.8018,-52.1225
83.4823,-51.9409
83.1496,-51.7796
82.8154,-51.6265
82.4813,-51.4721
82.1449,-51.3178
81.8127,-51.1621
81.4797,-51.0035
81.1462,-50.8437
80.8158,-50.6852
80.4823,-50.5258
80.1555,-50.3545
79.8389,-50.1703
79.5178,-49.9854
79.1984,-49.8021
78.8826,-49.6159
78.5619,-49.4288
78.2479,-49.2388
77.9347,-49.0474
77.6111,-48.8626
77.3031,-48.6677
77.0335,-48.4244
76.7956,-48.14
76.551,-47.8696
76.2767,-47.6191
76.0209,-47.3511
75.7576,-47.1091
75.4051,-46.944
75.1192,-46.7528
75.0905,-46.4326
75.1789,-46.0549
75.227,-45.6973
75.2853,-45.3357
75.3567,-44.9667
75.4087,-44.6078
75.4735,-44.244
75.538,-43.8777
75.5904,-43.5175
75.6527,-43.1521
75.7082,-42.7864
75.7635,-42.4255
75.8233,-42.0593
75.8487,-41.6916
75.8702,-41.3262
75.9328,-40.9608
76.0037,-40.6
76.0727,-40.2398
76.1423,-39.8753
76.1887,-39.5112
76.2323,-39.1459
76.2865,-38.7795
76.3244,-38.4138
76.379,-38.0507
76.5072,-37.7099
76.6894,-37.3929
76.8746,-37.0723
77.0554,-36.7502
77.2371,-36.4327
77.3923,-36.0975
77.5206,-35.751
77.6517,-35.4102
77.7506,-35.0536
77.8142,-34.6881
77.9632,-34.3745
78.2392,-34.1353
78.5429,-33.9218
78.8281,-33.6915
79.1202,-33.4635
79.4242,-33.257
79.7167,-33.0337
79.9707,-32.7667
80.2056,-32.4852
80.4534,-32.2101
80.6917,-31.929
80.9083,-31.6336
81.1236,-31.3314
81.3388,-31.0334
81.5549,-30.7367
81.7587,-30.4273
81.9273,-30.1022
82.0877,-29.7707
82.2583,-29.4412
82.42,-29.1131
82.5762,-28.7788
82.7253,-28.4396
82.8649,-28.102
83.0155,-27.7636
83.1585,-27.4229
83.2744,-27.0768
83.387,-26.723
83.4977,-26.3715
83.6058,-26.0224
83.7208,-25.6683
83.8258,-25.3166
83.9298,-24.9655
84.0424,-24.6096
84.1416,-24.2584
84.2495,-23.9069
84.3713,-23.553
84.4783,-23.2085
84.6118,-22.8597
84.7289,-22.5079
84.6772,-22.1783
84.5254,-21.8494
84.4854,-21.4996
84.5607,-21.1422
84.6413,-20.773
84.6712,-20.4151
84.5632,-20.1053
84.2977,-19.8083
84.1004,-19.5173
84.1911,-19.2777
84.4512,-19.0371
84.6608,-18.7298
84.835,-18.4056
85.0287,-18.0934
85.1794,-17.7578
85.2918,-17.4063
85.4156,-17.0602
85.5363,-16.7115
85.6507,-16.361
85.7488,-16.0075
85.8137,-15.6442
85.8939,-15.2844
86.0091,-14.9356
86.1309,-14.5872
86.2482,-14.2373
86.293,-13.8847
86.2267,-13.524
86.1423,-13.1615
86.0788,-12.802
85.9996,-12.4404
85.9249,-12.0785
85.8572,-11.7189
85.7768,-11.3572
85.7061,-10.9953
85.6353,-10.6358
85.554,-10.2742
85.4893,-9.9113
85.4088,-9.5542
85.2735,-9.2106
85.1161,-8.8792
84.9588,-8.5468
84.8007,-8.211
84.646,-7.8792
84.4771,-7.5519
84.2906,-7.2314
84.1065,-6.9156
83.9152,-6.5995
83.6999,-6.299
83.4728,-6.0126
83.2493,-5.7167
83.0271,-5.4221
82.7968,-5.1384
82.5682,-4.8452
82.3648,-4.5403
82.1848,-4.2227
82.0062,-3.8945
81.8191,-3.58
81.6314,-3.2658
81.4472,-2.9395
81.2584,-2.629
81.0781,-2.3085
80.9118,-1.9705
80.6914,-1.7025
80.3752,-1.5212
80.0319,-1.365
79.7113,-1.2023
79.4008,-0.99873
79.1084,-0.7692
78.8273,-0.55067
78.5348,-0.29923
78.2451,-0.093462
