105.1363,-329.9582
105.3439,-329.6116
105.6505,-329.42
106.0211,-329.3199
106.3136,-329.0623
106.5787,-328.7551
106.8653,-328.4894
107.1688,-328.2282
107.4805,-327.9852
107.7917,-327.7382
108.1002,-327.4867
108.3969,-327.2267
108.6812,-326.9462
108.9638,-326.6699
109.2512,-326.3947
109.5317,-326.1134
109.7934,-325.8169
110.0475,-325.5094
110.306,-325.2102
110.5629,-324.9062
110.806,-324.5931
111.0286,-324.2656
111.2479,-323.9327
111.4917,-323.622
111.7503,-323.3196
112.0091,-323.019
112.2695,-322.7195
112.5103,-322.404
112.7257,-322.0721
112.9377,-321.735
113.1525,-321.4019
113.3655,-321.0668
113.5791,-320.7315
113.7933,-320.3982
114.0058,-320.0617
114.2209,-319.7289
114.4327,-319.3927
114.6498,-319.0601
114.8892,-318.7443
115.1328,-318.4297
115.3724,-318.1141
115.6154,-317.7995
115.856,-317.4838
116.0978,-317.1693
116.3396,-316.8537
116.5804,-316.5388
116.8228,-316.2237
117.0636,-315.9083
117.3055,-315.5936
117.5471,-315.2781
117.7881,-314.9633
118.0304,-314.648
118.2712,-314.3328
118.5131,-314.0179
118.7547,-313.7026
118.9956,-313.3875
119.2381,-313.0726
119.4786,-312.7571
119.7208,-312.4423
119.9693,-312.1328
120.2235,-311.8281
120.4808,-311.5253
120.733,-311.2189
120.9938,-310.9197
121.282,-310.6472
121.577,-310.3811
121.8666,-310.1095
122.1594,-309.8417
122.4527,-309.5737
122.7525,-309.3139
123.0553,-309.0567
123.3545,-308.7958
123.6568,-308.5386
123.9549,-308.2761
124.2502,-308.011
124.5473,-307.7474
124.8411,-307.4804
125.139,-307.2181
125.455,-306.9795
125.7889,-306.7647
126.1202,-306.5458
126.4533,-306.3298
126.7851,-306.112
127.0734,-305.8442
127.3307,-305.5421
127.5906,-305.2418
127.8471,-304.9387
128.1144,-304.6459
128.406,-304.3766
128.702,-304.112
128.9944,-303.8433
129.2892,-303.5775
129.583,-303.3104
129.8765,-303.043
130.1713,-302.7771
130.4643,-302.5091
130.7591,-302.2432
131.0525,-301.9758
131.3464,-301.7088
131.6411,-301.4427
131.9337,-301.1744
132.2296,-300.9095
132.521,-300.6402
132.8179,-300.376
133.1087,-300.1064
133.3512,-299.7945
133.5725,-299.4645
133.7992,-299.1388
134.0215,-298.8097
134.2468,-298.483
134.4708,-298.155
134.6945,-297.8271
134.9198,-297.5002
135.1427,-297.1715
135.368,-296.8448
135.5944,-296.5185
135.8257,-296.1959
136.0587,-295.8744
136.288,-295.5502
136.5226,-295.23
136.7693,-294.9191
137.0235,-294.6141
137.2739,-294.3059
137.5256,-293.9989
137.7791,-293.6933
138.0318,-293.3871
138.2908,-293.0863
138.5428,-292.7792
138.8026,-292.4794
139.087,-292.2023
139.3726,-291.9268
139.6603,-291.6526
139.9313,-291.3646
140.1583,-291.0395
140.3771,-290.7075
140.6035,-290.382
140.8199,-290.0487
141.0337,-289.7143
141.2472,-289.3797
141.4585,-289.0432
141.6868,-288.7195
141.939,-288.4129
142.195,-288.1094
142.4486,-287.804
142.7028,-287.4989
142.9428,-287.1831
143.1714,-286.8584
143.4027,-286.5358
143.6319,-286.2116
143.862,-285.8879
144.0928,-285.5649
144.3213,-285.2403
144.553,-284.9178
144.7816,-284.5933
145.0122,-284.27
145.2428,-283.9468
145.4708,-283.6219
145.7042,-283.3004
145.9296,-282.9741
146.1649,-282.6534
146.3814,-282.3227
146.5239,-281.9526
146.6569,-281.5782
146.7975,-281.207
146.9328,-280.8337
147.1418,-280.5054
147.414,-280.2164
147.6863,-279.9277
147.9589,-279.6387
148.2315,-279.3503
148.5018,-279.0594
148.7718,-278.7682
149.0378,-278.474
149.3093,-278.1834
149.5744,-277.8887
149.7924,-277.5596
149.9823,-277.2106
150.1776,-276.8652
150.3692,-276.5172
150.5703,-276.1751
150.7757,-275.8352
150.978,-275.4936
151.1853,-275.155
151.3845,-274.8115
151.5843,-274.4685
151.7779,-274.1219
151.9762,-273.7778
152.1722,-273.4328
152.3221,-273.0651
152.4677,-272.6968
152.6057,-272.3232
152.7571,-271.958
152.9965,-271.6426
153.2499,-271.3351
153.4895,-271.0202
153.7414,-270.7116
153.9836,-270.3982
154.2219,-270.0805
154.4332,-269.7446
154.6434,-269.4078
154.8579,-269.0735
155.0294,-268.716
155.1955,-268.3559
155.3536,-267.9911
155.5189,-267.6308
155.7472,-267.3083
155.9961,-266.9989
156.2416,-266.6868
156.4899,-266.377
156.714,-266.051
156.9091,-265.705
157.0975,-265.3559
157.2954,-265.0111
157.481,-264.6607
157.6188,-264.2896
157.7356,-263.9088
157.8695,-263.5364
157.9869,-263.1556
158.1302,-262.7883
158.3638,-262.4682
158.6056,-262.1528
158.8431,-261.8347
159.0811,-261.5173
159.2211,-261.1547
159.3021,-260.7652
159.3908,-260.3791
159.4708,-259.9893
159.5811,-259.6101
159.7372,-259.2453
159.9013,-258.8834
160.0584,-258.5191
160.2215,-258.1569
160.4105,-257.8086
160.6129,-257.4668
160.8112,-257.1229
161.0135,-256.7812
161.1905,-256.4276
161.3177,-256.052
161.4411,-255.6743
161.5679,-255.2982
161.6921,-254.9211
161.8517,-254.5583
162.0279,-254.2027
162.2029,-253.8463
162.3802,-253.4909
162.5384,-253.1273
162.6843,-252.7579
162.8283,-252.3881
162.9728,-252.0182
163.1187,-251.649
163.2643,-251.2796
163.4135,-250.9116
163.5589,-250.5423
163.7071,-250.1738
163.8334,-249.7986
163.9242,-249.4118
164.0204,-249.027
164.1084,-248.6393
164.2098,-248.2562
164.3719,-247.8944
164.5441,-247.536
164.708,-247.1748
164.8778,-246.8157
165.0272,-246.4484
165.1593,-246.074
165.2894,-245.699
165.4229,-245.3249
165.5504,-244.9491
165.6341,-244.5622
165.6958,-244.1691
165.772,-243.7803
165.8333,-243.3871
165.9252,-243.0034
166.0927,-242.644
166.2641,-242.2858
166.4375,-241.9282
166.6035,-241.5683
166.6957,-241.1836
166.7672,-240.7921
166.8515,-240.4049
166.9255,-240.0142
167.023,-239.6301
167.1413,-239.2511
167.2589,-238.8719
167.3792,-238.4936
167.4965,-238.1141
167.6256,-237.739
167.7678,-237.3681
167.9061,-236.9962
168.051,-236.6262
168.1819,-236.252
168.2735,-235.8661
168.3582,-235.4778
168.4474,-235.0912
168.5351,-234.7038
168.6175,-234.3156
168.6755,-233.923
168.7285,-233.5293
168.7869,-233.1369
168.8404,-232.7432
168.9022,-232.3512
168.9691,-231.9598
169.039,-231.569
169.1058,-231.1776
169.1762,-230.7869
169.2834,-230.4053
169.4048,-230.0271
169.5208,-229.6475
169.642,-229.2694
169.7507,-228.8877
169.8453,-228.5022
169.938,-228.1161
170.0314,-227.7302
170.125,-227.3444
170.2191,-226.9586
170.3175,-226.574
170.4145,-226.189
170.5131,-225.8044
170.6064,-225.4187
170.6789,-225.0283
170.7485,-224.6374
170.8215,-224.2471
170.8911,-223.8563
170.9744,-223.4683
171.0739,-223.0839
171.1734,-222.6997
171.275,-222.3157
171.3725,-221.9311
171.4384,-221.5402
171.4854,-221.1458
171.538,-220.7525
171.5864,-220.3582
171.6371,-219.9645
171.6958,-219.5719
171.7535,-219.179
171.8139,-218.7867
171.8712,-218.3937
171.9137,-217.9993
171.9452,-217.6034
171.9776,-217.2077
172.0099,-216.8121
172.0421,-216.4163
172.0922,-216.0228
172.1537,-215.6304
172.2126,-215.2378
172.275,-214.8457
172.3324,-214.4529
172.3776,-214.0585
172.4216,-213.6639
172.4642,-213.2691
172.5112,-212.875
172.5899,-212.4866
172.6888,-212.1017
172.7772,-211.715
172.8761,-211.33
172.9655,-210.9435
172.999,-210.5492
173.0139,-210.1523
173.033,-209.7558
173.049,-209.359
173.07,-208.9626
173.0907,-208.566
173.1152,-208.1699
173.1351,-207.7731
173.1658,-207.3779
173.2367,-206.9873
173.3111,-206.5972
173.3836,-206.2069
173.4561,-205.8165
173.4911,-205.4217
173.5118,-205.025
173.5365,-204.629
173.5575,-204.2323
173.5913,-203.8369
173.6309,-203.4419
173.6689,-203.0466
173.7108,-202.6518
173.7407,-202.2561
173.7435,-201.8594
173.7394,-201.4622
173.7417,-201.0652
173.7388,-200.6682
173.7603,-200.2726
173.8175,-199.8798
173.8742,-199.4869
173.933,-199.0941
173.9809,-198.7005
173.9965,-198.3038
174.0081,-197.9069
174.0235,-197.5102
174.0358,-197.1133
174.0516,-196.7167
174.0681,-196.3199
174.0844,-195.9233
174.1019,-195.5266
174.1175,-195.1299
174.1251,-194.7331
174.1279,-194.3359
174.1333,-193.9391
174.1365,-193.5419
174.1423,-193.145
174.1575,-192.7483
174.1732,-192.3515
174.1888,-191.9549
174.2044,-191.5581
174.2158,-191.1613
174.2246,-190.7643
174.2322,-190.3674
174.2417,-189.9705
174.2429,-189.5736
174.2225,-189.1772
174.1985,-188.7808
174.1781,-188.3843
174.1545,-187.9881
174.1408,-187.5913
174.1377,-187.1944
174.135,-186.7973
174.133,-186.4003
174.1296,-186.0033
174.1198,-185.6064
174.1043,-185.2097
174.089,-184.8129
174.0749,-184.4162
174.058,-184.0196
174.0296,-183.6235
173.9953,-183.228
173.966,-182.832
173.9328,-182.4364
173.9133,-182.0402
173.9186,-181.6431
173.9204,-181.2464
173.9286,-180.849
173.9281,-180.4524
173.8788,-180.0588
173.8181,-179.6661
173.7667,-179.2727
173.7078,-178.8798
173.6552,-178.4865
173.6122,-178.0917
173.5701,-177.6969
173.5286,-177.3021
173.4858,-176.9073
173.4347,-176.5138
173.3735,-176.1214
173.3133,-175.729
173.2522,-175.3368
173.1922,-174.9442
173.1461,-174.55
173.1039,-174.1551
173.059,-173.7607
173.0171,-173.3659
172.9703,-172.9716
172.9146,-172.5786
172.8576,-172.1856
172.8009,-171.7927
172.7447,-171.3996
172.6966,-171.0056
172.655,-170.6108
172.6137,-170.2159
172.571,-169.8212
172.5311,-169.4262
172.5055,-169.0301
172.4844,-168.6335
172.4588,-168.2373
172.4371,-167.8409
172.3898,-167.4478
172.3048,-167.0601
172.2181,-166.6726
172.133,-166.2848
172.0459,-165.8975
171.9651,-165.5087
171.8874,-165.1195
171.8138,-164.7293
171.736,-164.3399
171.6617,-163.95
171.605,-163.5569
171.5482,-163.1642
171.4946,-162.7705
171.4349,-162.3783
171.3273,-161.9973
171.1991,-161.6208
171.0827,-161.2419
170.9543,-160.8655
170.8373,-160.4866
170.7675,-160.0964
170.7109,-159.703
170.6477,-159.3114
170.5893,-158.9184
170.5252,-158.5268
170.4566,-158.1357
170.3884,-157.7445
170.3184,-157.3539
170.2512,-156.9623
170.1528,-156.5797
170.0087,-156.2098
169.8637,-155.8402
169.7171,-155.4711
169.5754,-155.1006
169.4994,-154.7136
169.4589,-154.3177
169.4033,-153.9255
169.3643,-153.5293
169.3087,-153.137
169.187,-152.7602
169.051,-152.3864
168.9228,-152.0111
168.7911,-151.6363
168.6812,-151.2552
168.5842,-150.8702
168.4825,-150.4863
168.3855,-150.1014
168.2853,-149.7172
168.1785,-149.3348
168.0692,-148.9532
167.9552,-148.5729
167.8479,-148.1905
167.7325,-147.8107
167.5844,-147.4427
167.4283,-147.0774
167.279,-146.7095
167.1244,-146.3439
166.9737,-145.9765
166.8321,-145.6057
166.692,-145.2342
166.5513,-144.8629
166.4106,-144.4917
166.2681,-144.121
166.1209,-143.7524
165.9749,-143.3832
165.8272,-143.0145
165.6815,-142.6454
165.5529,-142.2697
165.4293,-141.8925
165.3045,-141.5156
165.1804,-141.1384
165.0406,-140.7672
164.8893,-140.4
164.7386,-140.0328
164.5874,-139.6656
164.4355,-139.2988
164.2814,-138.9329
164.1264,-138.5673
163.9731,-138.2012
163.8174,-137.8359
163.6508,-137.4757
163.4776,-137.1184
163.3077,-136.7595
163.1347,-136.4022
162.9661,-136.0427
162.8141,-135.676
162.6631,-135.3088
162.5119,-134.9416
162.3602,-134.5749
162.1832,-134.2202
161.9863,-133.8755
161.791,-133.5298
161.5944,-133.1849
161.3986,-132.8396
161.2081,-132.4911
161.0192,-132.142
160.8313,-131.7922
160.6421,-131.4431
160.4562,-131.0925
160.277,-130.738
160.0987,-130.3834
159.9198,-130.0289
159.7414,-129.6743
159.5704,-129.3161
159.4081,-128.9536
159.2445,-128.5921
159.0826,-128.2293
158.9187,-127.8679
158.7326,-127.5179
158.5291,-127.1768
158.3274,-126.835
158.1243,-126.4937
157.9223,-126.152
157.7336,-125.8027
157.5463,-125.4525
157.3569,-125.1038
157.1707,-124.7528
156.9592,-124.4191
156.7074,-124.1126
156.4496,-123.8099
156.1979,-123.5036
155.9408,-123.2004
155.7296,-122.8698
155.5817,-122.5016
155.4337,-122.1331
155.2881,-121.7638
155.1381,-121.3962
154.9397,-121.0534
154.7285,-120.7166
154.5239,-120.3768
154.3131,-120.0401
154.0988,-119.706
153.8755,-119.3778
153.6563,-119.0466
153.4335,-118.7181
153.2154,-118.3864
153.03,-118.0354
152.8471,-117.683
152.6622,-117.3316
152.4788,-116.9796
152.2728,-116.6405
152.0573,-116.3071
151.8416,-115.9739
151.6261,-115.6402
151.4086,-115.3084
151.1786,-114.9846
150.9472,-114.662
150.7175,-114.3382
150.4861,-114.0154
150.2581,-113.6906
150.0305,-113.3651
149.8029,-113.04
149.576,-112.7141
149.3479,-112.3891
149.117,-112.0663
148.8843,-111.7444
148.6524,-111.4223
148.4204,-111.1
148.1856,-110.7798
147.9456,-110.4637
147.7041,-110.1484
147.464,-109.8324
147.2278,-109.5132
146.9993,-109.1886
146.7704,-108.8643
146.5416,-108.5396
146.3128,-108.2154
146.0698,-107.9014
145.8189,-107.5938
145.5684,-107.2858
145.3177,-106.9778
145.0797,-106.6605
144.8518,-106.3352
144.6217,-106.0118
144.3947,-105.686
144.1625,-105.3641
143.9129,-105.0555
143.6597,-104.7494
143.4094,-104.4415
143.1573,-104.1346
142.9048,-103.8282
142.6495,-103.5243
142.3933,-103.2207
142.1383,-102.9167
141.8823,-102.6131
141.6284,-102.3079
141.3762,-102.0013
141.1237,-101.6948
140.8718,-101.3882
140.6191,-101.0816
140.365,-100.7767
140.1101,-100.4724
139.8557,-100.1674
139.6005,-99.8635
139.3477,-99.5571
139.105,-99.2431
138.8642,-98.9274
138.6216,-98.613
138.3801,-98.2981
138.1163,-98.0026
137.8284,-97.7294
137.5434,-97.4531
137.2542,-97.1807
136.9699,-96.9041
136.7168,-96.5985
136.4713,-96.2865
136.2232,-95.9765
135.9761,-95.6657
135.7152,-95.3667
135.45,-95.0709
135.1866,-94.7742
134.9219,-94.478
134.6473,-94.1923
134.3505,-93.9287
134.0521,-93.6664
133.7554,-93.4031
133.4578,-93.1399
133.1875,-92.8506
132.932,-92.5463
132.6718,-92.2466
132.4181,-91.941
132.1552,-91.6438
131.8629,-91.3759
131.5633,-91.1147
131.27,-90.8475
130.9712,-90.5858
130.691,-90.3064
130.4517,-89.9905
130.2193,-89.6676
129.978,-89.3532
129.7478,-89.0287
129.5005,-88.7197
129.1998,-88.4625
128.8859,-88.2173
128.5834,-87.9614
128.2724,-87.7139
127.9693,-87.4575
127.6777,-87.1886
127.3852,-86.9195
127.0951,-86.649
126.8024,-86.3804
126.5216,-86.1001
126.2551,-85.8061
125.986,-85.5139
125.7213,-85.2181
125.4512,-84.9272
125.1561,-84.6627
124.8482,-84.4121
124.5435,-84.1572
124.2372,-83.9052
123.9311,-83.6518
123.6326,-83.3902
123.3341,-83.1286
123.036,-82.866
122.7381,-82.6041
122.4431,-82.3379
122.1578,-82.0621
121.8717,-81.7869
121.5856,-81.5112
121.3005,-81.2355
121.0158,-80.9582
120.7348,-80.6781
120.4502,-80.4012
120.1693,-80.1203
119.8796,-79.85
119.5685,-79.6028
119.2555,-79.359
118.9437,-79.1129
118.6312,-78.8679
118.3128,-78.6315
117.9874,-78.4033
117.6624,-78.1761
117.337,-77.9478
117.0269,-77.7013
116.7305,-77.4373
116.4333,-77.1734
116.1375,-76.9095
115.8451,-76.6403
115.5595,-76.3648
115.2713,-76.0919
114.9859,-75.8152
114.6975,-75.5434
114.3773,-75.3095
114.046,-75.0909
113.7182,-74.867
113.3872,-74.6471
113.0758,-74.4034
112.7839,-74.1335
112.4916,-73.8657
112.2015,-73.5939
111.9075,-73.3274
111.5918,-73.0876
111.2694,-72.8545
110.9527,-72.6164
110.6315,-72.382
110.3111,-72.148
109.9895,-71.9154
109.667,-71.6829
109.3466,-71.4497
109.0266,-71.2137
108.7159,-70.9672
108.4049,-70.7202
108.0926,-70.4746
107.7831,-70.2269
107.4718,-69.9794
107.1649,-69.7284
106.8554,-69.4793
106.5468,-69.2292
106.2393,-68.9789
105.9282,-68.7311
105.6211,-68.4803
105.3097,-68.2337
105.0022,-67.9821
104.6813,-67.7522
104.3259,-67.574
103.9697,-67.4003
103.6136,-67.2233
103.2576,-67.0481
102.9222,-66.838
102.5966,-66.6095
102.2715,-66.3834
101.9461,-66.1541
101.6205,-65.9283
101.2887,-65.71
100.9532,-65.4968
100.6205,-65.2819
100.285,-65.0675
99.9524,-64.8525
99.6197,-64.6348
99.2861,-64.4193
98.955,-64.2016
98.6164,-63.9924
98.271,-63.7992
97.9227,-63.6069
97.5759,-63.4141
97.2292,-63.2216
96.8812,-63.0282
96.5354,-62.8359
96.1878,-62.6416
95.8407,-62.4501
95.4966,-62.2527
95.1635,-62.0352
94.8347,-61.8148
94.5015,-61.5965
94.1718,-61.3772
93.8287,-61.1771
93.4807,-60.9851
93.1345,-60.793
92.7859,-60.6001
92.4704,-60.3647
92.1728,-60.1003
91.8714,-59.8426
91.5769,-59.5764
91.2606,-59.3384
90.9104,-59.1565
90.5514,-58.9825
90.1983,-58.8028
89.8431,-58.6261
89.4954,-58.4322
89.1584,-58.2259
88.815,-58.0231
88.4775,-57.816
88.1352,-57.615
87.7815,-57.4323
87.4298,-57.2522
87.0744,-57.0704
86.7229,-56.8897
86.3686,-56.7088
86.014,-56.529
85.6625,-56.3483
85.3057,-56.1686
84.9556,-55.9866
84.6033,-55.8001
84.2526,-55.6142
83.9041,-55.4269
83.5501,-55.2417
83.1978,-55.0652
82.8375,-54.8926
82.4819,-54.7185
82.1256,-54.545
81.7711,-54.3615
81.431,-54.1631
81.0825,-53.966
80.7411,-53.7679
80.3964,-53.5701
80.0443,-53.3827
79.6983,-53.1955
79.3427,-53.0092
78.9964,-52.8229
78.6446,-52.6351
78.2938,-52.447
77.951,-52.2541
77.5949,-52.0664
77.2535,-51.8748
76.9001,-51.6859
76.5445,-51.5091
76.2006,-51.3205
75.8306,-51.1507
75.4987,-50.9562
75.2764,-50.6286
75.0989,-50.2706
74.8069,-50.0253
74.4498,-49.8461
74.1066,-49.6705
73.7238,-49.504
73.3824,-49.369
72.9605,-49.2764
72.6187,-49.1471
72.7736,-48.8956
72.9555,-48.5608
72.8357,-48.1904
72.7286,-47.8014
72.6667,-47.4166
72.6555,-47.0209
72.6751,-46.6205
72.6634,-46.2273
72.6779,-45.8274
72.6966,-45.4324
72.7289,-45.0374
72.7605,-44.6391
72.7879,-44.2463
72.8568,-43.8528
72.9341,-43.4652
73.015,-43.0766
73.0942,-42.6856
73.1749,-42.2999
73.258,-41.9085
73.3421,-41.5227
73.4674,-41.1459
73.5983,-40.7693
73.7282,-40.3976
73.8951,-40.0355
74.1012,-39.6998
74.3418,-39.3854
74.5646,-39.0618
74.7495,-38.712
74.9312,-38.3558
75.1662,-38.05
75.4798,-37.8084
75.8081,-37.5813
76.1228,-37.3427
76.4463,-37.1101
76.7611,-36.869
77.0497,-36.5975
77.3548,-36.3399
77.6494,-36.0788
77.8376,-35.7406
77.9749,-35.3651
78.1234,-34.9988
78.2213,-34.6169
78.2582,-34.2195
78.3346,-33.8359
78.5151,-33.4841
78.7199,-33.1419
78.9066,-32.7926
79.0663,-32.433
79.1566,-32.047
79.2336,-31.6563
79.3302,-31.2723
79.4061,-30.8815
79.424,-30.49
79.3966,-30.0937
79.3677,-29.6959
79.3497,-29.3025
79.4344,-28.9253
79.6107,-28.5678
79.7547,-28.1989
79.9102,-27.8326
80.1137,-27.4956
80.3469,-27.1755
80.5903,-26.8592
80.8209,-26.5389
81.0736,-26.23
81.3289,-25.9277
81.5832,-25.6229
81.845,-25.3223
82.0904,-25.0136
82.3575,-24.7147
82.5775,-24.395
82.6457,-24.0073
82.6347,-23.6066
82.6267,-23.2141
82.6192,-22.814
82.6495,-22.4213
82.7445,-22.0356
82.8515,-21.6526
82.9468,-21.2685
82.9194,-20.9017
82.716,-20.5588
82.609,-20.1997
82.6905,-19.8142
82.7814,-19.4249
82.8635,-19.0386
82.9484,-18.6494
83.0255,-18.2605
83.1102,-17.8726
83.1655,-17.4797
83.1932,-17.0847
83.2167,-16.6876
83.2419,-16.2916
83.2577,-15.8955
83.2542,-15.4974
83.3055,-15.1068
83.3854,-14.7179
83.3697,-14.3266
83.3104,-13.9328
83.2646,-13.5387
83.2062,-13.1464
83.1593,-12.7511
83.1295,-12.3567
83.1107,-11.9587
83.0226,-11.5832
82.8125,-11.2486
82.5914,-10.9161
82.3818,-10.5815
82.183,-10.2373
82.0238,-9.8739
81.8549,-9.515
81.6938,-9.151
81.527,-8.7922
81.313,-8.457
81.0933,-8.1271
80.8745,-7.7957
80.655,-7.4642
80.438,-7.133
80.2216,-6.7987
80.0087,-6.4647
79.791,-6.1321
79.5791,-5.7961
79.3826,-5.4527
79.2016,-5.0978
79.0157,-4.7481
78.8327,-4.3954
78.6497,-4.0423
78.4633,-3.6936
78.362,-3.3084
78.2642,-2.9287
78.0627,-2.5854
77.8475,-2.2514
77.5752,-1.9859
77.2205,-1.7976
76.8699,-1.6198
76.5105,-1.4455
76.1525,-1.2753
75.8054,-1.0852
75.4558,-0.89082
75.1106,-0.70343
74.7619,-0.50388
74.4039,-0.34936
74.0157,-0.26545
73.623,-0.19714
73.2369,-0.11774
72.8431,-0.042794
