82.2668,-49.5624
81.6114,-49.1525
80.9639,-48.7299
80.3294,-48.2879
79.7109,-47.8237
79.1099,-47.3371
78.5263,-46.8294
77.959,-46.3032
77.4075,-45.7608
76.8748,-45.2012
76.3684,-44.62
75.8957,-44.0136
75.4665,-43.3799
75.0957,-42.7162
74.7952,-42.0215
74.5695,-41.2991
74.4117,-40.5565
74.3075,-39.8017
74.2457,-39.0405
74.2255,-38.2765
74.2517,-37.5113
74.3208,-36.7456
74.4162,-35.9799
74.5159,-35.2137
74.5987,-34.4458
74.6557,-33.6756
74.6958,-32.9041
74.7397,-32.1338
74.8097,-31.3675
74.9194,-30.6071
75.0681,-29.8527
75.2496,-29.1054
75.466,-28.3694
75.7292,-27.6518
76.049,-26.9581
76.4233,-26.2892
76.8401,-25.6409
77.2832,-25.0065
77.7388,-24.3791
78.1975,-23.7536
78.6537,-23.1264
79.1009,-22.4937
79.5256,-21.8516
79.9063,-21.1962
80.2114,-20.5237
80.4085,-19.8303
80.4861,-19.1141
80.4644,-18.3769
80.3804,-17.6253
80.2672,-16.8664
80.149,-16.104
80.0473,-15.339
79.9754,-14.5708
79.939,-13.8003
79.944,-13.0302
79.9985,-12.2641
80.1097,-11.5064
80.2744,-10.7595
80.4735,-10.0215
80.6681,-9.2861
80.8101,-8.5486
80.8634,-7.8107
80.8067,-7.0848
80.6327,-6.387
80.3485,-5.7274
79.9698,-5.1089
79.514,-4.5295
78.9981,-3.9827
78.4436,-3.4567
77.8743,-2.9365
77.3049,-2.4117
76.7427,-1.8779
76.1866,-1.338
75.6288,-0.80212
75.0595,-0.28577
74.4647,0.191
73.8337,0.61216
73.165,0.97575
72.4676,1.2952
71.7535,1.5888
