90.1982,-52.3695
89.5253,-51.9742
88.8524,-51.5761
88.1805,-51.1735
87.5099,-50.7665
86.8432,-50.3586
86.1764,-49.9489
85.5089,-49.5387
84.8415,-49.1301
84.1745,-48.7261
83.5034,-48.3263
82.8277,-47.9317
82.1487,-47.5402
81.4705,-47.149
80.7952,-46.755
80.1211,-46.357
79.4472,-45.957
78.776,-45.5586
78.1051,-45.1598
77.4355,-44.7567
76.7709,-44.3437
76.1145,-43.9159
75.4729,-43.4714
74.8462,-43.0061
74.2419,-42.5154
73.6766,-41.9906
73.1754,-41.4215
72.7577,-40.7969
72.4341,-40.1183
72.202,-39.3968
72.0564,-38.6474
71.9948,-37.8834
72.0086,-37.1125
72.0835,-36.3404
72.2052,-35.5715
72.3583,-34.8064
72.5333,-34.0452
72.7274,-33.2883
72.9405,-32.5366
73.1769,-31.7918
73.4356,-31.0544
73.7177,-30.326
74.0257,-29.6086
74.3654,-28.9067
74.7357,-28.221
75.1373,-27.5536
75.5684,-26.9045
76.0239,-26.2712
76.498,-25.649
76.978,-25.0316
77.4515,-24.4127
77.9029,-23.7859
78.3028,-23.1417
78.6128,-22.468
78.8044,-21.7598
78.8729,-21.0224
78.8451,-20.2673
78.7654,-19.5025
78.683,-18.7314
78.6332,-17.9561
78.6335,-17.1798
78.6822,-16.4041
78.7752,-15.6316
78.9065,-14.8638
79.0663,-14.1001
79.2444,-13.3388
79.4248,-12.5775
79.5976,-11.8146
79.7561,-11.0494
79.8916,-10.2818
79.988,-9.5109
80.0282,-8.7386
79.9968,-7.9694
79.8859,-7.2101
79.6908,-6.4694
79.4127,-5.7548
79.0595,-5.0723
78.6454,-4.4244
78.1857,-3.8037
77.7059,-3.1953
