91.8634,-53.3561
91.1975,-52.9135
90.5279,-52.4739
89.8528,-52.0402
89.1727,-51.6122
88.4933,-51.1887
87.814,-50.7633
87.1368,-50.3329
86.4628,-49.899
85.7911,-49.4668
85.1155,-49.0378
84.4357,-48.6128
83.7529,-48.1899
83.0704,-47.7682
82.3887,-47.3473
81.705,-46.9281
81.0182,-46.5125
80.3318,-46.1021
79.6452,-45.6924
78.9595,-45.2785
78.2768,-44.8573
77.5985,-44.427
76.9298,-43.9872
76.2715,-43.5328
75.6324,-43.0549
75.0236,-42.5453
74.4557,-42.0006
73.9274,-41.4212
73.4379,-40.8139
72.9985,-40.1784
72.6392,-39.5057
72.3897,-38.7882
72.252,-38.0303
72.2068,-37.2471
72.232,-36.4542
72.3071,-35.6607
72.4195,-34.87
72.5621,-34.0831
72.7284,-33.3001
72.9137,-32.5208
73.1077,-31.7431
73.3034,-30.9656
73.4992,-30.1882
73.7038,-29.4148
73.9248,-28.6488
74.1806,-27.9002
74.4952,-27.1837
74.8885,-26.5123
75.3636,-25.89
75.8996,-25.3084
76.4699,-24.7519
77.0491,-24.2033
77.606,-23.6424
78.0995,-23.0471
78.4843,-22.4006
78.7236,-21.6998
78.8109,-20.9574
78.7706,-20.1911
78.6556,-19.4141
78.5284,-18.6317
78.4419,-17.8457
78.4192,-17.0558
78.4625,-16.2644
78.5577,-15.4738
78.6846,-14.6845
78.8294,-13.8964
78.982,-13.1095
79.1437,-12.3248
79.3195,-11.5439
79.5083,-10.7668
79.6942,-9.9903
79.8533,-9.2112
79.9589,-8.429
79.9874,-7.6484
79.9158,-6.8784
79.7295,-6.1303
79.4336,-5.412
79.0511,-4.7283
78.6019,-4.0777
78.1055,-3.4555
