91.9845,-53.6394
91.3342,-53.2311
90.6861,-52.8162
90.0421,-52.398
89.4005,-51.9794
88.7563,-51.5605
88.1106,-51.1436
87.4644,-50.7307
86.8143,-50.321
86.1605,-49.9145
85.5077,-49.5113
84.8556,-49.1085
84.2017,-48.7044
83.5477,-48.3017
82.8933,-47.9014
82.2371,-47.5013
81.5806,-47.0989
80.9298,-46.6941
80.282,-46.2839
79.6354,-45.8679
78.9931,-45.4481
78.3557,-45.0219
77.7257,-44.5833
77.1058,-44.1285
76.5013,-43.6598
75.9064,-43.1767
75.325,-42.6771
74.7754,-42.1545
74.2791,-41.5956
73.8647,-40.9876
73.5515,-40.3252
73.3392,-39.6176
73.2,-38.8776
73.1112,-38.1204
73.0649,-37.357
73.0514,-36.5913
73.0694,-35.825
73.1194,-35.0603
73.2027,-34.2996
73.3136,-33.5418
73.4505,-32.7877
73.6158,-32.039
73.8026,-31.2948
74.0066,-30.5547
74.2251,-29.8189
74.4578,-29.0883
74.7068,-28.3642
74.9831,-27.6513
75.2988,-26.9559
75.6569,-26.2823
76.0563,-25.6325
76.4905,-25.0047
76.9432,-24.391
77.3967,-23.7818
77.8438,-23.1737
78.2819,-22.5705
78.688,-21.9713
79.01,-21.3594
79.195,-20.7132
79.2276,-20.024
79.1459,-19.301
79.0148,-18.5589
78.8883,-17.807
78.7997,-17.0499
78.7656,-16.2894
78.7932,-15.5294
78.8749,-14.7717
79.0012,-14.0185
79.1642,-13.2706
79.3472,-12.5264
79.5294,-11.7822
79.6914,-11.0341
79.8254,-10.2815
79.9237,-9.5232
79.9873,-8.7609
80.0232,-7.9968
80.0258,-7.234
79.9782,-6.4783
79.8562,-5.7387
79.6421,-5.0291
