100.2017,-52.6557
99.4529,-52.2437
98.7055,-51.8282
97.9571,-51.4133
97.2052,-51.0038
96.4477,-50.604
95.6837,-50.216
94.9137,-49.8389
94.1396,-49.4694
93.3628,-49.1051
92.585,-48.7484
91.805,-48.4
91.0242,-48.0525
90.25,-47.694
89.4867,-47.3162
88.7319,-46.9215
87.9783,-46.5242
87.2186,-46.1386
86.4509,-45.7666
85.6804,-45.3972
84.913,-45.0184
84.1518,-44.625
83.3997,-44.2146
82.6637,-43.78
81.9612,-43.3087
81.3108,-42.7808
80.7346,-42.1818
80.2501,-41.5104
79.8631,-40.7757
79.5747,-39.9939
79.386,-39.181
79.2946,-38.3495
79.2853,-37.5075
79.3287,-36.6598
79.3946,-35.8086
79.4648,-34.9556
79.5358,-34.1019
79.6109,-33.2485
79.6967,-32.3972
79.7943,-31.5471
79.9038,-30.6984
80.0233,-29.851
80.1451,-29.0037
80.2686,-28.1566
80.4004,-27.3113
80.5532,-26.4709
80.7407,-25.6394
80.9737,-24.8209
81.257,-24.0194
81.5928,-23.2411
81.9882,-22.5002
82.457,-21.8188
83.0077,-21.2158
83.6294,-20.69
84.2871,-20.2058
84.9276,-19.7081
85.4945,-19.1522
85.9369,-18.5198
86.2158,-17.8132
86.3272,-17.0453
86.3167,-16.2356
86.256,-15.4019
86.2035,-14.5556
86.1882,-13.7042
86.2119,-12.8514
86.2588,-11.9987
86.3033,-11.146
86.3232,-10.293
86.3055,-9.441
86.2404,-8.5925
86.1207,-7.7513
85.9407,-6.9222
85.6972,-6.11
85.3933,-5.3174
85.0401,-4.5438
84.6543,-3.7846
84.255,-3.0333
83.85,-2.2901
83.4227,-1.5702
82.9405,-0.902
82.0096,0.15532
81.2913,0.56477
80.5698,0.96627
79.8475,1.3641
79.1053,1.7231
78.3631,2.0834
-43.4893,-20.2231