104.3129,-55.8605
103.561,-55.3939
102.8051,-54.9357
102.0512,-54.482
101.3009,-54.0258
100.5513,-53.5611
99.8029,-53.0877
99.0597,-52.6105
98.3196,-52.1358
97.5758,-51.6699
96.8209,-51.2157
96.0572,-50.7694
95.2956,-50.325
94.539,-49.878
93.7834,-49.429
93.0239,-48.9793
92.2606,-48.5294
91.5006,-48.0819
90.7427,-47.6366
89.9826,-47.194
89.2173,-46.7539
88.4478,-46.315
87.6818,-45.8802
86.9167,-45.4496
86.1501,-45.0204
85.3848,-44.5836
84.6263,-44.1299
83.8832,-43.661
83.1527,-43.1773
82.437,-42.6719
81.7486,-42.1303
81.1062,-41.5382
80.536,-40.8913
80.0603,-40.1868
79.6996,-39.4259
79.4666,-38.6147
79.3475,-37.7662
79.3125,-36.8991
79.3353,-36.025
79.3969,-35.1492
79.4869,-34.274
79.596,-33.4002
79.7215,-32.5295
79.8639,-31.6608
80.0177,-30.7935
80.1827,-29.928
80.3667,-29.0679
80.5821,-28.2168
80.8356,-27.376
81.1282,-26.5506
81.4741,-25.7543
81.8991,-25.0107
82.4227,-24.3431
83.0447,-23.7625
83.7359,-23.2563
84.4479,-22.7836
85.118,-22.285
85.6816,-21.7029
86.0986,-21.0122
86.3676,-20.2279
86.5219,-19.3862
86.6063,-18.5197
86.6624,-17.6456
86.7275,-16.7716
86.8238,-15.901
86.9486,-15.0354
87.0745,-14.1753
87.1552,-13.3157
87.1572,-12.453
87.0836,-11.5863
86.964,-10.7167
86.8323,-9.8471
86.7015,-8.9773
86.5625,-8.1108
86.3904,-7.2542
86.1588,-6.4144
85.8661,-5.5949
85.5291,-4.7885
85.1664,-3.99
84.7845,-3.2036
84.5842,-2.7136
84.3356,-1.9522
83.8023,-1.3748
83.2004,-0.84948
82.5393,-0.40073
81.8784,0.047457
81.14,0.34395
80.3874,0.61466
-41.5904,-23.1238