89.4993,-328.1899
89.8274,-327.9654
90.1544,-327.7397
90.4817,-327.5143
90.8097,-327.2897
91.1365,-327.0637
91.4643,-326.8389
91.7919,-326.6137
92.1187,-326.3878
92.4469,-326.1634
92.7739,-325.9376
93.1012,-325.7122
93.4292,-325.4877
93.7559,-325.2615
94.0838,-325.0368
94.4114,-324.8117
94.738,-324.5856
95.0665,-324.3615
95.3933,-324.1355
95.7205,-323.9099
96.0491,-323.6862
96.3747,-323.4586
96.7039,-323.2357
97.0404,-323.0244
97.3798,-322.818
97.7201,-322.612
98.0586,-322.4045
98.396,-322.1944
98.727,-321.9739
99.0519,-321.7461
99.3867,-321.5299
99.7094,-321.2996
99.9868,-321.0183
100.2449,-320.715
100.5093,-320.4187
100.7713,-320.1198
101.0327,-319.8202
101.2962,-319.5229
101.5575,-319.2234
101.8201,-318.925
102.0826,-318.6268
102.3443,-318.3275
102.6071,-318.0294
102.8692,-317.7307
103.1313,-317.4318
103.3939,-317.1336
103.6558,-316.8347
103.9183,-316.5361
104.1806,-316.2376
104.4427,-315.9388
104.7051,-315.6403
104.9673,-315.3417
105.2295,-315.043
105.4919,-314.7445
105.7546,-314.4464
106.0181,-314.1487
106.2816,-313.8513
106.545,-313.5536
106.8084,-313.256
107.0719,-312.9586
107.3353,-312.6608
107.5988,-312.3633
107.8623,-312.0659
108.1255,-311.768
108.3892,-311.4708
108.6525,-311.1731
108.9157,-310.8751
109.18,-310.5785
109.442,-310.2795
109.7096,-309.9858
109.9929,-309.7074
110.2796,-309.4318
110.5639,-309.1543
110.8531,-308.8817
111.1442,-308.6109
111.4355,-308.3409
111.7262,-308.0695
112.0195,-307.8016
112.3255,-307.5482
112.6342,-307.2974
112.9405,-307.0446
113.2546,-306.801
113.5706,-306.5598
113.8868,-306.3195
114.2018,-306.0768
114.5044,-305.8193
114.8045,-305.5588
115.1077,-305.3015
115.408,-305.0415
115.7085,-304.7814
116.0068,-304.5186
116.3048,-304.256
116.6029,-303.9926
116.9029,-303.7325
117.2231,-303.4974
117.5492,-303.2692
117.8679,-303.0328
118.194,-302.8045
118.4957,-302.5494
118.7577,-302.2511
119.0176,-301.9501
119.2785,-301.6505
119.5384,-301.3497
119.8021,-301.0524
120.0635,-300.7527
120.3298,-300.4583
120.5898,-300.1567
120.8574,-299.8641
121.1719,-299.6226
121.4991,-299.3955
121.8162,-299.1572
122.1426,-298.9289
122.462,-298.6934
122.7762,-298.45
123.0911,-298.2068
123.4008,-297.9589
123.7179,-297.7177
124.0047,-297.4473
124.245,-297.131
124.4855,-296.8146
124.7214,-296.4945
124.9651,-296.181
125.2557,-295.9118
125.5598,-295.6552
125.8578,-295.3924
126.1598,-295.134
126.4541,-294.8671
126.7432,-294.5941
127.03,-294.3194
127.3193,-294.0465
127.6059,-293.7714
127.855,-293.4642
128.0811,-293.1368
128.3119,-292.8138
128.5365,-292.4854
128.7777,-292.1708
129.0531,-291.8849
129.3353,-291.6044
129.6128,-291.3201
129.8924,-291.0378
130.1796,-290.7629
130.47,-290.4918
130.7584,-290.2183
131.0515,-289.9494
131.335,-289.6718
131.5962,-289.3723
131.8512,-289.0673
132.109,-288.7651
132.3678,-288.4631
132.6084,-288.148
132.8225,-287.8132
133.0358,-287.4781
133.2457,-287.14
133.463,-286.808
133.7317,-286.5189
134.0269,-286.2517
134.3159,-285.9794
134.6074,-285.7093
134.8745,-285.4171
135.1103,-285.0971
135.3472,-284.778
135.5846,-284.4593
135.8199,-284.1389
136.0572,-283.8203
136.2915,-283.499
136.5271,-283.1791
136.762,-282.8586
137.0021,-282.5419
137.2603,-282.24
137.5215,-281.9403
137.7792,-281.6378
138.0398,-281.3378
138.2847,-281.025
138.5149,-280.7011
138.7493,-280.3805
138.9779,-280.0547
139.2135,-279.7354
139.4833,-279.4435
139.7593,-279.1572
140.0289,-278.8659
140.3053,-278.5793
140.5395,-278.2639
140.714,-277.9074
140.8839,-277.5476
141.0559,-277.1897
141.2285,-276.8315
141.4366,-276.4946
141.6675,-276.171
141.8963,-275.846
142.1252,-275.5212
142.3563,-275.1978
142.5999,-274.884
142.8503,-274.5752
143.096,-274.2628
143.3457,-273.9536
143.586,-273.6375
143.8046,-273.3056
144.0206,-272.972
144.2387,-272.6398
144.4554,-272.3065
144.6715,-271.9731
144.8825,-271.6362
145.0926,-271.2989
145.3037,-270.9622
145.5143,-270.625
145.7288,-270.2905
145.9451,-269.9571
146.1609,-269.6233
146.3769,-269.2898
146.5963,-268.9583
146.8193,-268.6293
147.0404,-268.2993
147.2653,-267.9713
147.4845,-267.6401
147.6747,-267.2915
147.8549,-266.9369
148.0413,-266.5862
148.2234,-266.2327
148.4169,-265.886
148.6287,-265.5497
148.8409,-265.2136
149.0525,-264.8773
149.2653,-264.5416
149.4821,-264.2085
149.7036,-263.8785
149.9214,-263.5461
150.1441,-263.2168
150.3605,-262.8837
150.5416,-262.5305
150.7093,-262.1699
150.8853,-261.8138
151.0543,-261.4538
151.2282,-261.0966
151.4224,-260.7498
151.6191,-260.4046
151.8156,-260.0591
152.012,-259.7135
152.1861,-259.3569
152.344,-258.9921
152.5058,-258.6293
152.6607,-258.2629
152.8254,-257.9016
153.0336,-257.5638
153.2551,-257.2332
153.4667,-256.8971
153.6853,-256.565
153.8882,-256.224
154.0606,-255.866
154.2313,-255.5071
154.4039,-255.149
154.5743,-254.79
154.7531,-254.4351
154.933,-254.0806
155.1119,-253.7258
155.2931,-253.3721
155.4673,-253.0149
155.6358,-252.655
155.8042,-252.295
155.9709,-251.9342
156.1414,-251.5752
156.3191,-251.2197
156.4983,-250.865
156.6777,-250.5103
156.8554,-250.1548
157.0251,-249.7955
157.1913,-249.4344
157.3598,-249.0745
157.5262,-248.7136
157.704,-248.3585
157.9028,-248.0145
158.1031,-247.6711
158.3032,-247.3277
158.5015,-246.9835
158.6676,-246.6235
158.812,-246.253
158.9616,-245.885
159.1071,-245.5149
159.2649,-245.1508
159.4523,-244.8003
159.6405,-244.4502
159.8268,-244.0993
160.0166,-243.7498
160.1811,-243.3891
160.3204,-243.0171
160.4575,-242.6439
160.5939,-242.2707
160.7336,-241.8986
160.8827,-241.5302
161.0366,-241.1638
161.19,-240.7972
161.3407,-240.4294
161.497,-240.0641
161.6665,-239.7046
161.8394,-239.3468
162.0116,-238.9886
162.1822,-238.6296
162.3411,-238.2656
162.4905,-237.8972
162.6405,-237.5292
162.7916,-237.1616
162.9406,-236.7931
163.0809,-236.4215
163.2134,-236.0467
163.3468,-235.6723
163.479,-235.2976
163.6161,-234.9245
163.7702,-234.5584
163.9285,-234.1937
164.0832,-233.8276
164.2396,-233.4623
164.3814,-233.0913
164.5098,-232.715
164.6424,-232.3406
164.7711,-231.9643
164.906,-231.5908
165.0653,-231.2266
165.2261,-230.8631
165.3847,-230.4989
165.5465,-230.1356
165.6783,-229.7619
165.7825,-229.3785
165.8873,-228.9951
165.9881,-228.6105
166.1014,-228.2301
166.2452,-227.8597
166.3946,-227.4913
166.5419,-227.1222
166.6875,-226.7525
166.809,-226.3747
166.9138,-225.9911
167.0216,-225.6087
167.1291,-225.2261
167.2379,-224.8437
167.3509,-224.4628
167.4624,-224.0813
167.5734,-223.6996
167.6868,-223.3188
167.8045,-222.9391
167.927,-222.5611
168.0488,-222.1828
168.1696,-221.8041
168.2924,-221.4262
168.4142,-221.0478
168.5359,-220.6695
168.6592,-220.2917
168.7801,-219.9131
168.8957,-219.5329
169.0069,-219.1514
169.1176,-218.7696
169.2298,-218.3884
169.3389,-218.0062
169.4418,-217.6223
169.5438,-217.2382
169.6465,-216.8542
169.7483,-216.4701
169.8517,-216.0864
169.9548,-215.7025
170.0573,-215.3186
170.1623,-214.9351
170.2527,-214.5486
170.3167,-214.1566
170.3757,-213.7633
170.4374,-213.3708
170.4997,-212.9784
170.586,-212.5908
170.6894,-212.207
170.7861,-211.8216
170.8888,-211.4374
170.9805,-211.0513
171.0349,-210.6576
171.0851,-210.2633
171.1396,-209.8697
171.1903,-209.4754
171.2781,-209.0891
171.3953,-208.7091
171.5063,-208.3279
171.6279,-207.9489
171.736,-207.567
171.7913,-207.1744
171.8311,-206.7784
171.8787,-206.384
171.9224,-205.989
171.972,-205.5946
172.0289,-205.2014
172.0858,-204.808
172.1414,-204.4144
172.1998,-204.0214
172.2731,-203.6308
172.3525,-203.2414
172.4289,-202.8515
172.5074,-202.4617
172.5631,-202.0691
172.5887,-201.6725
172.6144,-201.2759
172.6395,-200.8793
172.6656,-200.4827
172.7165,-200.0891
172.7849,-199.6976
172.8532,-199.306
172.9209,-198.9145
172.9899,-198.5231
173.0608,-198.132
173.132,-197.7411
173.2038,-197.3501
173.2746,-196.959
173.3378,-196.5668
173.3935,-196.1732
173.4464,-195.7794
173.5039,-195.386
173.5559,-194.9921
173.5716,-194.5964
173.5599,-194.199
173.5492,-193.8017
173.5395,-193.4045
173.5468,-193.0076
173.5796,-192.6115
173.6116,-192.2154
173.6437,-191.8192
173.6737,-191.423
173.6814,-191.0257
173.6855,-190.6282
173.6949,-190.231
173.6983,-189.8334
173.7203,-189.4371
173.767,-189.0424
173.8139,-188.6478
173.8634,-188.2534
173.9083,-187.8586
173.9251,-187.4619
173.9294,-187.0644
173.9384,-186.6671
173.9434,-186.2697
173.9544,-185.8725
173.9814,-185.476
174.0096,-185.0796
174.038,-184.6831
174.065,-184.2866
174.0742,-183.8897
174.0687,-183.4922
174.0628,-183.0949
174.0597,-182.6974
174.0517,-182.3001
174.0256,-181.9037
173.9918,-181.5076
173.9622,-181.1113
173.9308,-180.7151
173.9137,-180.3183
173.9149,-179.9208
173.9122,-179.5235
173.914,-179.1259
173.9108,-178.7287
173.8743,-178.3331
173.8295,-177.938
173.7912,-177.5426
173.747,-177.1475
173.7122,-176.7517
173.6898,-176.3549
173.6673,-175.9581
173.6465,-175.5613
173.6235,-175.1645
173.6035,-174.7676
173.5902,-174.3703
173.5744,-173.9732
173.5628,-173.5759
173.5461,-173.1789
173.5025,-172.7841
173.4496,-172.3902
173.4006,-171.9958
173.3485,-171.6018
173.3036,-171.207
173.2678,-170.8111
173.2318,-170.4154
173.1972,-170.0194
173.1591,-169.6238
173.1114,-169.2293
173.0607,-168.8351
173.012,-168.4407
172.9626,-168.0463
172.9096,-167.6524
172.8537,-167.259
172.797,-166.8656
172.7405,-166.4722
172.6843,-166.0788
172.6272,-165.6854
172.5701,-165.2921
172.5141,-164.8987
172.4559,-164.5055
172.3933,-164.1131
172.3283,-163.721
172.2646,-163.3286
172.2006,-162.9364
172.1235,-162.5468
172.0326,-162.1599
171.9417,-161.773
171.8498,-161.3863
171.7599,-160.9992
171.686,-160.6088
171.6192,-160.217
171.55,-159.8257
171.4826,-159.434
171.4057,-159.0442
171.3155,-158.6572
171.225,-158.2701
171.1346,-157.8832
171.0443,-157.4961
170.9584,-157.1081
170.8724,-156.7201
170.7875,-156.3318
170.7007,-155.944
170.601,-155.5594
170.4944,-155.1764
170.3893,-154.7932
170.2838,-154.41
170.182,-154.0258
170.085,-153.6405
169.9867,-153.2553
169.8887,-152.8702
169.7916,-152.4848
169.6917,-152.1001
169.5919,-151.7154
169.4928,-151.3306
169.391,-150.9463
169.2957,-150.5606
169.213,-150.1719
169.1329,-149.7826
169.0529,-149.3933
168.97,-149.0047
168.8689,-148.6207
168.7539,-148.2401
168.6417,-147.8589
168.5295,-147.4776
168.4121,-147.0979
168.2904,-146.7197
168.1655,-146.3423
168.0418,-145.9646
167.9193,-145.5866
167.7996,-145.2076
167.6837,-144.8274
167.5656,-144.4479
167.4481,-144.0682
167.3313,-143.6884
167.2068,-143.311
167.0819,-142.9336
166.959,-142.5557
166.8327,-142.1788
166.7119,-141.8002
166.5974,-141.4197
166.4832,-141.039
166.3707,-140.6578
166.2557,-140.2775
166.1364,-139.8983
166.0118,-139.5209
165.8839,-139.1447
165.7616,-138.7663
165.6255,-138.3935
165.4611,-138.0317
165.2929,-137.6716
165.1261,-137.3109
164.9601,-136.9498
164.816,-136.58
164.6867,-136.204
164.5553,-135.829
164.4255,-135.4534
164.291,-135.0794
164.1455,-134.7096
163.9982,-134.3405
163.8533,-133.9703
163.7044,-133.602
163.5458,-133.2375
163.3845,-132.8743
163.2254,-132.5101
163.0647,-132.1466
162.907,-131.7818
162.7539,-131.415
162.6,-131.0486
162.4477,-130.6815
162.2932,-130.3153
162.129,-129.9534
161.9609,-129.5934
161.794,-129.2326
161.6266,-128.8722
161.4635,-128.5099
161.3116,-128.1425
161.1616,-127.7746
161.0081,-127.408
160.8596,-127.0392
160.6945,-126.6785
160.4973,-126.3335
160.2965,-125.9905
160.0969,-125.6468
159.8989,-125.3023
159.7326,-124.9423
159.5847,-124.5731
159.4308,-124.2069
159.2825,-123.838
159.1226,-123.4745
158.9362,-123.1237
158.7467,-122.7742
158.5598,-122.4235
158.3708,-122.0739
158.1843,-121.7229
157.9978,-121.372
157.8112,-121.0211
157.6256,-120.6696
157.4383,-120.3191
157.2492,-119.9696
157.0586,-119.6208
156.8685,-119.2718
156.6788,-118.9225
156.4896,-118.573
156.3034,-118.222
156.1162,-117.8713
155.9297,-117.5204
155.7427,-117.1697
155.5439,-116.8256
155.3389,-116.4852
155.1362,-116.1433
154.9304,-115.8033
154.7281,-115.4613
154.5366,-115.113
154.3483,-114.763
154.1586,-114.4138
153.9693,-114.0643
153.7781,-113.716
153.5812,-113.3706
153.3833,-113.026
153.187,-112.6805
152.9891,-112.3357
152.7963,-111.9883
152.6072,-111.6387
152.4143,-111.2913
152.2276,-110.9402
152.0331,-110.5938
151.8078,-110.2669
151.5738,-109.9454
151.345,-109.6205
151.1134,-109.2975
150.8933,-108.9669
150.6858,-108.6278
150.4775,-108.2895
150.2697,-107.9506
150.0566,-107.6152
149.8342,-107.2859
149.6122,-106.9562
149.3902,-106.6266
149.1671,-106.2977
148.9445,-105.9683
148.7209,-105.6399
148.4981,-105.3107
148.2733,-104.983
148.0418,-104.66
147.8098,-104.3372
147.5787,-104.014
147.3463,-103.6916
147.118,-103.3662
146.8952,-103.0372
146.6731,-102.7075
146.4513,-102.3777
146.2283,-102.0489
146.0014,-101.7224
145.7722,-101.3979
145.5427,-101.0734
145.3152,-100.7473
145.0836,-100.4247
144.8364,-100.1134
144.584,-99.8063
144.3363,-99.4958
144.0851,-99.1875
143.8415,-98.8738
143.6139,-98.5481
143.3858,-98.2225
143.1586,-97.8965
142.9303,-97.5712
142.6798,-97.2632
142.4167,-96.9654
142.1555,-96.6658
141.8923,-96.3681
141.6382,-96.0628
141.3969,-95.7468
141.1561,-95.4309
140.9157,-95.1142
140.6707,-94.8014
140.4138,-94.4984
140.1552,-94.1964
139.898,-93.8935
139.6399,-93.5913
139.389,-93.283
139.1436,-92.9706
138.8966,-92.6591
138.6522,-92.3456
138.4035,-92.0359
138.1398,-91.7384
137.8724,-91.4444
137.6077,-91.1481
137.3419,-90.8524
137.082,-90.552
136.8256,-90.2482
136.5666,-89.9467
136.3098,-89.6435
136.046,-89.3463
135.7701,-89.0603
135.495,-88.7736
135.2188,-88.4875
134.9435,-88.2012
134.682,-87.902
134.4274,-87.5968
134.172,-87.2926
133.9181,-86.9864
133.6595,-86.6849
133.393,-86.3902
133.1243,-86.0971
132.8568,-85.8035
132.589,-85.5096
132.3174,-85.2194
132.0449,-84.9304
131.7731,-84.6401
131.4997,-84.3518
131.2292,-84.0607
130.962,-83.7662
130.6944,-83.4728
130.4291,-83.1765
130.1601,-82.884
129.8772,-82.6056
129.5867,-82.3339
129.2974,-82.0617
129.0085,-81.7888
128.7187,-81.5165
128.4301,-81.2436
128.1427,-80.9689
127.8523,-80.6973
127.5661,-80.4221
127.2952,-80.1312
127.0304,-79.835
126.7648,-79.5394
126.4985,-79.2441
126.2149,-78.9674
125.9125,-78.7091
125.6107,-78.4505
125.3086,-78.1926
125.0097,-77.9303
124.7267,-77.6518
124.4468,-77.3695
124.1631,-77.0909
123.8827,-76.8097
123.5948,-76.5355
123.2985,-76.2706
123.0049,-76.0033
122.7072,-75.7391
122.414,-75.4715
122.1448,-75.1795
121.883,-74.8798
121.6167,-74.5858
121.3561,-74.2847
121.0799,-74.0007
120.7695,-73.7537
120.4519,-73.5133
120.1397,-73.2684
119.8249,-73.0256
119.5209,-72.7696
119.2277,-72.5019
118.9318,-72.236
118.6384,-71.968
118.3424,-71.7034
118.0355,-71.4501
117.7275,-71.1994
117.4208,-70.9467
117.1129,-70.6947
116.7985,-70.4532
116.4691,-70.2303
116.1374,-70.0111
115.8088,-69.7884
115.4774,-69.568
115.1655,-69.3246
114.8775,-69.0505
114.5882,-68.7776
114.3003,-68.5044
114.012,-68.2301
113.6991,-67.9877
113.3674,-67.7698
113.0337,-67.5529
112.7003,-67.3371
112.3818,-67.1012
112.0843,-66.8374
111.7901,-66.5708
111.4944,-66.3046
111.1974,-66.0407
110.8876,-65.7928
110.5694,-65.5535
110.2545,-65.3119
109.9393,-65.0697
109.6179,-64.8355
109.2871,-64.6168
108.951,-64.4033
108.6184,-64.186
108.2851,-63.9705
107.9492,-63.7564
107.6157,-63.5414
107.2805,-63.3278
106.9455,-63.1131
106.6148,-62.894
106.2848,-62.6715
105.9557,-62.4488
105.6268,-62.2266
105.2969,-62.0035
104.9687,-61.7805
104.6403,-61.5565
104.3113,-61.3326
103.9834,-61.1095
103.6577,-60.8806
103.3353,-60.6483
103.0126,-60.4175
102.6911,-60.1821
102.3665,-59.9543
102.0255,-59.7505
101.6782,-59.5556
101.3363,-59.3549
100.9914,-59.1559
100.6414,-58.9681
100.287,-58.7899
99.9301,-58.6128
99.5737,-58.4381
99.22,-58.2577
98.8883,-58.0416
98.5793,-57.7928
98.2689,-57.5432
97.9552,-57.3001
97.6335,-57.0679
97.2987,-56.8516
96.9686,-56.6321
96.64,-56.4076
96.2969,-56.2079
95.9369,-56.0451
95.5665,-55.8961
95.2015,-55.7395
94.8375,-55.583
94.467,-55.4339
94.1014,-55.2815
93.7337,-55.1308
93.3622,-54.9852
93.0041,-54.8192
92.6592,-54.6203
92.3214,-54.4102
91.9822,-54.2056
91.639,-54.0018
91.2984,-53.7994
90.9523,-53.6041
90.6058,-53.4069
90.2642,-53.2071
89.916,-53.0129
89.569,-52.8191
89.2222,-52.628
88.8707,-52.4381
88.5253,-52.2445
88.1706,-52.0652
87.8107,-51.8928
87.4586,-51.7141
87.0957,-51.5464
86.7437,-51.3634
86.4172,-51.1403
86.09,-50.9103
85.7664,-50.6826
85.4401,-50.4557
85.1039,-50.2403
84.772,-50.0267
84.434,-49.8138
84.0988,-49.6004
83.7687,-49.3829
83.43,-49.1687
83.102,-48.9487
82.7678,-48.7334
82.431,-48.5172
82.1308,-48.2627
81.8193,-48.0114
81.4866,-47.7952
81.1549,-47.5864
80.7956,-47.3925
80.5114,-47.1468
80.3686,-46.7846
80.2239,-46.4095
80.0199,-46.0742
79.808,-45.7329
79.6237,-45.3831
79.5154,-45.0066
79.4427,-44.6094
79.3467,-44.2272
79.2599,-43.8394
79.1697,-43.4497
79.0534,-43.0731
78.9423,-42.689
78.831,-42.3077
78.7151,-41.9295
78.6097,-41.5433
78.4993,-41.1638
78.3934,-40.7806
78.3275,-40.3877
78.2852,-39.9955
78.2326,-39.599
78.1941,-39.2041
78.2,-38.8092
78.2232,-38.4094
78.2375,-38.0144
78.2546,-37.6171
78.2947,-37.2206
78.3627,-36.8322
78.4363,-36.4393
78.5055,-36.0482
78.5774,-35.6592
78.6439,-35.2644
78.7073,-34.8743
78.771,-34.4819
78.8353,-34.0874
78.9175,-33.7022
79.0028,-33.3112
79.0796,-32.9213
79.1796,-32.5407
79.3149,-32.1621
79.5154,-31.8315
79.8036,-31.5637
80.1188,-31.3146
80.4506,-31.1221
80.8349,-31.0196
81.2256,-30.9299
81.6032,-30.8218
81.9892,-30.7125
82.3622,-30.5808
82.7399,-30.4574
83.1188,-30.3323
83.4212,-30.0969
83.6852,-29.8007
83.9872,-29.5575
84.2627,-29.2927
84.484,-28.962
84.7067,-28.6324
84.9182,-28.2977
85.1073,-27.9463
85.2993,-27.5999
85.4886,-27.2497
85.679,-26.9007
85.8762,-26.5565
86.0704,-26.2087
86.2685,-25.8648
86.465,-25.5193
86.6454,-25.1652
86.8067,-24.8032
86.9577,-24.4345
87.1183,-24.0712
87.2732,-23.7058
87.4084,-23.3312
87.5322,-22.955
87.6152,-22.5668
87.6687,-22.1725
87.7315,-21.7817
87.767,-21.3846
87.7624,-20.9888
87.7496,-20.5925
87.7373,-20.1921
87.7303,-19.7983
87.7151,-19.3994
87.6973,-19.0006
87.6882,-18.6084
87.6651,-18.2055
87.6522,-17.8114
87.6228,-17.4188
87.5577,-17.0136
87.64,-16.6702
87.8959,-16.3824
88.0963,-16.0457
88.2156,-15.6639
88.36,-15.2935
88.5435,-14.9467
88.7803,-14.631
89.0438,-14.3293
89.2893,-14.0184
89.5379,-13.709
89.8017,-13.4094
90.0586,-13.1077
90.2772,-12.7817
90.455,-12.4246
90.5923,-12.0528
90.6435,-11.6666
90.637,-11.2662
90.6425,-10.869
90.6298,-10.4738
90.5765,-10.0777
90.5078,-9.689
90.4213,-9.301
90.3018,-8.9223
90.1408,-8.563
89.9683,-8.2018
89.8075,-7.8386
89.6324,-7.4842
89.4524,-7.1265
89.279,-6.7709
89.0974,-6.418
88.9217,-6.0587
88.7531,-5.7021
88.5926,-5.3373
88.4426,-4.9673
88.2886,-4.6058
88.1566,-4.2245
88,-3.8645
87.723,-3.5958
87.3935,-3.363
87.0861,-3.1175
86.7649,-2.8815
86.4376,-2.6528
86.1118,-2.4319
85.7759,-2.2135
85.4503,-1.9865
85.118,-1.7728
84.7683,-1.5767
84.4201,-1.3913
84.068,-1.2064
83.7189,-1.0101
83.3685,-0.83267
82.9969,-0.68438
82.6234,-0.54734
82.2533,-0.41411
81.8789,-0.2625
81.5068,-0.13813
81.1153,-0.094457
80.7116,-0.077234
80.3238,-0.058246
79.9186,-0.027494
79.5267,-0.015038
