81.5407,-326.5784
81.8933,-326.3773
82.2488,-326.1811
82.6021,-325.9809
82.9568,-325.7834
83.311,-325.5847
83.6649,-325.3859
84.0196,-325.1881
84.3734,-324.9889
84.7278,-324.791
85.0821,-324.5924
85.4359,-324.3935
85.7907,-324.1958
86.1444,-323.9965
86.4989,-323.7986
86.8533,-323.6001
87.2069,-323.401
87.562,-323.2037
87.9153,-323.0039
88.2701,-322.8064
88.6245,-322.6078
88.9774,-322.4081
89.3341,-322.2123
89.6849,-322.0099
90.043,-321.8162
90.3688,-321.5867
90.5902,-321.2486
90.807,-320.9035
91.1072,-320.6342
91.42,-320.3742
91.7285,-320.1111
92.043,-319.8535
92.3511,-319.5896
92.6646,-319.3311
92.9749,-319.0693
93.2855,-318.8081
93.5986,-318.5491
93.9073,-318.2858
94.2209,-318.0274
94.5306,-317.7651
94.8419,-317.5045
95.1547,-317.2452
95.463,-316.9817
95.7777,-316.7242
96.0861,-316.4606
96.3983,-316.2011
96.7035,-315.9326
96.9996,-315.656
97.3406,-315.4323
97.6549,-315.1857
97.9025,-314.8662
98.1867,-314.5778
98.4966,-314.3138
98.7897,-314.0332
99.0826,-313.7526
99.3629,-313.4585
99.6288,-313.1522
99.8836,-312.8367
100.1661,-312.5501
100.4958,-312.3128
100.7971,-312.0442
101.0609,-311.7352
101.3606,-311.4697
101.7134,-311.2715
102.062,-311.0639
102.3813,-310.8129
102.7311,-310.6178
103.1171,-310.4908
103.4958,-310.3482
103.8671,-310.1821
104.2246,-309.9921
104.5691,-309.7777
104.8927,-309.5339
105.1942,-309.263
105.5228,-309.027
105.8721,-308.8199
106.2162,-308.6051
106.5614,-308.3903
106.8816,-308.1441
107.1801,-307.869
107.4981,-307.6193
107.8401,-307.4007
108.1863,-307.1877
108.5326,-306.977
108.8783,-306.7631
109.2165,-306.5388
109.5732,-306.3485
109.949,-306.1927
110.324,-306.042
110.7111,-305.9111
111.0337,-305.7023
111.2474,-305.3602
111.4522,-305.0065
111.6636,-304.6623
111.8714,-304.312
112.1421,-304.0183
112.4604,-303.7658
112.7643,-303.4968
113.062,-303.2213
113.3948,-302.9945
113.7539,-302.8049
114.1012,-302.595
114.4405,-302.3724
114.7843,-302.1561
115.1279,-301.9401
115.4568,-301.7026
115.778,-301.4542
116.1288,-301.2528
116.4925,-301.0727
116.8445,-300.8711
117.1884,-300.6554
117.4971,-300.3958
117.7815,-300.1059
118.0864,-299.839
118.4031,-299.5848
118.6976,-299.3063
118.982,-299.0163
119.2959,-298.7595
119.6162,-298.5103
119.9147,-298.2358
120.2037,-297.9509
120.4699,-297.6443
120.7308,-297.334
121.0148,-297.0445
121.3142,-296.7699
121.6407,-296.5311
121.9798,-296.3069
122.3073,-296.0672
122.6313,-295.8227
122.9359,-295.5549
123.2272,-295.2721
123.5326,-295.0043
123.8366,-294.7355
124.1407,-294.4663
124.4414,-294.1936
124.6978,-293.8809
124.9376,-293.5537
125.2146,-293.2591
125.515,-292.9859
125.8329,-292.7346
126.1628,-292.4977
126.475,-292.239
126.7779,-291.9684
127.0837,-291.7014
127.388,-291.4326
127.6921,-291.1635
127.9922,-290.8902
128.2871,-290.6109
128.575,-290.3249
128.861,-290.0365
129.1425,-289.7441
129.4139,-289.4422
129.6803,-289.1359
129.9191,-288.808
130.1478,-288.473
130.4122,-288.167
130.7011,-287.8816
131.0125,-287.6228
131.3385,-287.3805
131.6604,-287.133
131.9788,-286.8813
132.2611,-286.592
132.5229,-286.2813
132.809,-285.994
133.1022,-285.7131
133.3997,-285.4367
133.6964,-285.1597
133.969,-284.8592
134.2334,-284.5512
134.5162,-284.2599
134.8025,-283.9721
135.0575,-283.6569
135.304,-283.3342
135.574,-283.0316
135.8525,-282.736
136.1343,-282.4438
136.4178,-282.1531
136.7095,-281.8706
137.002,-281.5892
137.2652,-281.2809
137.5152,-280.9608
137.7553,-280.6339
137.987,-280.3002
138.2427,-279.9855
138.5091,-279.6789
138.7752,-279.3723
139.0463,-279.07
139.3245,-278.7745
139.6116,-278.4874
139.8682,-278.1742
140.1047,-277.8441
140.3732,-277.5415
140.662,-277.2562
140.9563,-276.9764
141.2513,-276.6974
141.5361,-276.4086
141.8106,-276.1093
142.059,-275.7894
142.2857,-275.4529
142.5161,-275.1184
142.7546,-274.7899
142.995,-274.4627
143.2354,-274.1354
143.4925,-273.822
143.767,-273.5227
144.0291,-273.2133
144.2757,-272.8907
144.5136,-272.5618
144.7421,-272.2263
144.9901,-271.9062
145.2678,-271.6101
145.5362,-271.3058
145.7868,-270.9864
146.0367,-270.6664
146.2819,-270.3427
146.5334,-270.0242
146.7956,-269.714
147.0403,-269.3909
147.2625,-269.0513
147.4749,-268.7051
147.6822,-268.3562
147.8888,-268.0066
148.0982,-267.6587
148.3229,-267.3213
148.5682,-266.9977
148.8075,-266.67
149.0312,-266.3311
149.2671,-266.001
149.5185,-265.6822
149.7723,-265.3652
150.0328,-265.0538
150.2812,-264.7333
150.5055,-264.3949
150.7232,-264.0522
150.9346,-263.7056
151.1421,-263.3566
151.3494,-263.0074
151.5681,-262.6661
151.813,-262.3422
152.0386,-262.0059
152.2305,-261.648
152.4342,-261.2971
152.6497,-260.9529
152.879,-260.6183
153.1257,-260.2958
153.3656,-259.9685
153.5975,-259.635
153.8187,-259.2949
154.0307,-258.9486
154.2206,-258.5911
154.3641,-258.2115
154.5301,-257.8436
154.7598,-257.5088
154.9862,-257.1718
155.1944,-256.8233
155.4006,-256.4735
155.5922,-256.1157
155.7839,-255.7576
155.982,-255.4033
156.1788,-255.0481
156.3858,-254.6987
156.5856,-254.3456
156.7593,-253.9784
156.9374,-253.6139
157.1282,-253.2553
157.3259,-252.9009
157.546,-252.5598
157.7627,-252.2165
157.9566,-251.8599
158.1417,-251.4987
158.3057,-251.1275
158.468,-250.7552
158.6533,-250.3939
158.8341,-250.0304
159.006,-249.6625
159.1794,-249.2955
159.3578,-248.9307
159.5362,-248.566
159.6983,-248.1938
159.8621,-247.8222
160.033,-247.4539
160.2042,-247.0858
160.3941,-246.7268
160.5818,-246.3669
160.7493,-245.997
160.919,-245.6281
161.1023,-245.2659
161.2835,-244.9026
161.4351,-244.526
161.5871,-244.1495
161.7645,-243.7842
161.9398,-243.4182
162.1305,-243.0594
162.3134,-242.6975
162.4442,-242.3131
162.5761,-241.9292
162.7261,-241.5519
162.8814,-241.1768
163.0608,-240.8128
163.2394,-240.448
163.4049,-240.0773
163.5659,-239.7046
163.7138,-239.3265
163.857,-238.9466
164.0014,-238.567
164.1413,-238.1859
164.2716,-237.8013
164.4106,-237.4202
164.5789,-237.0509
164.7461,-236.6808
164.8994,-236.3049
165.0463,-235.9266
165.1702,-235.5399
165.3088,-235.1593
165.4906,-234.7961
165.6452,-234.4229
165.7469,-234.0297
165.8658,-233.6425
166.0234,-233.2684
166.1861,-232.8962
166.3515,-232.5256
166.5007,-232.1488
166.6157,-231.7594
166.7406,-231.3734
166.887,-230.9946
167.0299,-230.6146
167.1719,-230.2342
167.3063,-229.8511
167.4288,-229.4641
167.5487,-229.0761
167.6659,-228.6874
167.7847,-228.2991
167.9072,-227.912
168.038,-227.5278
168.181,-227.1477
168.3212,-226.7668
168.4554,-226.3835
168.5942,-226.0019
168.7362,-225.6216
168.8831,-225.243
169.0342,-224.8662
169.1656,-224.4828
169.2692,-224.0903
169.3796,-223.6998
169.5077,-223.3144
169.6213,-222.9249
169.7158,-222.5301
169.8209,-222.1381
169.9431,-221.751
170.0586,-221.3618
170.1613,-220.969
170.2656,-220.5766
170.3717,-220.1846
170.4781,-219.7928
170.5875,-219.4017
170.6949,-219.0102
170.7996,-218.6179
170.9087,-218.2269
171.0274,-217.8386
171.1424,-217.4492
171.2448,-217.0564
171.3449,-216.6629
171.4406,-216.2683
171.5454,-215.8764
171.6764,-215.4919
171.7916,-215.1034
171.8705,-214.7051
171.9515,-214.3073
172.0432,-213.9118
172.1381,-213.5169
172.2407,-213.1242
172.3399,-212.7305
172.4311,-212.3348
172.5137,-211.9375
172.5819,-211.5372
172.654,-211.1377
172.7383,-210.7405
172.8223,-210.3432
172.9087,-209.9465
172.9893,-209.5486
173.0577,-209.1484
173.1275,-208.7484
173.1973,-208.3484
173.2685,-207.9487
173.3432,-207.5496
173.4024,-207.1482
173.4452,-206.7445
173.4958,-206.3417
173.5601,-205.9409
173.6175,-205.539
173.6649,-205.1357
173.7079,-204.732
173.7432,-204.3275
173.7914,-203.9246
173.856,-203.5237
173.9185,-203.1226
173.9813,-202.7214
174.0228,-202.3181
174.0402,-201.9125
174.0833,-201.5096
174.1547,-201.11
174.2171,-200.7089
174.2654,-200.3058
174.3082,-199.9021
174.3462,-199.4978
174.3998,-199.0957
174.4722,-198.6961
174.5181,-198.2936
174.5352,-197.888
174.5599,-197.4828
174.5939,-197.0782
174.6317,-196.6739
174.6708,-196.2698
174.7176,-195.8666
174.7757,-195.4647
174.8322,-195.0626
174.8862,-194.6602
174.9174,-194.2561
174.9206,-193.8501
174.9312,-193.4443
174.9492,-193.0387
174.961,-192.6329
174.9639,-192.2268
174.9777,-191.8216
175.0213,-191.4175
175.0272,-191.0146
174.9626,-190.6143
174.897,-190.2133
174.8504,-189.8101
174.8134,-189.4063
174.811,-189.0003
174.8073,-188.5947
174.7558,-188.1915
174.7351,-187.7884
174.7925,-187.3868
174.8415,-186.9842
174.8545,-186.5783
174.8575,-186.1725
174.8464,-185.7667
174.8239,-185.3615
174.776,-184.9583
174.7428,-184.5547
174.774,-184.1502
174.8048,-183.7452
174.8089,-183.3393
174.8099,-182.9334
174.7907,-182.5279
174.7683,-182.1224
174.7519,-181.7167
174.7397,-181.3112
174.7544,-180.9053
174.7382,-180.5022
174.6541,-180.1046
174.5937,-179.7047
174.5865,-179.2988
174.5784,-178.8928
174.5637,-178.4871
174.5383,-178.082
174.4896,-177.6792
174.43,-177.2773
174.3664,-176.8764
174.3007,-176.4759
174.2316,-176.0753
174.1752,-175.674
174.1368,-175.2695
174.1119,-174.8645
174.1392,-174.4598
174.1636,-174.055
174.0999,-173.6544
174.0288,-173.2541
173.987,-172.8504
173.9347,-172.4476
173.9098,-172.0423
173.8837,-171.6371
173.7947,-171.2412
173.7039,-170.846
173.6676,-170.4424
173.647,-170.0367
173.6118,-169.6324
173.5732,-169.2281
173.5253,-168.8251
173.4651,-168.4234
173.3916,-168.0245
173.3046,-167.6279
173.245,-167.227
173.212,-166.8223
173.1644,-166.4192
173.1076,-166.0172
173.0618,-165.6141
173.0317,-165.2091
172.9807,-164.807
172.9037,-164.4082
172.8713,-164.0053
172.8724,-163.5994
172.8528,-163.1943
172.8154,-162.79
172.7418,-162.392
172.6385,-161.9995
172.5598,-161.6021
172.5102,-161.1992
172.4615,-160.796
172.4095,-160.3934
172.3772,-159.989
172.3638,-159.5832
172.3167,-159.1819
172.2236,-158.7869
172.1322,-158.3912
172.0559,-157.9925
171.988,-157.5924
171.9364,-157.1897
171.9129,-156.785
171.911,-156.3794
171.8542,-155.9828
171.7204,-155.5994
171.5966,-155.2128
171.4902,-154.8211
171.376,-154.4312
171.2678,-154.0401
171.1598,-153.6487
171.0701,-153.2527
170.9465,-152.8702
170.7396,-152.5189
170.5772,-152.154
170.517,-151.7533
170.4582,-151.3513
170.3603,-150.9575
170.2812,-150.5598
170.2576,-150.1544
170.2114,-149.7531
170.0852,-149.3681
169.9629,-148.9813
169.8917,-148.5812
169.8013,-148.1863
169.6723,-147.801
169.5378,-147.4186
169.3762,-147.0454
169.2412,-146.6658
169.1946,-146.2626
169.1483,-145.8591
169.0873,-145.4579
169.0119,-145.06
168.8548,-144.6863
168.7009,-144.3105
168.5923,-143.9193
168.4802,-143.5292
168.3814,-143.1349
168.2785,-142.7428
168.1963,-142.3444
168.1022,-141.9513
167.8935,-141.6036
167.682,-141.2566
167.5532,-140.8719
167.4189,-140.4883
167.2532,-140.1182
167.0949,-139.7442
166.979,-139.3555
166.8663,-138.9652
166.7097,-138.5905
166.5526,-138.2163
166.4139,-137.8344
166.2713,-137.4545
166.0964,-137.0889
165.9051,-136.7303
165.7598,-136.3521
165.6254,-135.969
165.4543,-135.6017
165.2698,-135.2401
165.0716,-134.8855
164.8726,-134.532
164.6947,-134.1673
164.5319,-133.7955
164.3748,-133.4211
164.2218,-133.0449
164.0934,-132.6604
163.9798,-132.2705
163.8465,-131.8874
163.7008,-131.5083
163.5555,-131.1292
163.4072,-130.7513
163.2453,-130.3791
163.07,-130.0129
162.9107,-129.6398
162.7656,-129.2606
162.6007,-128.8901
162.4194,-128.5267
162.2526,-128.1569
162.1001,-127.7806
161.9283,-127.4131
161.742,-127.0525
161.5928,-126.6765
161.4761,-126.2878
161.3259,-125.9125
161.1376,-125.5529
160.9695,-125.1839
160.8215,-124.8056
160.6306,-124.4497
160.4074,-124.1108
160.2352,-123.7466
160.101,-123.3631
159.9338,-122.9942
159.7466,-122.6338
159.5614,-122.2726
159.3734,-121.9126
159.1968,-121.547
159.0214,-121.1809
158.8385,-120.8184
158.6513,-120.4582
158.4448,-120.1087
158.2316,-119.7634
158.0262,-119.4131
157.8297,-119.0579
157.6713,-118.6854
157.5348,-118.3029
157.3554,-117.9408
157.1471,-117.5922
156.9676,-117.2289
156.8042,-116.8571
156.6221,-116.4946
156.4292,-116.1373
156.2403,-115.7779
156.0555,-115.4164
155.8803,-115.0502
155.7115,-114.6809
155.5284,-114.3186
155.3391,-113.9595
155.1529,-113.5986
154.968,-113.2372
154.8295,-112.8572
154.717,-112.4674
154.5486,-112.1016
154.3385,-111.754
154.1079,-111.4207
153.8606,-111.0986
153.6265,-110.7673
153.4059,-110.4264
153.2284,-110.064
153.0892,-109.6825
152.9146,-109.3179
152.7061,-108.9696
152.4954,-108.6225
152.2847,-108.2754
152.0581,-107.9395
151.8045,-107.6223
151.55,-107.306
151.295,-106.99
151.0549,-106.6638
150.8522,-106.3121
150.6389,-105.9669
150.4046,-105.6354
150.1698,-105.3041
149.9285,-104.9776
149.6912,-104.6482
149.4591,-104.3149
149.2314,-103.9789
149.0105,-103.6381
148.7874,-103.2991
148.552,-102.9681
148.3259,-102.632
148.1479,-102.2666
147.9514,-101.9141
147.6829,-101.6099
147.4075,-101.311
147.1353,-101.0103
146.8584,-100.7128
146.596,-100.4033
146.3217,-100.1039
146.0321,-99.8197
145.744,-99.5337
145.4656,-99.2378
145.1873,-98.9428
144.8968,-98.6584
144.6103,-98.3713
144.3107,-98.0967
144.018,-97.8159
143.7807,-97.4871
143.5459,-97.1551
143.2843,-96.8451
143.0234,-96.5336
142.7674,-96.2187
142.5113,-95.9037
142.2404,-95.601
141.9669,-95.3013
141.6925,-95.0017
141.4144,-94.706
141.1712,-94.3809
140.9288,-94.0551
140.6376,-93.7737
140.3402,-93.497
140.0684,-93.1959
139.8033,-92.8881
139.5296,-92.5881
139.2606,-92.2842
138.9942,-91.9774
138.7296,-91.67
138.5021,-91.3334
138.2765,-90.9967
138.0092,-90.6922
137.7254,-90.4017
137.4079,-90.1509
137.0793,-89.9118
136.7983,-89.6211
136.5315,-89.3147
136.2618,-89.0115
135.9968,-88.7036
135.7218,-88.405
135.4474,-88.1057
135.1685,-87.8105
134.8867,-87.5185
134.6056,-87.2252
134.3193,-86.9376
134.0824,-86.6092
133.8619,-86.2694
133.5584,-86.0091
133.2214,-85.7814
132.901,-85.5336
132.584,-85.2789
132.305,-84.9881
132.0562,-84.6671
131.7986,-84.3536
131.5313,-84.048
131.2587,-83.7469
130.9856,-83.4468
130.7002,-83.1583
130.3953,-82.8904
130.1027,-82.6104
129.8389,-82.3016
129.5651,-82.0032
129.2614,-81.7331
128.9702,-81.4511
128.6997,-81.1483
128.4256,-80.8486
128.1525,-80.5484
127.868,-80.2589
127.563,-79.9914
127.2564,-79.7253
126.9632,-79.4439
126.6728,-79.1608
126.356,-78.9056
126.0461,-78.6443
125.7772,-78.3404
125.5126,-78.0319
125.2424,-77.7294
124.9689,-77.4288
124.6815,-77.1426
124.3896,-76.8601
124.0967,-76.5788
123.8025,-76.2994
123.4996,-76.0283
123.2034,-75.7516
122.9349,-75.447
122.6691,-75.1399
122.4044,-74.8322
122.1368,-74.5267
121.8523,-74.2373
121.5617,-73.9536
121.2369,-73.7118
120.9025,-73.4814
120.6169,-73.1935
120.338,-72.8985
120.0454,-72.6171
119.7535,-72.3346
119.4473,-72.0685
119.137,-71.8061
118.819,-71.5545
118.4922,-71.3127
118.1753,-71.0589
117.8525,-70.8131
117.5165,-70.5846
117.1798,-70.3589
116.8521,-70.1182
116.5321,-69.8687
116.1947,-69.6422
115.8637,-69.4071
115.5814,-69.117
115.3032,-68.8206
114.9902,-68.5623
114.6726,-68.3096
114.3628,-68.0464
114.0485,-67.7901
113.7207,-67.5503
113.3897,-67.3151
113.0859,-67.0461
112.7841,-66.7742
112.4382,-66.5647
112.0833,-66.3666
111.7545,-66.1297
111.4314,-65.8842
111.1089,-65.6369
110.7857,-65.3918
110.4447,-65.1716
110.0996,-64.9578
109.7814,-64.7087
109.4812,-64.4344
109.1699,-64.1747
108.8523,-63.9215
108.539,-63.663
108.2268,-63.4042
107.9296,-63.1269
107.6423,-62.8412
107.3241,-62.5943
106.9725,-62.3912
106.6202,-62.1897
106.2699,-61.9838
105.9099,-61.797
105.5439,-61.6214
105.1766,-61.4479
104.8107,-61.2725
104.4499,-61.086
104.096,-60.8878
103.7541,-60.6692
103.4237,-60.4335
103.095,-60.1955
102.764,-59.9596
102.4362,-59.7209
102.1141,-59.4731
101.7851,-59.2356
101.4473,-59.0108
101.1158,-58.7758
100.791,-58.5331
100.4703,-58.2833
100.1491,-58.0352
99.8134,-57.8083
99.4672,-57.5951
99.1275,-57.3737
98.7887,-57.1494
98.4261,-56.9686
98.0564,-56.8018
97.7261,-56.5704
97.4153,-56.3102
97.0859,-56.073
96.747,-55.8494
96.4044,-55.6325
96.0552,-55.4237
95.6968,-55.2356
95.3301,-55.0601
94.9639,-54.8846
94.5988,-54.7083
94.2427,-54.5124
93.896,-54.3025
93.5506,-54.0882
93.2089,-53.869
92.8634,-53.6568
92.5127,-53.4504
92.1571,-53.2568
91.793,-53.0758
91.4271,-52.9001
91.0585,-52.731
90.7004,-52.5394
90.3572,-52.3242
89.9962,-52.1426
89.6121,-52.0111
89.2414,-51.8538
88.9066,-51.6233
88.5738,-51.3916
88.223,-51.1865
87.8733,-50.9798
87.5117,-50.7969
87.1491,-50.6116
86.8035,-50.4004
86.4534,-50.1938
86.1088,-49.9784
85.7583,-49.7762
85.388,-49.6067
85.0156,-49.4492
84.6262,-49.33
84.244,-49.1984
83.8977,-48.9885
83.5536,-48.7696
83.1995,-48.5745
82.8464,-48.3714
82.5074,-48.1487
82.1682,-47.9271
81.7961,-47.7614
81.4256,-47.5994
81.0892,-47.3695
80.7534,-47.1419
80.4028,-46.9386
80.0528,-46.7296
79.7006,-46.5314
79.3488,-46.3256
79.0074,-46.1069
78.668,-45.8855
78.3275,-45.661
77.9895,-45.4402
77.6744,-45.1819
77.3692,-44.9152
77.0107,-44.7276
76.6499,-44.5413
76.3571,-44.2675
76.0858,-43.9614
75.8354,-43.6452
75.6102,-43.3064
75.3813,-42.9696
75.1936,-42.6145
75.0781,-42.2242
74.9974,-41.8276
74.9282,-41.4272
74.9068,-41.0226
74.9168,-40.6179
74.8757,-40.2117
74.8354,-39.8105
74.8809,-39.4091
74.9571,-39.0104
74.9825,-38.6066
74.9975,-38.1992
75.1181,-37.8148
75.255,-37.431
75.221,-37.043
75.1133,-36.6573
75.1084,-36.2558
75.1787,-35.8578
75.2655,-35.4609
75.3701,-35.0678
75.4289,-34.6684
75.4763,-34.2614
75.6892,-33.9452
75.9733,-33.6621
76.1516,-33.2985
76.3213,-32.929
76.5129,-32.5711
76.6499,-32.1914
76.7473,-31.7987
76.8228,-31.3975
76.8948,-31.0019
77.0261,-30.6204
77.2351,-30.2749
77.4374,-29.9199
77.6629,-29.5856
77.9793,-29.3489
78.2812,-29.0823
78.5649,-28.7872
78.812,-28.4786
79.0001,-28.1101
79.3102,-27.8712
79.6534,-27.6517
79.9349,-27.3735
80.2503,-27.2925
80.4227,-27.1473
80.5085,-26.7618
80.7288,-26.4164
80.9648,-26.0914
81.1731,-25.7366
81.3379,-25.3771
81.4432,-24.98
81.631,-24.6255
81.8548,-24.2876
82.0124,-23.9106
82.1754,-23.5425
82.3845,-23.1919
82.5864,-22.8415
82.7435,-22.468
82.8762,-22.0822
82.9779,-21.6933
83.0699,-21.2946
83.189,-20.9077
83.2967,-20.5169
83.3995,-20.1218
83.482,-19.7288
83.5054,-19.3207
83.5284,-18.9167
83.5645,-18.5127
83.5627,-18.1075
83.4873,-17.7124
83.4181,-17.311
83.4688,-16.9091
83.5136,-16.5063
83.449,-16.1042
83.3759,-15.7062
83.3608,-15.2999
83.4215,-14.9003
83.4981,-14.5012
83.5481,-14.0966
83.624,-13.7
83.7003,-13.2991
83.7672,-12.9
83.8287,-12.4993
83.8627,-12.0917
83.9094,-11.6929
83.9424,-11.2836
84.0335,-10.8944
84.2822,-10.5678
84.4724,-10.2279
84.5075,-9.8247
84.4857,-9.419
84.3462,-9.0484
84.15,-8.6838
84.0061,-8.3079
83.8598,-7.9293
83.7433,-7.5383
83.6398,-7.1486
83.4249,-6.8125
83.1554,-6.51
82.9321,-6.1738
82.72,-5.8252
82.4755,-5.506
82.2045,-5.2015
81.9215,-4.9108
81.6276,-4.6333
81.3297,-4.3534
81.0384,-4.0739
80.7477,-3.7892
80.4631,-3.4983
80.1808,-3.2099
79.8942,-2.9181
79.6369,-2.6081
79.4,-2.2789
79.1385,-1.9675
78.8504,-1.6858
78.54,-1.4212
78.2118,-1.1854
77.8736,-0.96125
77.5249,-0.74974
77.1592,-0.58381
76.777,-0.43888
76.4121,-0.26432
76.0529,-0.079963
75.6637,0.0042061
75.2614,-0.0051011
74.8515,0.0019052
74.4474,-0.0012654
74.0433,-0.0051011
73.6301,0.0066207
73.2368,0.0066207
72.8135,0.011958
