82.0673,-322.7889
82.4483,-322.6673
82.8279,-322.5421
83.2094,-322.4209
83.5891,-322.2965
83.9697,-322.1733
84.3509,-322.0519
84.7297,-321.9251
85.1126,-321.8071
85.4904,-321.678
85.8498,-321.5041
86.2035,-321.3162
86.5603,-321.1367
86.9156,-320.9523
87.271,-320.7693
87.6272,-320.5876
87.9823,-320.4032
88.3382,-320.2215
88.6939,-320.0382
89.0493,-319.855
89.4052,-319.6729
89.7607,-319.4892
90.1163,-319.3068
90.4681,-319.1165
90.8149,-318.9174
91.1621,-318.7192
91.5093,-318.5202
91.856,-318.3214
92.2036,-318.1233
92.5501,-317.9238
92.8974,-317.7258
93.2447,-317.527
93.5911,-317.3277
93.9391,-317.1303
94.2848,-316.9292
94.6266,-316.7219
94.9673,-316.5121
95.3083,-316.3036
95.6497,-316.0952
95.9904,-315.8856
96.3316,-315.6774
96.6731,-315.4689
97.0149,-315.2617
97.3581,-315.0562
97.6997,-314.8481
98.0427,-314.6428
98.3847,-314.4351
98.7157,-314.2113
99.0424,-313.9807
99.3701,-313.7512
99.6959,-313.5198
100.0248,-313.2916
100.3495,-313.0587
100.6598,-312.8071
100.9599,-312.5424
101.2525,-312.2702
101.5407,-311.9928
101.8304,-311.7171
102.1199,-311.4414
102.4088,-311.1646
102.6985,-310.8892
102.9877,-310.6128
103.2769,-310.3365
103.5665,-310.061
103.8556,-309.7843
104.145,-309.5086
104.4344,-309.2326
104.7235,-308.9561
105.0131,-308.6805
105.3023,-308.404
105.5915,-308.128
105.8811,-307.8522
106.1701,-307.5756
106.4597,-307.3001
106.749,-307.0238
107.0381,-306.7475
107.3278,-306.4719
107.6167,-306.1952
107.9062,-305.9196
108.1957,-305.6435
108.4846,-305.367
108.7744,-305.0916
109.0634,-304.8149
109.3527,-304.5391
109.6424,-304.2633
109.9311,-303.9864
110.2211,-303.7112
110.51,-303.4346
110.7992,-303.1584
111.0892,-302.8831
111.3776,-302.6058
111.6677,-302.3309
111.9569,-302.0545
112.2454,-301.7774
112.5365,-301.5036
112.8234,-301.2244
113.1152,-300.9515
113.4297,-300.7068
113.7624,-300.4847
114.0964,-300.2649
114.4259,-300.0382
114.7623,-299.8217
115.1111,-299.6283
115.4701,-299.4509
115.8261,-299.2686
116.1399,-299.033
116.4056,-298.7353
116.6643,-298.4286
116.9304,-298.1316
117.1972,-297.8328
117.4687,-297.5394
117.7413,-297.2471
118.0097,-296.9498
118.291,-296.6671
118.5951,-296.4073
118.9028,-296.1517
119.2098,-295.8957
119.5143,-295.6363
119.7955,-295.353
120.0658,-295.0577
120.3424,-294.7691
120.6137,-294.4753
120.8895,-294.1855
121.1806,-293.9116
121.4727,-293.6383
121.7643,-293.3646
122.0562,-293.0915
122.3357,-292.8056
122.6047,-292.5099
122.8744,-292.2146
123.1425,-291.9177
123.4133,-291.6237
123.696,-291.3406
123.9819,-291.0611
124.2651,-290.7788
124.55,-290.498
124.8383,-290.2211
125.1312,-289.9487
125.4254,-289.6779
125.718,-289.4054
126.0123,-289.1344
126.3141,-288.8724
126.6205,-288.6151
126.9238,-288.3548
127.2315,-288.0989
127.5224,-287.8265
127.7707,-287.5138
128.0119,-287.1941
128.2596,-286.8806
128.5024,-286.5626
128.7624,-286.2593
129.0361,-285.9678
129.3101,-285.6766
129.5838,-285.3847
129.8589,-285.0949
130.1562,-284.8277
130.4618,-284.5693
130.7601,-284.3036
131.0665,-284.0456
131.3496,-283.766
131.5934,-283.4492
131.833,-283.1289
132.0747,-282.8104
132.3158,-282.4912
132.5653,-282.179
132.8211,-281.8714
133.0773,-281.5645
133.3325,-281.2565
133.5891,-280.9498
133.8451,-280.6426
134.1016,-280.3357
134.3582,-280.0291
134.6145,-279.7221
134.8896,-279.4325
135.1793,-279.1569
135.4663,-278.8785
135.7578,-278.6043
136.0322,-278.3151
136.2703,-277.9941
136.5031,-277.6688
136.7394,-277.3462
136.9746,-277.0228
137.2294,-276.7152
137.4972,-276.4179
137.7612,-276.1178
138.0286,-275.8202
138.2934,-275.5206
138.5507,-275.2146
138.8087,-274.9088
139.0653,-274.6023
139.3233,-274.2966
139.5693,-273.982
139.7902,-273.6486
140.0121,-273.316
140.2324,-272.9821
140.4547,-272.65
140.7284,-272.3634
141.0355,-272.1068
141.3381,-271.8459
141.6467,-271.5905
141.9208,-271.3056
142.1319,-270.9668
142.3345,-270.6212
142.544,-270.2812
142.7495,-269.9378
142.9823,-269.6137
143.2334,-269.302
143.4772,-268.9854
143.7298,-268.6748
143.9671,-268.3538
144.169,-268.0089
144.3688,-267.6624
144.5667,-267.3146
144.7771,-266.9757
145.0293,-266.6657
145.2892,-266.3613
145.5425,-266.0521
145.8004,-265.7463
146.0574,-265.4401
146.3187,-265.1371
146.5778,-264.8329
146.8405,-264.5308
147.0976,-264.2251
147.3038,-263.8848
147.4846,-263.5274
147.6745,-263.1761
147.8564,-262.8194
148.0443,-262.4666
148.2473,-262.1222
148.4527,-261.7789
148.6574,-261.4355
148.8627,-261.0922
149.0922,-260.7657
149.3409,-260.4523
149.5855,-260.1361
149.8351,-259.8235
150.0641,-259.4971
150.2531,-259.1451
150.4379,-258.7902
150.6258,-258.4372
150.8117,-258.0832
151.0081,-257.7349
151.2106,-257.3901
151.4134,-257.0454
151.616,-256.7005
151.8188,-256.356
152.0263,-256.0141
152.2353,-255.6731
152.4433,-255.3316
152.6527,-254.9907
152.8552,-254.6461
153.0456,-254.2945
153.2345,-253.9419
153.4242,-253.59
153.6142,-253.238
153.8154,-252.8925
154.0222,-252.5502
154.2254,-252.2058
154.4328,-251.8638
154.6359,-251.5193
154.8253,-251.1672
155.012,-250.8135
155.2005,-250.4608
155.3879,-250.1076
155.5659,-249.7495
155.7329,-249.3862
155.9015,-249.0236
156.068,-248.6599
156.2371,-248.2977
156.4276,-247.9461
156.6252,-247.5984
156.8197,-247.2491
157.0168,-246.901
157.1988,-246.5455
157.3615,-246.1801
157.5233,-245.8144
157.6855,-245.4489
157.8476,-245.0832
158.0142,-244.7198
158.1828,-244.3571
158.3512,-243.9944
158.5198,-243.6318
158.6912,-243.2704
158.8681,-242.9119
159.0448,-242.553
159.2218,-242.1945
159.3984,-241.8357
159.5582,-241.4694
159.7022,-241.0965
159.8463,-240.7233
159.9907,-240.3504
160.1342,-239.9772
160.2762,-239.6032
160.4158,-239.2286
160.557,-238.8544
160.6969,-238.4797
160.8417,-238.1071
160.9972,-237.7385
161.1525,-237.3701
161.308,-237.0016
161.4636,-236.6332
161.6121,-236.262
161.756,-235.8888
161.8979,-235.515
162.0422,-235.142
162.1814,-234.7671
162.3042,-234.3867
162.4257,-234.0055
162.5478,-233.6248
162.6698,-233.244
162.8108,-232.8701
162.9658,-232.5015
163.121,-232.1328
163.2757,-231.7642
163.4311,-231.3957
163.593,-231.0299
163.7577,-230.6657
163.921,-230.3005
164.0863,-229.9364
164.2443,-229.5692
164.3881,-229.1959
164.5277,-228.8213
164.6716,-228.448
164.8118,-228.0736
164.9416,-227.6955
165.067,-227.3155
165.1895,-226.9352
165.3179,-226.556
165.4374,-226.1748
165.5117,-225.7823
165.5749,-225.3867
165.6492,-224.9945
165.7132,-224.5989
165.8268,-224.2205
166.0141,-223.8678
166.2059,-223.5164
166.3957,-223.1647
166.585,-222.8123
166.7406,-222.4447
166.8795,-222.0696
167.0243,-221.6968
167.1631,-221.3218
167.2793,-220.9399
167.3752,-220.5516
167.4714,-220.1634
167.5697,-219.7759
167.6642,-219.3872
167.7576,-218.9984
167.847,-218.6086
167.9382,-218.2192
168.0297,-217.83
168.1103,-217.4382
168.1851,-217.0455
168.2578,-216.6522
168.3306,-216.2589
168.4145,-215.8683
168.5169,-215.4817
168.6274,-215.0974
168.7289,-214.7105
168.8391,-214.3261
168.9744,-213.9499
169.1136,-213.575
169.2514,-213.1995
169.389,-212.8241
169.5081,-212.4428
169.6107,-212.0562
169.7126,-211.6695
169.8161,-211.2832
169.9177,-210.8964
170.019,-210.5096
170.12,-210.1226
170.2185,-209.7351
170.3215,-209.3485
170.4137,-208.9597
170.4764,-208.565
170.5332,-208.1689
170.5945,-207.7738
170.6529,-207.3782
170.7188,-206.9838
170.7917,-206.5906
170.8656,-206.1976
170.9377,-205.8042
171.0126,-205.4114
171.1043,-205.0222
171.2005,-204.634
171.2935,-204.2451
171.3887,-203.8566
171.4636,-203.4643
171.5173,-203.068
171.5717,-202.6719
171.6254,-202.2756
171.6795,-201.8793
171.7367,-201.4835
171.7931,-201.0876
171.8505,-200.6918
171.9071,-200.296
171.9655,-199.9003
172.0264,-199.5051
172.0863,-199.1097
172.1476,-198.7145
172.2074,-198.3191
172.2612,-197.9228
172.3133,-197.5263
172.3657,-197.1299
172.4181,-196.7334
172.4662,-196.3364
172.5087,-195.9388
172.5512,-195.5411
172.5938,-195.1435
172.6361,-194.7458
172.6796,-194.3483
172.7215,-193.9506
172.7659,-193.5531
172.8069,-193.1554
172.8258,-192.7561
172.8346,-192.3563
172.8472,-191.9566
172.8566,-191.5568
172.8767,-191.1576
172.9142,-190.7594
172.9522,-190.3613
172.9903,-189.9632
173.0279,-189.5651
173.0603,-189.1665
173.0906,-188.7677
173.1208,-188.369
173.1513,-187.9702
173.1715,-187.571
173.1782,-187.1712
173.1853,-186.7713
173.1914,-186.3714
173.199,-185.9716
173.217,-185.5721
173.2375,-185.1727
173.2559,-184.7732
173.2761,-184.3739
173.3065,-183.9752
173.3461,-183.5773
173.384,-183.1792
173.4243,-182.7812
173.4606,-182.3831
173.4788,-181.9836
173.4921,-181.5839
173.5104,-181.1844
173.5243,-180.7847
173.5239,-180.3851
173.5101,-179.9854
173.4961,-179.5857
173.4837,-179.1861
173.4674,-178.7864
173.4476,-178.387
173.4262,-177.9877
173.4052,-177.5883
173.3852,-177.189
173.3803,-176.7894
173.393,-176.3896
173.4018,-175.9899
173.4147,-175.59
173.4233,-175.1904
173.3916,-174.7924
173.3439,-174.3952
173.3013,-173.9978
173.2537,-173.6005
173.2354,-173.2023
173.2539,-172.8029
173.2733,-172.4034
173.2945,-172.0041
173.3112,-171.6045
173.3012,-171.2049
173.2835,-170.8053
173.2731,-170.4055
173.2574,-170.0059
173.2396,-169.6064
173.2196,-169.207
173.1932,-168.8081
173.1765,-168.4082
173.1481,-168.0096
173.0745,-167.617
172.9884,-167.2262
172.9102,-166.8341
172.8271,-166.4429
172.7593,-166.0491
172.7105,-165.6522
172.661,-165.2554
172.6121,-164.8584
172.5636,-164.4615
172.5166,-164.0644
172.4715,-163.667
172.4245,-163.2699
172.3785,-162.8726
172.3224,-162.4767
172.2572,-162.0822
172.1957,-161.687
172.1295,-161.2926
172.0688,-160.8974
172.0272,-160.4997
171.9887,-160.1016
171.9483,-159.7037
171.9089,-159.3058
171.8671,-158.9081
171.824,-158.5104
171.7792,-158.1131
171.7371,-157.7153
171.6915,-157.3181
171.6281,-156.9234
171.557,-156.5298
171.4889,-156.1358
171.4188,-155.742
171.3435,-155.3493
171.2635,-154.9575
171.1824,-154.5659
171.1028,-154.174
171.0215,-153.7824
170.937,-153.3916
170.8514,-153.0009
170.7665,-152.6101
170.6813,-152.2194
170.5982,-151.8282
170.5181,-151.4364
170.4363,-151.045
170.3572,-150.6529
170.2743,-150.2618
170.1717,-149.8753
170.0636,-149.4902
169.9601,-149.104
169.8529,-148.7186
169.7562,-148.3308
169.6736,-147.9395
169.59,-147.5484
169.5086,-147.1569
169.4241,-146.766
169.3282,-146.3778
169.2301,-145.9901
169.1334,-145.602
169.0362,-145.2142
168.9248,-144.8304
168.7933,-144.4528
168.6616,-144.0752
168.5297,-143.6976
168.3986,-143.3199
168.2868,-142.9361
168.1824,-142.55
168.0757,-142.1646
167.9715,-141.7785
167.8577,-141.3953
167.7325,-141.0155
167.6058,-140.6361
167.4801,-140.2565
167.3539,-139.877
167.2241,-139.4988
167.0935,-139.1208
166.9626,-138.7429
166.8317,-138.365
166.7059,-137.9854
166.5848,-137.6043
166.4656,-137.2226
166.3437,-136.8417
166.2257,-136.4597
166.1229,-136.0732
166.0224,-135.6861
165.9206,-135.2994
165.8189,-134.9126
165.693,-134.5338
165.5468,-134.1615
165.4023,-133.7886
165.2567,-133.4161
165.1132,-133.0428
164.973,-132.6683
164.8299,-132.2949
164.6906,-131.92
164.5421,-131.5489
164.3721,-131.187
164.2003,-130.8259
164.0283,-130.4647
163.8584,-130.1028
163.7148,-129.7302
163.586,-129.3514
163.4535,-128.9742
163.3237,-128.5958
163.1901,-128.219
163.0505,-127.8443
162.911,-127.4694
162.7717,-127.0946
162.6312,-126.7201
162.4785,-126.3506
162.3187,-125.9841
162.1626,-125.6158
162.0034,-125.249
161.8536,-124.8783
161.7152,-124.503
161.573,-124.1294
161.4369,-123.7531
161.2935,-123.3801
161.1193,-123.0205
160.9347,-122.6655
160.7542,-122.3088
160.5719,-121.9528
160.3877,-121.5979
160.2012,-121.2441
160.0132,-120.8911
159.8264,-120.5376
159.639,-120.1842
159.444,-119.8352
159.2417,-119.4903
159.0403,-119.1448
158.8368,-118.8005
158.6366,-118.4543
158.4535,-118.099
158.2766,-117.7402
158.0964,-117.3832
157.9181,-117.0253
157.7363,-116.6691
157.5514,-116.3145
157.3686,-115.9588
157.1838,-115.6041
157.0012,-115.2484
156.8219,-114.8909
156.6415,-114.534
156.4628,-114.1762
156.2826,-113.8192
156.1007,-113.4631
155.9173,-113.1077
155.7314,-112.7537
155.5494,-112.3975
155.3535,-112.0494
155.131,-111.7173
154.9045,-111.3876
154.681,-111.056
154.4555,-110.7257
154.2246,-110.3993
153.9859,-110.0784
153.7483,-109.7569
153.5093,-109.4361
153.2834,-109.1069
153.0848,-108.7598
152.8871,-108.4121
152.6895,-108.0645
152.4906,-107.7175
152.264,-107.3885
152.0279,-107.0656
151.7954,-106.7403
151.5594,-106.4174
151.3288,-106.0907
151.1011,-105.762
150.874,-105.4328
150.6473,-105.1034
150.4196,-104.7746
150.1984,-104.4413
149.9778,-104.1079
149.7568,-103.7746
149.5373,-103.4402
149.3075,-103.1133
149.0658,-102.7947
148.8199,-102.4793
148.578,-102.1608
148.333,-101.8448
148.075,-101.5394
147.8135,-101.2368
147.5507,-100.9354
147.2904,-100.6317
147.0271,-100.3309
146.7432,-100.0491
146.4574,-99.7697
146.171,-99.4901
145.8879,-99.2084
145.6592,-98.8839
145.4618,-98.5349
145.2527,-98.1953
145.0571,-97.8449
144.8391,-97.5124
144.556,-97.2315
144.2604,-96.9604
143.9749,-96.6815
143.6823,-96.4082
143.4051,-96.1209
143.1475,-95.8151
142.8894,-95.5094
142.6329,-95.2028
142.3733,-94.8985
142.1034,-94.6035
141.833,-94.3089
141.5624,-94.0143
141.2926,-93.7194
141.0306,-93.4171
140.7716,-93.1124
140.5123,-92.808
140.2531,-92.5034
139.9889,-92.2034
139.719,-91.9082
139.4483,-91.6139
139.179,-91.3183
138.9078,-91.0242
138.6324,-90.7345
138.355,-90.4463
138.079,-90.1569
137.8021,-89.8685
137.5177,-89.5872
137.2289,-89.3108
136.9409,-89.0332
136.6517,-88.757
136.3651,-88.4783
136.0856,-88.192
135.808,-87.9044
135.529,-87.6177
135.2507,-87.3305
134.9737,-87.0422
134.6971,-86.7532
134.4205,-86.4646
134.1443,-86.1753
133.8658,-85.8882
133.5827,-85.606
133.2984,-85.3245
133.0148,-85.0427
132.7319,-84.76
132.4524,-84.4739
132.1743,-84.1868
131.8947,-83.9006
131.6161,-83.6138
131.3343,-83.3302
131.048,-83.0507
130.7631,-82.7703
130.4768,-82.4909
130.193,-82.2093
129.9141,-81.9227
129.6336,-81.6375
129.3557,-81.3502
129.0748,-81.0653
128.7823,-80.7928
128.487,-80.5233
128.1924,-80.2524
127.8979,-79.9823
127.6003,-79.7149
127.2972,-79.4541
126.9944,-79.1931
126.6908,-78.9324
126.3882,-78.6713
126.0904,-78.4043
125.7932,-78.1365
125.4976,-77.8676
125.1993,-77.6007
124.9042,-77.3312
124.6258,-77.0443
124.3507,-76.7537
124.0749,-76.4645
123.7984,-76.1753
123.504,-75.9055
123.1996,-75.646
122.8974,-75.3839
122.5936,-75.1242
122.2917,-74.8615
121.9919,-74.5971
121.6917,-74.3329
121.3919,-74.068
121.092,-73.8039
120.796,-73.5346
120.502,-73.2637
120.207,-72.9937
119.9129,-72.7224
119.6147,-72.4565
119.3111,-72.1958
119.0075,-71.9357
118.704,-71.6755
118.4001,-71.4151
118.0955,-71.1564
117.7901,-70.8978
117.4855,-70.6389
117.1804,-70.3805
116.8734,-70.1238
116.5643,-69.8706
116.2544,-69.6175
115.9454,-69.3636
115.6356,-69.1111
115.3221,-68.8622
115.0074,-68.616
114.693,-68.3686
114.3784,-68.1216
114.0627,-67.8767
113.743,-67.6356
113.4237,-67.3956
113.1036,-67.1554
112.785,-66.9137
112.4898,-66.6458
112.2097,-66.3592
111.9237,-66.081
111.6451,-65.7928
111.352,-65.5228
111.0152,-65.3093
110.6702,-65.1048
110.3318,-64.893
109.9891,-64.6864
109.6571,-64.4636
109.3339,-64.229
109.0093,-63.9945
108.6864,-63.759
108.3619,-63.5253
108.0368,-63.2919
107.7119,-63.0595
107.3863,-62.8266
107.0616,-62.5935
106.7374,-62.3597
106.4149,-62.1224
106.0913,-61.8885
105.7697,-61.6498
105.4448,-61.4171
105.099,-61.2174
104.747,-61.026
104.4003,-60.8282
104.0493,-60.6354
103.7096,-60.4253
103.3821,-60.1964
103.0524,-59.9691
102.7262,-59.7385
102.3964,-59.5121
102.0557,-59.3026
101.7132,-59.097
101.3706,-58.8895
101.0289,-58.6827
100.6904,-58.4696
100.3553,-58.2508
100.0215,-58.0316
99.6855,-57.8136
99.3526,-57.5929
99.0247,-57.3638
98.6968,-57.1343
98.3712,-56.903
98.041,-56.6766
97.6924,-56.4821
97.3377,-56.2966
96.9882,-56.1018
96.6352,-55.915
96.2951,-55.7052
95.9754,-55.4654
95.6546,-55.2272
95.3354,-54.9849
95.0147,-54.7476
94.6813,-54.5257
94.3469,-54.3065
94.0131,-54.0872
93.6787,-53.8661
93.332,-53.6716
92.9646,-53.5122
92.5984,-53.3518
92.2307,-53.1955
91.865,-53.0321
91.5228,-52.8275
91.1842,-52.6131
90.8418,-52.4067
90.5032,-52.1949
90.1592,-51.9892
89.8139,-51.7892
89.4684,-51.587
89.1215,-51.3876
88.7771,-51.1859
88.435,-50.9768
88.0965,-50.7656
87.7567,-50.5541
87.4169,-50.3424
87.0715,-50.1438
86.7119,-49.9663
86.3525,-49.7926
85.9942,-49.615
85.6338,-49.4398
85.2771,-49.2618
84.9186,-49.0818
84.5601,-48.9061
84.204,-48.7247
83.8563,-48.5255
83.5158,-48.3182
83.1705,-48.1143
82.828,-47.9088
82.4808,-47.7116
82.1215,-47.5331
81.7654,-47.3546
81.4068,-47.175
81.0486,-46.9977
80.7088,-46.791
80.3855,-46.5535
80.0664,-46.3151
79.7451,-46.0749
79.4222,-45.8395
79.0808,-45.6342
78.7278,-45.4415
78.3844,-45.2409
78.0336,-45.0462
77.69,-44.8415
77.3616,-44.6161
77.0264,-44.3936
76.6989,-44.1679
76.367,-43.9433
76.0284,-43.7282
75.6976,-43.5097
75.3469,-43.3066
75.0339,-43.071
74.8179,-42.7385
74.6018,-42.4008
74.3158,-42.1233
74.0387,-41.8325
73.8406,-41.4885
73.6535,-41.1367
73.4202,-40.8088
73.247,-40.4585
73.2184,-40.0647
73.2601,-39.6685
73.2962,-39.2708
73.3321,-38.8704
73.3665,-38.4747
73.3941,-38.0734
73.4315,-37.6762
73.4546,-37.2778
73.448,-36.8761
73.4389,-36.4789
73.4276,-36.0768
73.4216,-35.6781
73.4469,-35.2807
73.4978,-34.882
73.5498,-34.488
73.5965,-34.0888
73.6512,-33.6933
73.7099,-33.2988
73.7723,-32.9014
73.8357,-32.5093
73.8938,-32.1115
73.9835,-31.7232
74.1013,-31.3428
74.2208,-30.9582
74.3447,-30.581
74.4536,-30.1944
74.5519,-29.807
74.6377,-29.4187
74.731,-29.025
74.8247,-28.6423
74.8302,-28.2383
74.9127,-27.886
75.2179,-27.639
75.5439,-27.3913
75.8583,-27.1631
76.2242,-26.9817
76.585,-26.8234
76.976,-26.749
77.3765,-26.7082
77.7685,-26.6549
78.1716,-26.6071
78.5553,-26.5311
78.9499,-26.423
79.2685,-26.2035
79.4679,-25.8622
79.7007,-25.542
79.9685,-25.2428
80.2145,-24.9271
80.4139,-24.5905
80.5432,-24.2098
80.6744,-23.8321
80.8084,-23.4572
80.9379,-23.0759
81.1089,-22.7172
81.2841,-22.3561
81.455,-21.9948
81.633,-21.6378
81.8011,-21.2728
81.9653,-20.9104
82.1298,-20.5444
82.2883,-20.1775
82.4054,-19.7984
82.4896,-19.4046
82.5851,-19.0186
82.674,-18.6275
82.7339,-18.2332
82.7575,-17.8366
82.7689,-17.4333
82.7942,-17.0372
82.8076,-16.636
82.8134,-16.2355
82.8174,-15.8383
82.8151,-15.4347
82.8232,-15.0381
82.8654,-14.642
82.9615,-14.2524
83.0387,-13.8637
83.0651,-13.4613
83.0929,-13.0651
83.1227,-12.6655
83.1983,-12.2718
83.2909,-11.8854
83.3477,-11.4849
83.4298,-11.0983
83.4744,-10.6957
83.5525,-10.3069
83.8117,-10.0129
83.9897,-9.6978
83.9387,-9.3013
83.8687,-8.9057
83.8377,-8.5087
83.7635,-8.1152
83.6291,-7.7427
83.486,-7.3662
83.335,-6.9987
83.1248,-6.6585
82.903,-6.3249
82.7079,-5.9766
82.5116,-5.6266
82.3087,-5.2845
82.0792,-4.9555
81.8288,-4.6456
81.5855,-4.3267
81.3462,-4.0061
81.1596,-3.6635
81.0415,-3.2667
80.8321,-2.9702
80.4741,-2.819
80.1355,-2.6101
79.8426,-2.3344
79.5256,-2.0908
79.2294,-1.8238
78.9396,-1.5443
78.6402,-1.284
78.357,-0.997
78.0358,-0.77234
77.6562,-0.67303
77.2562,-0.59739
76.8738,-0.49673
76.5188,-0.32094
76.1671,-0.10848
75.8118,-0.063117
