80.997,-54.0377
80.2911,-53.6972
79.6108,-53.313
78.9662,-52.8773
78.3695,-52.386
77.8336,-51.8383
77.3726,-51.2354
76.9949,-50.584
76.703,-49.8953
76.5047,-49.1801
76.4167,-48.4482
76.4446,-47.7052
76.5701,-46.9544
76.7579,-46.1994
76.9742,-45.4414
77.198,-44.6812
77.4246,-43.9212
77.6607,-43.1644
77.9146,-42.4138
78.1919,-41.6719
78.4935,-40.9395
78.8146,-40.2148
79.1454,-39.494
79.4754,-38.7725
79.8011,-38.0498
80.1214,-37.3251
80.445,-36.6028
80.7877,-35.8903
81.1576,-35.192
81.5559,-34.5087
81.9764,-33.8376
82.4103,-33.1743
82.8516,-32.5165
83.3017,-31.8661
83.7673,-31.2284
84.2527,-30.6058
84.752,-29.9936
85.2519,-29.3819
85.7374,-28.7606
86.1853,-28.1184
86.5743,-27.4488
86.8864,-26.7503
87.1007,-26.0249
87.21,-25.2769
87.2239,-24.5125
87.1608,-23.7398
87.0367,-22.9674
86.8604,-22.2015
86.6407,-21.4446
86.3931,-20.6952
86.1384,-19.9489
85.8992,-19.2026
85.6975,-18.4546
85.5571,-17.7034
85.5052,-16.9482
85.5539,-16.1897
85.6901,-15.4304
85.8869,-14.6727
86.1162,-13.9164
86.356,-13.1603
86.5939,-12.4034
86.8239,-11.6443
87.0389,-10.8817
87.2312,-10.1145
87.3903,-9.3427
87.5053,-8.5681
87.5573,-7.7921
87.5323,-7.018
87.4294,-6.2502
87.2524,-5.4939
87.0089,-4.7531
86.7091,-4.0291
86.366,-3.3203
85.9907,-2.6253
85.5852,-1.9488
85.1417,-1.303
84.6477,-0.70653
84.0913,-0.18007
83.4686,0.26319
82.7899,0.62436
