86.04,-55.1122
85.2766,-54.777
84.5153,-54.4384
83.753,-54.0996
82.9903,-53.7597
82.2305,-53.4112
81.4772,-53.0461
80.732,-52.6619
79.9953,-52.2594
79.2722,-51.8397
78.5648,-51.3995
77.8759,-50.9339
77.2097,-50.437
76.5777,-49.9026
75.9992,-49.3232
75.5012,-48.692
75.1099,-48.0093
74.8416,-47.284
74.7047,-46.5285
74.6918,-45.7513
74.7831,-44.9592
74.9472,-44.1587
75.1585,-43.3579
75.4088,-42.5658
75.7053,-41.7923
76.0574,-41.044
76.4637,-40.3216
76.9143,-39.6212
77.3919,-38.9355
77.8846,-38.2591
78.3834,-37.5875
78.8862,-36.9194
79.3873,-36.2508
79.8776,-35.575
80.3501,-34.8869
80.802,-34.1852
81.2351,-33.4711
81.6468,-32.7444
82.0414,-32.009
82.4269,-31.2707
82.8119,-30.5385
83.1905,-29.8157
83.5322,-29.0915
83.7995,-28.347
83.973,-27.5708
84.0592,-26.7682
84.067,-25.9537
84.0027,-25.1401
83.8798,-24.3303
83.7282,-23.5235
83.5778,-22.7196
83.4632,-21.9265
83.4323,-21.1549
83.5331,-20.4137
83.7755,-19.7034
84.1164,-19.0101
84.5047,-18.3183
84.9166,-17.6235
85.3591,-16.9356
85.8369,-16.262
86.3423,-15.6026
86.8562,-14.9521
87.3492,-14.299
87.7851,-13.6294
88.1303,-12.9315
88.3686,-12.1994
88.5027,-11.4334
88.5445,-10.6406
88.5041,-9.8324
88.3906,-9.0193
88.2156,-8.2114
87.9828,-7.4169
87.6921,-6.6428
87.3477,-5.8967
86.9501,-5.1926
86.4865,-4.5556
85.9367,-4.0125
85.298,-3.5641
84.5954,-3.1758
83.8616,-2.8067
