84.7863,-54.8479
84.034,-54.5044
83.2828,-54.1602
82.5406,-53.801
81.8148,-53.413
81.1069,-52.9924
80.4118,-52.5475
79.7206,-52.093
79.0297,-51.637
78.3435,-51.1768
77.6754,-50.7005
77.0436,-50.1887
76.4648,-49.6247
75.9483,-49.0041
75.4972,-48.3344
75.1195,-47.6242
74.8288,-46.8781
74.6339,-46.1018
74.537,-45.3063
74.5405,-44.5046
74.6439,-43.7068
74.8347,-42.9181
75.0897,-42.1397
75.3875,-41.371
75.7163,-40.6131
76.0733,-39.8681
76.4587,-39.1376
76.8711,-38.4209
77.3031,-37.7149
77.7475,-37.016
78.1994,-36.3216
78.6572,-35.6311
79.123,-34.9461
79.5998,-34.2692
80.0903,-33.6023
80.5942,-32.9454
81.1092,-32.2968
81.6337,-31.6562
82.1706,-31.0266
82.725,-30.4144
83.3042,-29.8277
83.9118,-29.2707
84.5416,-28.7385
85.1766,-28.2164
85.7897,-27.6823
86.3458,-27.1105
86.8102,-26.4796
87.16,-25.7832
87.3887,-25.0309
87.5037,-24.2409
87.5246,-23.4307
87.4745,-22.6144
87.3693,-21.803
87.2105,-21.0058
86.9926,-20.2301
86.7191,-19.4761
86.4195,-18.7331
86.1512,-17.9841
85.9715,-17.2158
85.9077,-16.4269
85.9518,-15.6243
86.0739,-14.8166
86.2401,-14.0088
86.423,-13.2018
86.602,-12.3945
86.7599,-11.5856
86.8734,-10.7741
86.9203,-9.9621
86.8824,-9.1551
86.7493,-8.3611
86.5213,-7.5869
86.2124,-6.8338
85.8469,-6.0986
85.4454,-5.3786
85.0152,-4.6768
84.5489,-4.0055
84.0303,-3.3836
83.4477,-2.8267
82.8013,-2.342
82.1018,-1.9268
