82.5956,-53.7054
81.8788,-53.3253
81.1633,-52.9445
80.4576,-52.5484
79.771,-52.1229
79.1086,-51.661
78.4699,-51.1649
77.8517,-50.6417
77.2535,-50.0956
76.6819,-49.5243
76.1488,-48.9223
75.6739,-48.2837
75.2823,-47.6035
74.999,-46.8813
74.8376,-46.1238
74.7933,-45.3428
74.8461,-44.5506
74.972,-43.7578
75.1538,-42.9719
75.3839,-42.1978
75.6565,-41.4369
75.9628,-40.6875
76.291,-39.9459
76.6343,-39.2108
76.9959,-38.4857
77.3857,-37.7773
77.8121,-37.0917
78.2762,-36.4305
78.7702,-35.7888
79.2819,-35.1589
79.8014,-34.534
80.3243,-33.9115
80.8503,-33.2915
81.3804,-32.6748
81.9158,-32.0629
82.459,-31.4584
83.0099,-30.863
83.5667,-30.278
84.1232,-29.7023
84.6674,-29.1292
85.1905,-28.5523
85.6837,-27.964
86.1245,-27.35
86.4786,-26.6916
86.719,-25.9804
86.8454,-25.2256
86.879,-24.445
86.8405,-23.6546
86.7356,-22.8687
86.559,-22.096
86.3201,-21.3379
86.0553,-20.5903
85.8209,-19.8449
85.6739,-19.0931
85.6459,-18.3299
85.7287,-17.5559
85.8877,-16.7754
86.0867,-15.9924
86.3004,-15.2087
86.5102,-14.4242
86.7008,-13.6379
86.8528,-12.848
86.9423,-12.0547
86.9499,-11.2607
86.8689,-10.4718
86.7071,-9.6942
86.4875,-8.9295
86.2508,-8.1708
86.0373,-7.4088
85.8617,-6.6405
85.6969,-5.8756
85.49,-5.131
85.1965,-4.4219
84.8025,-3.7562
84.3197,-3.1384
83.7655,-2.5746
83.1518,-2.0689
82.4916,-1.6161
81.7991,-1.2034
81.0862,-0.8187
