96.718,-310.5814
97.0718,-310.4476
97.4224,-310.3052
97.7785,-310.1751
98.1292,-310.0337
98.4596,-309.8552
98.767,-309.6349
99.0725,-309.4101
99.3813,-309.1921
99.6869,-308.9681
100.0004,-308.756
100.3189,-308.5519
100.6358,-308.3443
100.9551,-308.1411
101.2723,-307.9346
101.5904,-307.729
101.9093,-307.5253
102.2257,-307.3174
102.5459,-307.1149
102.8512,-306.8935
103.1285,-306.6359
103.4018,-306.3738
103.6784,-306.1155
103.9526,-305.8541
104.2282,-305.595
104.5032,-305.3346
104.7782,-305.0744
105.0538,-304.815
105.3284,-304.5541
105.604,-304.2948
105.8789,-304.0344
106.1539,-303.7742
106.4295,-303.5149
106.7039,-303.2538
106.9799,-302.9947
107.2545,-302.7343
107.5295,-302.4738
107.8058,-302.2152
108.0787,-301.953
108.3569,-301.6956
108.6257,-301.4301
108.8639,-301.1359
109.0965,-300.8372
109.333,-300.5416
109.5676,-300.2443
109.833,-299.9781
110.1305,-299.7438
110.4276,-299.5093
110.7244,-299.2744
111.0226,-299.0407
111.3151,-298.8009
111.6083,-298.5611
111.8998,-298.3196
112.1804,-298.0661
112.4524,-297.8025
112.7233,-297.5382
112.9954,-297.275
113.2667,-297.0108
113.538,-296.747
113.8099,-296.4835
114.081,-296.2192
114.3527,-295.9558
114.6249,-295.6924
114.8968,-295.4292
115.1693,-295.1663
115.4413,-294.9029
115.7146,-294.6411
115.9897,-294.3809
116.2641,-294.1201
116.5394,-293.8603
116.8139,-293.5994
117.0811,-293.3316
117.3442,-293.0593
117.6082,-292.7878
117.871,-292.5155
118.1352,-292.2442
118.4065,-291.9803
118.6814,-291.7201
118.9553,-291.4587
119.2298,-291.1981
119.5034,-290.9363
119.7732,-290.6708
120.0427,-290.405
120.3129,-290.1397
120.5821,-289.8736
120.8526,-289.6087
121.1244,-289.3451
121.3961,-289.0817
121.6684,-288.8185
121.94,-288.5548
122.2114,-288.291
122.4828,-288.0269
122.7526,-287.7615
123.0252,-287.4986
123.2942,-287.2323
123.5461,-286.9502
123.79,-286.6604
124.0371,-286.3737
124.2817,-286.0848
124.5281,-285.7973
124.7837,-285.5182
125.0416,-285.241
125.2985,-284.9629
125.5563,-284.6858
125.8134,-284.4078
126.0689,-284.1285
126.3239,-283.8486
126.5792,-283.5691
126.834,-283.2892
127.0905,-283.0107
127.3517,-282.7367
127.6138,-282.4635
127.8751,-282.1895
128.137,-281.9162
128.3953,-281.6395
128.6492,-281.3586
128.9028,-281.0776
129.1568,-280.7968
129.4102,-280.5156
129.661,-280.232
129.9093,-279.9462
130.1577,-279.6606
130.4064,-279.3752
130.6545,-279.0892
130.8991,-278.8003
131.1416,-278.5095
131.385,-278.2196
131.6275,-277.9289
131.8758,-277.6433
132.1361,-277.3686
132.3979,-277.095
132.6581,-276.82
132.9199,-276.5466
133.1738,-276.2659
133.418,-275.9767
133.6616,-275.6869
133.9053,-275.3972
134.1493,-275.1078
134.3988,-274.823
134.6517,-274.5413
134.9035,-274.2587
135.1568,-273.9772
135.4081,-273.6942
135.6515,-273.4043
135.8929,-273.1126
136.136,-272.8224
136.378,-272.5313
136.62,-272.2401
136.8603,-271.9477
137.0995,-271.6542
137.3401,-271.3619
137.5795,-271.0686
137.8219,-270.7778
138.0699,-270.4918
138.3171,-270.2051
138.5655,-269.9194
138.8125,-269.6326
139.0487,-269.3368
139.2788,-269.0363
139.5098,-268.7362
139.7402,-268.4359
139.9709,-268.1358
140.2019,-267.8358
140.4329,-267.5358
140.6641,-267.2361
140.8949,-266.9359
141.1268,-266.6368
141.3605,-266.3389
141.5945,-266.0413
141.8284,-265.7437
142.0622,-265.4459
142.2958,-265.148
142.529,-264.8498
142.7619,-264.5513
142.9953,-264.2532
143.2281,-263.9547
143.4592,-263.6549
143.6884,-263.3536
143.9168,-263.0516
144.1467,-262.7509
144.3747,-262.4486
144.5961,-262.1416
144.8145,-261.8324
145.0338,-261.5238
145.253,-261.2152
145.4714,-260.9059
145.6886,-260.5958
145.9049,-260.2852
146.1218,-259.9749
146.3385,-259.6644
146.5519,-259.3518
146.7628,-259.0373
146.9733,-258.7228
147.1841,-258.4083
147.3947,-258.0937
147.6035,-257.7779
147.8112,-257.4613
148.0195,-257.1453
148.2269,-256.8286
148.4362,-256.5131
148.6515,-256.2017
148.8675,-255.8908
149.083,-255.5795
149.2989,-255.2686
149.5039,-254.9506
149.6958,-254.6243
149.8867,-254.2974
150.0787,-253.9711
150.2697,-253.6443
150.4618,-253.318
150.6541,-252.9919
150.8459,-252.6656
151.0385,-252.3396
151.2303,-252.0132
151.4224,-251.687
151.615,-251.361
151.8061,-251.0343
151.9996,-250.7088
152.19,-250.3817
152.3658,-250.0466
152.5353,-249.708
152.7081,-249.3712
152.8779,-249.0328
153.0503,-248.6957
153.2336,-248.3646
153.4193,-248.0347
153.6038,-247.7041
153.7891,-247.374
153.9751,-247.0442
154.1648,-246.7167
154.3552,-246.3894
154.5443,-246.0615
154.7353,-245.7346
154.9136,-245.401
155.0712,-245.0569
155.226,-244.7114
155.3832,-244.367
155.5388,-244.0219
155.7016,-243.6802
155.8709,-243.3416
156.0388,-243.0023
156.2087,-242.6639
156.3764,-242.3246
156.5322,-241.9797
156.6818,-241.6319
156.8328,-241.2848
156.9824,-240.9369
157.1337,-240.59
157.2959,-240.248
157.4618,-239.9076
157.6244,-239.5657
157.7904,-239.2254
157.9485,-238.8817
158.0866,-238.5293
158.2224,-238.1758
158.3598,-237.8231
158.4963,-237.47
158.6524,-237.1256
158.8251,-236.7887
158.9967,-236.4513
159.1695,-236.1144
159.3414,-235.7771
159.5118,-235.4391
159.6832,-235.1014
159.8513,-234.7624
160.0247,-234.4256
160.1866,-234.084
160.3104,-233.7266
160.4255,-233.3655
160.5489,-233.0079
160.6653,-232.6474
160.7947,-232.292
160.947,-231.9456
161.1013,-231.5998
161.2548,-231.2538
161.4086,-230.9078
161.562,-230.5617
161.7172,-230.2164
161.8698,-229.87
162.0261,-229.525
162.1778,-229.1784
162.2968,-228.82
162.3945,-228.4542
162.4965,-228.0897
162.5948,-227.724
162.6965,-227.3594
162.8271,-227.0046
162.9713,-226.6544
163.11,-226.3024
163.2554,-225.9525
163.3885,-225.5987
163.4847,-225.2327
163.5741,-224.8647
163.6688,-224.4983
163.7601,-224.1307
163.8765,-223.7716
164.0199,-223.4211
164.1624,-223.0704
164.3063,-222.7203
164.4487,-222.3694
164.5811,-222.0149
164.7118,-221.6595
164.8424,-221.3042
164.974,-220.9493
165.1004,-220.5925
165.2111,-220.2305
165.3187,-219.8675
165.4294,-219.5055
165.5376,-219.1427
165.6461,-218.78
165.7524,-218.4167
165.8579,-218.0531
165.9646,-217.6898
166.0704,-217.3264
166.1877,-216.9666
166.3154,-216.6101
166.4412,-216.2532
166.569,-215.8967
166.6953,-215.5399
166.8165,-215.1813
166.9378,-214.8226
167.0577,-214.4636
167.1799,-214.1052
167.2936,-213.7444
167.3823,-213.3765
167.4667,-213.0072
167.5563,-212.6396
167.64,-212.2702
167.7355,-211.9041
167.8516,-211.544
167.9716,-211.1848
168.0896,-210.8251
168.2078,-210.4655
168.3292,-210.1068
168.4545,-209.7497
168.5799,-209.3925
168.7063,-209.0355
168.831,-208.6782
168.9435,-208.3169
169.0426,-207.9516
169.1401,-207.5858
169.2408,-207.2208
169.3377,-206.8549
169.43,-206.4878
169.5203,-206.12
169.6082,-205.752
169.7015,-205.3848
169.7872,-205.0163
169.8428,-204.6421
169.8902,-204.2662
169.9449,-203.8918
169.9934,-203.5161
170.0562,-203.1433
170.1486,-202.7763
170.2452,-202.4101
170.3383,-202.0433
170.4339,-201.6769
170.5274,-201.3101
170.6205,-200.9432
170.7141,-200.5763
170.8073,-200.2094
170.9001,-199.8424
170.9851,-199.4735
171.0642,-199.1033
171.1454,-198.7335
171.2251,-198.3634
171.3055,-197.9935
171.3954,-197.6258
171.4875,-197.2586
171.5765,-196.8907
171.6715,-196.524
171.7556,-196.1553
171.8041,-195.7801
171.8419,-195.4031
171.889,-195.0277
171.9291,-194.651
171.98,-194.2762
172.0598,-193.9062
172.1417,-193.5365
172.2211,-193.1665
172.3037,-192.7969
172.3721,-192.4248
172.429,-192.0506
172.4847,-191.6761
172.5403,-191.3016
172.5966,-190.9273
172.6417,-190.5514
172.6807,-190.1748
172.7247,-189.7989
172.7611,-189.4219
172.8077,-189.0465
172.8891,-188.677
172.9781,-188.3088
173.0616,-187.9397
173.1486,-187.5712
173.2185,-187.1997
173.2636,-186.8238
173.3062,-186.4476
173.3517,-186.0718
173.3945,-185.6956
173.4381,-185.3196
173.4814,-184.9435
173.5224,-184.5671
173.5673,-184.1912
173.6075,-183.8148
173.629,-183.437
173.6446,-183.0587
173.6634,-182.6806
173.6797,-182.3024
173.704,-181.9246
173.7408,-181.5479
173.779,-181.1712
173.8164,-180.7945
173.8538,-180.4178
173.8955,-180.0416
173.9443,-179.6661
173.993,-179.2908
174.0432,-178.9154
174.0903,-178.5399
174.1108,-178.1626
174.1117,-177.7838
174.1165,-177.4054
174.1184,-177.0267
174.1222,-176.6482
174.1522,-176.2713
174.1967,-175.8953
174.2379,-175.5191
174.284,-175.1432
174.3242,-174.7668
174.3445,-174.389
174.3586,-174.0106
174.3743,-173.6324
174.3912,-173.2541
174.4034,-172.8758
174.3983,-172.4974
174.388,-172.1188
174.382,-171.7404
174.3732,-171.3619
174.3804,-170.9837
174.4085,-170.6062
174.4353,-170.2286
174.4643,-169.8511
174.4905,-169.4735
174.4943,-169.0952
174.489,-168.7166
174.4871,-168.3381
174.4826,-167.9594
174.4796,-167.5809
174.4818,-167.2024
174.4844,-166.8238
174.487,-166.4452
174.4903,-166.0666
174.4885,-165.6881
174.4764,-165.3098
174.4611,-164.9315
174.4486,-164.5532
174.4345,-164.1748
174.4178,-163.7966
174.3994,-163.4185
174.3796,-163.0404
174.361,-162.6623
174.342,-162.2842
174.3244,-161.906
174.3099,-161.5278
174.2938,-161.1495
174.2791,-160.7712
174.2633,-160.393
174.2359,-160.0155
174.2029,-159.6384
174.1711,-159.2611
174.1379,-158.884
174.1065,-158.5068
174.0776,-158.1292
174.0491,-157.7518
174.0209,-157.3742
173.992,-156.9967
173.9647,-156.6192
173.9387,-156.2415
173.911,-155.8639
173.8862,-155.4862
173.8579,-155.1086
173.8133,-154.7329
173.7605,-154.358
173.7096,-153.9828
173.6577,-153.6079
173.6063,-153.2328
173.5617,-152.8569
173.5194,-152.4807
173.4745,-152.1048
173.4334,-151.7284
173.3875,-151.3527
173.3193,-150.9804
173.2431,-150.6096
173.1715,-150.2378
173.0962,-149.8668
173.0293,-149.4943
172.9786,-149.1191
172.9285,-148.744
172.8784,-148.3687
172.8281,-147.9934
172.7679,-147.6199
172.6993,-147.2475
172.6286,-146.8756
172.561,-146.5031
172.4897,-146.1313
172.4013,-145.7634
172.3052,-145.3971
172.2116,-145.0304
172.1169,-144.6639
172.0213,-144.2975
171.9221,-143.9322
171.8212,-143.5673
171.7218,-143.202
171.6217,-142.8369
171.5288,-142.4699
171.4421,-142.1014
171.3527,-141.7336
171.2667,-141.3648
171.1772,-140.9971
171.0746,-140.6327
170.9694,-140.269
170.8654,-139.905
170.7614,-139.5409
170.6537,-139.1781
170.5365,-138.8182
170.4173,-138.4588
170.2996,-138.099
170.1814,-137.7393
170.0624,-137.3799
169.9356,-137.0233
169.8054,-136.6677
169.6782,-136.3112
169.5486,-135.9555
169.4216,-135.5989
169.299,-135.2407
169.1754,-134.8829
169.0533,-134.5245
168.93,-134.1666
168.8034,-133.8098
168.6739,-133.4541
168.5412,-133.0996
168.4132,-132.7432
168.2795,-132.3892
168.1251,-132.0436
167.9655,-131.7002
167.8099,-131.3551
167.6519,-131.011
167.4942,-130.6669
167.3359,-130.323
167.1769,-129.9794
167.0184,-129.6357
166.86,-129.2918
166.7096,-128.9445
166.5651,-128.5945
166.4183,-128.2456
166.2739,-127.8956
166.1273,-127.5465
165.97,-127.2023
165.809,-126.8596
165.6489,-126.5166
165.4884,-126.1738
165.3272,-125.8312
165.1639,-125.4896
164.9999,-125.1485
164.8368,-124.8067
164.6727,-124.4656
164.5016,-124.128
164.3229,-123.7942
164.1443,-123.4605
163.966,-123.1265
163.7873,-122.7928
163.6163,-122.4551
163.4501,-122.1149
163.2825,-121.7755
163.1169,-121.435
162.9491,-121.0957
162.7742,-120.76
162.5956,-120.4262
162.4164,-120.0928
162.2392,-119.7582
162.0573,-119.4262
161.8627,-119.1016
161.6647,-118.7788
161.4694,-118.4546
161.2725,-118.1312
161.0758,-117.8077
160.8782,-117.4848
160.6797,-117.1625
160.4823,-116.8394
160.284,-116.517
160.0902,-116.1918
159.9018,-115.8634
159.7118,-115.536
159.5243,-115.207
159.3337,-114.88
159.1258,-114.5639
158.91,-114.2528
158.6963,-113.9403
158.4813,-113.6287
158.2682,-113.3158
158.059,-113.0003
157.8492,-112.6851
157.6399,-112.3697
157.4305,-112.0543
157.2169,-111.7418
156.999,-111.4323
156.7799,-111.1235
156.5621,-110.8139
156.3432,-110.505
156.1196,-110.1995
155.8935,-109.896
155.6677,-109.592
155.4416,-109.2884
155.2162,-108.9842
154.9946,-108.6772
154.7739,-108.3697
154.5519,-108.0631
154.3316,-107.7551
154.1072,-107.4503
153.8728,-107.153
153.6362,-106.8575
153.4014,-106.5605
153.1654,-106.2645
152.9281,-105.9697
152.6891,-105.676
152.4495,-105.3829
152.2107,-105.0892
151.9713,-104.7958
151.734,-104.5009
151.4983,-104.2046
151.2612,-103.9095
151.0259,-103.613
150.7885,-103.318
150.5407,-103.032
150.2885,-102.7496
150.0379,-102.4658
149.7861,-102.1832
149.5352,-101.8996
149.2882,-101.6127
149.0418,-101.3254
148.7948,-101.0384
148.5483,-100.7511
148.3005,-100.4649
148.0502,-100.1808
147.7993,-99.8974
147.549,-99.6134
147.2982,-99.3298
147.0469,-99.0467
146.7951,-98.764
146.543,-98.4816
146.2913,-98.1988
146.0393,-97.9163
145.7867,-97.6343
145.5341,-97.3523
145.2807,-97.0711
145.0286,-96.7886
144.7748,-96.5077
144.5115,-96.2359
144.2433,-95.9686
143.9769,-95.6996
143.7089,-95.4323
143.4438,-95.162
143.1873,-94.8837
142.932,-94.6041
142.6755,-94.3256
142.4201,-94.0462
142.1608,-93.7703
141.896,-93.4999
141.6306,-93.23
141.3656,-92.9595
141.1003,-92.6896
140.8363,-92.4181
140.5739,-92.1453
140.3115,-91.8725
140.0491,-91.5994
139.7867,-91.3267
139.5234,-91.0546
139.2595,-90.7831
138.9952,-90.5122
138.7316,-90.2404
138.4671,-89.9696
138.1979,-89.7035
137.9261,-89.4399
137.655,-89.1757
137.3837,-88.9116
137.1122,-88.6478
136.8413,-88.3834
136.5701,-88.1191
136.299,-87.855
136.0283,-87.5904
135.7562,-87.3271
135.481,-87.0673
135.2045,-86.8085
134.9289,-86.549
134.653,-86.2899
134.3767,-86.0309
134.1008,-85.7718
133.8243,-85.5132
133.5482,-85.2541
133.272,-84.9953
132.9929,-84.7395
132.711,-84.4868
132.4286,-84.2347
132.1465,-83.9821
131.8645,-83.7298
131.5827,-83.4769
131.3013,-83.2235
131.0198,-82.9705
130.7383,-82.7173
130.4567,-82.4643
130.174,-82.2125
129.8912,-81.9608
129.6086,-81.709
129.3256,-81.4574
129.0452,-81.2031
128.7685,-80.9448
128.4918,-80.6863
128.2153,-80.4278
127.9386,-80.1695
127.6551,-79.9187
127.3643,-79.6765
127.0728,-79.4347
126.7822,-79.1922
126.4908,-78.9506
126.1993,-78.7089
125.9072,-78.4682
125.6151,-78.2273
125.3232,-77.9863
125.0311,-77.7455
124.7413,-77.5018
124.4522,-77.2575
124.162,-77.0143
123.8731,-76.7695
123.5829,-76.5266
123.289,-76.2878
122.9944,-76.0501
122.7001,-75.8121
122.4058,-75.5738
122.1103,-75.3373
121.8132,-75.1027
121.5159,-74.8681
121.2187,-74.6339
120.9215,-74.3992
120.6221,-74.1676
120.32,-73.9395
120.0188,-73.71
119.7162,-73.4827
119.4157,-73.2523
119.1254,-73.0095
118.8374,-72.7638
118.5472,-72.5205
118.2589,-72.2753
117.9678,-72.0333
117.6731,-71.7955
117.3782,-71.5583
117.0833,-71.3207
116.7884,-71.0833
116.4895,-70.8513
116.1861,-70.6246
115.883,-70.398
115.5799,-70.1711
115.2764,-69.9447
114.9714,-69.7207
114.6645,-69.4988
114.3585,-69.276
114.0518,-69.0542
113.7455,-68.8314
113.4424,-68.6049
113.1394,-68.3777
112.8362,-68.151
112.5335,-67.9239
112.2298,-67.6975
111.9252,-67.473
111.62,-67.249
111.3151,-67.0243
111.0102,-66.8003
110.7087,-66.5712
110.4115,-66.3367
110.1128,-66.1044
109.8164,-65.8683
109.5169,-65.6374
109.1983,-65.4333
108.8733,-65.2387
108.5526,-65.0382
108.2281,-64.8425
107.9078,-64.6412
107.5971,-64.425
107.2872,-64.2071
106.977,-63.9906
106.6672,-63.7728
106.3549,-63.5588
106.0391,-63.3504
105.7218,-63.1433
105.4057,-62.9354
105.0891,-62.7278
104.7765,-62.5141
104.4698,-62.2927
104.162,-62.0718
103.8549,-61.8505
103.5478,-61.6294
103.2348,-61.416
102.9197,-61.2068
102.6043,-60.9971
102.2884,-60.7882
101.9738,-60.5783
101.6594,-60.3668
101.346,-60.1547
101.0324,-59.9427
100.7182,-59.7311
100.4048,-59.5193
100.09,-59.3086
99.7754,-59.0979
99.4616,-58.8867
99.1465,-58.6763
98.8339,-58.4632
98.5218,-58.2489
98.2082,-58.0363
97.8973,-57.8209
97.5833,-57.609
97.2615,-57.4099
96.9373,-57.2147
96.6134,-57.018
96.2901,-56.8217
95.9695,-56.6202
95.6527,-56.4126
95.3369,-56.2047
95.0191,-55.998
94.7036,-55.7893
94.3931,-55.573
94.0846,-55.3528
93.7762,-55.1341
93.4674,-54.9146
93.153,-54.7041
92.8292,-54.5086
92.5042,-54.3135
92.1806,-54.1178
91.8562,-53.9225
91.5395,-53.7146
91.227,-53.5019
90.9113,-53.2921
90.5989,-53.0785
90.2823,-52.8716
89.9565,-52.6778
89.6306,-52.4861
89.3044,-52.2936
88.9782,-52.1011
88.6509,-51.9119
88.321,-51.7249
87.9938,-51.5354
87.6638,-51.3498
87.3362,-51.1593
87.0226,-50.9486
86.7113,-50.7322
86.3983,-50.5194
86.0873,-50.3042
85.7724,-50.093
85.4552,-49.8873
85.1372,-49.6818
84.8186,-49.4765
84.5017,-49.2706
84.1811,-49.0681
83.8576,-48.872
83.5338,-48.6764
83.2089,-48.4806
82.8859,-48.2848
82.5657,-48.0822
82.2504,-47.8723
81.9367,-47.6617
81.6202,-47.4523
81.3064,-47.2416
80.9966,-47.0244
80.6921,-46.7983
80.3908,-46.5707
80.0854,-46.3456
79.7833,-46.1178
79.4838,-45.8872
79.1846,-45.6535
78.8899,-45.4175
78.59,-45.1857
78.2941,-44.949
78.0176,-44.6929
77.7509,-44.4228
77.4875,-44.1516
77.2202,-43.8839
76.9558,-43.6115
76.7063,-43.3286
76.4586,-43.0413
76.2128,-42.7532
75.9646,-42.4687
75.7198,-42.1782
75.5102,-41.8645
75.3068,-41.5448
75.094,-41.2305
74.8986,-40.9083
74.6966,-40.5859
74.5175,-40.2546
74.3993,-39.8961
74.2864,-39.533
74.1803,-39.1718
74.1112,-38.7987
74.0675,-38.4231
74.0542,-38.0464
74.048,-37.6661
74.0392,-37.2888
74.0528,-36.9104
74.0735,-36.5317
74.0929,-36.1549
74.1096,-35.7754
74.134,-35.3985
74.204,-35.0276
74.2946,-34.6587
74.3745,-34.2899
74.4599,-33.9203
74.5535,-33.5537
74.6658,-33.1932
74.7885,-32.8337
74.9011,-32.4732
75.0203,-32.1136
75.1453,-31.7558
75.2735,-31.4007
75.4084,-31.0459
75.5368,-30.6903
75.6687,-30.3356
75.8017,-29.9803
75.9294,-29.625
76.0645,-29.2706
76.1927,-28.9144
76.3253,-28.5605
76.4773,-28.2128
76.6365,-27.8707
76.8345,-27.5502
77.0714,-27.2546
77.3035,-26.9568
77.544,-26.6629
77.8097,-26.3949
78.0822,-26.1321
78.3508,-25.8634
78.6206,-25.6007
78.8788,-25.3229
79.1007,-25.017
79.3162,-24.7068
79.5419,-24.4002
79.756,-24.0906
79.978,-23.7827
80.1955,-23.4717
80.406,-23.1605
80.6525,-22.8672
80.8804,-22.5696
81.0355,-22.229
81.1255,-21.8602
81.1638,-21.4874
81.2173,-21.1088
81.2485,-20.7342
81.1625,-20.3715
81.038,-20.011
80.9271,-19.6509
80.8084,-19.2905
80.7198,-18.9235
80.649,-18.5516
80.5928,-18.1777
80.5837,-17.8
80.5926,-17.4209
80.6196,-17.0444
80.6682,-16.6686
80.7077,-16.2918
80.7514,-15.9162
80.8081,-15.5416
80.8675,-15.1678
80.9289,-14.7945
80.9879,-14.4202
81.0496,-14.0469
81.1128,-13.6737
81.1773,-13.3003
81.2442,-12.9281
81.3034,-12.5539
81.3763,-12.1824
81.4812,-11.8197
81.6,-11.4595
81.712,-11.0975
81.8201,-10.7362
81.9604,-10.382
82.0926,-10.0304
82.1278,-9.6617
82.1065,-9.2811
82.0865,-8.9052
82.0477,-8.528
81.9812,-8.1546
81.8762,-7.7941
81.7511,-7.434
81.6367,-7.0742
81.5098,-6.7183
81.3706,-6.3643
81.2038,-6.0303
80.9811,-5.723
80.7557,-5.4177
80.5369,-5.1114
80.2846,-4.8266
80.0268,-4.5514
79.7932,-4.2547
79.5808,-3.9406
79.3682,-3.6283
79.1673,-3.308
79.0443,-2.9519
78.9392,-2.5865
78.7268,-2.2824
78.4613,-2.0151
78.2269,-1.7215
77.969,-1.4601
77.6427,-1.2801
77.2914,-1.1255
76.9507,-0.96571
76.6076,-0.80804
76.2581,-0.65491
75.9103,-0.51361
75.5547,-0.38003
75.2004,-0.24314
74.8521,-0.1016
74.4883,-0.017196
