87.7309,-55.7242
87.033,-55.2547
86.3361,-54.7836
85.6356,-54.3174
84.9295,-53.8592
84.2183,-53.4084
83.5035,-52.9631
82.7877,-52.5196
82.074,-52.0729
81.3644,-51.6198
80.6586,-51.1605
79.9557,-50.6968
79.2577,-50.2264
78.57,-49.7434
77.898,-49.2424
77.2471,-48.7204
76.624,-48.1783
76.0416,-47.6139
75.5205,-47.0153
75.0843,-46.3694
74.7406,-45.6775
74.49,-44.9541
74.3424,-44.2114
74.3091,-43.4507
74.3829,-42.6719
74.5385,-41.8787
74.7492,-41.0785
74.9961,-40.2779
75.2637,-39.4804
75.5439,-38.6867
75.8369,-37.898
76.1503,-37.1195
76.5012,-36.3629
76.9087,-35.6445
77.3896,-34.984
77.9511,-34.3964
78.5852,-33.8814
79.2652,-33.4163
79.9507,-32.9605
80.5988,-32.4696
81.1732,-31.9119
81.6587,-31.2782
82.0621,-30.5797
82.4016,-29.8347
82.6916,-29.0585
82.9431,-28.2623
83.1686,-27.4543
83.387,-26.6428
83.6179,-25.8356
83.8793,-25.0389
84.1769,-24.2554
84.5008,-23.4822
84.8256,-22.7117
85.1166,-21.9339
85.3369,-21.1437
85.4601,-20.344
85.4824,-19.5458
85.4247,-18.7626
85.343,-17.9996
85.3068,-17.248
85.3637,-16.4928
85.5188,-15.7254
85.7501,-14.9493
86.0278,-14.1715
86.3154,-13.3936
86.5634,-12.6103
86.7282,-11.8148
86.7832,-11.0067
86.7256,-10.193
86.5681,-9.3847
86.3278,-8.5912
86.0238,-7.817
85.6762,-7.0637
85.3055,-6.3342
84.9225,-5.6377
84.5112,-4.9976
84.0357,-4.4366
83.4721,-3.9539
82.8288,-3.5215
82.1342,-3.1093
