86.5426,-55.0601
85.7898,-54.6892
85.0368,-54.3176
84.2835,-53.9458
83.5301,-53.573
82.7775,-53.1976
82.0265,-52.8182
81.2783,-52.4327
80.5341,-52.039
79.7943,-51.6364
79.0577,-51.2275
78.3225,-50.8155
77.5894,-50.3999
76.8645,-49.9742
76.1585,-49.5254
75.4831,-49.0409
74.8597,-48.5103
74.3187,-47.9299
73.8916,-47.3016
73.6107,-46.6309
73.4939,-45.9222
73.5271,-45.1779
73.6659,-44.4031
73.8586,-43.6076
74.073,-42.8016
74.2983,-41.9922
74.5326,-41.185
74.7811,-40.3824
75.0532,-39.5911
75.3627,-38.8213
75.7243,-38.0859
76.1478,-37.3982
76.6294,-36.7623
77.163,-36.1768
77.7474,-35.6406
78.3796,-35.1475
79.0419,-34.6779
79.6966,-34.199
80.2913,-33.6747
80.7783,-33.0815
81.1259,-32.4107
81.3433,-31.6734
81.4816,-30.8934
81.6108,-30.0972
81.7912,-29.3079
82.0562,-28.5425
82.4083,-27.8067
82.824,-27.0931
83.2645,-26.3857
83.6896,-25.6677
84.0716,-24.928
84.3945,-24.1624
84.6541,-23.3723
84.8534,-22.5626
85.0005,-21.7395
85.1008,-20.9084
85.1568,-20.0731
85.1736,-19.2362
85.1648,-18.4001
85.1569,-17.5674
85.1852,-16.7411
85.277,-15.9233
85.4351,-15.1145
85.6352,-14.312
85.8349,-13.5104
85.9968,-12.7039
86.0956,-11.8899
86.123,-11.0699
86.0777,-10.2488
85.9612,-9.4317
85.7778,-8.6222
85.5426,-7.822
85.2715,-7.0313
84.9795,-6.2496
84.6746,-5.4785
84.3474,-4.7244
83.979,-3.9965
83.5533,-3.304
83.0613,-2.659
82.498,-2.077
