89.9716,-56.987
89.2704,-56.5198
88.5686,-56.0532
87.8661,-55.5875
87.1634,-55.1219
86.462,-54.6542
85.7637,-54.1819
85.0687,-53.7046
84.3748,-53.2258
83.6781,-52.7515
82.9746,-52.2881
82.2624,-51.8381
81.5435,-51.3984
80.8223,-50.9622
80.1023,-50.5233
79.3856,-50.0791
78.6739,-49.6272
77.9729,-49.1614
77.295,-48.6702
76.6628,-48.1382
76.1049,-47.55
75.6465,-46.8967
75.2935,-46.1818
75.0217,-45.4219
74.7969,-44.6358
74.6008,-43.834
74.4354,-43.0198
74.3103,-42.1961
74.2352,-41.369
74.2283,-40.5465
74.3111,-39.7356
74.4916,-38.9404
74.76,-38.1624
75.0969,-37.405
75.4913,-36.6769
75.9472,-35.9935
76.4724,-35.3686
77.0668,-34.8076
77.7193,-34.3062
78.4124,-33.8504
79.124,-33.415
79.8303,-32.9696
80.5126,-32.4911
81.1574,-31.9675
81.7554,-31.3953
82.2982,-30.7761
82.7744,-30.1102
83.171,-29.3964
83.4851,-28.6377
83.7324,-27.8468
83.9426,-27.041
84.1552,-26.2384
84.4096,-25.455
84.724,-24.698
85.0797,-23.9616
85.4233,-23.2274
85.6959,-22.474
85.8654,-21.6895
85.9385,-20.8766
85.9489,-20.0464
85.9292,-19.2087
85.9027,-18.3702
85.8919,-17.5356
85.9234,-16.7082
86.0196,-15.8912
86.1759,-15.0846
86.3518,-14.2827
86.4897,-13.4773
86.5451,-12.6638
86.504,-11.8443
86.3789,-11.0245
86.1921,-10.209
85.9647,-9.4002
85.7144,-8.5968
85.4547,-7.7967
85.1883,-7.0011
84.902,-6.218
84.5681,-5.4637
84.1593,-4.757
83.6626,-4.1148
