87.6115,-54.3993
86.9282,-53.9695
86.2438,-53.5387
85.5555,-53.1133
84.8612,-52.698
84.1588,-52.2969
83.4483,-51.9097
82.7329,-51.5308
82.0193,-51.1491
81.3146,-50.7538
80.6263,-50.3357
79.9622,-49.8873
79.3267,-49.4075
78.727,-48.8964
78.1711,-48.3537
77.6726,-47.7764
77.2423,-47.1632
76.8886,-46.5148
76.6205,-45.8296
76.4427,-45.1044
76.3436,-44.3431
76.3005,-43.5548
76.2883,-42.7518
76.2927,-41.9427
76.3071,-41.1319
76.3313,-40.322
76.3714,-39.5133
76.4363,-38.7078
76.5358,-37.907
76.6741,-37.1125
76.8479,-36.3242
77.0489,-35.5414
77.2695,-34.7634
77.5077,-33.9914
77.7676,-33.2271
78.0512,-32.4714
78.3549,-31.7228
78.6728,-30.9795
79.0034,-30.2418
79.3505,-29.5122
79.7167,-28.7928
80.1015,-28.0849
80.5075,-27.3923
80.9395,-26.7187
81.3992,-26.0647
81.8848,-25.4279
82.3952,-24.8079
82.9308,-24.207
83.4868,-23.6243
84.053,-23.0545
84.6093,-22.486
85.1225,-21.8981
85.5505,-21.2682
85.8576,-20.5847
86.0227,-19.8546
86.0447,-19.1005
85.9331,-18.3517
85.701,-17.6356
85.3693,-16.9635
84.9871,-16.32
84.632,-15.6705
84.3754,-14.9833
84.2503,-14.2497
84.248,-13.481
84.338,-12.6952
84.4843,-11.9052
84.6527,-11.116
84.8138,-10.3269
84.9431,-9.5359
85.0226,-8.7424
85.0449,-7.9485
85.0051,-7.1598
84.8914,-6.3849
84.688,-5.633
84.3908,-4.909
84.0152,-4.2124
83.581,-3.5443
83.0977,-2.9131
82.5621,-2.3348
81.9686,-1.8232
