87.3437,-56.4741
86.6284,-56.0991
85.9128,-55.7312
85.1922,-55.3693
84.4643,-55.018
83.7285,-54.6824
82.9895,-54.3639
82.2463,-54.0504
81.5077,-53.7319
80.7741,-53.397
80.0475,-53.0421
79.3317,-52.6688
78.6271,-52.2786
77.9331,-51.8716
77.2512,-51.4485
76.5808,-51.0079
75.9298,-50.5425
75.3205,-50.038
74.7713,-49.4756
74.3058,-48.8528
73.9407,-48.1755
73.6909,-47.4519
73.5564,-46.6927
73.5236,-45.9133
73.5678,-45.124
73.6885,-44.3402
73.8814,-43.5689
74.1394,-42.8131
74.4444,-42.0708
74.7729,-41.3359
75.1012,-40.5995
75.4187,-39.8584
75.7205,-39.1123
76.0164,-38.3673
76.3348,-37.6396
76.7021,-36.9444
77.1395,-36.2962
77.6504,-35.7033
78.2243,-35.1629
78.8419,-34.6604
79.4816,-34.1764
80.1158,-33.6873
80.7253,-33.1733
81.2772,-32.6135
81.7476,-31.9979
82.1197,-31.3264
82.3963,-30.6071
82.6031,-29.8511
82.7904,-29.0776
82.9948,-28.3031
83.2391,-27.5398
83.5365,-26.7981
83.8889,-26.0839
84.2879,-25.3952
84.701,-24.7181
85.068,-24.029
85.3315,-23.3098
85.4707,-22.5611
85.5069,-21.7931
85.5136,-21.0206
85.5631,-20.2515
85.6913,-19.4866
85.8868,-18.7233
86.1168,-17.9622
86.3337,-17.2005
86.4965,-16.4355
86.568,-15.6634
86.5539,-14.882
86.4882,-14.0931
86.3948,-13.3022
86.2649,-12.5175
86.0765,-11.7489
85.8129,-11.0014
85.4817,-10.2744
85.1073,-9.5646
84.705,-8.8672
84.2903,-8.1772
83.8737,-7.4886
83.4614,-6.7974
83.0477,-6.1083
