84.1495,-54.9119
83.4457,-54.5203
82.7447,-54.1237
82.0444,-53.7253
81.3436,-53.3275
80.6417,-52.9313
79.9425,-52.5331
79.2521,-52.1271
78.5801,-51.7044
77.9324,-51.2595
77.3064,-50.8019
76.6988,-50.3518
76.123,-49.9196
75.6289,-49.4832
75.2674,-48.9948
75.048,-48.416
74.9394,-47.7417
74.9043,-46.9973
74.9193,-46.2154
74.9746,-45.4196
75.0661,-44.6234
75.1949,-43.8315
75.359,-43.0463
75.5613,-42.2717
75.8084,-41.513
76.1096,-40.7778
76.4703,-40.0737
76.8905,-39.4071
77.3697,-38.7845
77.9029,-38.2069
78.4727,-37.6613
79.0433,-37.1194
79.5714,-36.5479
80.0259,-35.925
80.4009,-35.2483
80.719,-34.5329
81.0082,-33.798
81.2749,-33.0522
81.5062,-32.2954
81.6895,-31.5266
81.8357,-30.751
81.9833,-29.9798
82.1805,-29.2261
82.4607,-28.5009
82.828,-27.809
83.2633,-27.1473
83.7327,-26.5047
84.1931,-25.8636
84.5996,-25.2034
84.9156,-24.5079
85.1314,-23.7748
85.269,-23.016
85.355,-22.2483
85.4094,-21.4818
85.4561,-20.717
85.5227,-19.9489
85.6194,-19.1727
85.7329,-18.3877
85.8409,-17.5958
85.9294,-16.7996
85.9908,-16.0018
86.0198,-15.2041
86.0073,-14.4087
85.9432,-13.6196
85.8168,-12.8432
85.6188,-12.0853
85.3506,-11.3465
85.03,-10.6215
84.6776,-9.9048
84.3032,-9.1956
83.91,-8.4951
83.5033,-7.8013
83.0918,-7.1097
82.6875,-6.4141
82.3001,-5.71
81.9316,-4.9984
81.5714,-4.2893
81.1924,-3.6043
80.7576,-2.9718
80.2397,-2.4137
