87.4832,-56.4139
86.7573,-56.0213
86.0318,-55.6502
85.303,-55.2769
84.5784,-54.8871
83.8605,-54.4767
83.1544,-54.0542
82.457,-53.6273
81.7561,-53.1992
81.0472,-52.778
80.3272,-52.3701
79.6075,-51.9812
78.8873,-51.5951
78.1723,-51.193
77.4687,-50.764
76.7795,-50.3073
76.1135,-49.8356
75.4564,-49.3482
74.8133,-48.8441
74.2082,-48.3118
73.689,-47.7326
73.307,-47.0951
73.083,-46.3974
73.0165,-45.6553
73.0816,-44.886
73.2506,-44.1087
73.4912,-43.3352
73.7774,-42.5686
74.0945,-41.8111
74.435,-41.0628
74.8064,-40.3293
75.2007,-39.6089
75.6235,-38.9082
76.088,-38.2414
76.611,-37.6282
77.2095,-37.0878
77.8632,-36.614
78.5457,-36.1823
79.2166,-35.7451
79.839,-35.2532
80.3881,-34.6804
80.8557,-34.0292
81.2613,-33.3245
81.6291,-32.5919
81.9862,-31.8505
82.3337,-31.1043
82.6684,-30.3524
82.9902,-29.5952
83.3031,-28.8344
83.6252,-28.0768
83.9509,-27.3208
84.2784,-26.5662
84.5961,-25.8105
84.8833,-25.0499
85.1099,-24.282
85.2397,-23.5029
85.2859,-22.7213
85.3119,-21.9503
85.4069,-21.1987
85.6102,-20.4613
85.8886,-19.724
86.18,-18.9763
86.4281,-18.2117
86.6093,-17.4295
86.7068,-16.6303
86.7258,-15.8198
86.6771,-15.0058
86.57,-14.1947
86.4194,-13.3946
86.2136,-12.6057
85.9606,-11.8273
85.6742,-11.0571
85.3667,-10.2957
85.0421,-9.5458
84.6921,-8.8061
84.3238,-8.0737
83.9397,-7.3484
83.5405,-6.6364
83.1119,-5.9453
82.6412,-5.2845
