84.063,-53.6225
83.3283,-53.1987
82.5877,-52.7848
81.8436,-52.3768
81.0995,-51.9685
80.3576,-51.556
79.6162,-51.142
78.8722,-50.7317
78.1251,-50.3258
77.3778,-49.9192
76.6332,-49.5066
75.8949,-49.084
75.1686,-48.6469
74.465,-48.1875
73.7973,-47.6925
73.1731,-47.1517
72.5923,-46.5666
72.0591,-45.944
71.5905,-45.2793
71.2071,-44.5635
70.9119,-43.7977
70.69,-42.9945
70.5272,-42.1687
70.4165,-41.3318
70.3562,-40.4907
70.3437,-39.6492
70.3728,-38.8114
70.4442,-37.9848
70.5829,-37.1848
70.8311,-36.4366
71.2197,-35.7713
71.7425,-35.2153
72.355,-34.7689
72.9945,-34.4017
73.6047,-34.0535
74.1535,-33.6503
74.6336,-33.1384
75.0523,-32.5091
75.4222,-31.7924
75.7577,-31.0269
76.0705,-30.239
76.3666,-29.4436
76.6412,-28.6417
76.8899,-27.834
77.115,-27.0233
77.3361,-26.2194
77.5801,-25.4324
77.8689,-24.6682
78.2136,-23.9307
78.6131,-23.2244
79.0652,-22.5579
79.5624,-21.9297
80.0803,-21.3154
80.5819,-20.6798
81.0325,-19.9991
81.4081,-19.2719
81.689,-18.5066
81.8638,-17.7105
81.9484,-16.8924
81.9903,-16.0621
82.0459,-15.231
82.1488,-14.4079
82.2924,-13.5959
82.4311,-12.7892
82.5114,-11.9793
82.5088,-11.1627
82.4218,-10.3447
82.2608,-9.5329
82.0383,-8.7304
81.7688,-7.9379
81.4582,-7.1577
81.101,-6.3983
80.6862,-5.6716
80.208,-4.986
79.6681,-4.3455
79.0741,-3.7519
78.4334,-3.2062
77.7531,-2.7065
77.0434,-2.2446
76.3152,-1.8075
75.151,-1.1534
74.4294,-0.75345
73.7454,-0.29529
73.0509,0.13297
72.2341,0.24141
71.4166,0.35231
-46.5816,-34.3719