88.3133,-55.7097
87.526,-55.3579
86.7392,-54.9991
85.9506,-54.6401
85.1654,-54.2823
84.3847,-53.9167
83.6167,-53.5305
82.8715,-53.1072
82.1564,-52.6393
81.4636,-52.134
80.7787,-51.6107
80.0906,-51.0872
79.394,-50.5723
78.6884,-50.0683
77.9765,-49.5751
77.2614,-49.0901
76.545,-48.6061
75.836,-48.1128
75.147,-47.5961
74.4981,-47.0426
73.9117,-46.4424
73.4246,-45.7922
73.0831,-45.0894
72.9169,-44.334
72.9142,-43.5355
73.0323,-42.7136
73.2224,-41.8841
73.453,-41.0566
73.6997,-40.2328
73.9482,-39.4098
74.1944,-38.5855
74.4467,-37.7622
74.7147,-36.9431
75.0008,-36.1301
75.3068,-35.3255
75.6347,-34.5319
75.9753,-33.7456
76.3041,-32.9551
76.6077,-32.1535
76.8951,-31.3444
77.1973,-30.5482
77.5477,-29.7988
77.9844,-29.1452
78.5412,-28.6398
79.2345,-28.3037
80.037,-28.1009
80.8775,-27.951
81.6851,-27.7657
82.4406,-27.4941
83.1617,-27.1334
83.8614,-26.7081
84.5226,-26.2291
85.1046,-25.6799
85.575,-25.0426
85.9275,-24.3199
86.1813,-23.5362
86.3646,-22.7208
86.4962,-21.8919
86.575,-21.0536
86.6008,-20.2058
86.5895,-19.3497
86.5743,-18.4889
86.5774,-17.6264
86.6156,-16.7646
86.6931,-15.9051
86.8048,-15.0484
86.9403,-14.1945
87.0863,-13.3433
87.2208,-12.4926
87.3177,-11.6401
87.3619,-10.7849
87.3537,-9.9296
87.2999,-9.0823
87.1953,-8.2566
87.0095,-7.4704
86.7031,-6.7403
86.2599,-6.0764
85.6949,-5.4869
85.0388,-4.9768
84.3157,-4.5374
