87.2588,-54.7063
86.5283,-54.2648
85.7969,-53.8247
85.0689,-53.3792
84.3458,-52.9257
83.6263,-52.4661
82.9087,-52.0033
82.1942,-51.5357
81.4858,-51.0592
80.784,-50.5738
80.0849,-50.0865
79.3811,-49.609
78.6668,-49.1499
77.9484,-48.7014
77.2422,-48.2407
76.5698,-47.7421
75.9558,-47.1859
75.4265,-46.5639
75.0073,-45.877
74.72,-45.1341
74.5717,-44.348
74.5421,-43.532
74.5924,-42.6999
74.6928,-41.8627
74.8337,-41.0274
75.0147,-40.1985
75.2335,-39.3772
75.482,-38.5624
75.7501,-37.7526
76.0304,-36.9465
76.3213,-36.144
76.6252,-35.3467
76.9461,-34.5565
77.2897,-33.777
77.6643,-33.0139
78.0796,-32.2762
78.5463,-31.5761
79.0753,-30.9328
79.6736,-30.3687
80.3392,-29.9032
81.0622,-29.5452
81.823,-29.2751
82.5906,-29.0333
83.3261,-28.7409
83.989,-28.336
84.5528,-27.7999
85.0106,-27.1498
85.3692,-26.4183
85.642,-25.6357
85.8447,-24.8215
85.9935,-23.9889
86.0988,-23.1472
86.1627,-22.3005
86.191,-21.4517
86.2011,-20.6028
86.2213,-19.7554
86.2801,-18.9117
86.3934,-18.074
86.5572,-17.2428
86.7517,-16.4158
86.9475,-15.5887
87.117,-14.7569
87.2443,-13.9181
87.3245,-13.0733
87.3584,-12.226
87.3421,-11.3811
87.2601,-10.5463
87.0949,-9.7311
86.8366,-8.9458
86.4866,-8.1987
86.0605,-7.4894
85.5818,-6.8074
85.0729,-6.1397
84.5461,-5.4787
84.0065,-4.8222
83.4575,-4.1707
82.8974,-3.5296
82.3177,-2.9117
81.7053,-2.3348
81.048,-1.8151
