85.95,-53.8276
85.2309,-53.3474
84.4962,-52.8946
83.7409,-52.4786
82.9674,-52.0954
82.1845,-51.7285
81.4014,-51.3597
80.6217,-50.9815
79.8432,-50.5988
79.0632,-50.2175
78.2846,-49.8354
77.5127,-49.442
76.7532,-49.0258
76.0098,-48.5813
75.2863,-48.1069
74.5908,-47.5997
73.9452,-47.0504
73.3874,-46.4451
72.9642,-45.7758
72.7191,-45.0495
72.6747,-44.2875
72.8214,-43.5151
73.1208,-42.7517
73.5229,-42.0071
73.985,-41.2828
74.475,-40.5728
74.9628,-39.8638
75.4223,-39.1392
75.834,-38.3873
76.1933,-37.6065
76.5044,-36.802
76.7735,-35.98
77.0075,-35.1458
77.2188,-34.3055
77.4207,-33.4649
77.633,-32.633
77.886,-31.8239
78.21,-31.0516
78.6244,-30.3306
79.1259,-29.67
79.6994,-29.0756
80.3322,-28.5531
81.0183,-28.1055
81.7492,-27.7188
82.5072,-27.3574
83.2646,-26.978
83.9931,-26.5482
84.6621,-26.0476
85.2372,-25.4627
85.6904,-24.7905
86.012,-24.0409
86.2161,-23.2336
86.3297,-22.392
86.3807,-21.5352
86.3877,-20.6737
86.3634,-19.8117
86.3178,-18.9492
86.2633,-18.0854
86.2123,-17.22
86.1731,-16.3536
86.1544,-15.4877
86.1688,-14.6239
86.2246,-13.7632
86.316,-12.9063
86.4192,-12.052
86.5008,-11.1986
86.5327,-10.3434
86.5039,-9.4867
86.416,-8.6338
86.265,-7.7957
86.0326,-6.988
85.6986,-6.2262
85.2577,-5.518
84.7251,-4.8618
84.1255,-4.2521
83.4772,-3.6872
82.7893,-3.1691
82.0676,-2.6972
81.3191,-2.2638
80.5518,-1.8596
