98.7061,-51.3935
97.9638,-51.0461
97.2132,-50.718
96.4598,-50.4026
95.7046,-50.0964
94.9466,-49.7951
94.1897,-49.4896
93.4384,-49.1684
92.6946,-48.8269
91.956,-48.4702
91.2191,-48.1072
90.4829,-47.7419
89.7539,-47.3702
89.0389,-46.9801
88.3396,-46.5646
87.6504,-46.1292
86.9628,-45.6892
86.2683,-45.259
85.5653,-44.842
84.8609,-44.4262
84.1673,-43.9925
83.496,-43.5256
82.8582,-43.0203
82.2601,-42.473
81.7045,-41.8835
81.1948,-41.2535
80.7382,-40.5855
80.3454,-39.8826
80.0325,-39.1481
79.8169,-38.3856
79.7059,-37.5996
79.6902,-36.7984
79.7536,-35.9936
79.8817,-35.1928
80.0623,-34.4001
80.2824,-33.6154
80.525,-32.835
80.7743,-32.0551
81.0234,-31.2744
81.273,-30.4938
81.5298,-29.7174
81.8101,-28.9545
82.1387,-28.2191
82.5363,-27.5227
83.0015,-26.8666
83.5152,-26.2389
84.0504,-25.6225
84.5867,-25.0043
85.1131,-24.3775
85.6246,-23.7391
86.1204,-23.0887
86.6061,-22.4304
87.089,-21.7687
87.5705,-21.1049
88.0416,-20.4356
88.4891,-19.7531
88.8997,-19.0501
89.2689,-18.3244
89.5982,-17.579
89.8856,-16.8177
90.1199,-16.0418
90.2889,-15.2527
90.3863,-14.4517
90.419,-13.6422
90.4051,-12.8291
90.3665,-12.0159
90.3267,-11.2038
90.3043,-10.3924
90.3,-9.5808
90.2974,-8.7701
90.2721,-7.9642
90.1987,-7.1697
90.047,-6.3928
89.8028,-5.6383
89.4762,-4.9074
89.0872,-4.1988
88.6536,-3.5103
88.1896,-2.8381
87.7036,-2.1806
87.1926,-1.5445
