88.6908,-51.4005
87.9791,-50.9795
87.2573,-50.5768
86.5213,-50.2002
85.7774,-49.8484
85.0311,-49.503
84.2953,-49.1414
83.58,-48.7465
82.8853,-48.3226
82.1927,-47.8957
81.482,-47.4974
80.7448,-47.143
79.988,-46.824
79.2323,-46.5122
78.5091,-46.1698
77.8553,-45.7575
77.2999,-45.2474
76.8539,-44.6407
76.5095,-43.961
76.2526,-43.2338
76.06,-42.4714
75.9079,-41.6829
75.7806,-40.8776
75.6763,-40.0616
75.597,-39.2394
75.5453,-38.416
75.5187,-37.5909
75.513,-36.7645
75.5211,-35.9373
75.5387,-35.1106
75.5667,-34.2876
75.6223,-33.4782
75.746,-32.7034
75.9876,-31.9894
76.3771,-31.3575
76.9034,-30.8087
77.5219,-30.3216
78.1815,-29.8663
78.843,-29.4126
79.4731,-28.9259
80.0474,-28.3758
80.5505,-27.7526
80.9865,-27.0694
81.3667,-26.3448
81.7049,-25.5966
82.0078,-24.8358
82.2692,-24.0652
82.4707,-23.2801
82.6082,-22.4784
82.6988,-21.6637
82.7718,-20.8425
82.8448,-20.0201
82.9245,-19.2017
83.0067,-18.3925
83.0893,-17.5997
83.1897,-16.83
83.338,-16.0849
83.5513,-15.3603
83.8071,-14.647
84.0787,-13.9389
84.3477,-13.2296
84.5911,-12.5079
84.7701,-11.7664
84.8472,-11.0095
84.8116,-10.2502
84.6708,-9.5006
84.4339,-8.7671
84.1163,-8.0513
83.7352,-7.348
83.3105,-6.6567
82.8448,-5.9867
82.334,-5.3494
81.7782,-4.7493
81.1817,-4.1845
80.5556,-3.6488
79.9128,-3.1323
79.2671,-2.6236
78.6302,-2.1131
78.0062,-1.6026
77.3776,-1.1091
