91.8269,-52.4264
91.0323,-52.2236
90.2374,-52.017
89.443,-51.8068
88.6496,-51.5928
87.8583,-51.3722
87.0708,-51.1398
86.2878,-50.8931
85.5081,-50.6359
84.7288,-50.3765
83.948,-50.1209
83.1653,-49.8705
82.3825,-49.6224
81.6039,-49.3689
80.8388,-49.0943
80.1035,-48.7722
79.4176,-48.376
78.7982,-47.8915
78.2613,-47.3196
77.8211,-46.6723
77.489,-45.9667
77.2756,-45.2215
77.1825,-44.4512
77.1912,-43.6636
77.2621,-42.8636
77.3545,-42.0549
77.4444,-41.2405
77.524,-40.423
77.5948,-39.6044
77.6656,-38.7859
77.7469,-37.9689
77.8471,-37.1543
77.9713,-36.3433
78.1236,-35.5381
78.3128,-34.7437
78.5518,-33.9671
78.8541,-33.2177
79.227,-32.5028
79.6659,-31.8234
80.1545,-31.1732
80.6693,-30.5387
81.1882,-29.9054
81.6965,-29.2627
82.1875,-28.6063
82.6589,-27.9362
83.1039,-27.2505
83.5107,-26.5443
83.8677,-25.8139
84.1694,-25.0592
84.415,-24.2839
84.6092,-23.4928
84.7643,-22.6906
84.8998,-21.8828
85.0342,-21.0737
85.1808,-20.2674
85.3494,-19.4672
85.5441,-18.6749
85.757,-17.8886
85.9697,-17.1028
86.1659,-16.3131
86.3457,-15.52
86.5192,-14.7282
86.6925,-13.942
86.8678,-13.1645
87.0361,-12.3944
87.1647,-11.6263
87.2074,-10.8559
87.1321,-10.0868
86.9342,-9.3309
86.6276,-8.5995
86.2362,-7.8959
85.7898,-7.2155
85.3116,-6.551
84.8159,-5.8967
84.3097,-5.2503
83.7971,-4.6106
83.2802,-3.9769
82.7566,-3.3517
82.2174,-2.743
81.6529,-2.1616
