94.2129,-54.395
93.4689,-54.0092
92.729,-53.6149
91.9938,-53.2081
91.2612,-52.7927
90.5288,-52.3741
89.7939,-51.9575
89.0536,-51.5489
88.3058,-51.1531
87.5543,-50.7707
86.8024,-50.3946
86.0531,-50.0157
85.3066,-49.6289
84.5625,-49.2353
83.82,-48.8369
83.0812,-48.431
82.3497,-48.0111
81.626,-47.5762
80.9087,-47.1352
80.1921,-46.6961
79.4755,-46.2595
78.7623,-45.8169
78.0605,-45.3591
77.3829,-44.8736
76.7455,-44.3452
76.1653,-43.7625
75.6607,-43.1225
75.2588,-42.4287
74.9837,-41.6853
74.8386,-40.9007
74.7905,-40.0859
74.7935,-39.2536
74.8112,-38.4141
74.8332,-37.5724
74.8667,-36.7311
74.9237,-35.891
75.0123,-35.0539
75.1328,-34.2213
75.2858,-33.395
75.4627,-32.5735
75.6569,-31.759
75.8698,-30.9603
76.126,-30.2012
76.4731,-29.5183
76.9514,-28.9474
77.5659,-28.503
78.277,-28.1623
79.0256,-27.8661
79.7456,-27.5312
80.3888,-27.0934
80.9351,-26.5338
81.3885,-25.8724
81.7706,-25.1446
82.1115,-24.383
82.4386,-23.6094
82.7605,-22.8317
83.0666,-22.0492
83.3343,-21.2559
83.5462,-20.448
83.6951,-19.6262
83.7878,-18.794
83.8416,-17.9559
83.8796,-17.1158
83.9251,-16.2765
83.9912,-15.4389
84.0808,-14.6044
84.1919,-13.7746
84.3228,-12.9537
84.4651,-12.1464
84.5876,-11.3527
84.6412,-10.5663
84.5823,-9.7822
84.3968,-9.0043
84.1024,-8.2431
83.7276,-7.5041
83.3009,-6.7874
82.8425,-6.093
82.3613,-5.4235
81.8526,-4.7888
81.3028,-4.1964
