90.5513,-53.7876
89.8418,-53.3941
89.1382,-52.9821
88.4274,-52.5806
87.7014,-52.2058
86.9611,-51.8563
86.2132,-51.5195
85.4647,-51.1823
84.7216,-50.8344
83.9877,-50.4688
83.2654,-50.0846
82.5552,-49.6837
81.8621,-49.2623
81.2007,-48.8052
80.5878,-48.2928
80.0304,-47.7177
79.5241,-47.0885
79.0597,-46.4202
78.6282,-45.7257
78.2205,-45.0148
77.8306,-44.2932
77.4593,-43.5619
77.1124,-42.8197
76.7969,-42.0648
76.5203,-41.296
76.2882,-40.5142
76.1066,-39.7218
75.9868,-38.9215
75.9381,-38.1154
75.9634,-37.3071
76.0596,-36.5034
76.2271,-35.7133
76.4686,-34.9454
76.7836,-34.2067
77.1647,-33.5024
77.6047,-32.8412
78.1062,-32.2389
78.6759,-31.7092
79.3053,-31.243
79.9605,-30.7995
80.5936,-30.3296
81.1608,-29.8038
81.6223,-29.2127
81.9529,-28.5574
82.1669,-27.8456
82.3216,-27.0936
82.4822,-26.3209
82.6814,-25.5424
82.9106,-24.7634
83.1377,-23.9815
83.3259,-23.1921
83.4493,-22.3936
83.4972,-21.5884
83.4777,-20.7795
83.4191,-19.9692
83.3586,-19.1584
83.3234,-18.3471
83.3176,-17.5352
83.3279,-16.7225
83.346,-15.9097
83.3848,-15.0989
83.4692,-14.2938
83.6152,-13.4976
83.819,-12.711
84.06,-11.9307
84.3097,-11.1512
84.5386,-10.3673
84.7198,-9.5786
84.8212,-8.7911
84.8059,-8.017
84.6444,-7.2724
84.3339,-6.57
83.9016,-5.9125
83.3907,-5.29
82.8432,-4.6867
82.2886,-4.0871
81.738,-3.4858
81.1829,-2.8925
80.6075,-2.3243
79.9989,-1.7976
