95.9506,-55.7299
95.1505,-55.3333
94.35,-54.9308
93.5575,-54.5221
92.7761,-54.1057
91.9976,-53.6778
91.2194,-53.2415
90.44,-52.8005
89.6632,-52.3597
88.8911,-51.9214
88.119,-51.4831
87.3441,-51.0428
86.5672,-50.5996
85.7925,-50.1533
85.0254,-49.7032
84.2649,-49.2469
83.5056,-48.7822
82.7461,-48.3117
81.9864,-47.8386
81.2303,-47.3665
80.4788,-46.8966
79.725,-46.4245
78.9694,-45.9492
78.2128,-45.4701
77.463,-44.9884
76.7306,-44.4985
76.0331,-43.9806
75.4087,-43.4058
74.8948,-42.747
74.5036,-42.0013
74.2142,-41.1916
73.9963,-40.3458
73.8429,-39.4818
73.7638,-38.6084
73.763,-37.7293
73.8287,-36.8483
73.938,-35.9684
74.0723,-35.0891
74.2234,-34.2114
74.3925,-33.3378
74.5937,-32.4749
74.8445,-31.6423
75.1559,-30.8708
75.5327,-30.2145
75.97,-29.7303
76.4681,-29.434
77.0155,-29.2719
77.5967,-29.1389
78.2098,-28.9371
78.8482,-28.613
79.4782,-28.1549
80.0454,-27.572
80.5163,-26.8802
80.9014,-26.11
81.242,-25.2998
81.5782,-24.4781
81.9286,-23.6596
82.2819,-22.8454
82.6038,-22.0265
82.855,-21.1946
83.0063,-20.3438
83.0651,-19.4747
83.0638,-18.5957
83.045,-17.7151
83.0608,-16.8463
83.168,-16.0051
83.4113,-15.2033
83.7896,-14.4419
84.2542,-13.7063
84.7386,-12.9769
85.178,-12.234
85.5117,-11.4604
85.697,-10.6522
85.7173,-9.8243
85.571,-9.0054
85.2678,-8.2217
84.8361,-7.4799
84.3251,-6.7705
83.7726,-6.0829
83.1905,-5.4142
