88.3023,-52.079
87.5318,-51.7313
86.7654,-51.3736
86.0025,-51.0075
85.2422,-50.6351
84.4838,-50.258
83.7269,-49.8771
82.972,-49.492
82.2195,-49.1022
81.4702,-48.707
80.7258,-48.3034
79.9881,-47.8874
79.2567,-47.4589
78.5323,-47.0206
77.8211,-46.5691
77.1381,-46.0899
76.5107,-45.5604
75.97,-44.9638
75.5434,-44.2993
75.2597,-43.5825
75.1496,-42.8371
75.2254,-42.0854
75.4565,-41.3392
75.7735,-40.5947
76.0958,-39.8376
76.3629,-39.0569
76.5547,-38.2497
76.6838,-37.4219
76.7784,-36.583
76.8642,-35.7415
76.9683,-34.9114
77.1229,-34.116
77.3718,-33.3931
77.7598,-32.782
78.3003,-32.2952
78.9528,-31.8997
79.6408,-31.5272
80.2899,-31.1051
80.8517,-30.5841
81.3134,-29.954
81.6943,-29.2398
82.024,-28.4758
82.325,-27.688
82.6064,-26.8898
82.8709,-26.0851
83.1196,-25.2756
83.353,-24.4626
83.5716,-23.6477
83.7706,-22.8315
83.9431,-22.0136
84.0837,-21.1939
84.1828,-20.3719
84.228,-19.5468
84.2236,-18.7189
84.2077,-17.891
84.2346,-17.0668
84.3395,-16.2495
84.5233,-15.4398
84.7518,-14.6347
84.979,-13.8274
85.1653,-13.0124
85.2837,-12.1891
85.3194,-11.3621
85.2618,-10.5396
85.1057,-9.7307
84.8567,-8.9421
84.5262,-8.1771
84.1321,-7.4362
83.6911,-6.7187
83.2153,-6.023
82.7123,-5.3473
82.183,-4.6952
81.6211,-4.076
81.0198,-3.4977
80.3778,-2.9647
79.6971,-2.4805
78.9795,-2.0509
78.2279,-1.68
77.4489,-1.3646
76.65,-1.0958
