94.8629,-53.9962
94.0829,-53.6562
93.3047,-53.3176
92.5254,-52.9809
91.7455,-52.6444
90.9665,-52.3062
90.1916,-51.9668
89.417,-51.6245
88.6423,-51.2803
87.8671,-50.935
87.0911,-50.5898
86.3133,-50.2473
85.5319,-49.9119
84.747,-49.5894
83.9586,-49.2801
83.1692,-48.974
82.3858,-48.6539
81.6166,-48.3083
80.8624,-47.9323
80.1265,-47.5259
79.4166,-47.0873
78.7508,-46.6035
78.1516,-46.0578
77.6399,-45.4422
77.2395,-44.7602
76.976,-44.0209
76.8546,-43.235
76.8578,-42.4201
76.9553,-41.5944
77.1192,-40.7692
77.3271,-39.9507
77.5772,-39.1492
77.8803,-38.3832
78.256,-37.6813
78.7254,-37.0696
79.2846,-36.5429
79.8908,-36.0509
80.4733,-35.5231
80.9748,-34.914
81.3797,-34.221
81.7051,-33.468
81.969,-32.6783
82.1853,-31.8675
82.3687,-31.0444
82.5431,-30.2178
82.7398,-29.3999
82.9905,-28.6059
83.3234,-27.8538
83.7447,-27.1535
84.2246,-26.4962
84.7037,-25.8519
85.1145,-25.1831
85.4211,-24.4662
85.6243,-23.7003
85.7432,-22.8992
85.7998,-22.0789
85.8303,-21.2559
85.897,-20.449
86.0605,-19.6744
86.3517,-18.9402
86.7419,-18.236
87.1658,-17.5352
87.5632,-16.8114
87.9025,-16.0537
88.1712,-15.2637
88.3717,-14.4494
88.5119,-13.6193
88.6031,-12.78
88.6556,-11.9356
88.6752,-11.0892
88.6614,-10.2433
88.6087,-9.4007
88.505,-8.5655
88.339,-7.743
88.1092,-6.9379
87.8215,-6.1516
87.4926,-5.381
87.1443,-4.6181
86.7908,-3.857
86.4263,-3.1023
85.8312,-1.6537
85.2736,-1.0695
84.6496,-0.55681
83.9191,-0.20486
83.1879,0.14985
82.4315,0.40591
-46.7453,-36.257