98.1067,-55.243
97.3173,-54.913
96.5324,-54.5706
95.7507,-54.2185
94.9682,-53.8663
94.181,-53.5233
93.3875,-53.1933
92.5917,-52.8745
91.7987,-52.5601
91.0069,-52.2409
90.2174,-51.9143
89.4294,-51.5822
88.6414,-51.2483
87.8527,-50.9144
87.0635,-50.5798
86.2744,-50.2435
85.4854,-49.9052
84.6964,-49.5656
83.9071,-49.2253
83.1182,-48.885
82.3332,-48.5468
81.5499,-48.2075
80.7686,-47.863
79.9943,-47.5052
79.2384,-47.119
78.5189,-46.6855
77.8641,-46.1834
77.3057,-45.5965
76.8693,-44.921
76.5658,-44.1699
76.3883,-43.3664
76.3201,-42.534
76.3445,-41.6915
76.4445,-40.8508
76.6015,-40.0149
76.8027,-39.1865
77.04,-38.3668
77.3093,-37.5584
77.6146,-36.7659
77.9674,-35.9977
78.3795,-35.2631
78.8542,-34.569
79.3877,-33.9195
79.9698,-33.3127
80.58,-32.7342
81.1855,-32.1548
81.7439,-31.5384
82.233,-30.8657
82.6564,-30.1402
83.032,-29.3786
83.3782,-28.5975
83.7079,-27.8071
84.0304,-27.0135
84.3516,-26.2192
84.6751,-25.4261
85.0006,-24.6341
85.3219,-23.8417
85.6278,-23.0454
85.8924,-22.2401
86.0904,-21.4214
86.2144,-20.5916
86.2844,-19.7582
86.3535,-18.9333
86.4881,-18.1297
86.7319,-17.3574
87.0807,-16.6175
87.4886,-15.8958
87.8986,-15.1686
88.2668,-14.4165
88.5758,-13.6334
88.8263,-12.8247
89.0156,-11.9971
89.1425,-11.1579
89.2053,-10.3128
89.2017,-9.4676
89.1331,-8.6309
88.9978,-7.8125
88.7853,-7.0218
88.4883,-6.2598
88.1205,-5.517
87.3431,-4.2333
87.0498,-3.4685
86.6567,-2.7452
86.104,-2.1557
85.4382,-1.6633
84.6969,-1.4152
-46.7647,-32.8484