94.9195,-54.1462
94.1834,-53.7646
93.4438,-53.381
92.7053,-52.998
91.9689,-52.6162
91.2293,-52.2324
90.491,-51.8495
89.7544,-51.4675
89.0147,-51.0839
88.276,-50.7026
87.5362,-50.3268
86.7897,-49.9582
86.0414,-49.5994
85.2935,-49.2422
84.5478,-48.8747
83.809,-48.4976
83.0704,-48.1202
82.326,-47.7485
81.5808,-47.382
80.8399,-47.0097
80.1154,-46.6126
79.429,-46.17
78.798,-45.6631
78.2298,-45.0862
77.7246,-44.4496
77.2872,-43.7654
76.9406,-43.0369
76.7076,-42.2684
76.5996,-41.4748
76.6214,-40.676
76.7699,-39.8892
77.0342,-39.1292
77.3944,-38.4009
77.818,-37.695
78.2717,-37.0011
78.7383,-36.3142
79.2116,-35.6309
79.6959,-34.9557
80.1963,-34.2935
80.7097,-33.6404
81.2271,-32.9907
81.7323,-32.3365
82.1963,-31.6595
82.5915,-30.9464
82.9066,-30.1953
83.1481,-29.4104
83.3417,-28.6057
83.5175,-27.7971
83.6978,-26.9923
83.9092,-26.2044
84.1856,-25.4508
84.5412,-24.7324
84.9623,-24.0397
85.3941,-23.3534
85.7611,-22.6476
85.9996,-21.9118
86.0821,-21.1524
86.0371,-20.3793
85.9659,-19.6105
85.9873,-18.8616
86.1673,-18.1357
86.5058,-17.435
86.9468,-16.757
87.4278,-16.0871
87.9099,-15.4128
88.3624,-14.7249
88.7484,-14.0096
89.0473,-13.2593
89.2589,-12.4777
89.4001,-11.672
89.4925,-10.8532
89.5294,-10.0329
89.4866,-9.2185
89.349,-8.4185
89.1146,-7.641
88.7938,-6.8926
88.4067,-6.1824
87.9567,-5.525
87.4403,-4.9252
86.8694,-4.3702
87.1623,-4.6702
86.6671,-4.1594
86.1369,-3.6773
85.5632,-3.2567
84.9914,-2.833
84.4064,-2.4122
83.7593,-2.1424
83.078,-1.9323
82.3876,-1.718
81.7119,-1.5192
81.0354,-1.3468
-46.6154,-33.6245