93.8895,-53.2515
93.1305,-52.8725
92.3685,-52.4989
91.6022,-52.1333
90.831,-51.7772
90.0565,-51.428
89.2839,-51.0794
88.514,-50.7242
87.7468,-50.3621
86.9796,-49.9993
86.2088,-49.6442
85.432,-49.3022
84.6503,-48.9707
83.8706,-48.6395
83.0994,-48.2935
82.3422,-47.9193
81.604,-47.5093
80.8887,-47.0607
80.2013,-46.5714
79.5496,-46.0382
78.9479,-45.4572
78.4213,-44.8252
78.0004,-44.1379
77.7147,-43.3966
77.5747,-42.6112
77.5649,-41.7979
77.6515,-40.9718
77.797,-40.1424
77.9734,-39.3148
78.1705,-38.4935
78.3983,-37.6859
78.6848,-36.9078
79.0586,-36.1783
79.5311,-35.5113
80.0879,-34.9055
80.6894,-34.3366
81.2811,-33.764
81.8045,-33.146
82.2195,-32.4596
82.519,-31.7067
82.7246,-30.9064
82.8724,-30.0822
83.001,-29.2523
83.152,-28.43
83.3624,-27.6263
83.647,-26.8472
84.0071,-26.0994
84.4312,-25.384
84.8951,-24.6938
85.3589,-24.0111
85.7715,-23.3117
86.0854,-22.5759
86.27,-21.7992
86.3251,-20.9943
86.2889,-20.1825
86.237,-19.387
86.2648,-18.6291
86.4419,-17.9241
86.7683,-17.2679
87.1746,-16.627
87.5662,-15.954
87.8853,-15.2223
88.1245,-14.4373
88.3044,-13.6192
88.4458,-12.7851
88.5603,-11.9458
88.6465,-11.1048
88.6927,-10.2635
88.6824,-9.4236
88.6061,-8.588
88.4611,-7.762
88.2475,-6.9521
87.9628,-6.1675
87.6016,-5.4193
87.1618,-4.7176
86.645,-4.069
86.0603,-3.4766
85.4195,-2.941
84.7337,-2.4624
84.0115,-2.0383
82.7607,-1.4717
82.0254,-1.1065
81.3095,-0.69998
80.5608,-0.37667
79.7756,-0.14066
78.988,0.092903
-45.4429,-34.2808