76.9904,-346.0424
77.362,-345.8261
77.7337,-345.6097
78.1054,-345.3935
78.477,-345.177
78.8487,-344.9608
79.2203,-344.7444
79.592,-344.5281
79.9636,-344.3117
80.3353,-344.0953
80.707,-343.8791
81.0786,-343.6626
81.4503,-343.4464
81.8219,-343.23
82.1936,-343.0137
82.5653,-342.7973
82.9369,-342.581
83.3086,-342.3647
83.6802,-342.1483
84.052,-341.932
84.4236,-341.7156
84.7953,-341.4993
85.1669,-341.283
85.5385,-341.0666
85.9075,-340.8457
86.274,-340.6207
86.6407,-340.396
87.0071,-340.171
87.3738,-339.9463
87.7403,-339.7214
88.107,-339.4966
88.4735,-339.2718
88.8401,-339.0468
89.2068,-338.8222
89.5732,-338.5971
89.9399,-338.3725
90.3064,-338.1475
90.6731,-337.9228
91.0396,-337.6979
91.4062,-337.473
91.7728,-337.2483
92.1393,-337.0233
92.506,-336.7987
92.8724,-336.5735
93.2392,-336.349
93.6056,-336.1238
93.9724,-335.8994
94.3387,-335.6741
94.7056,-335.4497
95.0719,-335.2244
95.4395,-335.0013
95.8131,-334.7885
96.1875,-334.5768
96.5611,-334.3639
96.927,-334.1381
97.2903,-333.9079
97.6543,-333.6789
98.0202,-333.4533
98.3995,-333.2505
98.7787,-333.0478
99.1576,-332.8444
99.5372,-332.6423
99.9145,-332.4361
100.293,-332.2317
100.6697,-332.0246
101.0484,-331.8204
101.4242,-331.6116
101.8005,-331.4032
102.1753,-331.1925
102.5511,-330.9834
102.9196,-330.7627
103.2696,-330.5129
103.6201,-330.2636
103.9697,-330.0133
104.3195,-329.7631
104.6668,-329.5095
105.0146,-329.2566
105.3624,-329.0037
105.7119,-328.7534
106.0798,-328.5304
106.4457,-328.3047
106.8141,-328.0824
107.1797,-327.8565
107.5178,-327.5929
107.8409,-327.309
108.1651,-327.0264
108.4895,-326.7443
108.8348,-326.4934
109.2215,-326.3035
109.6022,-326.1057
109.9907,-325.9182
110.3681,-325.7157
110.6779,-325.4192
110.9767,-325.108
111.2865,-324.8115
111.6353,-324.5667
112.016,-324.3646
112.3892,-324.1523
112.7681,-323.9477
113.1105,-323.6934
113.4223,-323.3975
113.7338,-323.101
114.0444,-322.8034
114.3758,-322.5306
114.7191,-322.2716
115.0639,-322.0147
115.408,-321.7566
115.7559,-321.5042
116.1125,-321.2635
116.4663,-321.0194
116.824,-320.7801
117.1719,-320.5287
117.4894,-320.2391
117.802,-319.9433
118.119,-319.6531
118.4326,-319.3585
118.7488,-319.0673
119.0641,-318.7747
119.379,-318.4818
119.6968,-318.1922
120.0182,-317.9063
120.343,-317.6247
120.664,-317.3383
120.9888,-317.0567
121.3339,-316.8005
121.6845,-316.5513
122.0334,-316.3
122.3831,-316.0497
122.7085,-315.77
123.0197,-315.473
123.3324,-315.178
123.6432,-314.8806
123.9608,-314.5909
124.2809,-314.3036
124.6022,-314.0178
124.9228,-313.7312
125.244,-313.4453
125.5694,-313.1641
125.8937,-312.8816
126.2195,-312.601
126.5435,-312.3181
126.858,-312.0251
127.1684,-311.7273
127.4803,-311.4313
127.791,-311.134
128.1012,-310.8361
128.4098,-310.5367
128.7183,-310.237
129.0273,-309.938
129.3394,-309.6422
129.6607,-309.3564
129.9804,-309.0688
130.3019,-308.7831
130.6202,-308.4941
130.9266,-308.1923
131.2306,-307.8882
131.5371,-307.5864
131.8409,-307.2823
132.1216,-306.9564
132.4,-306.6286
132.6803,-306.3025
132.9591,-305.9751
133.2734,-305.6822
133.5933,-305.3948
133.9126,-305.1068
134.2332,-304.82
134.5097,-304.4929
134.7685,-304.1497
135.0248,-303.8041
135.2836,-303.461
135.5822,-303.1534
135.8986,-302.862
136.2133,-302.569
136.529,-302.277
136.8093,-301.9544
137.0509,-301.5986
137.2937,-301.2437
137.5349,-300.8876
137.7909,-300.5434
138.0866,-300.2313
138.384,-299.9205
138.6801,-299.6088
138.976,-299.2967
139.2553,-298.9698
139.5337,-298.6419
139.8137,-298.3156
140.0903,-297.9863
140.3522,-297.6454
140.6114,-297.3021
140.8732,-296.961
141.1327,-296.618
141.4079,-296.2876
141.6835,-295.9575
141.9592,-295.6274
142.2357,-295.2981
142.4945,-294.9551
142.7407,-294.6027
142.9838,-294.2478
143.2304,-293.8956
143.4938,-293.5567
143.7813,-293.2366
144.0653,-292.914
144.3524,-292.5935
144.6192,-292.2586
144.8326,-291.8853
145.0446,-291.5111
145.2573,-291.1375
145.4698,-290.7635
145.6975,-290.3989
145.9294,-290.0366
146.1609,-289.6743
146.3928,-289.312
146.6425,-288.9622
146.8953,-288.6141
147.148,-288.2663
147.4006,-287.9182
147.6421,-287.5624
147.8808,-287.2048
148.1198,-286.8472
148.3585,-286.4896
148.5777,-286.1196
148.7939,-285.748
149.0098,-285.3759
149.2263,-285.0044
149.4772,-284.656
149.7394,-284.315
150.0006,-283.9735
150.2627,-283.6325
150.5178,-283.2864
150.7664,-282.9355
151.0151,-282.5846
151.263,-282.2333
151.4828,-281.8644
151.6875,-281.4862
151.8954,-281.1097
152.0993,-280.7311
152.2818,-280.3425
152.4444,-279.944
152.6126,-279.5486
152.7751,-279.15
152.9715,-278.7708
153.2274,-278.4256
153.4878,-278.083
153.7445,-277.7383
153.9779,-277.3787
154.1762,-276.997
154.3752,-276.6159
154.5744,-276.2347
154.7719,-275.8527
154.9678,-275.4699
155.1617,-275.086
155.3577,-274.7033
155.5518,-274.3194
155.7544,-273.9402
155.9582,-273.5615
156.1629,-273.1833
156.3671,-272.8049
156.5564,-272.4187
156.746,-272.0327
156.9351,-271.6464
157.1247,-271.2606
157.3284,-270.8818
157.5374,-270.5061
157.7464,-270.1302
157.955,-269.7542
158.1511,-269.3717
158.3337,-268.9823
158.5173,-268.5935
158.7,-268.2041
158.8828,-267.815
159.064,-267.4249
159.2452,-267.0349
159.4269,-266.6451
159.612,-266.2571
159.8196,-265.8805
160.0252,-265.5028
160.2331,-265.1263
160.4381,-264.7483
160.604,-264.3517
160.7672,-263.9537
160.933,-263.557
161.0972,-263.1595
161.2705,-262.7659
161.4418,-262.3715
161.6148,-261.9778
161.7864,-261.5835
161.9581,-261.1891
162.1283,-260.7943
162.2995,-260.3997
162.4698,-260.0049
162.6256,-259.6044
162.7661,-259.1979
162.9067,-258.7915
163.0476,-258.3852
163.203,-257.9854
163.4079,-257.6071
163.6107,-257.2281
163.8161,-256.85
164.0184,-256.4708
164.1378,-256.0583
164.2503,-255.6429
164.3667,-255.2292
164.4792,-254.8139
164.6549,-254.4226
164.8416,-254.0352
165.0311,-253.6492
165.2184,-253.262
165.366,-252.8587
165.5058,-252.4519
165.6462,-252.0455
165.7864,-251.6389
165.9411,-251.2378
166.1023,-250.8391
166.2633,-250.4403
166.4244,-250.0416
166.5677,-249.6365
166.6954,-249.2259
166.8235,-248.8153
166.951,-248.4047
167.0794,-247.9942
167.2077,-247.5838
167.3363,-247.1734
167.4647,-246.763
167.5928,-246.3525
167.7183,-245.9411
167.8435,-245.5297
167.969,-245.1184
168.0941,-244.707
168.2304,-244.2991
168.3665,-243.8912
168.5032,-243.4834
168.6392,-243.0755
168.7573,-242.662
168.8706,-242.2472
168.9853,-241.8327
169.0983,-241.4178
169.1987,-240.9999
169.2851,-240.5785
169.3739,-240.1579
169.4601,-239.7365
169.5647,-239.3202
169.7072,-238.9146
169.8522,-238.5096
169.9952,-238.1041
170.1395,-237.6989
170.2597,-237.2863
170.3718,-236.8711
170.4849,-236.4562
170.5962,-236.0408
170.704,-235.6247
170.793,-235.2038
170.8849,-234.7839
170.9739,-234.363
171.0674,-233.9434
171.2001,-233.5344
171.3349,-233.126
171.4681,-232.7171
171.6023,-232.3086
171.6954,-231.89
171.7642,-231.4655
171.8333,-231.041
171.9019,-230.6165
171.9805,-230.1939
172.0722,-229.7737
172.1648,-229.3537
172.2563,-228.9335
172.3344,-228.5112
172.3828,-228.0838
172.4329,-227.6568
172.4808,-227.2293
172.54,-226.8041
172.6552,-226.3899
172.7739,-225.9764
172.8891,-225.5622
173.0076,-225.1487
173.074,-224.7259
173.1064,-224.2972
173.1372,-223.8682
173.1686,-223.4394
173.2065,-223.0111
173.2588,-222.5842
173.3132,-222.1577
173.365,-221.7307
173.4193,-221.3042
173.4626,-220.8762
173.5075,-220.4486
173.5519,-220.0208
173.5953,-219.593
173.6383,-219.1651
173.6756,-218.7366
173.718,-218.3088
173.7544,-217.8801
173.7832,-217.4516
173.7931,-217.0212
173.8087,-216.5918
173.8199,-216.1616
173.8409,-215.733
173.9472,-215.3161
174.052,-214.8994
174.1605,-214.4828
174.2561,-214.0652
174.2276,-213.6367
174.1916,-213.2074
174.1632,-212.779
174.1278,-212.3497
174.1494,-211.9207
174.1692,-211.4908
174.1912,-211.0616
174.2129,-210.6319
174.2083,-210.2019
174.2066,-209.7719
174.2005,-209.3418
174.1993,-208.9119
174.2225,-208.4827
174.255,-208.0539
174.2845,-207.6248
174.3155,-207.196
174.3502,-206.7672
174.3836,-206.3386
174.4204,-205.91
174.4527,-205.4813
174.4514,-205.052
174.4295,-204.6224
174.4121,-204.1928
174.3912,-203.7632
174.3686,-203.3338
174.3422,-202.9046
174.3145,-202.4754
174.2896,-202.0461
174.2813,-201.6167
174.3016,-201.187
174.3165,-200.7574
174.3367,-200.3277
174.3419,-199.8985
174.2893,-199.4718
174.2344,-199.0452
174.1802,-198.6186
174.1421,-198.1913
174.1583,-197.7616
174.1777,-197.3319
174.1931,-196.9023
174.1839,-196.4736
174.1316,-196.0466
174.0831,-195.6194
174.0317,-195.1924
173.9931,-194.7645
173.9823,-194.3346
173.971,-193.9047
173.9613,-193.4748
173.9485,-193.0449
173.9315,-192.6152
173.9108,-192.1857
173.894,-191.7559
173.8735,-191.3265
173.8234,-190.8996
173.765,-190.4735
173.7081,-190.0472
173.6506,-189.6211
173.6084,-189.1934
173.5841,-188.764
173.5583,-188.3349
173.5345,-187.9053
173.5008,-187.4772
173.4221,-187.0544
173.3416,-186.632
173.2626,-186.2092
173.1974,-185.7851
173.1846,-185.3552
173.1719,-184.9254
173.1587,-184.4956
173.1312,-184.0669
173.0693,-183.6414
173.0084,-183.2156
172.9466,-182.7902
172.8864,-182.3643
172.8299,-181.938
172.7737,-181.5116
172.7174,-181.0853
172.661,-180.659
172.6098,-180.232
172.5632,-179.8045
172.5161,-179.377
172.47,-178.9495
172.4178,-178.5228
172.3447,-178.099
172.2686,-177.6757
172.1962,-177.2518
172.1196,-176.8287
172.0269,-176.4089
171.9269,-175.9906
171.831,-175.5714
171.7316,-175.153
171.6555,-174.73
171.5898,-174.305
171.524,-173.8801
171.4597,-173.4548
171.3946,-173.0298
171.3464,-172.6023
171.2934,-172.1758
171.2458,-171.7481
171.1926,-171.3216
171.1104,-170.8995
171.0225,-170.4785
170.9389,-170.0567
170.8519,-169.6355
170.7396,-169.2208
170.6189,-168.8079
170.4991,-168.3949
170.3788,-167.982
170.2837,-167.5632
170.2069,-167.1401
170.1305,-166.7169
170.0534,-166.2939
169.9641,-165.8733
169.863,-165.4554
169.7635,-165.037
169.6623,-164.619
169.5579,-164.2019
169.4388,-163.7887
169.3198,-163.3755
169.2015,-162.9619
169.0906,-162.547
169.0224,-162.1222
168.9507,-161.6984
168.883,-161.2735
168.8089,-160.8502
168.6854,-160.4384
168.5578,-160.0275
168.4337,-159.616
168.3069,-159.2049
168.17,-158.7974
168.0319,-158.39
167.894,-157.9827
167.7565,-157.5753
167.6478,-157.1593
167.542,-156.7426
167.4361,-156.3256
167.3297,-155.9091
167.1936,-155.5016
167.0429,-155.0988
166.8951,-154.695
166.7439,-154.2923
166.5992,-153.8876
166.4588,-153.4809
166.3211,-153.0737
166.1815,-152.6667
166.0491,-152.2583
165.9727,-151.8347
165.8943,-151.4123
165.8193,-150.9884
165.7397,-150.5663
165.5547,-150.179
165.36,-149.7951
165.1711,-149.4092
164.9769,-149.0251
164.8635,-148.6146
164.7896,-148.1911
164.7178,-147.767
164.645,-147.3432
164.5247,-146.9345
164.3395,-146.5466
164.1522,-146.1592
163.9674,-145.7712
163.7901,-145.3797
163.6508,-144.973
163.5093,-144.5668
163.3696,-144.1601
163.2286,-143.7538
163.0826,-143.3493
162.9364,-142.945
162.7899,-142.5405
162.644,-142.1361
162.4703,-141.7431
162.2838,-141.3557
162.0965,-140.9686
161.9099,-140.5811
161.7157,-140.1977
161.5109,-139.8193
161.3056,-139.4417
161.1008,-139.0633
160.8918,-138.6878
160.659,-138.3261
160.4265,-137.9644
160.1932,-137.6031
159.9613,-137.241
159.7638,-136.86
159.583,-136.4695
159.3981,-136.0816
159.2183,-135.6905
159.0325,-135.3031
158.7949,-134.9454
158.5459,-134.5943
158.3047,-134.2387
158.0557,-133.8875
157.8563,-133.5092
157.6882,-133.1138
157.5263,-132.715
157.3593,-132.319
157.1325,-131.9586
156.8628,-131.6233
156.5946,-131.2872
156.326,-130.9515
156.0949,-130.5923
155.9156,-130.2015
155.7346,-129.8113
155.5557,-129.4203
155.3696,-129.0328
155.1646,-128.6548
154.9575,-128.278
154.7524,-127.8999
154.5454,-127.5231
154.3027,-127.1684
154.0538,-126.8177
153.8067,-126.4657
153.5579,-126.1149
153.346,-125.7412
153.142,-125.3627
152.9386,-124.9838
152.7351,-124.6049
152.4923,-124.253
152.2136,-123.9257
151.9326,-123.5998
151.6546,-123.2721
151.4166,-122.9186
151.2374,-122.5273
151.0538,-122.1387
150.8747,-121.7475
150.679,-121.3659
150.4302,-121.0155
150.1787,-120.6663
149.9289,-120.3165
149.6754,-119.969
149.4168,-119.6254
149.1597,-119.2808
148.9003,-118.9376
148.6521,-118.5875
148.4544,-118.2057
148.2603,-117.8218
148.0627,-117.44
147.8684,-117.0562
147.6394,-116.6936
147.3905,-116.343
147.1398,-115.9935
146.8903,-115.6432
146.6345,-115.2976
146.3763,-114.9536
146.1183,-114.6097
145.8598,-114.2659
145.624,-113.9069
145.4016,-113.5389
145.1801,-113.1703
144.9576,-112.8023
144.7247,-112.4408
144.4854,-112.0836
144.2469,-111.7257
144.0077,-111.3684
143.7596,-111.0172
143.5055,-110.6702
143.2517,-110.3231
142.9978,-109.976
142.7435,-109.6293
142.4889,-109.2826
142.234,-108.9363
141.9795,-108.5896
141.7226,-108.2448
141.4558,-107.9076
141.1891,-107.5702
140.9219,-107.2332
140.6556,-106.8955
140.4128,-106.5411
140.1771,-106.1812
139.9396,-105.8228
139.704,-105.463
139.4554,-105.1121
139.2052,-104.7624
138.9545,-104.4128
138.7035,-104.0639
138.4702,-103.7025
138.2398,-103.3398
138.0134,-102.9736
137.7818,-102.6119
137.4908,-102.3003
137.1663,-102.0171
136.8494,-101.7274
136.5247,-101.4443
136.2121,-101.1502
135.9213,-100.8333
135.6369,-100.5107
135.347,-100.1931
135.0733,-99.8624
134.8395,-99.5019
134.6077,-99.1394
134.375,-98.7779
134.142,-98.4164
133.8919,-98.0666
133.6402,-97.718
133.3906,-97.3677
133.1385,-97.0194
132.8597,-96.6935
132.5583,-96.3866
132.2594,-96.0776
131.9583,-95.7705
131.6648,-95.4564
131.3811,-95.1332
131.0986,-94.809
130.8153,-94.4854
130.5311,-94.1627
130.2435,-93.8429
129.9553,-93.5238
129.6681,-93.2037
129.3801,-92.8843
129.0998,-92.5582
128.8176,-92.2337
128.5373,-91.9075
128.2552,-91.5829
127.9488,-91.2819
127.6328,-90.9902
127.3175,-90.6978
127.0019,-90.4057
126.6987,-90.1012
126.409,-89.7835
126.1183,-89.4665
125.829,-89.1484
125.5339,-88.8358
125.221,-88.5408
124.9067,-88.2472
124.5937,-87.9523
124.2797,-87.6586
123.9579,-87.3732
123.6355,-87.0889
123.3133,-86.8037
122.9954,-86.5149
122.7107,-86.1923
122.4257,-85.8705
122.1413,-85.5477
121.856,-85.2262
121.5202,-84.9602
121.1707,-84.7093
120.823,-84.4566
120.4733,-84.2059
120.1449,-83.9298
119.8296,-83.6373
119.5163,-83.3427
119.2012,-83.0501
118.8808,-82.7634
118.5515,-82.487
118.2231,-82.2092
117.8941,-81.9324
117.5739,-81.6459
117.2752,-81.3366
116.9766,-81.0271
116.6781,-80.7175
116.372,-80.416
116.0475,-80.1336
115.7222,-79.8526
115.3981,-79.5697
115.0724,-79.2891
114.7486,-79.006
114.4225,-78.7258
114.0989,-78.4424
113.7726,-78.1623
113.4224,-77.9135
113.0666,-77.6716
112.7129,-77.4273
112.3577,-77.1846
112.0209,-76.9181
111.6926,-76.6402
111.3633,-76.3637
111.0359,-76.0849
110.7045,-75.8108
110.3627,-75.5502
110.0176,-75.2933
109.6755,-75.033
109.331,-74.7753
108.9879,-74.5161
108.6444,-74.2575
108.2998,-74
107.9576,-73.7398
107.6099,-73.4867
107.245,-73.2601
106.8752,-73.0396
106.5103,-72.8127
106.1409,-72.5919
105.7752,-72.366
105.407,-72.1437
105.0397,-71.9197
104.6734,-71.6953
104.3043,-71.4735
103.9396,-71.2468
103.569,-71.0271
103.2054,-70.7987
102.8342,-70.5802
102.4709,-70.3511
102.1567,-70.06
101.8542,-69.7528
101.5451,-69.4551
101.2204,-69.1743
100.8588,-68.9437
100.4748,-68.7509
100.0881,-68.5621
99.7255,-68.3361
99.3914,-68.0653
99.0579,-67.7938
98.7242,-67.5225
98.3738,-67.2766
97.9934,-67.0761
97.6129,-66.8756
97.2324,-66.6753
96.8599,-66.461
96.4987,-66.228
96.1377,-65.9938
95.7764,-65.7611
95.4011,-65.5513
95.0203,-65.3519
94.6401,-65.1507
94.259,-64.9514
93.87,-64.7695
93.4728,-64.6038
93.0773,-64.436
92.6799,-64.2704
92.285,-64.1012
91.8889,-63.933
91.4944,-63.7624
91.0986,-63.594
90.7062,-63.4185
90.3293,-63.2118
89.9524,-63.0041
89.576,-62.7969
89.1988,-62.5897
88.802,-62.4316
88.3884,-62.3129
87.9755,-62.1931
87.5621,-62.0747
87.1578,-61.9309
86.7685,-61.7494
86.3786,-61.5666
85.9895,-61.3849
85.5996,-61.2023
85.2103,-61.0205
84.8207,-60.838
84.431,-60.6561
84.0419,-60.4736
83.6517,-60.2918
83.263,-60.1091
82.8725,-59.9275
82.4839,-59.7447
82.0936,-59.5631
81.7045,-59.3804
81.3148,-59.1985
80.925,-59.0162
80.5362,-58.8339
80.1456,-58.6522
79.7733,-58.4409
79.4148,-58.2024
79.0592,-57.9613
78.7009,-57.7231
78.3338,-57.4996
77.9606,-57.2863
77.5882,-57.0704
77.2159,-56.8564
76.8528,-56.6257
76.5076,-56.3705
76.1601,-56.1162
75.8152,-55.8597
75.4643,-55.6115
75.1054,-55.374
74.7399,-55.1494
74.3549,-54.9564
73.9681,-54.7702
73.5832,-54.5767
73.2304,-54.3393
72.9089,-54.0516
72.5775,-53.7794
72.2297,-53.5268
71.8734,-53.284
71.5281,-53.0309
71.229,-52.7216
70.9515,-52.3949
70.6557,-52.0796
70.3722,-51.7602
70.0657,-51.4531
69.8724,-51.099
69.8585,-50.6735
69.75,-50.2626
69.579,-49.867
69.5094,-49.4509
69.512,-49.0226
69.5289,-48.5918
69.5341,-48.1622
69.5188,-47.7341
69.4566,-47.3079
69.3984,-46.8823
69.3384,-46.4562
69.3304,-46.0325
69.4275,-45.6137
69.5193,-45.1933
69.5981,-44.7711
69.6731,-44.347
69.7516,-43.9248
69.863,-43.5096
69.9883,-43.0984
70.1142,-42.6874
70.2373,-42.2747
70.3704,-41.8669
70.505,-41.4572
70.6493,-41.0535
70.7821,-40.6428
70.9276,-40.2396
71.1949,-39.9185
71.5214,-39.6346
71.8538,-39.37
72.2364,-39.168
72.6143,-38.9658
72.9925,-38.7608
73.3752,-38.5617
73.7484,-38.3537
74.1359,-38.1573
74.5049,-37.9471
74.9135,-37.8001
75.3207,-37.6975
75.6253,-37.457
75.8618,-37.1071
76.0122,-36.7158
76.1076,-36.2936
76.219,-35.8802
76.3681,-35.4769
76.5346,-35.0804
76.6978,-34.6828
76.8605,-34.2842
76.9901,-33.8752
77.1109,-33.4614
77.2391,-33.052
77.3593,-32.638
77.4539,-32.2204
77.5249,-31.7952
77.6021,-31.3728
77.6742,-30.9486
77.8023,-30.5428
77.9986,-30.161
78.197,-29.7785
78.3939,-29.3971
78.5933,-29.0153
78.8018,-28.6399
79.0104,-28.2634
79.2195,-27.8877
79.4274,-27.5115
79.6223,-27.1277
79.8095,-26.7414
80.0005,-26.355
80.1869,-25.9687
80.3265,-25.5627
80.439,-25.1481
80.5569,-24.7343
80.6698,-24.3193
80.7757,-23.903
80.8744,-23.4836
80.9747,-23.0664
81.0748,-22.6471
81.1766,-22.2304
81.2818,-21.8125
81.3843,-21.3955
81.4897,-20.9783
81.6146,-20.5672
81.7585,-20.1624
81.9011,-19.7558
82.0443,-19.3516
82.1969,-18.9482
82.3622,-18.5526
82.5262,-18.154
82.6932,-17.7582
82.8626,-17.3634
83.0546,-16.9771
83.2348,-16.589
83.2906,-16.1627
83.3263,-15.7344
83.3826,-15.3074
83.4188,-14.8793
83.479,-14.4529
83.5182,-14.0246
83.5759,-13.5987
83.6001,-13.1701
83.5507,-12.745
83.4954,-12.3167
83.4414,-11.8915
83.3899,-11.4637
83.3007,-11.0429
83.2183,-10.6216
83.1255,-10.2003
83.0323,-9.7825
82.9371,-9.3606
82.8411,-8.9444
82.8256,-8.5107
82.799,-8.0859
82.7876,-7.6511
82.6595,-7.2755
82.3407,-6.9931
82.0022,-6.721
81.6824,-6.4388
81.4745,-6.0627
81.2777,-5.6796
81.0743,-5.3018
80.8589,-4.932
80.5263,-4.662
80.1896,-4.3912
79.8581,-4.1202
79.5221,-3.85
79.1873,-3.58
78.8547,-3.3099
78.5148,-3.0412
78.2615,-2.7176
78.076,-2.3422
77.733,-2.0952
77.3625,-1.8618
77.0215,-1.6105
76.651,-1.3816
76.308,-1.1257
75.9412,-0.90168
75.5446,-0.73603
75.1363,-0.6093
74.7329,-0.441
74.3311,-0.31594
73.922,-0.14709
73.5247,-0.021397
