73.7021,-356.6163
74.013,-356.3064
74.3232,-355.9954
74.6339,-355.6851
74.9445,-355.3746
75.2548,-355.0636
75.5657,-354.7538
75.8759,-354.4426
76.1867,-354.1324
76.4972,-353.8219
76.8075,-353.5109
77.1185,-353.2011
77.4285,-352.8898
77.7395,-352.5798
78.0499,-352.2691
78.3602,-351.9581
78.6713,-351.6485
78.9812,-351.3369
79.2923,-351.0272
79.6025,-350.7163
79.913,-350.4055
80.224,-350.0958
80.5338,-349.784
80.8561,-349.4866
81.1922,-349.204
81.5295,-348.9224
81.8662,-348.6409
82.2029,-348.3585
82.54,-348.0772
82.8767,-347.7952
83.2134,-347.5131
83.5506,-347.2321
83.8869,-346.9492
84.2242,-346.6683
84.5608,-346.3861
84.8975,-346.1039
85.2348,-345.8231
85.571,-345.54
85.9084,-345.2593
86.2451,-344.977
86.5816,-344.6947
86.9191,-344.4142
87.2553,-344.1309
87.5921,-343.8499
87.9302,-343.5689
88.264,-343.2839
88.5708,-342.9728
88.8484,-342.6298
89.1384,-342.3028
89.4769,-342.0306
89.8546,-341.805
90.2284,-341.5752
90.6,-341.3411
90.9812,-341.1219
91.3514,-340.8871
91.7349,-340.6703
92.1071,-340.4396
92.4279,-340.1384
92.7483,-339.8411
93.0615,-339.5288
93.3906,-339.2446
93.8012,-339.0987
94.2266,-338.9762
94.6408,-338.8372
95.0606,-338.705
95.446,-338.4998
95.8169,-338.2635
96.1951,-338.041
96.5666,-337.8061
96.9206,-337.55
97.248,-337.2578
97.5694,-336.9569
97.9025,-336.6726
98.2539,-336.4089
98.6139,-336.1569
98.9691,-335.8995
99.3372,-335.6596
99.7155,-335.4368
100.1008,-335.2275
100.4977,-335.0375
100.8884,-334.8382
101.2689,-334.6204
101.6346,-334.3777
101.9949,-334.1261
102.3624,-333.8857
102.723,-333.635
103.0825,-333.3826
103.4425,-333.1313
103.7971,-332.8722
104.1193,-332.5825
104.3768,-332.224
104.6574,-331.8905
105.0214,-331.6483
105.3932,-331.4109
105.7627,-331.177
106.1584,-330.9846
106.5563,-330.799
106.9509,-330.6071
107.3298,-330.3879
107.6827,-330.1275
108.0353,-329.8646
108.3901,-329.6066
108.7414,-329.3427
109.0938,-329.0804
109.442,-328.8133
109.7933,-328.549
110.1426,-328.2834
110.474,-327.9953
110.8001,-327.7011
111.1264,-327.4075
111.4606,-327.1227
111.8117,-326.8593
112.1627,-326.5951
112.5137,-326.3311
112.8539,-326.0549
113.1702,-325.7495
113.4876,-325.4466
113.8034,-325.141
114.1213,-324.838
114.4658,-324.5667
114.8166,-324.3015
115.1644,-324.0343
115.5151,-323.7693
115.8545,-323.4911
116.1837,-323.201
116.5114,-322.9076
116.8401,-322.6174
117.1674,-322.3237
117.4941,-322.0305
117.8203,-321.737
118.1471,-321.4424
118.5128,-321.2064
118.9002,-320.9978
119.2316,-320.7141
119.55,-320.4107
119.8711,-320.1117
120.0794,-319.7236
120.2515,-319.3237
120.5552,-319.0368
120.9326,-318.8073
121.2992,-318.569
121.6583,-318.3154
122.0028,-318.0432
122.3489,-317.7735
122.6966,-317.5041
123.0281,-317.2176
123.3528,-316.9214
123.6736,-316.6215
123.9965,-316.3241
124.3161,-316.0224
124.6281,-315.7138
124.9429,-315.4072
125.2556,-315.0989
125.5821,-314.8059
125.9195,-314.524
126.2518,-314.2379
126.5909,-313.9577
126.8973,-313.647
127.159,-313.2949
127.4195,-312.941
127.6769,-312.585
127.9432,-312.2365
128.2427,-311.9155
128.5536,-311.6051
128.8543,-311.2849
129.162,-310.9717
129.4916,-310.6812
129.8193,-310.3895
130.1527,-310.1027
130.4783,-309.8088
130.753,-309.4671
131.0183,-309.1166
131.2875,-308.77
131.5556,-308.4219
131.8596,-308.1054
132.1678,-307.7925
132.4748,-307.4784
132.7816,-307.1643
133.0483,-306.8157
133.3088,-306.462
133.5727,-306.1111
133.8424,-305.7652
134.1489,-305.4507
134.4566,-305.1371
134.7613,-304.8212
135.0673,-304.5059
135.3523,-304.1719
135.6396,-303.8397
135.9265,-303.5071
136.212,-303.1735
136.5146,-302.855
136.8167,-302.5366
137.1206,-302.2193
137.4244,-301.9021
137.6977,-301.5604
137.9435,-301.1967
138.1868,-300.8309
138.4312,-300.4661
138.6768,-300.1021
138.9396,-299.7502
139.2087,-299.4031
139.4713,-299.0511
139.7396,-298.7033
140.0087,-298.3563
140.2786,-298.0099
140.5515,-297.6656
140.8175,-297.3164
141.0773,-296.9623
141.3316,-296.6042
141.5891,-296.2485
141.8464,-295.8925
142.0949,-295.5304
142.3464,-295.1704
142.594,-294.8076
142.844,-294.4465
143.115,-294.1014
143.3941,-293.7626
143.6779,-293.4271
143.9564,-293.0879
144.206,-292.7277
144.4368,-292.3539
144.6662,-291.9795
144.8997,-291.6076
145.1454,-291.2438
145.4011,-290.8866
145.6534,-290.5271
145.9061,-290.168
146.166,-289.8139
146.4266,-289.4607
146.6934,-289.1115
146.9548,-288.7588
147.1848,-288.386
147.3952,-288.0005
147.6031,-287.6136
147.8152,-287.2291
148.0514,-286.8601
148.3125,-286.5069
148.5744,-286.1543
148.832,-285.7989
149.0833,-285.4384
149.3247,-285.0718
149.5756,-284.7111
149.8184,-284.3452
150.0266,-283.9588
150.2312,-283.5701
150.4363,-283.1817
150.6426,-282.7942
150.8827,-282.4272
151.1377,-282.0697
151.3902,-281.7103
151.6454,-281.3528
151.8776,-280.9814
152.0799,-280.5916
152.2774,-280.1993
152.48,-279.8096
152.6772,-279.4172
152.8676,-279.0215
153.0581,-278.6258
153.2455,-278.2285
153.4399,-277.8349
153.6553,-277.4524
153.8783,-277.0738
154.0951,-276.6919
154.3155,-276.3122
154.5422,-275.9358
154.7676,-275.5592
154.9957,-275.1836
155.2222,-274.8074
155.4546,-274.435
155.6942,-274.0663
155.9238,-273.6928
156.1671,-273.3259
156.3915,-272.9498
156.5455,-272.5394
156.6875,-272.1231
156.837,-271.7106
156.9973,-271.3026
157.2053,-270.916
157.4189,-270.5319
157.6254,-270.1446
157.8386,-269.7604
158.0367,-269.3685
158.2351,-268.9767
158.4335,-268.5849
158.6313,-268.1928
158.8432,-267.8081
159.0536,-267.4226
159.2646,-267.0374
159.4752,-266.6521
159.6756,-266.2613
159.8758,-265.8704
160.0778,-265.4804
160.2759,-265.0885
160.4554,-264.688
160.6192,-264.2805
160.7905,-263.876
160.9555,-263.4691
161.0943,-263.0528
161.2221,-262.6328
161.3483,-262.2118
161.4782,-261.7927
161.645,-261.3882
161.8458,-260.9973
162.0437,-260.6054
162.2422,-260.2136
162.4396,-259.8212
162.6313,-259.4263
162.8278,-259.0333
163.0197,-258.6385
163.2187,-258.2468
163.4258,-257.8596
163.6317,-257.4719
163.8411,-257.0854
164.0055,-256.6819
164.1128,-256.2563
164.2145,-255.8288
164.321,-255.4029
164.4424,-254.9812
164.5836,-254.5654
164.724,-254.1491
164.8643,-253.7331
165.0089,-253.3184
165.1584,-252.9055
165.3098,-252.4932
165.4587,-252.08
165.6142,-251.6694
165.779,-251.2623
165.9475,-250.8567
166.1128,-250.4499
166.2799,-250.0437
166.4559,-249.6413
166.6295,-249.2381
166.8081,-248.8365
166.98,-248.4328
167.1015,-248.0125
167.1944,-247.583
167.2917,-247.1549
167.3874,-246.7263
167.5064,-246.3041
167.6487,-245.8885
167.7869,-245.4718
167.9285,-245.056
168.065,-244.6386
168.1932,-244.2186
168.3249,-243.7995
168.4521,-243.3793
168.5871,-242.9613
168.7294,-242.5458
168.8675,-242.1291
169.015,-241.7149
169.1486,-241.2972
169.237,-240.8677
169.3069,-240.4335
169.389,-240.0023
169.4651,-239.5698
169.5267,-239.1345
169.5944,-238.7015
169.647,-238.2642
169.7177,-237.8319
169.8762,-237.4251
170.0612,-237.0257
170.2376,-236.624
170.4164,-236.2229
170.5306,-235.8024
170.5986,-235.368
170.6736,-234.9357
170.7434,-234.5018
170.8243,-234.0703
170.9087,-233.6393
170.987,-233.207
171.0738,-232.7767
171.1619,-232.3462
171.2586,-231.9181
171.3501,-231.4883
171.4435,-231.0593
171.5756,-230.6408
171.7155,-230.2249
171.8606,-229.81
172.0001,-229.3939
172.0681,-228.9632
172.0986,-228.5249
172.132,-228.0871
172.1639,-227.649
172.2275,-227.2152
172.3106,-226.7839
172.3916,-226.3523
172.4753,-225.9211
172.5452,-225.4877
172.6087,-225.0531
172.6702,-224.6182
172.7323,-224.1835
172.8148,-223.7525
172.9121,-223.3244
173.0129,-222.8968
173.11,-222.4686
173.1971,-222.0383
173.2729,-221.6056
173.3472,-221.1729
173.4253,-220.7406
173.4748,-220.3049
173.4996,-219.8668
173.52,-219.4278
173.5424,-218.9893
173.6183,-218.5596
173.7375,-218.1373
173.8631,-217.716
173.9816,-217.2935
174.0284,-216.8615
174.0235,-216.422
174.0193,-215.9829
174.0175,-215.5439
174.0637,-215.1087
174.1412,-214.6762
174.2137,-214.2432
174.2893,-213.8105
174.3361,-213.3744
174.364,-212.936
174.3954,-212.4981
174.4228,-212.0597
174.4583,-211.622
174.497,-211.1845
174.5358,-210.7471
174.5761,-210.3098
174.6154,-209.8723
174.6594,-209.4354
174.7023,-208.9983
174.745,-208.5612
174.7903,-208.1244
174.8381,-207.6878
174.8869,-207.2514
174.9362,-206.8149
174.9737,-206.3778
174.9757,-205.9388
174.9721,-205.4994
174.9743,-205.0605
174.9719,-204.6211
174.995,-204.1826
175.0208,-203.7442
175.0431,-203.3056
175.0709,-202.8673
175.0631,-202.4287
175.0381,-201.9905
175.0111,-201.5521
174.9823,-201.1137
174.9601,-200.6754
174.9314,-200.2366
174.9132,-199.7984
174.8849,-199.3596
174.8786,-198.922
174.9481,-198.4883
175.0163,-198.0549
175.0907,-197.6213
175.155,-197.1878
175.1141,-196.7533
175.0451,-196.3185
174.9872,-195.884
174.9212,-195.4492
174.9023,-195.0119
174.9092,-194.5727
174.9141,-194.1336
174.9227,-193.6945
174.9133,-193.2556
174.8879,-192.8173
174.8609,-192.3789
174.8337,-191.9406
174.8118,-191.502
174.8063,-191.0629
174.8029,-190.6238
174.7982,-190.1845
174.7867,-189.7459
174.7395,-189.3092
174.69,-188.8729
174.6432,-188.4362
174.594,-187.9998
174.5971,-187.5619
174.6221,-187.1234
174.646,-186.6849
174.6721,-186.2464
174.6539,-185.8089
174.611,-185.3718
174.5663,-184.935
174.5217,-184.498
174.4572,-184.0648
174.3481,-183.6389
174.2457,-183.2125
174.1346,-182.7868
174.0335,-182.3601
174.0209,-181.9226
174.0256,-181.4827
174.0224,-181.0441
174.0245,-180.6045
173.972,-180.1704
173.8894,-179.739
173.8102,-179.307
173.7261,-178.8759
173.6298,-178.4477
173.5221,-178.0218
173.4168,-177.5955
173.3115,-177.1692
173.2376,-176.7374
173.1943,-176.3002
173.1478,-175.8636
173.103,-175.4267
173.0223,-174.9961
172.9128,-174.5706
172.8087,-174.1442
172.6984,-173.7189
172.6178,-173.2881
172.5659,-172.852
172.5143,-172.416
172.4652,-171.9794
172.409,-171.544
172.3538,-171.1082
172.296,-170.6728
172.2374,-170.2377
172.1631,-169.8053
172.0586,-169.3785
171.9644,-168.9498
171.8606,-168.5226
171.7783,-168.0929
171.7647,-167.6532
171.7441,-167.2158
171.7372,-166.7749
171.7117,-166.3381
171.5675,-165.9253
171.4026,-165.5164
171.2522,-165.1052
171.0936,-164.6947
170.9794,-164.2713
170.8726,-163.845
170.7578,-163.4211
170.6522,-162.9949
170.5359,-162.5712
170.4242,-162.1467
170.3112,-161.7221
170.1965,-161.2982
170.0954,-160.8709
169.9914,-160.4441
169.8901,-160.0169
169.7877,-159.5897
169.6712,-159.1664
169.5515,-158.7439
169.4306,-158.3215
169.31,-157.8994
169.1842,-157.4785
169.0505,-157.0603
168.9194,-156.6411
168.786,-156.2226
168.6579,-155.8027
168.541,-155.3792
168.4223,-154.9565
168.3064,-154.5329
168.1752,-154.1142
168.0151,-153.7054
167.8541,-153.2967
167.6928,-152.8882
167.5438,-152.4756
167.4237,-152.053
167.3034,-151.6309
167.1849,-151.2077
167.0448,-150.7931
166.8526,-150.3984
166.6565,-150.0052
166.4625,-149.6114
166.2797,-149.2128
166.1476,-148.7943
166.0223,-148.373
165.8886,-147.955
165.7619,-147.5342
165.6239,-147.1174
165.4884,-146.6996
165.3546,-146.2812
165.2149,-145.865
165.0698,-145.4504
164.9153,-145.0394
164.7694,-144.625
164.5949,-144.2237
164.3734,-143.8445
164.1515,-143.4658
163.9276,-143.0875
163.7292,-142.6977
163.5788,-142.2852
163.4303,-141.8717
163.2816,-141.4587
163.113,-141.0542
162.9026,-140.669
162.6898,-140.2846
162.4788,-139.8995
162.2821,-139.5077
162.1174,-139.1004
161.9544,-138.6927
161.7894,-138.2857
161.6171,-137.8819
161.426,-137.4866
161.2349,-137.091
161.0448,-136.6953
160.853,-136.3001
160.662,-135.9046
160.4687,-135.5103
160.277,-135.115
160.0843,-134.7206
159.8886,-134.3273
159.6909,-133.9352
159.4932,-133.5431
159.2952,-133.1509
159.0906,-132.7625
158.8867,-132.3734
158.6817,-131.9851
158.4781,-131.596
158.2936,-131.1974
158.1137,-130.797
157.9342,-130.396
157.7528,-129.9962
157.547,-129.6084
157.3346,-129.2237
157.1275,-128.8367
156.9154,-128.4519
156.7014,-128.0686
156.4808,-127.6888
156.2602,-127.3089
156.0415,-126.9284
155.8168,-126.5507
155.5918,-126.1738
155.3643,-125.7981
155.1376,-125.4218
154.9128,-125.0448
154.6868,-124.6679
154.465,-124.2891
154.239,-123.9124
154.0167,-123.5336
153.8064,-123.1482
153.5949,-122.7631
153.3869,-122.3764
153.1657,-121.9976
152.9134,-121.6383
152.6558,-121.2826
152.4021,-120.9239
152.1464,-120.5671
151.8934,-120.2079
151.642,-119.8479
151.3885,-119.4894
151.137,-119.1291
150.9005,-118.7597
150.6779,-118.381
150.4562,-118.0018
150.2328,-117.624
150.0012,-117.2506
149.761,-116.8833
149.522,-116.5146
149.2828,-116.1463
149.0387,-115.7815
148.7891,-115.4198
148.5376,-115.0601
148.2881,-114.6984
148.0356,-114.3391
147.7779,-113.9837
147.5196,-113.6282
147.2613,-113.2734
147.0034,-112.9176
146.7473,-112.561
146.4926,-112.2033
146.2373,-111.8456
145.9825,-111.4884
145.7329,-111.1267
145.486,-110.7636
145.2394,-110.4003
144.9923,-110.0369
144.7354,-109.6813
144.4709,-109.3304
144.2067,-108.9797
143.9424,-108.629
143.6815,-108.2755
143.4221,-107.9215
143.1619,-107.5673
142.9027,-107.213
142.6393,-106.8617
142.3729,-106.5122
142.106,-106.1639
141.8393,-105.8145
141.5709,-105.4672
141.2954,-105.1252
141.0202,-104.7826
140.7449,-104.4409
140.4694,-104.0984
140.2039,-103.749
139.9397,-103.3981
139.6766,-103.0462
139.4124,-102.6959
139.1348,-102.3551
138.8544,-102.0175
138.5741,-101.6792
138.294,-101.3408
138.0212,-100.9971
137.7487,-100.6521
137.476,-100.3083
137.2032,-99.964
136.9263,-99.6229
136.6473,-99.2843
136.3697,-98.9433
136.0902,-98.6051
135.7923,-98.2828
135.4821,-97.9716
135.1737,-97.6595
134.8641,-97.3474
134.572,-97.0209
134.2996,-96.676
134.0259,-96.3326
133.7543,-95.9878
133.4791,-95.645
133.19,-95.3151
132.8977,-94.9868
132.6082,-94.6566
132.3166,-94.3286
132.0193,-94.0048
131.7184,-93.6856
131.4176,-93.3651
131.117,-93.0451
130.8106,-92.7309
130.4975,-92.4222
130.1853,-92.1141
129.8718,-91.806
129.5623,-91.4947
129.2651,-91.1716
128.9694,-90.8463
128.6728,-90.5232
128.3727,-90.202
128.0622,-89.8917
127.7505,-89.5825
127.4401,-89.2712
127.1263,-88.9647
126.8106,-88.6588
126.4945,-88.3542
126.1783,-88.0495
125.864,-87.7423
125.5523,-87.4337
125.2403,-87.1239
124.9294,-86.814
124.6079,-86.5159
124.264,-86.2422
123.9173,-85.9734
123.5733,-85.6996
123.2347,-85.4209
122.9134,-85.1215
122.5926,-84.821
122.27,-84.524
121.9493,-84.2229
121.6212,-83.9316
121.296,-83.6364
120.9689,-83.3428
120.6429,-83.0495
120.3304,-82.7398
120.0162,-82.4339
119.704,-82.1245
119.3901,-81.8171
119.058,-81.5311
118.7215,-81.2477
118.3836,-80.9681
118.0478,-80.6846
117.7252,-80.3866
117.4063,-80.0855
117.0878,-79.7818
116.7669,-79.4832
116.4319,-79.1989
116.0879,-78.9256
115.7498,-78.6463
115.4067,-78.3708
115.0466,-78.1208
114.6852,-77.8708
114.322,-77.6233
113.9623,-77.3727
113.6259,-77.0894
113.2947,-76.8021
112.9624,-76.5143
112.6278,-76.23
112.2703,-75.9761
111.9071,-75.7273
111.5502,-75.4731
111.1878,-75.2239
110.8221,-74.981
110.4537,-74.7428
110.0837,-74.5044
109.7173,-74.2643
109.3606,-74.0072
109.0106,-73.7419
108.6578,-73.4813
108.306,-73.2168
107.9519,-72.9589
107.5949,-72.7017
107.2401,-72.4433
106.8838,-72.1872
106.5416,-71.9111
106.2115,-71.6229
105.877,-71.3375
105.5488,-71.0452
105.2079,-70.7713
104.8235,-70.5591
104.4304,-70.3633
104.0632,-70.1232
103.7074,-69.8673
103.358,-69.6008
103.0036,-69.3405
102.623,-69.1247
102.2364,-68.9142
101.8499,-68.7067
101.4649,-68.4957
101.1052,-68.2436
100.7534,-67.9824
100.3983,-67.722
100.0459,-67.4614
99.6782,-67.222
99.297,-67.003
98.9169,-66.7851
98.5351,-66.5656
98.1387,-66.381
97.7319,-66.2144
97.3249,-66.0485
96.9193,-65.8829
96.5314,-65.6751
96.1505,-65.4595
95.7687,-65.2401
95.3858,-65.0263
94.9671,-64.8994
94.54,-64.7883
94.122,-64.6627
93.6928,-64.5551
93.2797,-64.4147
92.8566,-64.2871
92.4453,-64.1396
92.1266,-63.8627
91.8594,-63.5127
91.5877,-63.1671
91.2778,-62.8657
90.9137,-62.6184
90.5457,-62.3793
90.1833,-62.132
89.8041,-61.9098
89.4098,-61.7209
89.0109,-61.5331
88.6148,-61.3456
88.2294,-61.1376
87.8643,-60.8914
87.5002,-60.6493
87.1354,-60.401
86.7639,-60.1718
86.3576,-60.0052
85.9487,-59.8422
85.5426,-59.6795
85.1346,-59.5124
84.759,-59.289
84.3883,-59.0517
84.0129,-58.8233
83.6436,-58.588
83.252,-58.3885
82.846,-58.2254
82.4383,-58.0608
82.0291,-57.8991
81.6307,-57.7204
81.2462,-57.5042
80.8672,-57.2855
80.4842,-57.0695
80.1032,-56.8494
79.7244,-56.631
79.3446,-56.4058
78.9649,-56.1886
78.5903,-55.9591
78.2462,-55.6854
77.9107,-55.405
77.562,-55.1336
77.221,-54.8604
76.8727,-54.5914
76.5817,-54.2755
76.4005,-53.8791
76.2047,-53.4831
75.9619,-53.1197
75.7276,-52.7484
75.4797,-52.382
75.2619,-52.0068
75.1418,-51.5962
75.1384,-51.1571
75.1201,-50.7189
74.8958,-50.3375
74.7112,-49.9587
74.8147,-49.5338
74.9662,-49.1164
75.0642,-48.6931
75.1501,-48.2596
75.1826,-47.8255
75.2372,-47.3847
75.2874,-46.9529
75.2978,-46.5109
75.3179,-46.0727
75.3185,-45.6361
75.3467,-45.1931
75.4209,-44.7666
75.4952,-44.3293
75.5724,-43.8976
75.6782,-43.4785
75.8609,-43.0723
76.0087,-42.6731
76.0509,-42.2263
76.1104,-41.7956
76.2383,-41.3904
76.4651,-41.0066
76.6954,-40.6445
76.8357,-40.2126
77.0697,-39.896
77.406,-39.6774
77.6632,-39.3123
77.8797,-38.9459
78.1873,-38.6308
78.5866,-38.4574
79.0016,-38.4629
79.393,-38.2923
79.7589,-38.0392
80.1624,-37.8933
80.5929,-37.7307
80.9626,-37.5562
81.2669,-37.2559
81.3885,-36.8306
81.37,-36.4247
81.4897,-36.0051
81.6828,-35.5998
81.8205,-35.1941
81.9555,-34.765
82.0801,-34.3532
82.2067,-33.9273
82.3254,-33.5052
82.4317,-33.0828
82.5309,-32.6487
82.5714,-32.2207
82.5741,-31.7768
82.5804,-31.3385
82.6005,-30.9029
82.6224,-30.4589
82.63,-30.0258
82.6182,-29.5832
82.6068,-29.144
82.7274,-28.7483
82.9789,-28.3863
83.2173,-28.0204
83.4397,-27.6396
83.6695,-27.2655
83.9774,-26.9953
84.3953,-26.8626
84.7604,-26.654
85.0423,-26.3127
85.3244,-25.9798
85.5621,-25.6146
85.7336,-25.2077
85.8926,-24.8038
86.0239,-24.3791
86.1071,-23.9527
86.183,-23.5187
86.2582,-23.084
86.3367,-22.6566
86.4136,-22.2184
86.4897,-21.7907
86.5687,-21.3565
86.5845,-20.9163
86.5937,-20.4815
86.6223,-20.0373
86.6115,-19.6026
86.6174,-19.1637
86.5279,-18.7242
86.4388,-18.3285
86.663,-17.9788
86.9862,-17.647
87.2245,-17.2962
87.4727,-16.9247
87.6897,-16.5462
87.9131,-16.1684
88.1473,-15.7939
88.3517,-15.4088
88.5747,-15.0263
88.7765,-14.6396
88.9039,-14.2246
88.9635,-13.7921
89.0117,-13.3533
89.0732,-12.9194
89.1185,-12.4832
89.1582,-12.0437
89.187,-11.6086
89.2264,-11.1678
89.2459,-10.7325
89.1684,-10.3013
89.0722,-9.8696
89.0057,-9.4396
88.946,-9.0013
88.9072,-8.5654
88.8511,-8.1302
88.7377,-7.707
88.5824,-7.2998
88.4243,-6.8856
88.2644,-6.4803
88.1048,-6.0696
87.946,-5.6589
87.7109,-5.2987
87.4442,-4.9488
87.245,-4.5619
87.0587,-4.1612
86.8546,-3.7725
86.6431,-3.3906
86.4011,-3.0204
86.1142,-2.6946
85.7682,-2.4285
85.3847,-2.2157
85.011,-1.9901
84.6592,-1.7215
84.3096,-1.4618
83.9601,-1.1914
83.6076,-0.93061
83.2261,-0.72058
82.8276,-0.52756
82.4326,-0.34584
82.0374,-0.14347
81.6348,-0.037641
