53.5204,-350.321
53.9277,-350.1323
54.3354,-349.9441
54.7428,-349.7556
55.1504,-349.5671
55.5579,-349.3789
55.9654,-349.1902
56.373,-349.0021
56.7804,-348.8133
57.1881,-348.6254
57.5954,-348.4364
58.0032,-348.2485
58.4105,-348.0596
58.8182,-347.8717
59.2255,-347.6828
59.6332,-347.4948
60.0406,-347.3061
60.4483,-347.1178
60.8557,-346.9294
61.2633,-346.7409
61.6708,-346.5526
62.0783,-346.364
62.4859,-346.1759
62.8933,-345.9871
63.301,-345.7991
63.7083,-345.6103
64.116,-345.4223
64.5234,-345.2335
64.9311,-345.0454
65.3385,-344.8567
65.7461,-344.6685
66.1535,-344.4799
66.5611,-344.2916
66.9686,-344.1032
67.3761,-343.9147
67.7837,-343.7264
68.1911,-343.5378
68.5988,-343.3497
69.0062,-343.1609
69.4138,-342.9728
69.8212,-342.7841
70.2289,-342.596
70.6363,-342.4074
71.0439,-342.219
71.4514,-342.0307
71.8589,-341.8421
72.2665,-341.654
72.6739,-341.4651
73.0817,-341.2773
73.4889,-341.0882
73.8968,-340.9006
74.3038,-340.711
74.7012,-340.5022
75.0976,-340.2913
75.4937,-340.0802
75.8878,-339.8648
76.2828,-339.6517
76.6769,-339.4364
77.0719,-339.2231
77.4661,-339.008
77.861,-338.7945
78.2553,-338.5797
78.6501,-338.3659
79.0445,-338.1514
79.4391,-337.9373
79.8337,-337.7231
80.2282,-337.5086
80.6229,-337.2948
81.0172,-337.0801
81.412,-336.8664
81.8063,-336.6515
82.2012,-336.4379
82.5955,-336.2231
82.9903,-336.0094
83.3846,-335.7947
83.7794,-335.5809
84.1738,-335.3663
84.5685,-335.1523
84.963,-334.938
85.3575,-334.7237
85.7522,-334.5096
86.1466,-334.2951
86.5414,-334.0813
86.9357,-333.8665
87.3305,-333.6529
87.7248,-333.438
88.1197,-333.2244
88.5139,-333.0096
88.9088,-332.7959
89.3031,-332.5812
89.6979,-332.3674
90.0923,-332.1528
90.4869,-331.9388
90.8815,-331.7245
91.276,-331.5101
91.6707,-331.2962
92.065,-331.0815
92.4599,-330.8679
92.854,-330.6529
93.2491,-330.4396
93.6431,-330.2243
94.0383,-330.0112
94.4322,-329.7957
94.8275,-329.5828
95.2213,-329.3673
95.5939,-329.12
95.945,-328.8398
96.2974,-328.5619
96.6486,-328.282
97.0009,-328.0038
97.3522,-327.7242
97.7043,-327.4456
98.0558,-327.1664
98.4083,-326.8883
98.8039,-326.6761
99.1993,-326.4632
99.595,-326.2515
99.9774,-326.0188
100.3271,-325.7377
100.6758,-325.4544
101.0256,-325.1735
101.4222,-324.9727
101.8412,-324.8111
102.259,-324.6469
102.6779,-324.4853
103.042,-324.2476
103.3253,-323.8999
103.6075,-323.5502
103.8906,-323.2022
104.1971,-322.8791
104.5703,-322.6298
104.9433,-322.3797
105.3163,-322.13
105.6916,-321.8835
106.0836,-321.6649
106.4762,-321.4469
106.868,-321.228
107.2441,-320.9862
107.585,-320.6939
107.9271,-320.4032
108.2679,-320.1109
108.6123,-319.8229
108.9622,-319.5417
109.3133,-319.2617
109.6633,-318.9807
110.0064,-318.6911
110.3452,-318.3966
110.6843,-318.1022
111.0234,-317.8081
111.386,-317.5434
111.7511,-317.2822
112.115,-317.0192
112.4806,-316.7585
112.8445,-316.4957
113.2113,-316.2365
113.575,-315.9735
113.9421,-315.7147
114.2744,-315.4166
114.5764,-315.085
114.874,-314.7482
115.1762,-314.4168
115.5174,-314.1324
115.9027,-313.9007
116.2831,-313.6633
116.6684,-313.4315
117.0483,-313.1935
117.4186,-312.9389
117.7845,-312.6794
118.1546,-312.4246
118.5208,-312.1653
118.7946,-311.8125
119.0565,-311.4472
119.3215,-311.0853
119.5838,-310.7203
119.9163,-310.4245
120.2726,-310.1514
120.6306,-309.8803
120.9871,-309.6075
121.3286,-309.3165
121.6637,-309.0175
121.9996,-308.7198
122.3348,-308.4209
122.6708,-308.1233
123.0062,-307.8247
123.3423,-307.5271
123.6776,-307.2285
124.0154,-306.9326
124.3528,-306.6365
124.6914,-306.3416
125.0282,-306.0449
125.3519,-305.7337
125.6739,-305.4209
125.9977,-305.1097
126.3175,-304.7948
126.6296,-304.472
126.9397,-304.1474
127.2518,-303.8245
127.5657,-303.504
127.9085,-303.2137
128.2494,-302.9219
128.592,-302.6315
128.9323,-302.3389
129.1925,-301.9732
129.4516,-301.6064
129.7116,-301.2405
129.9747,-300.8772
130.3,-300.5678
130.6253,-300.2582
130.9504,-299.9487
131.2759,-299.6393
131.5984,-299.3271
131.921,-299.0146
132.2429,-298.7018
132.5654,-298.3894
132.8729,-298.0627
133.1741,-297.7295
133.4747,-297.3962
133.7756,-297.0629
134.0765,-296.7297
134.3773,-296.3964
134.6784,-296.0633
134.9789,-295.7298
135.298,-295.4145
135.6274,-295.1096
135.9582,-294.8058
136.2874,-294.5007
136.5774,-294.1596
136.8504,-293.8032
137.1254,-293.4483
137.3983,-293.0917
137.6907,-292.7518
137.9996,-292.4261
138.3103,-292.1019
138.6194,-291.7764
138.9223,-291.4451
139.2166,-291.106
139.5119,-290.7678
139.8065,-290.4289
140.0775,-290.0722
140.3276,-289.6992
140.5775,-289.3263
140.8279,-288.9536
141.1011,-288.5982
141.3901,-288.2544
141.6778,-287.9099
141.9668,-287.5662
142.2387,-287.2095
142.4948,-286.8408
142.7494,-286.471
143.0055,-286.1023
143.2615,-285.7333
143.5194,-285.3659
143.7762,-284.9976
144.0339,-284.63
144.3024,-284.2702
144.5772,-283.9152
144.8519,-283.56
145.1265,-283.2049
145.395,-282.845
145.6611,-282.4834
145.9278,-282.1222
146.1938,-281.7605
146.4541,-281.3949
146.7053,-281.0227
146.9573,-280.6511
147.2085,-280.279
147.4591,-279.9066
147.7077,-279.5326
147.9567,-279.1591
148.2054,-278.7852
148.458,-278.4142
148.7218,-278.0508
148.9853,-277.6873
149.2492,-277.3241
149.5049,-276.9553
149.7455,-276.5763
149.9854,-276.1967
150.2261,-275.8178
150.465,-275.4376
150.7036,-275.0573
150.9413,-274.6764
151.1799,-274.2961
151.4162,-273.9142
151.6515,-273.532
151.8863,-273.1492
152.1215,-272.7669
152.3697,-272.3928
152.6244,-272.0231
152.879,-271.6533
153.1336,-271.2835
153.368,-270.9013
153.5834,-270.5073
153.7992,-270.1136
154.0145,-269.7196
154.243,-269.3334
154.4843,-268.9548
154.7265,-268.5768
154.9678,-268.1982
155.1923,-267.8097
155.4067,-267.4151
155.6218,-267.0211
155.8363,-266.6266
156.0464,-266.23
156.2538,-265.8317
156.4617,-265.4338
156.6691,-265.0356
156.8751,-264.6366
157.0796,-264.2369
157.2844,-263.8374
157.489,-263.4378
157.6959,-263.0393
157.9091,-262.6442
158.1225,-262.2491
158.3357,-261.8541
158.546,-261.4574
158.7421,-261.0536
158.9383,-260.6497
159.1345,-260.246
159.3201,-259.8373
159.4889,-259.4213
159.6574,-259.0051
159.8263,-258.5892
159.9998,-258.1753
160.2016,-257.7742
160.4022,-257.3726
160.6042,-256.9715
160.8045,-256.5698
161.0061,-256.1685
161.2055,-255.7664
161.4074,-255.3652
161.6054,-254.9625
161.742,-254.5349
161.8754,-254.1061
162.0122,-253.6786
162.1455,-253.2498
162.3322,-252.8422
162.5274,-252.438
162.7264,-252.0354
162.9215,-251.6312
163.0678,-251.207
163.2074,-250.7802
163.3505,-250.3548
163.4903,-249.928
163.657,-249.5112
163.8234,-249.0942
163.9923,-248.6782
164.1577,-248.2609
164.2658,-247.8253
164.3726,-247.3891
164.4803,-246.9533
164.5889,-246.5177
164.7477,-246.0978
164.9064,-245.6777
165.0649,-245.2577
165.2238,-244.8378
165.3757,-244.4153
165.5278,-243.9929
165.6793,-243.5702
165.8315,-243.1478
165.9679,-242.7201
166.1005,-242.2912
166.2325,-241.8621
166.365,-241.4331
166.4988,-241.0045
166.6338,-240.5764
166.7689,-240.1482
166.9038,-239.72
167.0351,-239.2907
167.1577,-238.8587
167.2807,-238.4269
167.4032,-237.995
167.5243,-237.5627
167.6428,-237.1296
167.7617,-236.6967
167.8803,-236.2636
167.9901,-235.8285
168.0882,-235.3903
168.1862,-234.9522
168.2844,-234.514
168.3833,-234.0761
168.49,-233.64
168.596,-233.2037
168.7028,-232.7677
168.8091,-232.3314
168.9246,-231.8976
169.0388,-231.4634
169.1544,-231.0295
169.2644,-230.5944
169.3387,-230.1517
169.4117,-229.7086
169.486,-229.2659
169.5786,-228.8272
169.6978,-228.3943
169.8159,-227.9611
169.9349,-227.5282
170.0357,-227.0911
170.121,-226.6503
170.2059,-226.2094
170.291,-225.7685
170.3722,-225.327
170.4473,-224.8843
170.5223,-224.4417
170.5973,-223.999
170.677,-223.5573
170.7733,-223.1187
170.8696,-222.6803
170.9659,-222.2417
171.0587,-221.8025
171.1312,-221.3594
171.2035,-220.9163
171.2762,-220.4733
171.3483,-220.0301
171.4173,-219.5865
171.4855,-219.1427
171.5546,-218.6991
171.6226,-218.2553
171.6995,-217.813
171.776,-217.3705
171.8538,-216.9284
171.9302,-216.4859
171.9855,-216.0406
172.033,-215.5941
172.0818,-215.1478
172.1294,-214.7014
172.1863,-214.256
172.2445,-213.8108
172.3033,-213.3657
172.3616,-212.9206
172.4141,-212.4747
172.463,-212.0284
172.5119,-211.5821
172.5609,-211.1358
172.6072,-210.6892
172.649,-210.2422
172.6903,-209.7951
172.7321,-209.3481
172.7801,-208.9018
172.8392,-208.4567
172.8975,-208.0116
172.9567,-207.5665
172.9933,-207.1196
173.0077,-206.6709
173.0215,-206.2221
173.0359,-205.7733
173.0582,-205.325
173.0858,-204.8768
173.113,-204.4287
173.1405,-203.9805
173.1904,-203.5346
173.2503,-203.0896
173.3101,-202.6447
173.3699,-202.1997
173.4022,-201.7525
173.4153,-201.3037
173.4283,-200.8549
173.4414,-200.4061
173.4427,-199.9572
173.4392,-199.5083
173.4358,-199.0593
173.4323,-198.6104
173.4458,-198.1616
173.4605,-197.7129
173.4753,-197.2641
173.49,-196.8154
173.4913,-196.3664
173.4914,-195.9175
173.4919,-195.4685
173.4919,-195.0196
173.4911,-194.5706
173.4899,-194.1216
173.4893,-193.6726
173.4882,-193.2237
173.4933,-192.7747
173.4975,-192.3258
173.5027,-191.8768
173.5049,-191.4279
173.4841,-190.9795
173.462,-190.531
173.4412,-190.0825
173.424,-189.6339
173.4227,-189.185
173.4199,-188.736
173.4185,-188.287
173.4145,-187.8381
173.4014,-187.3893
173.387,-186.9406
173.3737,-186.4918
173.3476,-186.0439
173.2949,-185.5981
173.2413,-185.1523
173.1884,-184.7064
173.1381,-184.2605
173.1245,-183.8116
173.1105,-183.3629
173.0968,-182.9141
173.083,-182.4654
173.0385,-182.0188
172.9882,-181.5727
172.938,-181.1265
172.8877,-180.6804
172.8104,-180.2382
172.7307,-179.7963
172.6511,-179.3545
172.5713,-178.9126
172.5277,-178.466
172.4884,-178.0187
172.4495,-177.5715
172.4101,-177.1242
172.3735,-176.6768
172.3364,-176.2293
172.3002,-175.7818
172.2631,-175.3343
172.21,-174.8886
172.156,-174.4428
172.1029,-173.997
172.0489,-173.5513
171.9903,-173.1062
171.9295,-172.6613
171.8695,-172.2164
171.8088,-171.7715
171.7485,-171.3266
171.6877,-170.8818
171.6271,-170.4369
171.5664,-169.9921
171.4929,-169.5494
171.3983,-169.1106
171.3035,-168.6717
171.209,-168.2328
171.1206,-167.7927
171.0454,-167.3501
170.9693,-166.9076
170.8942,-166.465
170.8188,-166.0224
170.7542,-165.578
170.6886,-165.1339
170.6241,-164.6896
170.5584,-164.2455
170.4571,-163.8081
170.3542,-163.3711
170.2528,-162.9337
170.1499,-162.4967
170.0749,-162.054
169.9987,-161.6116
169.924,-161.1688
169.8479,-160.7264
169.7368,-160.2916
169.6196,-159.8581
169.5038,-159.4244
169.3865,-158.991
169.2701,-158.5574
169.1521,-158.1241
169.0356,-157.6906
168.9176,-157.2574
168.8185,-156.8196
168.7232,-156.3808
168.6295,-155.9418
168.5341,-155.503
168.401,-155.0746
168.2604,-154.6481
168.1215,-154.2212
167.9836,-153.7941
167.8857,-153.3558
167.7861,-152.9181
167.6882,-152.4799
167.5819,-152.0443
167.4153,-151.6273
167.247,-151.2111
167.0805,-150.7942
166.9271,-150.3727
166.7994,-149.9422
166.6698,-149.5124
166.5421,-149.0819
166.3826,-148.6637
166.1894,-148.2585
165.9944,-147.854
165.8013,-147.4488
165.6316,-147.034
165.4914,-146.6075
165.3496,-146.1815
165.2094,-145.755
165.091,-145.3227
165.0036,-144.8824
164.9148,-144.4422
164.8272,-144.0019
164.7062,-143.5732
164.4985,-143.1753
164.29,-142.7776
164.0821,-142.3798
163.8916,-141.9747
163.7635,-141.5444
163.6351,-141.1141
163.5069,-140.6839
163.3683,-140.2571
163.2103,-139.8369
163.0523,-139.4166
162.8942,-138.9964
162.7224,-138.5823
162.5179,-138.1825
162.3136,-137.7828
162.1091,-137.383
161.9082,-136.9817
161.7196,-136.5741
161.531,-136.1668
161.3425,-135.7592
161.1586,-135.3499
161.0102,-134.9261
160.8613,-134.5026
160.7131,-134.0788
160.5552,-133.6591
160.3447,-133.2627
160.1332,-132.8665
159.9227,-132.4701
159.7116,-132.0737
159.5036,-131.6759
159.2947,-131.2784
159.0867,-130.8806
158.8797,-130.4821
158.6844,-130.078
158.4886,-129.6738
158.2932,-129.2697
158.0961,-128.8662
157.8936,-128.4656
157.6911,-128.0649
157.4883,-127.6643
157.291,-127.2612
157.1116,-126.8495
156.933,-126.4377
156.7534,-126.0261
156.5629,-125.62
156.354,-125.2224
156.1462,-124.8246
155.9374,-124.4269
155.7236,-124.0325
155.4941,-123.6464
155.2652,-123.2603
155.036,-122.8742
154.8068,-122.4882
154.5668,-122.1087
154.3262,-121.7297
154.0863,-121.3501
153.8454,-120.9712
153.6636,-120.5609
153.4829,-120.1499
153.3041,-119.7381
153.1232,-119.3272
152.8504,-118.9717
152.5711,-118.6197
152.2942,-118.2667
152.0149,-117.9148
151.7978,-117.5228
151.5859,-117.1269
151.3763,-116.7298
151.1646,-116.334
150.9379,-115.9464
150.7091,-115.5602
150.4821,-115.1727
150.2442,-114.7929
149.9644,-114.4416
149.6836,-114.0915
149.4036,-113.7403
149.1412,-113.3775
148.9146,-112.9897
148.6875,-112.6026
148.4609,-112.2148
148.2354,-111.8267
148.0177,-111.434
147.7998,-111.0415
147.5821,-110.6488
147.35,-110.2658
147.0688,-109.9159
146.7871,-109.5661
146.5059,-109.2163
146.2281,-108.8636
145.983,-108.4877
145.737,-108.1119
145.4919,-107.7359
145.2459,-107.3601
144.9931,-106.9893
144.7392,-106.6188
144.4863,-106.248
144.2324,-105.8776
143.98,-105.5064
143.7267,-105.1357
143.4743,-104.7644
143.221,-104.3937
142.9565,-104.0308
142.691,-103.6689
142.4261,-103.3062
142.1606,-102.9444
141.8857,-102.5892
141.6067,-102.2378
141.328,-101.8855
141.049,-101.534
140.7696,-101.1823
140.4895,-100.8316
140.2097,-100.4804
139.9296,-100.1296
139.6539,-99.7752
139.3817,-99.4181
139.11,-99.0608
138.8377,-98.7036
138.5499,-98.36
138.2444,-98.0306
137.9395,-97.7015
137.6341,-97.372
137.333,-97.0394
137.0332,-96.7047
136.7338,-96.3706
136.4341,-96.0359
136.1379,-95.6988
135.8473,-95.3564
135.5564,-95.0145
135.266,-94.672
134.9747,-94.3304
134.6833,-93.9889
134.3908,-93.6481
134.0996,-93.3066
133.8023,-92.97
133.4914,-92.6466
133.1789,-92.3237
132.8681,-92.0003
132.5558,-91.6771
132.2462,-91.3525
131.935,-91.0285
131.6252,-90.7039
131.3161,-90.378
131.0183,-90.0422
130.7198,-89.7068
130.4218,-89.3709
130.1175,-89.0416
129.7772,-88.7484
129.4372,-88.4557
129.0967,-88.1624
128.7607,-87.8656
128.4488,-87.542
128.1378,-87.2189
127.8259,-86.8953
127.5141,-86.5728
127.1994,-86.2521
126.8853,-85.9318
126.5706,-85.6111
126.2525,-85.2947
125.9291,-84.983
125.6056,-84.6717
125.2826,-84.3601
124.9578,-84.0498
124.6257,-83.7481
124.2923,-83.4469
123.9604,-83.1452
123.6245,-82.8466
123.2774,-82.5628
122.9282,-82.2796
122.5811,-81.9957
122.2422,-81.7016
121.934,-81.3756
121.6239,-81.0506
121.3155,-80.7244
121.0018,-80.4035
120.6624,-80.1095
120.3222,-79.8168
119.9826,-79.5227
119.6437,-79.2288
119.3076,-78.9304
118.9719,-78.6331
118.6356,-78.3348
118.2792,-78.0642
117.9066,-77.8126
117.5352,-77.5615
117.1625,-77.3101
116.8165,-77.0282
116.5003,-76.709
116.1854,-76.3892
115.8693,-76.0703
115.5399,-75.7689
115.1505,-75.5456
114.7616,-75.3207
114.3724,-75.0976
113.9834,-74.8725
113.6661,-74.5569
113.3522,-74.2348
113.0382,-73.9151
112.7242,-73.5929
112.3741,-73.317
111.9997,-73.068
111.6251,-72.8216
111.2509,-72.5727
110.864,-72.3468
110.4635,-72.1439
110.0618,-71.943
109.6616,-71.7403
109.2921,-71.4908
108.9546,-71.1953
108.6148,-70.9011
108.2774,-70.6057
107.9132,-70.3455
107.5253,-70.1214
107.1348,-69.8979
106.7467,-69.6739
106.3897,-69.407
106.0736,-69.0888
105.7561,-68.7709
105.4396,-68.4527
105.0929,-68.1707
104.7203,-67.92
104.3482,-67.6693
103.975,-67.4187
103.5924,-67.1902
103.1671,-67.0431
102.7443,-66.8957
102.3186,-66.7487
101.8998,-66.5925
101.4986,-66.3881
101.1005,-66.1831
100.6995,-65.9789
100.3011,-65.7737
99.9027,-65.5652
99.5063,-65.3555
99.1085,-65.1469
98.7114,-64.9371
98.3429,-64.6814
97.9738,-64.4245
97.606,-64.1687
97.2361,-63.9123
96.8524,-63.6818
96.4657,-63.4507
96.0824,-63.2199
95.6909,-62.9979
95.2854,-62.8087
94.8763,-62.6204
94.4707,-62.4308
94.058,-62.2519
93.6397,-62.091
93.2191,-61.9327
92.8002,-61.7714
92.3935,-61.5844
91.9997,-61.3671
91.6062,-61.1534
91.2117,-60.936
90.8371,-60.694
90.4777,-60.4216
90.1207,-60.1527
89.7611,-59.8805
89.3904,-59.6324
88.9972,-59.4121
88.6066,-59.1939
88.2137,-58.9741
87.8183,-58.7636
87.4141,-58.5672
87.0103,-58.3707
86.607,-58.1748
86.2015,-57.9796
85.796,-57.7903
85.3875,-57.5996
84.9828,-57.4102
84.5738,-57.2193
84.17,-57.0289
83.7609,-56.8379
83.3572,-56.6469
82.9485,-56.4559
82.5454,-56.2623
82.1374,-56.0716
81.7338,-55.8769
81.3225,-55.6969
80.9049,-55.5315
80.4853,-55.3738
80.0668,-55.2072
79.6482,-55.0506
79.201,-55.0033
78.7547,-54.971
78.306,-54.9262
77.8832,-54.8213
77.4924,-54.5908
77.1049,-54.3732
76.7143,-54.1431
76.3481,-53.8923
75.991,-53.614
75.635,-53.3453
75.2791,-53.0683
74.9576,-52.7574
74.6002,-52.5027
74.1788,-52.3413
73.7732,-52.1643
73.4487,-51.8487
73.1342,-51.5351
72.8081,-51.218
72.4731,-50.9312
72.1058,-50.6599
71.9032,-50.2724
71.7042,-49.8627
71.5201,-49.4602
71.1954,-49.1416
70.8902,-48.8288
70.9152,-48.3786
70.9505,-47.9321
70.9741,-47.4837
70.9748,-47.034
70.9726,-46.5869
70.9704,-46.1348
70.9713,-45.6903
70.965,-45.2355
70.9679,-44.7937
70.9585,-44.3363
70.9718,-43.8976
71.0489,-43.4465
71.1454,-43.0173
71.2119,-42.5631
71.2905,-42.1317
71.3464,-41.6751
71.4252,-41.2438
71.5406,-40.802
71.706,-40.4011
72.1371,-40.3051
72.3167,-39.9604
72.3939,-39.5104
72.4852,-39.0774
72.5797,-38.6406
72.9741,-38.4245
73.3625,-38.1996
73.7542,-37.9808
74.1493,-37.7695
74.5865,-37.673
74.9472,-37.4697
75.1648,-37.0763
75.3893,-36.6886
75.5974,-36.2891
75.8107,-35.8961
76.0342,-35.5047
76.2667,-35.1227
76.4907,-34.7314
76.6443,-34.3127
76.7886,-33.8848
76.9385,-33.464
77.0848,-33.0377
77.2868,-32.6379
77.4868,-32.2352
77.6876,-31.8339
77.8886,-31.4326
78.0558,-31.0152
78.223,-30.5999
78.3889,-30.1809
78.556,-29.7663
78.7827,-29.377
79.017,-28.9969
79.2528,-28.6117
79.4852,-28.2309
79.7189,-27.8441
79.9462,-27.4604
80.1819,-27.0747
80.4073,-26.6898
80.5946,-26.2796
80.7697,-25.8681
80.972,-25.4654
81.158,-25.058
81.1047,-24.6244
81.0801,-24.181
81.18,-23.7451
81.2631,-23.3017
81.2632,-22.8673
81.1528,-22.4269
81.0547,-21.9932
80.9466,-21.5538
80.7605,-21.152
80.5401,-20.7591
80.519,-20.342
80.6346,-19.9086
80.7447,-19.4722
80.7026,-19.0352
80.6134,-18.5897
80.8236,-18.3059
81.2272,-18.1243
81.6512,-17.9555
82.0522,-17.7717
82.3789,-17.459
82.6804,-17.1304
83.0078,-16.8179
83.3092,-16.4894
83.5834,-16.133
83.762,-15.7282
83.8703,-15.2962
83.9122,-14.8544
83.7834,-14.4319
83.7513,-13.9988
83.8794,-13.569
83.9942,-13.1351
84.0514,-12.6963
84.0136,-12.2493
83.9519,-11.8039
83.872,-11.3641
83.7942,-10.9191
83.6783,-10.4913
83.5072,-10.0723
83.338,-9.6606
83.1661,-9.2416
82.966,-8.8455
82.7304,-8.4593
82.4983,-8.0783
82.2631,-7.6934
82.0282,-7.3124
81.7869,-6.9331
81.6047,-6.5245
81.4476,-6.1055
81.1729,-5.7765
80.7972,-5.5349
80.4197,-5.2866
80.0475,-5.0416
79.6801,-4.7772
79.3162,-4.5208
78.9485,-4.2567
78.5843,-4.0001
78.2158,-3.7383
77.8511,-3.4808
77.4828,-3.2209
77.1138,-2.9672
76.7247,-2.7429
76.3378,-2.5135
75.9493,-2.2922
75.5617,-2.0597
75.1725,-1.8436
74.7825,-1.6117
74.393,-1.3996
74.0026,-1.1651
73.6235,-0.93901
73.2477,-0.6783
72.8692,-0.45285
72.4784,-0.2156
72.0891,-0.0082202
