76.0828,-331.8911
76.4242,-331.6578
76.7663,-331.426
77.1079,-331.1933
77.4497,-330.9608
77.7916,-330.7289
78.1331,-330.4957
78.4752,-330.2642
78.8166,-330.0309
79.1587,-329.7993
79.5003,-329.5664
79.8421,-329.3341
80.184,-329.102
80.5255,-328.8689
80.8677,-328.6374
81.2089,-328.4039
81.5512,-328.1726
81.8925,-327.9393
82.2347,-327.7076
82.5821,-327.4838
82.9326,-327.2647
83.2832,-327.046
83.6335,-326.8264
83.9843,-326.608
84.3345,-326.3883
84.6852,-326.1698
85.0356,-325.9505
85.386,-325.7313
85.7367,-325.5127
86.0868,-325.2929
86.4383,-325.0758
86.7908,-324.8598
87.1443,-324.6457
87.497,-324.4301
87.85,-324.2153
88.2033,-324.0007
88.5557,-323.7848
88.9096,-323.5713
89.2614,-323.3544
89.6158,-323.1417
89.9673,-322.9243
90.3026,-322.6829
90.6342,-322.4361
90.9683,-322.1929
91.3005,-321.9469
91.6336,-321.7021
91.9658,-321.4565
92.2983,-321.2107
92.631,-320.9657
92.9632,-320.7196
93.296,-320.4747
93.6282,-320.2287
93.9609,-319.9834
94.2933,-319.738
94.6257,-319.4922
94.9584,-319.2471
95.2906,-319.0011
95.6234,-318.7561
95.9556,-318.5102
96.2883,-318.2649
96.6207,-318.0194
96.9531,-317.7737
97.2858,-317.5286
97.618,-317.2826
97.9508,-317.0375
98.2831,-316.7917
98.6157,-316.5464
98.9482,-316.3009
99.2805,-316.0551
99.6133,-315.81
99.9455,-315.5641
100.2782,-315.319
100.6106,-315.0732
100.943,-314.8276
101.2758,-314.5826
101.6064,-314.3346
101.931,-314.0788
102.2534,-313.8201
102.5785,-313.5649
102.9006,-313.306
103.2104,-313.0329
103.5118,-312.75
103.815,-312.469
104.1175,-312.1876
104.44,-311.9312
104.7862,-311.7052
105.1289,-311.4747
105.4764,-311.2501
105.8182,-311.0186
106.1391,-310.758
106.454,-310.4903
106.7742,-310.2289
107.0902,-309.9626
107.36,-309.6523
107.6117,-309.3246
107.9127,-309.0482
108.2539,-308.8144
108.59,-308.5745
108.8817,-308.2826
109.1655,-307.9812
109.5021,-307.7513
109.8704,-307.5666
110.2453,-307.39
110.5822,-307.1643
110.8525,-306.8524
111.1217,-306.5383
111.3898,-306.2239
111.6611,-305.9122
111.9905,-305.6644
112.3294,-305.4264
112.6606,-305.1803
112.9999,-304.9432
113.3397,-304.7093
113.6894,-304.4876
114.0321,-304.2573
114.3806,-304.0347
114.723,-303.8035
115.0333,-303.5312
115.3414,-303.255
115.6507,-302.9815
115.9595,-302.7064
116.2746,-302.4391
116.5907,-302.1728
116.9069,-301.9066
117.2228,-301.6402
117.5332,-301.3671
117.8391,-301.0895
118.1466,-300.8131
118.4523,-300.5351
118.763,-300.2625
119.08,-299.9974
119.3987,-299.7343
119.716,-299.4693
120.0351,-299.2069
120.3671,-298.9605
120.6995,-298.7152
121.0319,-298.4692
121.364,-298.2235
121.6651,-297.9435
121.9389,-297.6339
122.213,-297.3246
122.4869,-297.015
122.7701,-296.7146
123.071,-296.4311
123.3716,-296.1476
123.6726,-295.8643
123.9733,-295.5807
124.2673,-295.2904
124.5596,-294.998
124.8515,-294.7056
125.1442,-294.4136
125.4365,-294.1215
125.732,-293.8324
126.0257,-293.5417
126.3214,-293.2529
126.615,-292.9621
126.8852,-292.6499
127.1487,-292.3312
127.4136,-292.0142
127.6775,-291.696
127.9588,-291.394
128.2559,-291.1066
128.5526,-290.8189
128.85,-290.5319
129.1453,-290.2427
129.4293,-289.9426
129.712,-289.641
129.9961,-289.3409
130.2787,-289.0392
130.5592,-288.7357
130.8383,-288.4308
131.1188,-288.1273
131.3978,-287.8224
131.671,-287.5124
131.934,-287.1936
132.1994,-286.8768
132.4621,-286.5576
132.7278,-286.2412
133.0227,-285.9518
133.3224,-285.667
133.6185,-285.3788
133.9181,-285.0939
134.1972,-284.7904
134.4539,-284.4667
134.7079,-284.1405
134.9641,-283.8162
135.2187,-283.4906
135.4737,-283.1653
135.7281,-282.8396
135.9824,-282.5138
136.2372,-282.1885
136.5048,-281.8739
136.7863,-281.5712
137.0665,-281.2674
137.3481,-280.9648
137.6231,-280.6565
137.8899,-280.3408
138.155,-280.0238
138.4218,-279.708
138.6869,-279.391
138.9341,-279.0599
139.1765,-278.7251
139.4202,-278.3914
139.6628,-278.0567
139.9205,-277.734
140.1896,-277.4203
140.4586,-277.1066
140.7282,-276.7932
140.9906,-276.4742
141.2393,-276.1441
141.4865,-275.8128
141.7354,-275.4829
141.9823,-275.1514
142.2259,-274.8176
142.468,-274.4826
142.7112,-274.1484
142.9539,-273.8138
143.2052,-273.4858
143.462,-273.162
143.7176,-272.8372
143.9747,-272.5136
144.2121,-272.1765
144.4189,-271.8188
144.6244,-271.46
144.8307,-271.102
145.0368,-270.7437
145.2729,-270.4051
145.521,-270.0746
145.7668,-269.7424
146.0158,-269.4124
146.2548,-269.0754
146.4897,-268.7353
146.7202,-268.3922
146.9551,-268.0521
147.1858,-267.7093
147.3888,-267.3494
147.5879,-266.9871
147.7895,-266.6263
147.9892,-266.2645
148.2086,-265.9148
148.4462,-265.5767
148.6836,-265.2384
148.9216,-264.9004
149.1546,-264.5592
149.3754,-264.2098
149.5953,-263.8599
149.816,-263.5104
150.0362,-263.1606
150.2585,-262.8122
150.4821,-262.4646
150.7051,-262.1166
150.9291,-261.7692
151.147,-261.4182
151.3507,-261.0586
151.5528,-260.6981
151.7565,-260.3385
151.9585,-259.9779
152.1578,-259.6158
152.3564,-259.2534
152.5552,-258.891
152.7544,-258.5289
152.9694,-258.1761
153.1923,-257.828
153.4135,-257.4789
153.6367,-257.131
153.8453,-256.7748
154.0333,-256.4068
154.2193,-256.0376
154.4069,-255.6694
154.5935,-255.3005
154.7884,-254.9361
154.9841,-254.5721
155.1789,-254.2076
155.3753,-253.8438
155.5728,-253.4808
155.7791,-253.1227
155.9828,-252.7631
156.1891,-252.4049
156.393,-252.0454
156.5697,-251.6723
156.7354,-251.2936
156.9024,-250.9156
157.0685,-250.5371
157.2429,-250.1625
157.4244,-249.7912
157.6063,-249.42
157.7877,-249.0487
157.9706,-248.678
158.1632,-248.3124
158.3574,-247.9475
158.5497,-247.5817
158.7443,-247.217
158.9306,-246.8482
159.1163,-246.4789
159.2992,-246.1083
159.4848,-245.7389
159.6621,-245.366
159.8022,-244.9772
159.9407,-244.5877
160.0803,-244.1988
160.2192,-243.8095
160.3806,-243.4291
160.5447,-243.0497
160.7086,-242.6704
160.8727,-242.291
161.0431,-241.9146
161.2243,-241.543
161.4053,-241.1716
161.5864,-240.8
161.7686,-240.4291
161.9619,-240.0637
162.1548,-239.6982
162.3485,-239.3331
162.5409,-238.9674
162.6953,-238.5851
162.8299,-238.1942
162.9669,-237.8044
163.1013,-237.4134
163.2399,-237.0241
163.3813,-236.6357
163.525,-236.2482
163.6666,-235.8599
163.8099,-235.4723
163.9657,-235.0895
164.1244,-234.7078
164.2823,-234.3259
164.4408,-233.9442
164.5894,-233.5586
164.7298,-233.1699
164.8692,-232.7808
165.0099,-232.3922
165.1486,-232.0029
165.276,-231.6097
165.4014,-231.2159
165.5287,-230.8227
165.6544,-230.4289
165.7831,-230.0362
165.9117,-229.6434
166.0399,-229.2505
166.1693,-228.8579
166.31,-228.4695
166.4616,-228.0849
166.6103,-227.6994
166.762,-227.3148
166.9059,-226.9276
167.0322,-226.5341
167.1563,-226.1398
167.282,-225.7461
167.4067,-225.352
167.5371,-224.9599
167.6686,-224.568
167.7998,-224.1761
167.9313,-223.7843
168.0374,-223.3854
168.1256,-222.9816
168.2147,-222.578
168.3023,-222.1741
168.3958,-221.7716
168.4923,-221.3697
168.5917,-220.9685
168.6882,-220.5666
168.7893,-220.1659
168.9107,-219.7709
169.0334,-219.3762
169.1556,-218.9813
169.2775,-218.5865
169.3771,-218.1858
169.4591,-217.7807
169.5435,-217.3761
169.6253,-216.9709
169.7189,-216.5689
169.8469,-216.1759
169.9771,-215.7836
170.1055,-215.3908
170.2352,-214.9984
170.3284,-214.597
170.3943,-214.189
170.4601,-213.7809
170.5258,-213.3729
170.5915,-212.9649
170.6558,-212.5565
170.7204,-212.1483
170.7846,-211.74
170.8493,-211.3318
170.9272,-210.926
171.0087,-210.5208
171.0886,-210.1153
171.1706,-209.7101
171.245,-209.3037
171.3166,-208.8966
171.3851,-208.489
171.4567,-208.0819
171.5255,-207.6744
171.5772,-207.2644
171.627,-206.8541
171.6769,-206.4438
171.7281,-206.0337
171.8007,-205.6274
171.8942,-205.2246
171.9817,-204.8209
172.0764,-204.4182
172.1588,-204.0139
172.1798,-203.6015
172.1923,-203.188
172.2127,-202.7755
172.2262,-202.3621
172.2683,-201.9518
172.3328,-201.5436
172.3994,-201.1356
172.4658,-200.7277
172.5303,-200.3195
172.5836,-199.9097
172.6328,-199.4993
172.687,-199.0895
172.7359,-198.6791
172.7703,-198.2674
172.7962,-197.8549
172.8253,-197.4426
172.8525,-197.0302
172.8995,-196.6199
172.9645,-196.2118
173.0267,-195.8032
173.093,-195.3951
173.143,-194.9853
173.1731,-194.5731
173.1971,-194.1605
173.2271,-193.7482
173.2515,-193.3358
173.2409,-192.923
173.2191,-192.5103
173.1994,-192.0974
173.179,-191.6847
173.1967,-191.2736
173.2575,-190.8647
173.3157,-190.4557
173.3772,-190.0468
173.4351,-189.6377
173.4452,-189.2256
173.4356,-188.8123
173.4291,-188.3991
173.4201,-187.9859
173.4173,-187.5726
173.4165,-187.1593
173.4163,-186.746
173.4159,-186.3327
173.4105,-185.9195
173.4013,-185.5062
173.3919,-185.093
173.3824,-184.6798
173.3734,-184.2666
173.3637,-183.8534
173.3551,-183.4402
173.3451,-183.027
173.3366,-182.6138
173.3428,-182.2006
173.3504,-181.7873
173.3571,-181.3741
173.3642,-180.9609
173.3487,-180.5482
173.3171,-180.1362
173.2862,-179.724
173.2543,-179.3119
173.2236,-178.8998
173.2034,-178.487
173.1871,-178.074
173.17,-177.661
173.1536,-177.2481
173.1296,-176.8355
173.0991,-176.4234
173.0681,-176.0112
173.0376,-175.599
173.0066,-175.1869
172.9775,-174.7746
172.9474,-174.3624
172.9186,-173.95
172.8882,-173.5379
172.8375,-173.1279
172.7767,-172.7192
172.7173,-172.3101
172.6569,-171.9013
172.5948,-171.4927
172.5277,-171.0848
172.4603,-170.6771
172.3935,-170.2692
172.326,-169.8614
172.2544,-169.4543
172.1813,-169.0476
172.1078,-168.6408
172.0356,-168.234
171.9934,-167.8236
171.9738,-167.4106
171.9495,-166.9982
171.9308,-166.585
171.9034,-166.173
171.8515,-165.7629
171.7925,-165.3539
171.7403,-164.9438
171.682,-164.5347
171.5886,-164.1325
171.486,-163.732
171.3858,-163.3311
171.2845,-162.9304
171.2323,-162.5218
171.2033,-162.1094
171.1726,-161.6973
171.1438,-161.2849
171.069,-160.8802
170.9641,-160.4805
170.8586,-160.0808
170.7529,-159.6813
170.654,-159.2801
170.56,-158.8776
170.4683,-158.4746
170.3741,-158.0721
170.2787,-157.6701
170.1766,-157.2695
170.076,-156.8687
169.9748,-156.4679
169.8769,-156.0665
169.8023,-155.6599
169.7254,-155.2539
169.6516,-154.8471
169.5732,-154.4414
169.4583,-154.0446
169.3392,-153.6486
169.224,-153.2518
169.1054,-152.8558
168.9945,-152.4577
168.8836,-152.0596
168.7742,-151.661
168.6639,-151.2627
168.5388,-150.8689
168.4052,-150.4779
168.2717,-150.0866
168.138,-149.6956
168.0035,-149.3048
167.8655,-148.9152
167.7283,-148.5253
167.5901,-148.1358
167.4531,-147.7459
167.3297,-147.3515
167.2122,-146.9553
167.0936,-146.5593
166.9759,-146.1631
166.8546,-145.7681
166.7285,-145.3744
166.6025,-144.9808
166.4764,-144.5872
166.3532,-144.1928
166.2389,-143.7955
166.1243,-143.3985
166.0103,-143.0011
165.8918,-142.6053
165.7579,-142.2143
165.6225,-141.8238
165.4888,-141.4327
165.3533,-141.0422
165.2106,-140.6545
165.0614,-140.2689
164.9136,-139.883
164.7649,-139.4974
164.6368,-139.105
164.5298,-138.7058
164.4219,-138.3068
164.3155,-137.9074
164.1755,-137.5208
163.9888,-137.1523
163.7999,-136.7844
163.6131,-136.4159
163.4247,-136.0479
163.2401,-135.6782
163.0546,-135.3089
162.8694,-134.9393
162.6845,-134.5697
162.5157,-134.1927
162.3578,-133.8107
162.1979,-133.4296
162.0405,-133.0474
161.879,-132.6671
161.7164,-132.2869
161.5505,-131.9086
161.3881,-131.5283
161.2221,-131.15
161.0249,-130.7871
160.8189,-130.4287
160.6161,-130.0687
160.4105,-129.71
160.2082,-129.3497
160.0044,-128.99
159.802,-128.6298
159.5987,-128.2698
159.3963,-127.9096
159.1969,-127.5475
158.9973,-127.1856
158.7981,-126.8235
158.5984,-126.4615
158.4169,-126.0908
158.2529,-125.7114
158.0883,-125.3323
157.925,-124.9526
157.7581,-124.5746
157.5861,-124.1987
157.4104,-123.8247
157.2391,-123.4484
157.0628,-123.0747
156.8494,-122.722
156.6176,-122.3795
156.3907,-122.0343
156.1594,-121.6916
155.938,-121.3429
155.7376,-120.9816
155.5394,-120.6187
155.3397,-120.257
155.1409,-119.8945
154.9338,-119.537
154.7257,-119.1798
154.5172,-118.823
154.3093,-118.4657
154.0883,-118.1173
153.8346,-117.7913
153.5789,-117.4663
153.3254,-117.1401
153.0696,-116.8152
152.8307,-116.4784
152.5992,-116.1359
152.3691,-115.7926
152.1384,-115.4497
151.9062,-115.1077
151.673,-114.7666
151.4376,-114.4268
151.2051,-114.0852
150.9687,-113.7461
150.7184,-113.4173
150.4652,-113.0906
150.2142,-112.7622
149.9621,-112.4348
149.7256,-112.0958
149.4936,-111.7539
149.2581,-111.4141
149.0276,-111.0711
148.8111,-110.7199
148.6181,-110.3538
148.4175,-109.9931
148.2246,-109.6268
148.0236,-109.2664
147.765,-108.9443
147.5004,-108.6265
147.2406,-108.3053
146.9773,-107.9865
146.7326,-107.6538
146.4926,-107.3171
146.2526,-106.9808
146.0135,-106.6434
145.7698,-106.31
145.5195,-105.9809
145.2671,-105.6537
145.0168,-105.3247
144.7645,-104.9973
144.5034,-104.6771
144.2396,-104.3587
143.9768,-104.04
143.7136,-103.7211
143.4654,-103.3912
143.2276,-103.053
142.9885,-102.7159
142.7513,-102.3775
142.5101,-102.0418
142.2584,-101.7142
142.0035,-101.3886
141.7518,-101.061
141.497,-100.7354
141.2263,-100.4239
140.9407,-100.125
140.6569,-99.8245
140.372,-99.5253
140.1028,-99.2125
139.8625,-98.8766
139.6212,-98.5408
139.3814,-98.2043
139.1273,-97.8794
138.8412,-97.5812
138.5537,-97.2843
138.2672,-96.9862
137.9803,-96.689
137.7041,-96.3812
137.43,-96.0721
137.1545,-95.7639
136.8808,-95.4542
136.609,-95.143
136.3435,-94.826
136.0762,-94.5112
135.8101,-94.1944
135.5341,-93.8881
135.228,-93.6099
134.9227,-93.3318
134.616,-93.0544
134.3112,-92.7754
134.039,-92.4653
133.7753,-92.1466
133.5092,-91.8309
133.2452,-91.5123
132.9813,-91.1948
132.7197,-90.8744
132.4572,-90.5553
132.1952,-90.2357
131.9134,-89.9348
131.6044,-89.6607
131.2959,-89.3852
130.9868,-89.1114
130.6804,-88.8337
130.3939,-88.5362
130.1087,-88.2368
129.822,-87.9391
129.5371,-87.6398
129.2534,-87.3391
128.9805,-87.029
128.7051,-86.7204
128.4323,-86.4103
128.157,-86.1018
127.8589,-85.816
127.5565,-85.5341
127.2559,-85.2502
126.9541,-84.9683
126.672,-84.6667
126.4076,-84.3496
126.1428,-84.0318
125.8787,-83.7142
125.5985,-83.4115
125.2944,-83.1316
124.9893,-82.8529
124.685,-82.5728
124.3813,-82.293
124.0823,-82.0071
123.7836,-81.722
123.4844,-81.4365
123.1858,-81.1509
122.8901,-80.8622
122.5957,-80.5718
122.3009,-80.2827
122.0062,-79.9922
121.709,-79.7056
121.4096,-79.4202
121.1106,-79.1352
120.8111,-78.8503
120.5127,-78.5641
120.2177,-78.2751
119.923,-77.9847
119.6281,-77.6958
119.3332,-77.4055
119.035,-77.1199
118.735,-76.8353
118.4348,-76.5513
118.1352,-76.2668
117.8337,-75.9837
117.5209,-75.7143
117.206,-75.4457
116.8937,-75.1758
116.5785,-74.9078
116.2573,-74.6486
115.9249,-74.4026
115.5951,-74.1534
115.2632,-73.9075
114.9371,-73.6535
114.6348,-73.3724
114.3333,-73.0889
114.0312,-72.8076
113.7298,-72.5243
113.4129,-72.2602
113.0823,-72.0122
112.7491,-71.7673
112.4197,-71.5183
112.0852,-71.2748
111.7288,-71.0687
111.3597,-70.8803
110.9983,-70.6816
110.629,-70.4943
110.2688,-70.2928
109.9439,-70.039
109.625,-69.7742
109.3014,-69.5189
108.9811,-69.2561
108.6646,-68.9914
108.349,-68.724
108.0338,-68.4566
107.7174,-68.1913
107.3924,-67.935
107.0654,-67.6836
106.7398,-67.4275
106.4132,-67.1755
106.0817,-66.928
105.741,-66.6945
105.3998,-66.4614
105.0594,-66.2263
104.7181,-65.9944
104.3852,-65.7479
104.0543,-65.502
103.7232,-65.2531
103.3927,-65.0059
103.0475,-64.7791
102.6938,-64.5651
102.3391,-64.3539
101.9852,-64.139
101.6325,-63.9252
101.2808,-63.7063
100.93,-63.4894
100.5776,-63.2723
100.2194,-63.0682
99.843,-62.8967
99.4699,-62.7189
99.0934,-62.549
98.7201,-62.3704
98.3891,-62.126
98.0621,-61.871
97.7336,-61.6218
97.4058,-61.3692
97.0574,-61.1469
96.7081,-60.9267
96.3598,-60.7028
96.0103,-60.4839
95.663,-60.2581
95.3159,-60.0353
94.9697,-59.8085
94.623,-59.5838
94.277,-59.3582
93.9355,-59.1242
93.5932,-58.8945
93.2519,-58.659
92.9094,-58.4299
92.5464,-58.2318
92.1769,-58.0475
91.8086,-57.86
91.4393,-57.6735
91.07,-57.4896
90.6908,-57.3229
90.3114,-57.1616
89.9326,-56.9938
89.5528,-56.8328
89.1875,-56.6414
88.843,-56.4138
88.5006,-56.1827
88.1559,-55.9533
87.8135,-55.7238
87.4651,-55.4989
87.1166,-55.2794
86.7665,-55.0575
86.4176,-54.8374
86.067,-54.6182
85.7097,-54.4097
85.3526,-54.2035
84.995,-53.9936
84.638,-53.7884
84.2774,-53.5834
83.9158,-53.3856
83.5546,-53.1833
83.1924,-52.9845
82.8252,-52.7964
82.4503,-52.6197
82.0782,-52.4434
81.703,-52.266
81.3309,-52.0899
80.9755,-51.8768
80.6241,-51.6606
80.2711,-51.4455
79.9189,-51.228
79.5531,-51.0396
79.1776,-50.8632
78.8034,-50.6918
78.4277,-50.5157
78.0576,-50.335
77.6932,-50.1385
77.3297,-49.9418
76.9657,-49.7476
76.6018,-49.5487
76.2429,-49.3476
75.887,-49.1336
75.5304,-48.9279
75.1738,-48.7171
74.8074,-48.5254
74.4465,-48.3267
74.078,-48.1341
73.7192,-47.9361
73.4968,-47.5958
73.3103,-47.2279
73.0358,-46.9235
72.7356,-46.6434
72.4208,-46.3724
72.1147,-46.0964
71.7883,-45.8422
71.5353,-45.5339
71.4247,-45.1411
71.3197,-44.7364
71.2108,-44.3417
71.0995,-43.9411
70.988,-43.544
70.893,-43.1429
70.8111,-42.7353
70.7286,-42.3339
70.6463,-41.9248
70.6028,-41.5182
70.5695,-41.1032
70.5375,-40.6928
70.5041,-40.281
70.5234,-39.8688
70.5865,-39.4641
70.6502,-39.051
70.7139,-38.6477
70.6711,-38.2381
70.5809,-37.8384
70.5902,-37.434
70.685,-37.0312
70.7809,-36.6319
70.9453,-36.2589
71.2036,-35.9407
71.4784,-35.6295
71.7803,-35.3486
72.0995,-35.1034
72.5,-34.9792
72.8857,-34.8543
73.2815,-34.7077
73.6396,-34.527
73.6773,-34.4028
74.3305,-34.4028
74.3305,-34.4028
74.565,-34.0869
74.8161,-33.735
75.0517,-33.4163
75.2259,-33.0268
75.3793,-32.6548
75.5427,-32.2672
75.6987,-31.8887
75.8458,-31.5016
75.9781,-31.109
76.1088,-30.7191
76.244,-30.3261
76.3735,-29.9356
76.5346,-29.5536
76.6859,-29.1691
76.8466,-28.7892
76.9706,-28.3951
77.0504,-27.9914
77.1295,-27.585
77.2043,-27.1774
77.2901,-26.7765
77.3639,-26.3639
77.4394,-25.967
77.4457,-25.5418
77.6013,-25.2039
77.8935,-24.922
78.0303,-24.5377
78.1415,-24.1367
78.275,-23.7442
78.5315,-23.4293
78.7966,-23.0997
78.9343,-22.7278
79.1026,-22.3364
79.355,-22.0287
79.7383,-21.9518
80.0514,-21.7226
80.3197,-21.3929
80.6122,-21.1123
80.8125,-20.7436
80.9989,-20.3834
81.1664,-20.0012
81.3496,-19.6307
81.5205,-19.2577
81.726,-18.8934
81.9361,-18.5448
81.9721,-18.1396
81.9493,-17.7332
81.9264,-17.3156
81.885,-16.9077
81.8293,-16.4972
81.7773,-16.0862
81.7446,-15.6775
81.738,-15.2603
81.8056,-14.8583
81.8875,-14.4484
81.9643,-14.0462
82.0794,-13.6519
82.2978,-13.3019
82.5145,-12.9516
82.5362,-12.5504
82.4957,-12.1414
82.4412,-11.7303
82.34,-11.331
82.2979,-10.9189
82.2674,-10.5101
82.2687,-10.093
82.2336,-9.6849
82.0111,-9.3439
81.8091,-8.9836
81.6882,-8.5891
81.5424,-8.2018
81.4167,-7.8077
81.2761,-7.4198
81.1098,-7.0409
80.9351,-6.6672
80.7612,-6.2914
80.5899,-5.9158
80.3638,-5.5755
80.0855,-5.2709
79.7998,-4.9716
79.5217,-4.6658
79.2362,-4.3673
78.9577,-4.0614
78.6727,-3.7624
78.3405,-3.5194
77.996,-3.2893
77.657,-3.0546
77.3129,-2.8241
76.9593,-2.6126
76.5917,-2.4233
76.2265,-2.2283
75.8603,-2.0402
75.4936,-1.8442
75.1295,-1.6552
74.7621,-1.4591
74.3986,-1.2676
74.0339,-1.0716
73.6882,-0.84192
73.3421,-0.62516
72.9934,-0.38685
72.6405,-0.20882
72.2235,-0.13757
71.8219,-0.11433
71.4008,-0.036724
71.0026,-0.017402
