78.442,-321.0859
78.8329,-321.001
79.2208,-320.9067
79.587,-320.7447
79.952,-320.5806
80.3188,-320.4201
80.6872,-320.2649
81.0706,-320.1493
81.453,-320.0309
81.8355,-319.9133
82.2189,-319.7971
82.5928,-319.6561
82.966,-319.5103
83.3355,-319.3572
83.7093,-319.2126
84.0734,-319.0499
84.4027,-318.8233
84.7271,-318.5878
85.056,-318.3602
85.381,-318.1261
85.709,-317.8969
86.0351,-317.6646
86.362,-317.4336
86.6891,-317.2028
87.0152,-316.9707
87.3427,-316.7406
87.6688,-316.5083
87.9961,-316.2778
88.3227,-316.0463
88.6493,-315.8149
88.9764,-315.5842
89.3027,-315.3522
89.63,-315.1218
89.9563,-314.89
90.2833,-314.659
90.6101,-314.4279
90.9366,-314.1962
91.2638,-313.9656
91.5901,-313.7338
91.9172,-313.503
92.2438,-313.2716
92.5705,-313.0403
92.8976,-312.8094
93.2239,-312.5777
93.5511,-312.347
93.8776,-312.1153
94.2045,-311.8843
94.5313,-311.6531
94.8578,-311.4216
95.185,-311.1908
95.5113,-310.9591
95.8384,-310.7283
96.165,-310.4968
96.4918,-310.2657
96.8187,-310.0345
97.1451,-309.803
97.4724,-309.5723
97.7986,-309.3404
98.1259,-309.11
98.4521,-308.8778
98.7794,-308.6476
99.1058,-308.4154
99.4355,-308.1894
99.7853,-307.9944
100.1351,-307.8
100.4853,-307.6058
100.8347,-307.4107
101.1419,-307.1588
101.4289,-306.8793
101.7171,-306.6019
102.0043,-306.3227
102.3139,-306.0701
102.6335,-305.829
102.9524,-305.5871
103.2724,-305.3466
103.5914,-305.1048
103.9168,-304.8716
104.2415,-304.6375
104.5662,-304.4033
104.8917,-304.1703
105.2168,-303.9369
105.545,-303.7074
105.8714,-303.476
106.1989,-303.2455
106.5279,-303.0178
106.8637,-302.8
107.2025,-302.5863
107.5373,-302.3675
107.8764,-302.1539
108.2061,-301.928
108.5254,-301.6863
108.8443,-301.4445
109.1614,-301.2003
109.4823,-300.9606
109.8159,-300.7422
110.1672,-300.5482
110.5143,-300.3503
110.8632,-300.1536
111.1595,-299.909
111.3256,-299.5427
111.5296,-299.2129
111.8755,-299.0159
112.2328,-298.8297
112.5792,-298.6338
112.9187,-298.4218
113.2245,-298.165
113.5332,-297.9091
113.8422,-297.6551
114.1485,-297.3974
114.474,-297.1654
114.815,-296.9571
115.1586,-296.7507
115.5016,-296.5448
115.843,-296.3359
116.1694,-296.1043
116.4892,-295.8638
116.8138,-295.6291
117.1344,-295.3897
117.4522,-295.1463
117.7658,-294.8975
118.0773,-294.6464
118.3931,-294.3998
118.7027,-294.1466
118.9944,-293.8727
119.2796,-293.5914
119.5705,-293.3168
119.857,-293.0368
120.1582,-292.7748
120.4854,-292.544
120.8117,-292.3126
121.1405,-292.0838
121.455,-291.8386
121.7297,-291.5481
121.9984,-291.2506
122.2735,-290.9605
122.5423,-290.6632
122.8328,-290.3905
123.1576,-290.1572
123.4859,-289.9276
123.812,-289.6959
124.1391,-289.4648
124.4438,-289.207
124.7321,-288.9293
125.0213,-288.6525
125.3101,-288.3753
125.5977,-288.0969
125.8765,-287.8097
126.153,-287.5202
126.4325,-287.2336
126.7088,-286.9439
126.9959,-286.6653
127.2961,-286.4007
127.5976,-286.1372
127.8987,-285.8736
128.1994,-285.6093
128.4997,-285.3445
128.7988,-285.0786
129.0988,-284.8136
129.3985,-284.5482
129.6949,-284.2792
129.9909,-284.0096
130.2854,-283.7386
130.5816,-283.4692
130.8718,-283.1939
131.1461,-282.9023
131.4188,-282.6092
131.6929,-282.3176
131.9656,-282.0244
132.2416,-281.7346
132.5169,-281.4438
132.7943,-281.1554
133.0694,-280.8644
133.3522,-280.5818
133.661,-280.3272
133.9717,-280.0746
134.2811,-279.8207
134.591,-279.5673
134.8781,-279.2891
135.1565,-279.0014
135.4368,-278.7157
135.7144,-278.4272
135.9794,-278.128
136.2256,-277.8121
136.4764,-277.5004
136.7222,-277.1841
136.974,-276.8733
137.2658,-276.5997
137.5628,-276.3308
137.8548,-276.0574
138.1514,-275.7882
138.4394,-275.5105
138.7271,-275.232
139.0117,-274.9506
139.299,-274.6718
139.5838,-274.3905
139.8437,-274.0863
140.0993,-273.7781
140.3574,-273.4722
140.6132,-273.1643
140.8788,-272.8649
141.1492,-272.5697
141.4201,-272.2751
141.6911,-271.9804
141.9617,-271.6854
142.2343,-271.3923
142.5066,-271.0988
142.7785,-270.8051
143.0517,-270.5124
143.3124,-270.2095
143.5489,-269.8867
143.7821,-269.5611
144.0184,-269.2381
144.2524,-268.9132
144.5036,-268.6021
144.766,-268.2998
145.0266,-267.9959
145.2901,-267.6945
145.5501,-267.3902
145.8055,-267.0819
146.0584,-266.7717
146.3125,-266.4623
146.5669,-266.1532
146.8202,-265.8433
147.0764,-265.5357
147.3297,-265.2258
147.5857,-264.918
147.8338,-264.6042
148.0584,-264.2728
148.2826,-263.9412
148.5064,-263.6093
148.7309,-263.2779
148.9749,-262.961
149.2262,-262.6493
149.478,-262.3382
149.7288,-262.0262
149.9831,-261.7172
150.2523,-261.4209
150.5214,-261.1247
150.7918,-260.8292
151.0597,-260.5321
151.2877,-260.2056
151.4874,-259.8584
151.6908,-259.5138
151.891,-259.1671
152.0943,-258.8223
152.3097,-258.4849
152.5253,-258.1476
152.7411,-257.8105
152.9568,-257.4732
153.1724,-257.136
153.39,-256.7999
153.6048,-256.4622
153.8232,-256.1266
154.0289,-255.7838
154.2054,-255.4246
154.3797,-255.0642
154.5543,-254.7039
154.7309,-254.3449
154.947,-254.0095
155.1863,-253.6883
155.4184,-253.3625
155.6581,-253.0414
155.8859,-252.7129
156.0809,-252.3635
156.2717,-252.0114
156.4651,-251.6611
156.6571,-251.3097
156.8459,-250.957
157.022,-250.5973
157.2,-250.239
157.3749,-249.8786
157.5542,-249.521
157.774,-249.1872
158.0065,-248.861
158.2326,-248.531
158.4647,-248.2045
158.6773,-247.8662
158.8661,-247.5133
159.0524,-247.159
159.24,-246.8054
159.4274,-246.4516
159.6166,-246.0989
159.8077,-245.7471
159.9978,-245.3949
160.1887,-245.043
160.3655,-244.6844
160.5207,-244.3154
160.6756,-243.9463
160.8308,-243.5773
160.9857,-243.2082
161.1533,-242.8447
161.326,-242.4836
161.4982,-242.1223
161.6714,-241.7613
161.8399,-241.3983
162.0003,-241.0316
162.1583,-240.6637
162.319,-240.2971
162.4769,-239.9293
162.6259,-239.5578
162.7705,-239.1845
162.9168,-238.8119
163.062,-238.4389
163.2155,-238.0694
163.3849,-237.7066
163.5535,-237.3436
163.7233,-236.9811
163.8915,-236.6178
164.04,-236.2462
164.1835,-235.8725
164.329,-235.4996
164.4728,-235.126
164.6229,-234.755
164.7749,-234.3846
164.9267,-234.0142
165.0792,-233.6441
165.2284,-233.2726
165.3749,-232.9001
165.5201,-232.5271
165.6663,-232.1544
165.8121,-231.7816
165.9593,-231.4094
166.1077,-231.0376
166.2549,-230.6653
166.4034,-230.2936
166.5426,-229.9184
166.6688,-229.5386
166.7953,-229.1588
166.9208,-228.7786
167.048,-228.3991
167.1886,-228.0244
167.3338,-227.6513
167.4768,-227.2774
167.6214,-226.9042
167.7507,-226.5257
167.8607,-226.1408
167.9712,-225.7561
168.0809,-225.3711
168.1915,-224.9864
168.3129,-224.605
168.438,-224.2247
168.5629,-223.8444
168.6877,-223.4641
168.816,-223.0849
168.9494,-222.7075
169.0825,-222.33
169.2166,-221.9528
169.3467,-221.5743
169.4682,-221.1928
169.5866,-220.8105
169.7084,-220.4291
169.8268,-220.0468
169.9191,-219.6579
169.9921,-219.2643
170.0672,-218.8711
170.1409,-218.4777
170.2156,-218.0844
170.2951,-217.6921
170.3749,-217.2998
170.4546,-216.9075
170.5343,-216.5152
170.6208,-216.1244
170.7141,-215.7352
170.8072,-215.3459
170.9005,-214.9566
170.9939,-214.5673
171.0881,-214.1782
171.1827,-213.7893
171.2767,-213.4002
171.3715,-213.0113
171.4706,-212.6235
171.5723,-212.2363
171.6728,-211.8488
171.7746,-211.4616
171.8597,-211.0711
171.9179,-210.6751
171.9742,-210.2787
172.0325,-209.8827
172.0887,-209.4863
172.1475,-209.0904
172.2043,-208.6941
172.2627,-208.2981
172.3203,-207.902
172.3824,-207.5066
172.4564,-207.1131
172.5266,-206.7192
172.6023,-206.3258
172.671,-205.9318
172.6951,-205.5326
172.7068,-205.1322
172.7271,-204.7326
172.7395,-204.3323
172.7678,-203.9334
172.8203,-203.5367
172.8764,-203.1403
172.9302,-202.7436
172.9853,-202.3471
173.0493,-201.952
173.1177,-201.5576
173.1849,-201.163
173.2539,-200.7686
173.3131,-200.373
173.356,-199.975
173.3955,-199.5766
173.4383,-199.1786
173.4783,-198.7803
173.5097,-198.3813
173.5356,-197.9818
173.5618,-197.5824
173.5885,-197.183
173.6107,-196.7833
173.6259,-196.3834
173.6396,-195.9833
173.6547,-195.5833
173.6685,-195.1832
173.6801,-194.783
173.6903,-194.3829
173.7008,-193.9827
173.7112,-193.5826
173.7229,-193.1824
173.7366,-192.7823
173.7502,-192.3823
173.7637,-191.9822
173.7778,-191.5822
173.7979,-191.1824
173.8229,-190.7828
173.8449,-190.3832
173.8707,-189.9836
173.8843,-189.584
173.8683,-189.1841
173.8488,-188.7842
173.8315,-188.3843
173.8138,-187.9844
173.8205,-187.5844
173.8383,-187.1844
173.8516,-186.7845
173.87,-186.3845
173.8701,-185.9847
173.8412,-185.5856
173.8104,-185.1864
173.7794,-184.7873
173.7507,-184.3881
173.7457,-183.988
173.7506,-183.5877
173.7511,-183.1874
173.7551,-182.7871
173.7433,-182.3873
173.7111,-181.9883
173.6798,-181.5893
173.6467,-181.1903
173.6157,-180.7912
173.5941,-180.3916
173.5748,-179.9917
173.5553,-179.5919
173.5354,-179.1921
173.5339,-178.7922
173.5535,-178.3924
173.5717,-177.9926
173.5931,-177.5927
173.6031,-177.193
173.5782,-176.7936
173.5464,-176.3944
173.521,-175.995
173.4909,-175.5958
173.4669,-175.1963
173.4472,-174.7964
173.424,-174.3968
173.4065,-173.9968
173.3737,-173.5983
173.3063,-173.204
173.2335,-172.8102
173.1638,-172.416
173.0936,-172.022
173.0426,-171.625
173.0005,-171.227
172.9542,-170.8294
172.9115,-170.4313
172.8651,-170.0338
172.815,-169.6365
172.7682,-169.2391
172.7154,-168.8421
172.6705,-168.4445
172.6606,-168.0448
172.6621,-167.6441
172.6554,-167.2441
172.6556,-166.8436
172.6331,-166.4448
172.572,-166.0494
172.5084,-165.654
172.4465,-165.2587
172.3833,-164.8633
172.3247,-164.4674
172.2651,-164.0715
172.2069,-163.6754
172.1477,-163.2796
172.0928,-162.8831
172.0471,-162.4854
172.0004,-162.0879
171.9556,-161.69
171.9082,-161.2926
171.8433,-160.8977
171.7703,-160.5041
171.6997,-160.1101
171.6275,-159.7163
171.5649,-159.3212
171.5187,-158.9235
171.4718,-158.526
171.4259,-158.1283
171.379,-157.7308
171.3114,-157.3366
171.2315,-156.9443
171.151,-156.5523
171.0718,-156.1598
170.9907,-155.7678
170.8979,-155.3785
170.8029,-154.9895
170.71,-154.6003
170.6153,-154.2112
170.5198,-153.8225
170.4207,-153.4347
170.3212,-153.0469
170.2232,-152.6589
170.1225,-152.2714
170.006,-151.8888
169.876,-151.51
169.7516,-151.1297
169.6211,-150.7511
169.4977,-150.3704
169.4074,-149.9806
169.3221,-149.5894
169.2328,-149.1992
169.1461,-148.8084
169.0512,-148.4195
168.952,-148.0318
168.8546,-147.6434
168.7543,-147.256
168.6317,-146.8755
168.4913,-146.5004
168.3557,-146.124
168.2152,-145.7489
168.0794,-145.3725
167.9673,-144.9883
167.8599,-144.6026
167.7493,-144.218
167.6413,-143.8324
167.5289,-143.4483
167.4095,-143.0662
167.2885,-142.6846
167.169,-142.3026
167.0479,-141.921
166.9194,-141.542
166.7853,-141.1648
166.6528,-140.787
166.5191,-140.4098
166.3873,-140.0317
166.2634,-139.6511
166.138,-139.271
166.0154,-138.8899
165.8889,-138.5102
165.7391,-138.139
165.584,-137.77
165.4333,-137.3991
165.279,-137.0297
165.1289,-136.6587
164.9825,-136.286
164.8369,-135.9133
164.6909,-135.5404
164.5455,-135.1676
164.4115,-134.7904
164.2821,-134.4115
164.1493,-134.034
164.021,-133.6546
163.8785,-133.2812
163.706,-132.9201
163.5287,-132.561
163.3552,-132.2004
163.1792,-131.8407
163.0143,-131.4762
162.8587,-131.1073
162.702,-130.739
162.5468,-130.3701
162.3902,-130.0016
162.2313,-129.6343
162.0715,-129.2671
161.9113,-128.9003
161.752,-128.5331
161.5898,-128.1671
161.4246,-127.8026
161.2588,-127.4381
161.0931,-127.0738
160.9277,-126.7092
160.7623,-126.3446
160.5975,-125.98
160.4324,-125.6152
160.2673,-125.2506
160.1013,-124.8863
159.9332,-124.523
159.7651,-124.1598
159.5974,-123.7961
159.4286,-123.4333
159.2542,-123.0729
159.0778,-122.7136
158.9035,-122.3533
158.7274,-121.9937
158.5494,-121.6353
158.3694,-121.2776
158.1887,-120.9205
158.0095,-120.5625
157.8274,-120.206
157.6419,-119.8514
157.4547,-119.4974
157.2685,-119.1432
157.0822,-118.7888
156.8943,-118.4353
156.7074,-118.0814
156.5185,-117.7284
156.3318,-117.3744
156.142,-117.0219
155.9378,-116.6776
155.7316,-116.3346
155.5274,-115.9902
155.321,-115.6473
155.1084,-115.3081
154.8872,-114.9745
154.6687,-114.6392
154.4473,-114.3055
154.2294,-113.97
154.0315,-113.6219
153.8359,-113.2727
153.6383,-112.9246
153.4426,-112.5753
153.245,-112.2273
153.0493,-111.8779
152.8514,-111.5301
152.656,-111.1806
152.4579,-110.8328
152.2417,-110.4962
152.0195,-110.163
151.7996,-109.8288
151.5781,-109.4951
151.3563,-109.162
151.1331,-108.8297
150.9092,-108.4977
150.6865,-108.1653
150.4618,-107.8338
150.2296,-107.5079
149.9956,-107.1831
149.7635,-106.8568
149.5294,-106.5323
149.305,-106.2009
149.0972,-105.859
148.8909,-105.5158
148.6838,-105.1732
148.4765,-104.831
148.2415,-104.5084
147.9791,-104.2062
147.7199,-103.9011
147.457,-103.599
147.2046,-103.2892
146.9865,-102.9535
146.7703,-102.6168
146.5537,-102.2799
146.3358,-101.9443
146.086,-101.6322
145.8259,-101.3275
145.5705,-101.0197
145.3106,-100.7148
145.0564,-100.4059
144.8089,-100.0912
144.5627,-99.7755
144.3164,-99.4602
144.0692,-99.145
143.8167,-98.8347
143.5595,-98.5278
143.3038,-98.2198
143.0468,-97.9131
142.7965,-97.6005
142.5571,-97.28
142.3187,-96.9583
142.0791,-96.6376
141.8409,-96.3161
141.6127,-95.9869
141.3879,-95.6561
141.1612,-95.3258
140.9362,-94.9949
140.689,-94.6813
140.4195,-94.3852
140.1489,-94.0905
139.8794,-93.7941
139.6079,-93.5003
139.3282,-93.2138
139.047,-92.9288
138.7673,-92.6428
138.4863,-92.3572
138.214,-92.0644
137.9457,-91.767
137.6767,-91.4706
137.4092,-91.173
137.1393,-90.8769
136.8648,-90.5861
136.588,-90.2964
136.3131,-90.0057
136.0369,-89.716
135.7862,-89.4062
135.5763,-89.0658
135.3661,-88.7247
135.1563,-88.384
134.9462,-88.0433
134.6925,-87.737
134.4086,-87.4551
134.1241,-87.1731
133.8406,-86.8908
133.5558,-86.6094
133.2596,-86.3402
132.959,-86.0761
132.6612,-85.8082
132.3602,-85.5446
132.0646,-85.2746
131.7808,-84.9924
131.5002,-84.7071
131.217,-84.4237
130.9355,-84.1397
130.6568,-83.8519
130.3788,-83.5641
130.1022,-83.2748
129.8238,-82.9868
129.5484,-82.6969
129.2819,-82.3976
129.016,-82.0989
128.7501,-81.7994
128.4837,-81.5005
128.2083,-81.2107
127.9276,-80.9245
127.6465,-80.6402
127.3668,-80.3534
127.0781,-80.0767
126.7688,-79.8232
126.4567,-79.5717
126.1468,-79.3192
125.8357,-79.0667
125.541,-78.7965
125.2549,-78.5166
124.9665,-78.2385
124.6807,-77.959
124.3908,-77.6823
124.0975,-77.4102
123.8045,-77.1375
123.51,-76.8659
123.2179,-76.5929
122.9358,-76.3084
122.66,-76.0187
122.3825,-75.73
122.1059,-75.4405
121.8192,-75.1623
121.5168,-74.8992
121.2142,-74.638
120.9126,-74.3743
120.6088,-74.1136
120.2978,-73.8622
119.9827,-73.6142
119.6715,-73.3635
119.3574,-73.1145
119.0577,-72.8504
118.7759,-72.5662
118.4912,-72.2844
118.211,-71.999
117.923,-71.7207
117.6098,-71.4724
117.292,-71.2285
116.9775,-70.9806
116.6612,-70.736
116.3501,-70.4833
116.0437,-70.2265
115.737,-69.9689
115.4301,-69.7117
115.1242,-69.4542
114.8246,-69.1877
114.5279,-68.92
114.2289,-68.6531
113.9316,-68.3852
113.6208,-68.1345
113.2931,-67.9035
112.9662,-67.6738
112.6382,-67.4432
112.3112,-67.2129
111.9891,-66.9754
111.6675,-66.7362
111.3468,-66.498
111.0248,-66.2587
110.706,-66.0178
110.392,-65.7691
110.0779,-65.5204
109.7648,-65.2721
109.4501,-65.0233
109.1276,-64.7879
108.7986,-64.559
108.4704,-64.3298
108.1422,-64.1014
107.8129,-63.8724
107.4836,-63.6465
107.1531,-63.4193
106.8233,-63.1929
106.4937,-62.9663
106.1695,-62.7303
105.8508,-62.4897
105.5304,-62.2482
105.2114,-62.0073
104.891,-61.7673
104.5693,-61.5281
104.2477,-61.2915
103.9262,-61.0511
103.6037,-60.8155
103.261,-60.6098
102.9065,-60.4228
102.5568,-60.2301
102.2016,-60.0426
101.8581,-59.8407
101.5372,-59.6006
101.2188,-59.3579
100.9,-59.1169
100.5797,-58.875
100.2455,-58.6576
99.9029,-58.4485
99.563,-58.2381
99.2214,-58.0296
98.8785,-57.8215
98.5347,-57.6188
98.1897,-57.4134
97.8456,-57.2106
97.5024,-57.0043
97.1698,-56.7806
96.8401,-56.5555
96.5067,-56.3316
96.177,-56.1065
95.8421,-55.8862
95.5053,-55.6695
95.1687,-55.4546
94.8305,-55.2379
94.4947,-55.0226
94.1544,-54.8098
93.8151,-54.598
93.4754,-54.3873
93.1347,-54.1747
92.7917,-53.9719
92.4356,-53.786
92.081,-53.6021
91.7261,-53.4169
91.37,-53.232
91.0254,-53.032
90.6837,-52.8202
90.3443,-52.6105
90.0041,-52.3985
89.6617,-52.1902
89.3166,-51.9901
88.9666,-51.7921
88.6219,-51.592
88.2727,-51.3941
87.9158,-51.2133
87.5575,-51.037
87.1972,-50.8585
86.8405,-50.6814
86.4899,-50.4853
86.1479,-50.2786
85.8042,-50.0745
85.4602,-49.8666
85.1165,-49.666
84.7611,-49.477
84.4085,-49.2907
84.0543,-49.1035
83.6999,-48.9151
83.3555,-48.7154
83.0102,-48.508
82.6679,-48.3046
82.3237,-48.0982
81.9784,-47.8949
81.6339,-47.6947
81.2854,-47.4923
80.9414,-47.293
80.5937,-47.0908
80.2475,-46.8908
79.902,-46.6909
79.5532,-46.4893
79.2094,-46.2906
78.8605,-46.0887
78.5137,-45.8918
78.166,-45.6942
77.8161,-45.4953
77.4708,-45.2995
77.1301,-45.0837
76.8082,-44.8503
76.4834,-44.6149
76.1585,-44.3786
75.8365,-44.1466
75.4907,-43.9368
75.1477,-43.7379
74.8036,-43.5293
74.4562,-43.3291
74.1371,-43.0973
73.8494,-42.8128
73.5728,-42.5306
73.2803,-42.2511
72.993,-41.9747
72.7088,-41.6956
72.4349,-41.3965
72.1815,-41.0968
71.9215,-40.7836
71.7521,-40.4291
71.6956,-40.0331
71.6563,-39.6324
71.6282,-39.2372
71.6018,-38.833
71.5777,-38.4376
71.5612,-38.0356
71.5575,-37.6348
71.5639,-37.238
71.5519,-36.8317
71.5646,-36.4385
71.6308,-36.042
71.7396,-35.6575
71.8359,-35.2714
71.9261,-34.8748
72.0399,-34.5013
72.0434,-34.0825
72.0924,-33.7064
72.3867,-33.4604
72.7026,-33.2041
72.9678,-32.908
73.2695,-32.6407
73.6194,-32.4595
73.9683,-32.2772
74.2205,-31.9672
74.4565,-31.642
74.7104,-31.3345
74.9293,-30.9966
75.1525,-30.6667
75.373,-30.3311
75.591,-29.9958
75.814,-29.664
76.0327,-29.3272
76.2524,-28.9945
76.4758,-28.6604
76.6907,-28.3241
76.8482,-27.958
76.9817,-27.5789
77.1283,-27.2083
77.2645,-26.83
77.4082,-26.4577
77.5542,-26.0846
77.6995,-25.7111
77.8478,-25.3403
77.9922,-24.9656
78.1452,-24.597
78.2995,-24.2268
78.4542,-23.8578
78.6104,-23.4896
78.76,-23.1176
78.8922,-22.741
79.0185,-22.3599
79.1511,-21.9831
79.278,-21.6031
79.429,-21.2324
79.5974,-20.8704
79.7633,-20.5048
79.9358,-20.1447
80.1309,-19.7977
80.3779,-19.4808
80.6157,-19.161
80.8568,-18.8392
81.058,-18.5087
81.0743,-18.0989
81.1368,-17.7206
81.4311,-17.4653
81.7862,-17.248
82.0742,-16.9904
82.2432,-16.635
82.3252,-16.2374
82.3466,-15.8485
82.3113,-15.4425
82.2766,-15.0466
82.2415,-14.6489
82.1854,-14.2497
82.0846,-13.8679
81.9694,-13.4797
81.8644,-13.0961
81.7552,-12.7106
81.6914,-12.3144
81.6356,-11.9201
81.5641,-11.5242
81.4926,-11.1313
81.4274,-10.7369
81.4634,-10.3415
81.5393,-9.9476
81.5933,-9.5515
81.6681,-9.1574
81.6983,-8.7599
81.6975,-8.3593
81.6867,-7.9599
81.6615,-7.5596
81.6495,-7.1597
81.5812,-6.7684
81.4604,-6.3874
81.3232,-6.0121
81.1571,-5.6467
80.991,-5.284
80.8204,-4.9208
80.6585,-4.5546
80.4884,-4.1937
80.2419,-3.883
79.9584,-3.602
79.6799,-3.3126
79.3869,-3.0415
79.0817,-2.7828
78.7703,-2.5297
78.4607,-2.2782
78.1491,-2.0249
77.8091,-1.8216
77.4432,-1.6605
77.0753,-1.499
76.7106,-1.3389
76.3386,-1.1872
75.9589,-1.063
75.5785,-0.94085
75.1964,-0.81384
74.8188,-0.69193
74.4472,-0.53311
74.0794,-0.38144
73.7107,-0.22604
73.3384,-0.068936
