106.8034,-320.7254
107.1195,-320.4986
107.4398,-320.2765
107.7572,-320.0512
108.075,-319.8263
108.3956,-319.6046
108.7102,-319.3761
109.0334,-319.1572
109.346,-318.9265
109.6201,-318.6507
109.8856,-318.365
110.1576,-318.0868
110.4256,-317.8039
110.6951,-317.5231
110.9649,-317.2423
111.2335,-316.9601
111.5035,-316.6798
111.7725,-316.3979
112.0418,-316.1168
112.3114,-315.8358
112.5803,-315.5541
112.85,-315.2733
113.1192,-314.9917
113.3885,-314.7106
113.658,-314.4295
113.927,-314.1479
114.1966,-313.867
114.4658,-313.5855
114.7351,-313.3043
115.0046,-313.0231
115.2737,-312.7417
115.5433,-312.4607
115.8125,-312.1792
116.0818,-311.8981
116.3513,-311.6168
116.6204,-311.3355
116.8899,-311.0544
117.1591,-310.7729
117.4285,-310.4919
117.6979,-310.2105
117.9671,-309.9293
118.2366,-309.6481
118.5057,-309.3666
118.7753,-309.0857
119.0444,-308.804
119.3139,-308.5232
119.5831,-308.2417
119.8523,-307.9602
120.1222,-307.6798
120.3904,-307.3969
120.6616,-307.1182
120.9283,-306.8336
121.2009,-306.5563
121.5143,-306.3285
121.8445,-306.1205
122.1678,-305.9046
122.4968,-305.6951
122.8219,-305.4814
123.1487,-305.2695
123.4759,-305.058
123.801,-304.8444
124.1292,-304.6339
124.4054,-304.3706
124.6235,-304.0484
124.8401,-303.7245
125.057,-303.4013
125.2746,-303.0782
125.503,-302.763
125.7352,-302.4503
125.9675,-302.1379
126.1986,-301.8243
126.4533,-301.5321
126.7398,-301.2687
127.0297,-301.0083
127.3164,-300.745
127.6056,-300.4841
127.8984,-300.2275
128.1949,-299.9751
128.4912,-299.7223
128.7874,-299.4696
129.0838,-299.217
129.3801,-298.9643
129.6763,-298.7116
129.9727,-298.4589
130.2691,-298.2063
130.5651,-297.9534
130.8617,-297.701
131.1577,-297.4481
131.4541,-297.1954
131.7507,-296.943
132.0464,-296.6897
132.3435,-296.4379
132.6316,-296.1763
132.9078,-295.9018
133.1834,-295.6267
133.4582,-295.351
133.7355,-295.0773
134.0089,-294.8002
134.2596,-294.5027
134.5012,-294.1971
134.747,-293.8952
134.99,-293.5908
135.2341,-293.2875
135.4787,-292.9845
135.7217,-292.6801
135.9667,-292.3775
136.2101,-292.0734
136.454,-291.77
136.6986,-291.4669
136.9417,-291.1627
137.1866,-290.8599
137.43,-290.5559
137.674,-290.2525
137.9186,-289.9494
138.1615,-289.6451
138.4066,-289.3425
138.6499,-289.0384
138.8939,-288.735
139.1386,-288.432
139.3813,-288.1275
139.6268,-287.8251
139.8696,-287.5207
140.1139,-287.2175
140.3587,-286.9146
140.6009,-286.6097
140.8472,-286.308
141.0892,-286.0029
141.334,-285.7001
141.5731,-285.3929
141.7988,-285.0753
142.0331,-284.7645
142.2551,-284.444
142.4943,-284.1375
142.7699,-283.8636
142.9886,-283.5501
143.1542,-283.1963
143.3204,-282.8446
143.4991,-282.4996
143.7232,-282.1816
143.9593,-281.8714
144.1834,-281.5531
144.4172,-281.2416
144.6451,-280.9258
144.8746,-280.6112
145.1064,-280.2983
145.3333,-279.9818
145.5659,-279.6695
145.7938,-279.3537
146.024,-279.0396
146.2551,-278.7262
146.4821,-278.4097
146.7156,-278.0981
146.9413,-277.7806
147.1792,-277.4727
147.4369,-277.181
147.6586,-276.8641
147.8465,-276.5227
148.0362,-276.1828
148.2254,-275.8424
148.4142,-275.5017
148.6039,-275.1618
148.7925,-274.8209
148.9823,-274.481
149.1738,-274.1419
149.3675,-273.8041
149.559,-273.465
149.7531,-273.1274
149.9651,-272.8011
150.1859,-272.4802
150.4037,-272.1575
150.624,-271.8363
150.8463,-271.5167
151.0725,-271.1998
151.3007,-270.884
151.5248,-270.5659
151.7552,-270.2514
151.9691,-269.9274
152.1342,-269.5754
152.2881,-269.2168
152.4537,-268.8651
152.608,-268.5067
152.7907,-268.1656
153.0304,-267.8593
153.2764,-267.557
153.5179,-267.2518
153.7625,-266.9486
153.988,-266.632
154.1989,-266.3044
154.4062,-265.975
154.6183,-265.6481
154.8122,-265.3118
154.9586,-264.9514
155.0986,-264.5876
155.2438,-264.2266
155.3859,-263.8638
155.5649,-263.5194
155.7664,-263.186
155.9634,-262.8503
156.1662,-262.5176
156.3628,-262.1816
156.5468,-261.8385
156.7271,-261.4932
156.9091,-261.149
157.0912,-260.8048
157.2684,-260.4581
157.4432,-260.1101
157.6156,-259.7609
157.7899,-259.4127
157.963,-259.0639
158.1276,-258.711
158.2911,-258.3576
158.4541,-258.0039
158.6174,-257.6504
158.7738,-257.2939
158.9164,-256.9315
159.0597,-256.5695
159.202,-256.2069
159.3463,-255.8453
159.5033,-255.489
159.6615,-255.1331
159.8185,-254.7768
159.9768,-254.4209
160.1329,-254.0642
160.2865,-253.7064
160.439,-253.348
160.5921,-252.99
160.7454,-252.632
160.9107,-252.2797
161.0858,-251.9317
161.2572,-251.5822
161.4332,-251.2346
161.5933,-250.8805
161.7184,-250.5119
161.839,-250.1415
161.9629,-249.7723
162.0851,-249.4026
162.2265,-249.0402
162.3828,-248.6833
162.5344,-248.3249
162.6928,-247.9687
162.8423,-247.6096
162.942,-247.234
163.0248,-246.8527
163.1226,-246.4766
163.2039,-246.0945
163.3025,-245.719
163.4737,-245.3712
163.6683,-245.0326
163.8477,-244.6879
164.0403,-244.3485
164.2222,-244.0048
164.3532,-243.6398
164.4632,-243.266
164.576,-242.8934
164.6879,-242.5204
164.8163,-242.1531
164.9608,-241.7914
165.1031,-241.4291
165.248,-241.0675
165.3902,-240.7051
165.5099,-240.3349
165.6166,-239.9603
165.7257,-239.5866
165.8327,-239.2121
165.9506,-238.8413
166.0883,-238.477
166.2261,-238.1128
166.3643,-237.7487
166.5017,-237.3844
166.6111,-237.0117
166.6955,-236.6315
166.7804,-236.2515
166.865,-235.8713
166.95,-235.4913
167.0612,-235.119
167.1954,-234.7533
167.326,-234.3866
167.462,-234.0214
167.5907,-233.6542
167.6748,-233.2747
167.7439,-232.891
167.8222,-232.51
167.8926,-232.1266
167.9899,-231.7509
168.1283,-231.387
168.2658,-231.0228
168.4076,-230.6598
168.5422,-230.2948
168.6274,-229.9156
168.6967,-229.5319
168.7763,-229.1511
168.8466,-228.7678
168.9273,-228.387
169.032,-228.0121
169.1401,-227.6379
169.2465,-227.2633
169.3534,-226.8889
169.4542,-226.5128
169.5486,-226.135
169.6426,-225.7571
169.7377,-225.3795
169.831,-225.0014
169.9172,-224.6217
169.998,-224.2407
170.0819,-223.8605
170.1627,-223.4795
170.2465,-223.0993
170.3484,-222.7235
170.4545,-222.3488
170.5578,-221.9734
170.6638,-221.5986
170.7675,-221.2233
170.8716,-220.848
170.975,-220.4726
171.0777,-220.097
171.1823,-219.7218
171.2702,-219.343
171.3341,-218.9589
171.3947,-218.5742
171.4577,-218.19
171.5197,-217.8055
171.5954,-217.4237
171.6817,-217.0439
171.763,-216.6632
171.8507,-216.2835
171.9313,-215.9028
171.9704,-215.5163
171.9913,-215.1272
172.0182,-214.7388
172.0398,-214.3499
172.0735,-213.9623
172.1346,-213.5778
172.1999,-213.1938
172.2611,-212.8093
172.3262,-212.4253
172.386,-212.0406
172.4352,-211.6543
172.4831,-211.2678
172.5312,-210.8814
172.58,-210.4951
172.6364,-210.1098
172.6977,-209.7252
172.7581,-209.3405
172.8189,-208.9559
172.8802,-208.5713
172.9424,-208.1869
173.0042,-207.8025
173.0678,-207.4182
173.1278,-207.0336
173.1623,-206.6459
173.1852,-206.257
173.2162,-205.869
173.2397,-205.4801
173.281,-205.0936
173.3563,-204.7114
173.4294,-204.3292
173.5088,-203.9474
173.5786,-203.565
173.5837,-203.1776
173.5603,-202.7882
173.5474,-202.3995
173.5264,-202.0103
173.52,-201.6214
173.5416,-201.2327
173.5643,-200.8438
173.5863,-200.4551
173.6098,-200.0664
173.642,-199.6785
173.6837,-199.2911
173.7183,-198.9034
173.761,-198.5161
173.7955,-198.1284
173.7853,-197.7397
173.7632,-197.3508
173.7458,-196.9618
173.7249,-196.5729
173.7053,-196.1841
173.6805,-195.7953
173.6594,-195.4067
173.6334,-195.0178
173.6135,-194.6293
173.6429,-194.2419
173.6899,-193.855
173.7305,-193.468
173.7766,-193.0811
173.8118,-192.6935
173.8396,-192.305
173.8643,-191.9164
173.8922,-191.5279
173.9164,-191.1394
173.9039,-190.7508
173.8758,-190.3622
173.8523,-189.9737
173.8249,-189.5851
173.799,-189.1966
173.7664,-188.8086
173.7325,-188.4206
173.7015,-188.0325
173.6668,-187.6445
173.6468,-187.2559
173.6431,-186.8666
173.6404,-186.4772
173.6385,-186.0877
173.6342,-185.6984
173.6102,-185.3102
173.5678,-184.923
173.5291,-184.5356
173.4874,-184.1484
173.4479,-183.761
173.4278,-183.3721
173.4097,-182.9831
173.3899,-182.5942
173.3726,-182.2052
173.3663,-181.8161
173.3768,-181.4266
173.3815,-181.0375
173.3923,-180.6479
173.3973,-180.2588
173.3508,-179.8734
173.2849,-179.4895
173.2216,-179.1053
173.1569,-178.7213
173.1206,-178.3344
173.1053,-177.9452
173.0897,-177.5561
173.0745,-177.167
173.0596,-176.7779
173.0493,-176.3886
173.0374,-175.9994
173.028,-175.61
173.015,-175.221
172.9592,-174.8371
172.8742,-174.4569
172.7953,-174.0757
172.71,-173.6956
172.6309,-173.3144
172.581,-172.9284
172.538,-172.5413
172.4914,-172.1547
172.4474,-171.7678
172.4031,-171.3809
172.3607,-170.9938
172.3181,-170.6067
172.2752,-170.2197
172.2329,-169.8326
172.1838,-169.4463
172.1296,-169.0607
172.0743,-168.6752
172.0201,-168.2896
171.9648,-167.9041
171.898,-167.5206
171.825,-167.1381
171.7534,-166.7553
171.6799,-166.3728
171.6172,-165.9888
171.5757,-165.6017
171.5384,-165.214
171.4961,-164.827
171.4595,-164.4391
171.413,-164.0528
171.3385,-163.6707
171.2587,-163.2894
171.1829,-162.9075
171.1047,-162.526
171.0355,-162.1429
170.9727,-161.7585
170.9077,-161.3746
170.8457,-160.9901
170.7805,-160.6062
170.7041,-160.2244
170.6226,-159.8437
170.542,-159.4627
170.4615,-159.0817
170.3766,-158.7017
170.2865,-158.3228
170.1955,-157.9442
170.1049,-157.5655
170.0145,-157.1867
169.9289,-156.8068
169.8466,-156.4262
169.763,-156.0459
169.6804,-155.6653
169.5967,-155.285
169.5112,-154.9051
169.4261,-154.5251
169.3404,-154.1452
169.2552,-153.7652
169.1591,-153.3881
169.0494,-153.0144
168.9413,-152.6403
168.8307,-152.2669
168.7235,-151.8926
168.6376,-151.5129
168.5573,-151.1318
168.4728,-150.7517
168.3923,-150.3706
168.2985,-149.993
168.1826,-149.6213
168.0637,-149.2505
167.9472,-148.8789
167.829,-148.5079
167.714,-148.1358
167.6016,-147.763
167.4884,-147.3904
167.377,-147.0172
167.2622,-146.6452
167.1368,-146.2765
167.0085,-145.9088
166.8827,-145.5403
166.7553,-145.1723
166.6296,-144.8038
166.5059,-144.4345
166.3797,-144.0662
166.2574,-143.6963
166.1301,-143.3284
165.9781,-142.9701
165.8186,-142.6147
165.6655,-142.2568
165.506,-141.9013
165.3601,-141.5408
165.2457,-141.1687
165.1361,-140.7949
165.0226,-140.4225
164.9119,-140.0491
164.7874,-139.6804
164.6504,-139.3159
164.5143,-138.951
164.3763,-138.5868
164.2424,-138.2212
164.1184,-137.8521
163.9965,-137.4823
163.8732,-137.1129
163.7504,-136.7433
163.629,-136.3733
163.5069,-136.0036
163.386,-135.6334
163.2639,-135.2636
163.1237,-134.9008
162.9665,-134.5445
162.8092,-134.1883
162.6524,-133.8319
162.4949,-133.4757
162.3367,-133.1199
162.1761,-132.7651
162.0154,-132.4104
161.8552,-132.0555
161.6941,-131.701
161.5234,-131.3512
161.3418,-131.0066
161.1619,-130.6613
160.9801,-130.3169
160.8004,-129.9714
160.6398,-129.617
160.4865,-129.2589
160.3321,-128.9015
160.1778,-128.5439
160.0248,-128.1859
159.8946,-127.8193
159.778,-127.4475
159.6556,-127.0781
159.5398,-126.7059
159.3968,-126.3458
159.2038,-126.0079
159.0063,-125.672
158.8118,-125.3348
158.6158,-124.9983
158.4505,-124.6472
158.3127,-124.2829
158.1749,-123.9187
158.0362,-123.5549
157.8996,-123.1901
157.7454,-122.8333
157.5639,-122.4889
157.3777,-122.1468
157.1959,-121.8025
157.0107,-121.4599
156.828,-121.116
156.6489,-120.7702
156.4687,-120.425
156.2905,-120.0788
156.1099,-119.7338
155.9156,-119.3966
155.7126,-119.0642
155.5106,-118.7313
155.3083,-118.3986
155.1079,-118.0646
154.911,-117.7287
154.7146,-117.3924
154.517,-117.0568
154.3214,-116.7202
154.1449,-116.3736
153.9841,-116.0188
153.8195,-115.666
153.6588,-115.3111
153.4943,-114.9583
153.3044,-114.6188
153.1041,-114.2848
152.9068,-113.9491
152.707,-113.6148
152.5098,-113.279
152.3191,-112.9395
152.1289,-112.5997
151.9387,-112.2599
151.7483,-111.9202
151.5518,-111.5841
151.3495,-111.2513
151.1457,-110.9195
150.9445,-110.586
150.7397,-110.2549
150.5181,-109.9348
150.2916,-109.618
150.0691,-109.2984
149.8435,-108.981
149.63,-108.6557
149.4329,-108.3198
149.2361,-107.9838
149.0394,-107.6478
148.8427,-107.3116
148.6423,-106.9778
148.4374,-106.6466
148.2299,-106.3172
148.0255,-105.9857
147.818,-105.6562
147.602,-105.3322
147.3834,-105.0099
147.1644,-104.6879
146.9473,-104.3646
146.7267,-104.0438
146.4937,-103.7318
146.2575,-103.4221
146.0238,-103.1107
145.7887,-102.8003
145.5576,-102.4868
145.3302,-102.1707
145.1018,-101.8553
144.8745,-101.5392
144.6461,-101.2237
144.4163,-100.9094
144.1863,-100.5951
143.9563,-100.2809
143.7263,-99.9667
143.4927,-99.6551
143.2574,-99.3448
143.0229,-99.0339
142.7876,-98.7237
142.5529,-98.4129
142.3171,-98.103
142.0813,-97.7931
141.8458,-97.4829
141.61,-97.1731
141.3821,-96.8573
141.1589,-96.5382
140.9347,-96.2199
140.7122,-95.9003
140.4781,-95.5896
140.2269,-95.2921
139.9734,-94.9964
139.7218,-94.6992
139.4688,-94.4031
139.215,-94.1079
138.9604,-93.8132
138.7058,-93.5185
138.4512,-93.2238
138.1988,-92.9273
137.951,-92.6269
137.7039,-92.326
137.456,-92.0256
137.2087,-91.7248
136.9532,-91.4312
136.6888,-91.1453
136.4247,-90.8591
136.1602,-90.5733
135.8971,-90.2863
135.639,-89.9946
135.3815,-89.7025
135.1235,-89.4109
134.866,-89.1187
134.6033,-88.8314
134.3323,-88.5518
134.0601,-88.2732
133.7893,-87.9935
133.5172,-87.7149
133.2488,-87.4327
132.9838,-87.1474
132.7184,-86.8624
132.4541,-86.5765
132.187,-86.2931
131.9147,-86.0147
131.6408,-85.738
131.368,-85.46
131.0947,-85.1826
130.8163,-84.9104
130.5329,-84.6434
130.2486,-84.3773
129.9652,-84.1102
129.6812,-83.8438
129.3974,-83.5772
129.1141,-83.31
128.8296,-83.0441
128.5469,-82.7762
128.2595,-82.5137
127.9586,-82.2666
127.6554,-82.0222
127.3541,-81.7755
127.0514,-81.5305
126.7603,-81.2724
126.4821,-80.9999
126.2032,-80.7282
125.9256,-80.455
125.6463,-80.1838
125.3537,-79.9271
125.0551,-79.677
124.7579,-79.4255
124.4598,-79.1748
124.1598,-78.9267
123.8546,-78.6849
123.5482,-78.4445
123.2432,-78.2024
122.9369,-77.9619
122.6383,-77.7122
122.3491,-77.4515
122.06,-77.1906
121.7711,-76.9295
121.4819,-76.6687
121.1834,-76.4192
120.874,-76.1827
120.5639,-75.947
120.255,-75.7101
119.9446,-75.4748
119.6349,-75.2389
119.3242,-75.004
119.0139,-74.7687
118.7039,-74.5331
118.3932,-74.2982
118.084,-74.0616
117.7737,-73.8263
117.4641,-73.5901
117.1545,-73.354
116.8446,-73.118
116.5372,-72.879
116.2273,-72.6433
115.9204,-72.4033
115.6103,-72.1682
115.2809,-71.9607
114.9467,-71.7608
114.6158,-71.5556
114.2816,-71.3555
113.9507,-71.1504
113.6292,-70.9306
113.3108,-70.7065
112.9896,-70.4862
112.6707,-70.2628
112.35,-70.042
112.0218,-69.8322
111.6933,-69.6234
111.3646,-69.4143
111.0363,-69.205
110.7047,-69.0011
110.3646,-68.8113
110.0244,-68.6221
109.6842,-68.4324
109.344,-68.243
109.0114,-68.0408
108.6839,-67.8299
108.357,-67.6187
108.0292,-67.4081
107.7038,-67.1946
107.3847,-66.9714
107.0668,-66.7462
106.7476,-66.5235
106.4298,-66.298
106.1052,-66.0838
105.7674,-65.8902
105.4277,-65.6996
105.0898,-65.5064
104.7503,-65.3151
104.4155,-65.1167
104.0847,-64.9111
103.754,-64.7055
103.4236,-64.4997
103.0928,-64.2939
102.7574,-64.0968
102.414,-63.9128
102.0699,-63.7304
101.727,-63.5462
101.3827,-63.3638
101.0364,-63.1865
100.6847,-63.0188
100.3333,-62.8512
99.9824,-62.6826
99.6304,-62.5155
99.2814,-62.3435
98.9315,-62.1718
98.5822,-62
98.2333,-61.8272
97.8828,-61.6571
97.5309,-61.4911
97.1767,-61.3283
96.8245,-61.1628
96.4711,-60.9991
96.1256,-60.8203
95.7935,-60.6174
95.4597,-60.4164
95.1278,-60.2131
94.7882,-60.0237
94.4311,-59.8682
94.0745,-59.7125
93.7164,-59.5585
93.3604,-59.4016
93.0188,-59.2148
92.6803,-59.022
92.3407,-58.8321
92.0012,-58.6405
91.6497,-58.4759
91.2863,-58.335
90.9249,-58.1907
90.5612,-58.0512
90.1999,-57.9056
89.8593,-57.719
89.5237,-57.5199
89.1841,-57.3307
88.8496,-57.1296
88.5009,-56.9648
88.1215,-56.8871
87.7338,-56.8297
87.3549,-56.7493
86.967,-56.6937
86.5901,-56.6072
86.2558,-56.4128
85.9287,-56.1968
85.5956,-55.9982
85.2672,-55.7874
84.9252,-55.602
84.5747,-55.4338
84.224,-55.2628
83.8724,-55.0967
83.5223,-54.9258
83.1594,-54.7876
82.7847,-54.6833
82.411,-54.5732
82.0342,-54.473
81.6682,-54.347
81.3324,-54.1511
81.0033,-53.9422
80.6682,-53.7435
80.3375,-53.5385
79.9962,-53.3512
79.6482,-53.1759
79.3029,-52.9971
78.954,-52.8224
78.6084,-52.6446
78.2611,-52.4676
77.9136,-52.2915
77.5683,-52.1129
77.2195,-51.9374
76.8766,-51.755
76.5334,-51.5696
76.1907,-51.3848
75.8498,-51.198
75.5054,-51.0137
75.1666,-50.8245
74.8251,-50.6351
74.4842,-50.4474
74.1457,-50.2564
73.8079,-50.06
73.4808,-49.852
73.1485,-49.6459
72.8186,-49.4404
72.498,-49.2208
72.1837,-48.9883
71.8778,-48.751
71.5637,-48.5169
71.2746,-48.2596
71.0051,-47.9785
70.7259,-47.7043
70.4637,-47.4211
70.2127,-47.1196
69.9926,-46.8021
69.7932,-46.468
69.6292,-46.115
69.5345,-45.741
69.3833,-45.3943
69.2993,-45.0767
69.4313,-44.7253
69.5295,-44.3415
69.5679,-43.9573
69.6469,-43.5737
69.7107,-43.1903
69.8133,-42.8153
69.9236,-42.4404
70.0169,-42.0634
70.1298,-41.69
70.1916,-41.306
70.2337,-40.9194
70.2807,-40.5334
70.3121,-40.1433
70.3666,-39.7603
70.4206,-39.3722
70.5022,-38.9933
70.6332,-38.6271
70.7727,-38.2623
70.9809,-37.949
71.2733,-37.693
71.5751,-37.4449
71.8679,-37.1899
72.164,-36.9359
72.4465,-36.6685
72.7271,-36.3982
73.0447,-36.1725
73.3626,-35.9478
73.6752,-35.7157
73.9974,-35.4962
74.2931,-35.2419
74.635,-35.0566
74.9845,-34.9057
75.1966,-34.5933
75.3721,-34.2332
75.5758,-33.9099
75.7481,-33.5553
75.9181,-33.2068
76.0874,-32.8574
76.251,-32.5009
76.4254,-32.1562
76.6057,-31.8086
76.7925,-31.4679
76.9768,-31.1252
77.1593,-30.7799
77.3177,-30.4271
77.4489,-30.0585
77.5873,-29.6955
77.7197,-29.3293
77.8562,-28.9638
78.0171,-28.6107
78.184,-28.2578
78.3504,-27.9062
78.5179,-27.5548
78.6773,-27.1991
78.8138,-26.8353
78.9476,-26.4689
79.0829,-26.1039
79.219,-25.7395
79.3974,-25.3933
79.5879,-25.0539
79.7694,-24.7094
79.9607,-24.3696
80.1396,-24.0247
80.3156,-23.6764
80.4873,-23.3277
80.6611,-22.9788
80.8339,-22.6297
80.9711,-22.2666
81.0929,-21.8956
81.1815,-21.5183
81.2572,-21.1348
81.3418,-20.7556
81.3688,-20.3689
81.3625,-19.9791
81.3165,-19.5958
81.2329,-19.2122
81.1648,-18.832
81.0836,-18.449
81.0256,-18.0636
80.9355,-17.6903
80.7783,-17.3257
80.6442,-16.9725
80.4223,-16.6313
80.2478,-16.3047
80.4268,-16.031
80.7562,-15.7966
81,-15.5183
81.2061,-15.1852
81.3947,-14.8439
81.593,-14.5119
81.8245,-14.1944
82.0505,-13.8812
82.2804,-13.5649
82.5111,-13.2505
82.6941,-12.9133
82.83,-12.5464
82.8994,-12.1704
82.9552,-11.7925
83.1001,-11.4289
83.2199,-11.0645
83.2197,-10.6747
83.1526,-10.2929
83.039,-9.9256
82.8989,-9.5569
82.7763,-9.1914
82.7685,-8.804
82.7844,-8.4185
82.6126,-8.0893
82.3637,-7.783
82.1384,-7.4717
81.8957,-7.1618
81.6753,-6.8435
81.4489,-6.5262
81.2209,-6.2089
81.0005,-5.8907
80.7429,-5.5959
80.4769,-5.3163
80.196,-5.0423
79.9307,-4.7602
79.7576,-4.4244
79.655,-4.0447
79.5336,-3.6783
79.3167,-3.3583
79.0708,-3.0532
78.8408,-2.7427
78.5295,-2.5436
78.1499,-2.4655
77.7706,-2.38
77.3862,-2.3032
77.0243,-2.1854
76.7043,-1.9597
76.3892,-1.7342
76.0739,-1.5038
75.7506,-1.2884
75.3826,-1.1723
75.0025,-1.0691
74.6349,-0.95319
74.2568,-0.84938
73.8854,-0.73361
73.5212,-0.6032
73.1555,-0.45565
72.7949,-0.32693
72.4276,-0.17551
72.0672,-0.049885
