84.9126,-333.6732
85.2525,-333.4339
85.5922,-333.1944
85.9322,-332.9551
86.2719,-332.7156
86.6119,-332.4762
86.9517,-332.2368
87.2915,-331.9973
87.6315,-331.758
87.9712,-331.5185
88.3112,-331.2792
88.6509,-331.0397
88.9908,-330.8003
89.3307,-330.561
89.6704,-330.3214
90.0104,-330.0822
90.3502,-329.8426
90.6901,-329.6033
91.03,-329.3639
91.3697,-329.1244
91.7097,-328.8851
92.0494,-328.6456
92.3894,-328.4063
92.7292,-328.1668
93.069,-327.9273
93.409,-327.6881
93.7487,-327.4485
94.0887,-327.2093
94.4284,-326.9697
94.7683,-326.7303
95.1082,-326.491
95.4479,-326.2514
95.788,-326.0122
96.1277,-325.7726
96.4676,-325.5333
96.8075,-325.294
97.1472,-325.0544
97.4873,-324.8152
97.8269,-324.5755
98.1669,-324.3363
98.5067,-324.0969
98.8465,-323.8573
99.1866,-323.6182
99.5261,-323.3784
99.8663,-323.1394
100.2059,-322.8997
100.5458,-322.6603
100.8859,-322.4213
101.2252,-322.1811
101.5658,-321.9428
101.9047,-321.702
102.2456,-321.4641
102.5969,-321.2421
102.9525,-321.0267
103.3069,-320.8095
103.662,-320.5934
104.0169,-320.3768
104.3716,-320.1601
104.7267,-319.944
105.0815,-319.7272
105.4364,-319.5109
105.7914,-319.2943
106.1461,-319.0777
106.5012,-318.8615
106.8559,-318.6447
107.2109,-318.4284
107.5658,-318.2118
107.9205,-317.9952
108.2757,-317.7791
108.6302,-317.562
108.9856,-317.3463
109.3368,-317.124
109.68,-316.8896
110.0223,-316.6535
110.3654,-316.419
110.7078,-316.1831
111.0465,-315.9422
111.381,-315.6955
111.7157,-315.4488
112.0506,-315.2026
112.3837,-314.9539
112.7132,-314.7003
113.0415,-314.4453
113.371,-314.1918
113.6994,-313.937
114.0286,-313.6831
114.3574,-313.4288
114.6862,-313.1744
115.0154,-312.9205
115.3408,-312.6618
115.665,-312.4015
115.9888,-312.1409
116.3125,-311.88
116.6369,-311.62
116.9599,-311.3585
117.2848,-311.099
117.6077,-310.8373
117.9248,-310.5685
118.2406,-310.2981
118.557,-310.0285
118.8734,-309.7588
119.1894,-309.4887
119.5059,-309.2192
119.8221,-308.9493
120.1382,-308.6792
120.4549,-308.4099
120.7705,-308.1394
121.0874,-307.8703
121.4033,-307.6001
121.7193,-307.33
122.0367,-307.0614
122.3509,-306.7895
122.67,-306.5226
122.9817,-306.2481
123.2681,-305.947
123.5482,-305.6396
123.8331,-305.337
124.1156,-305.032
124.3977,-304.7265
124.6829,-304.4243
124.9628,-304.1165
125.2493,-303.8158
125.5724,-303.5566
125.9114,-303.3153
126.2461,-303.069
126.583,-302.8254
126.894,-302.5518
127.182,-302.2519
127.4725,-301.9547
127.7604,-301.6547
128.0501,-301.3567
128.3394,-301.058
128.6277,-300.7585
128.9181,-300.4612
129.2058,-300.1609
129.4961,-299.8636
129.7846,-299.564
130.0736,-299.2653
130.3636,-298.9675
130.6512,-298.6672
130.9421,-298.3704
131.2295,-298.0698
131.5198,-297.7725
131.8086,-297.4733
132.1093,-297.1878
132.4411,-296.9367
132.7685,-296.6813
133.1018,-296.4318
133.4282,-296.1753
133.6987,-295.8615
133.9562,-295.5344
134.22,-295.2137
134.4786,-294.8878
134.7459,-294.5696
135.0121,-294.2502
135.2794,-293.9318
135.5467,-293.6135
135.7895,-293.2772
136.0097,-292.9248
136.2282,-292.571
136.4484,-292.2186
136.7002,-291.8917
137.001,-291.6048
137.3016,-291.3175
137.6019,-291.0302
137.8962,-290.7371
138.155,-290.4119
138.4139,-290.0865
138.6735,-289.762
138.9314,-289.4358
139.2014,-289.1198
139.4705,-288.8029
139.7429,-288.4889
140.013,-288.1728
140.2904,-287.8634
140.5734,-287.5586
140.8513,-287.2498
141.1369,-286.9472
141.3964,-286.6243
141.6172,-286.2732
141.8297,-285.9149
142.0474,-285.5612
142.2645,-285.2069
142.4927,-284.8587
142.7765,-284.5638
143.1094,-284.3192
143.4613,-284.0918
143.7729,-283.827
143.9958,-283.4792
144.2017,-283.1151
144.4205,-282.7638
144.6312,-282.404
144.8499,-282.0511
145.0692,-281.6979
145.2853,-281.3423
145.5059,-280.9906
145.749,-280.6539
146.0111,-280.3314
146.2706,-280.0066
146.5316,-279.6829
146.7928,-279.3598
147.0594,-279.0404
147.3241,-278.7203
147.592,-278.4019
147.8551,-278.0806
148.0682,-277.7248
148.267,-277.359
148.473,-276.9987
148.672,-276.633
148.8819,-276.2747
149.0922,-275.9157
149.3076,-275.5604
149.5182,-275.2018
149.7362,-274.8483
150.0058,-274.5322
150.2797,-274.2192
150.5499,-273.9034
150.8226,-273.5898
151.025,-273.2322
151.1818,-272.8472
151.3425,-272.4641
151.497,-272.0775
151.6968,-271.7183
151.9589,-271.3963
152.2288,-271.0795
152.4927,-270.7586
152.7385,-270.4246
152.959,-270.0721
153.1759,-269.7175
153.3994,-269.3669
153.6143,-269.0111
153.7948,-268.6374
153.9647,-268.2573
154.1419,-267.8816
154.314,-267.5031
154.4991,-267.1307
154.6853,-266.7593
154.8691,-266.3862
155.0567,-266.0154
155.2318,-265.6382
155.4107,-265.263
155.5862,-264.8862
155.7641,-264.5103
155.9684,-264.1487
156.1773,-263.7891
156.3862,-263.4297
156.5947,-263.0702
156.8078,-262.7132
157.0328,-262.3637
157.258,-262.0143
157.4831,-261.6648
157.6935,-261.3068
157.8874,-260.9389
158.0819,-260.5716
158.2753,-260.2035
158.4703,-259.8364
158.6751,-259.4748
158.885,-259.1158
159.0921,-258.7556
159.3021,-258.3965
159.4867,-258.0259
159.6273,-257.6348
159.7659,-257.2427
159.9057,-256.8514
160.0451,-256.4596
160.202,-256.0748
160.3621,-255.6911
160.521,-255.307
160.6811,-254.9233
160.8639,-254.5514
161.0826,-254.1979
161.3022,-253.8448
161.5199,-253.4909
161.7403,-253.1382
161.9339,-252.7714
162.1043,-252.3924
162.2725,-252.012
162.4418,-251.6325
162.6123,-251.2533
162.7841,-250.8747
162.9588,-250.4976
163.1298,-250.1184
163.3127,-249.7458
163.5291,-249.3909
163.7484,-249.0378
163.966,-248.6835
164.1841,-248.3296
164.365,-247.9567
164.5245,-247.5726
164.6861,-247.1898
164.8454,-246.8056
164.9884,-246.4161
165.1052,-246.017
165.224,-245.6186
165.3409,-245.2198
165.468,-244.8243
165.6339,-244.4434
165.802,-244.063
165.9679,-243.6819
166.1357,-243.3016
166.287,-242.9144
166.4328,-242.5252
166.5783,-242.1357
166.7237,-241.7463
166.8782,-241.3606
167.0474,-240.9807
167.2147,-240.6004
167.3858,-240.2212
167.5509,-239.8401
167.6606,-239.4398
167.7564,-239.0347
167.8634,-238.6335
167.9589,-238.2283
168.0819,-237.8323
168.2348,-237.4459
168.3936,-237.0616
168.5497,-236.6764
168.7059,-236.2912
168.87,-235.9091
169.0284,-235.5249
169.1938,-235.1432
169.3487,-234.7579
169.4657,-234.3591
169.5767,-233.9584
169.6922,-233.5591
169.8048,-233.1589
169.9154,-232.7582
170.0255,-232.3573
170.1353,-231.9564
170.2457,-231.5556
170.3659,-231.1577
170.4882,-230.7603
170.6104,-230.363
170.7323,-229.9656
170.8448,-229.5653
170.955,-229.1646
171.0657,-228.7638
171.1762,-228.3631
171.2913,-227.9637
171.4096,-227.565
171.5264,-227.1662
171.6453,-226.7677
171.7455,-226.3652
171.8064,-225.9541
171.8642,-225.5423
171.9248,-225.1312
171.9831,-224.7194
172.0664,-224.3125
172.1587,-223.9071
172.2503,-223.5017
172.3437,-223.0966
172.4331,-222.6905
172.5236,-222.2849
172.6113,-221.8784
172.7012,-221.4726
172.7867,-221.0658
172.862,-220.6569
172.9378,-220.2483
173.0125,-219.8392
173.0875,-219.4304
173.1591,-219.0209
173.2309,-218.6114
173.3036,-218.2021
173.3743,-217.7924
173.4482,-217.3834
173.5186,-216.9736
173.5926,-216.5646
173.6634,-216.155
173.7213,-215.7433
173.7773,-215.3314
173.8334,-214.9194
173.8903,-214.5077
173.927,-214.094
173.9457,-213.6787
173.9641,-213.2635
173.9818,-212.848
174.0155,-212.4341
174.0594,-212.0205
174.1073,-211.6077
174.1508,-211.1941
174.201,-210.7817
174.2912,-210.376
174.3823,-209.9703
174.4746,-209.5649
174.5635,-209.159
174.5976,-208.7449
174.6234,-208.3298
174.6571,-207.9156
174.6827,-207.5005
174.7108,-207.086
174.7269,-206.6704
174.7471,-206.2553
174.7654,-205.8399
174.7932,-205.4255
174.8549,-205.0143
174.9123,-204.6027
174.9753,-204.1916
175.0319,-203.7799
175.0421,-203.3647
175.0447,-202.9488
175.0521,-202.5333
175.056,-202.1175
175.0701,-201.702
175.0872,-201.2867
175.1043,-200.8713
175.1221,-200.456
175.1385,-200.0406
175.1554,-199.6252
175.1714,-199.2099
175.1882,-198.7944
175.2027,-198.3791
175.2108,-197.9634
175.2169,-197.5477
175.2257,-197.1321
175.2311,-196.7164
175.221,-196.301
175.2052,-195.8854
175.1926,-195.47
175.1781,-195.0545
175.1851,-194.6393
175.2143,-194.2246
175.2384,-193.8097
175.2699,-193.3949
175.2899,-192.9801
175.2654,-192.5654
175.2326,-192.1508
175.2062,-191.736
175.1762,-191.3213
175.1707,-190.9061
175.1854,-190.4905
175.1939,-190.0752
175.2108,-189.6594
175.218,-189.2441
175.1773,-188.8313
175.1186,-188.4194
175.067,-188.0071
175.0102,-187.5952
174.96,-187.1826
174.9221,-186.7686
174.885,-186.3546
174.8475,-185.9406
174.8107,-185.5265
174.7776,-185.1121
174.7455,-184.6976
174.7123,-184.2833
174.68,-183.8688
174.6312,-183.4563
174.5623,-183.0464
174.4949,-182.6361
174.4248,-182.2264
174.3585,-181.816
174.321,-181.4022
174.2914,-180.9874
174.2564,-180.5733
174.2266,-180.1586
174.1843,-179.7452
174.1214,-179.3344
174.0546,-178.924
173.991,-178.5132
173.9249,-178.1028
173.8515,-177.6936
173.7763,-177.2848
173.7021,-176.8757
173.6274,-176.4668
173.5544,-176.0576
173.4822,-175.6481
173.4097,-175.2389
173.3374,-174.8294
173.264,-174.4203
173.1897,-174.0112
173.1156,-173.6022
173.0413,-173.1932
172.9653,-172.7844
172.8863,-172.3764
172.8067,-171.9683
172.728,-171.5601
172.6482,-171.1522
172.5654,-170.7447
172.4805,-170.3378
172.3963,-169.9307
172.312,-169.5237
172.2294,-169.1162
172.1508,-168.708
172.0707,-168.3001
171.9925,-167.8917
171.9112,-167.4842
171.8162,-167.0794
171.7185,-166.6754
171.624,-166.2705
171.5255,-165.8666
171.4013,-165.4708
171.255,-165.0813
171.1157,-164.69
170.9688,-164.3007
170.841,-163.9062
170.7699,-163.4971
170.7043,-163.0862
170.6353,-162.6765
170.5672,-162.2663
170.4654,-161.8638
170.3499,-161.4644
170.2394,-161.0636
170.1235,-160.6645
169.9954,-160.269
169.8607,-159.8758
169.7271,-159.4821
169.5945,-159.0881
169.4971,-158.6855
169.4307,-158.2747
169.36,-157.8654
169.293,-157.4549
169.1904,-157.0542
169.0399,-156.6668
168.8907,-156.2787
168.7388,-155.8918
168.5959,-155.5015
168.4773,-155.1033
168.3613,-154.704
168.2439,-154.3052
168.1265,-153.9065
168.0118,-153.5067
167.8959,-153.1077
167.7828,-152.7075
167.6666,-152.3085
167.5143,-151.9226
167.3444,-151.543
167.1777,-151.1624
167.0075,-150.7829
166.8564,-150.3963
166.7299,-150.0004
166.6079,-149.6029
166.482,-149.2069
166.3673,-148.8072
166.265,-148.4044
166.1604,-148.0022
166.0611,-147.5981
165.9394,-147.2022
165.7704,-146.8226
165.5908,-146.4475
165.4213,-146.0679
165.2402,-145.6939
165.0317,-145.3344
164.8208,-144.9762
164.6093,-144.6182
164.4006,-144.2587
164.2279,-143.8812
164.0641,-143.4987
163.8981,-143.118
163.7318,-142.7366
163.5769,-142.3519
163.4803,-141.9479
163.3921,-141.5411
163.2943,-141.1377
163.2061,-140.7307
163.0754,-140.3379
162.9177,-139.9533
162.7555,-139.5706
162.5958,-139.1866
162.4336,-138.8041
162.2366,-138.4379
162.0385,-138.0725
161.8428,-137.7057
161.6428,-137.3411
161.4491,-136.9737
161.2465,-136.61
161.0544,-136.2421
160.8506,-135.8787
160.659,-135.5108
160.5429,-135.1125
160.4409,-134.7089
160.329,-134.309
160.2253,-133.9059
160.0774,-133.5207
159.8787,-133.1557
159.6765,-132.7924
159.4769,-132.4278
159.275,-132.0643
159.0716,-131.7021
158.8557,-131.3462
158.6449,-130.9887
158.4272,-130.6336
158.2183,-130.2752
158.0906,-129.8822
157.9898,-129.4778
157.8769,-129.0788
157.7755,-128.6745
157.6256,-128.2905
157.4265,-127.9258
157.2225,-127.5634
157.0205,-127.2002
156.8132,-126.8399
156.5919,-126.4879
156.3743,-126.1338
156.1527,-125.782
155.9368,-125.4269
155.7461,-125.0575
155.5579,-124.6869
155.3676,-124.3172
155.1794,-123.9466
155.0098,-123.5674
154.8531,-123.1822
154.6917,-122.7994
154.5357,-122.4136
154.3481,-122.045
154.1176,-121.6993
153.8833,-121.3557
153.6509,-121.0111
153.4188,-120.6662
153.1961,-120.3154
152.9821,-119.9588
152.7643,-119.6049
152.5497,-119.2487
152.3229,-118.901
152.0649,-118.575
151.809,-118.2475
151.5492,-117.9227
151.2944,-117.5946
151.0806,-117.2387
150.8757,-116.8768
150.6686,-116.5164
150.4617,-116.1559
150.2351,-115.8075
150.0025,-115.4629
149.7738,-115.1158
149.5416,-114.7709
149.3181,-114.4206
149.1092,-114.0611
148.8985,-113.7029
148.6915,-113.3421
148.4793,-112.9849
148.2302,-112.653
147.9693,-112.3289
147.7134,-112.0016
147.4537,-111.6767
147.2195,-111.3346
147.0099,-110.9756
146.8006,-110.6164
146.5916,-110.2571
146.3592,-109.914
146.0926,-109.5951
145.8261,-109.2761
145.5589,-108.9575
145.2929,-108.6382
145.0622,-108.2936
144.8496,-107.9364
144.6344,-107.5808
144.4222,-107.2231
144.1973,-106.8741
143.954,-106.5369
143.7069,-106.2028
143.4636,-105.8655
143.2084,-105.5379
142.9328,-105.2268
142.6545,-104.9179
142.3783,-104.6073
142.1005,-104.298
141.8084,-104.0031
141.4999,-103.7243
141.1929,-103.444
140.884,-103.1657
140.5781,-102.8843
140.2869,-102.5877
139.9989,-102.2879
139.7077,-101.9912
139.4194,-101.6917
139.1387,-101.3853
138.864,-101.0733
138.5888,-100.7616
138.3132,-100.4505
138.046,-100.1322
137.7894,-99.8052
137.5353,-99.4762
137.2783,-99.1493
137.0245,-98.8202
136.7879,-98.4786
136.5595,-98.1311
136.3266,-97.7869
136.0986,-97.4391
135.8563,-97.1022
135.5823,-96.7898
135.3038,-96.481
135.0292,-96.169
134.7516,-95.8595
134.4759,-95.5484
134.1891,-95.2479
133.887,-94.9624
133.5847,-94.6771
133.2824,-94.3916
132.98,-94.1064
132.6779,-93.8208
132.3753,-93.5357
132.0733,-93.2501
131.7657,-92.9705
131.4571,-92.6919
131.1493,-92.4125
130.8403,-92.1344
130.5363,-91.8509
130.2342,-91.5653
129.9329,-91.2789
129.6317,-90.9924
129.3341,-90.7022
129.0434,-90.405
128.7505,-90.11
128.4597,-89.8129
128.1674,-89.5173
127.8696,-89.2273
127.5711,-88.938
127.271,-88.6503
126.9727,-88.3608
126.6635,-88.0833
126.3441,-87.817
126.0276,-87.5479
125.7053,-87.2845
125.3985,-87.006
125.1374,-86.6837
124.8896,-86.3484
124.6277,-86.0268
124.3796,-85.6919
124.1152,-85.3728
123.792,-85.1128
123.4606,-84.8606
123.1352,-84.6025
122.8056,-84.3488
122.4928,-84.0754
122.1855,-83.7956
121.8791,-83.5145
121.5729,-83.2333
121.2876,-82.9337
121.0382,-82.5995
120.7826,-82.2742
120.5358,-81.936
120.2778,-81.6145
119.9215,-81.4316
119.518,-81.3174
119.1283,-81.1816
118.7261,-81.0658
118.3549,-80.8963
118.0402,-80.6268
117.7306,-80.3477
117.4181,-80.0748
117.107,-79.7981
116.7949,-79.5241
116.4843,-79.2474
116.1712,-78.9742
115.8618,-78.6963
115.5479,-78.424
115.2385,-78.146
114.9254,-77.8728
114.5774,-77.6473
114.2216,-77.4327
113.8633,-77.2211
113.5096,-77.0037
113.1918,-76.7369
112.8841,-76.4567
112.5706,-76.1842
112.2612,-75.9062
111.9567,-75.6233
111.6518,-75.3409
111.3498,-75.0548
111.0433,-74.7746
110.7013,-74.5402
110.3469,-74.3223
109.9966,-74.099
109.6451,-73.8768
109.3124,-73.6277
108.9809,-73.3767
108.6467,-73.1296
108.3162,-72.8773
107.9817,-72.6306
107.6508,-72.3788
107.3171,-72.131
106.9852,-71.8807
106.6514,-71.6328
106.3085,-71.3979
105.9665,-71.1615
105.6233,-70.9269
105.2812,-70.6908
104.9385,-70.4554
104.5955,-70.2205
104.2491,-69.9908
103.8998,-69.7653
103.5537,-69.535
103.204,-69.3104
102.8578,-69.0798
102.5086,-68.8548
102.1616,-68.6253
101.8134,-68.3987
101.4337,-68.2315
101.0488,-68.0756
100.6618,-67.9226
100.2775,-67.7651
99.9291,-67.5405
99.5877,-67.3022
99.2434,-67.0704
98.9019,-66.8321
98.5609,-66.5955
98.2248,-66.3499
97.8853,-66.1107
97.5495,-65.8652
97.2001,-65.6426
96.8215,-65.4724
96.4405,-65.3053
96.06,-65.1376
95.6816,-64.9671
95.3591,-64.7202
95.0896,-64.4012
94.8088,-64.0977
94.5416,-63.7752
94.2516,-63.4863
93.8627,-63.3497
93.4594,-63.2354
93.069,-63.1002
92.6675,-62.9837
92.2778,-62.8437
91.8826,-62.7106
91.4941,-62.5655
91.0996,-62.4313
90.7111,-62.2862
90.3758,-62.0418
90.0455,-61.788
89.711,-61.5424
89.3793,-61.2906
89.0228,-61.0784
88.6616,-60.8718
88.3033,-60.6613
87.9408,-60.4579
87.5572,-60.3086
87.1527,-60.2085
86.7522,-60.0988
86.3491,-59.9969
85.9684,-59.8429
85.6235,-59.6117
85.278,-59.3802
84.9332,-59.1477
84.5882,-58.9165
84.2253,-58.7149
83.8509,-58.5353
83.4749,-58.3574
83.1002,-58.1773
82.7204,-58.0092
82.3377,-57.8454
81.9573,-57.6796
81.5734,-57.5181
81.2068,-57.3271
80.8683,-57.0867
80.5321,-56.841
80.1958,-56.5979
79.8547,-56.3599
79.4897,-56.1624
79.1181,-55.9748
78.7535,-55.7751
78.383,-55.5873
78.0023,-55.4204
77.6163,-55.2683
77.2273,-55.1183
76.8445,-54.9596
76.4966,-54.7393
76.1736,-54.4742
75.8418,-54.2272
75.5173,-53.9642
75.1814,-53.723
74.8078,-53.5407
74.4333,-53.3595
74.0585,-53.1812
73.6842,-52.9982
73.3322,-52.7818
72.9907,-52.543
72.6527,-52.3016
72.3099,-52.0669
71.9814,-51.812
71.686,-51.5224
71.3952,-51.2228
71.1012,-50.9304
70.8088,-50.6348
70.5163,-50.3381
70.223,-50.0459
69.9306,-49.7477
69.6378,-49.4548
69.3443,-49.1592
69.053,-48.8624
68.758,-48.5709
68.5604,-48.2257
68.5036,-47.8185
68.4528,-47.4021
68.3962,-46.9923
68.3448,-46.5798
68.2957,-46.1656
68.3198,-45.7536
68.3416,-45.3351
68.3649,-44.9229
68.4869,-44.5282
68.6406,-44.1416
68.7943,-43.7572
68.9479,-43.3682
69.0633,-42.9726
69.1577,-42.5661
69.2516,-42.1611
69.3462,-41.7581
69.4436,-41.3508
69.5443,-40.9511
69.6463,-40.5453
69.7451,-40.1422
69.8521,-39.7429
70.0039,-39.3513
70.1571,-38.9721
70.268,-38.5631
70.4819,-38.2225
70.8408,-38.0156
71.2065,-37.8127
71.5715,-37.6223
71.9798,-37.5508
72.3985,-37.5182
72.8014,-37.4349
73.2244,-37.4232
73.6287,-37.4187
73.9187,-37.1788
74.1598,-36.8261
74.4139,-36.5061
74.6598,-36.1665
74.9096,-35.8347
75.1585,-35.504
75.4073,-35.1673
75.6557,-34.8378
75.9073,-34.5038
76.1506,-34.1687
76.347,-33.803
76.5323,-33.4288
76.7288,-33.0649
76.916,-32.6914
77.0993,-32.3201
77.2763,-31.9432
77.4498,-31.5651
77.6308,-31.1919
77.8005,-30.8111
77.9296,-30.4179
78.0493,-30.0184
78.1758,-29.6229
78.2987,-29.226
78.4535,-28.8396
78.6122,-28.4562
78.7696,-28.0708
78.9715,-27.7081
79.182,-27.3497
79.3879,-26.9883
79.6005,-26.6314
79.8205,-26.2785
80.0477,-25.9305
80.2697,-25.5789
80.4938,-25.2289
80.6809,-24.8604
80.8216,-24.4687
80.9691,-24.0805
81.117,-23.6917
81.2713,-23.3058
81.4232,-22.9188
81.4959,-22.5149
81.5172,-22.1009
81.5741,-21.6891
81.6577,-21.282
81.7282,-20.8726
81.7329,-20.4626
81.6691,-20.0517
81.5896,-19.6436
81.4925,-19.2401
81.4557,-18.8319
81.5148,-18.4213
81.5779,-18.0101
81.6741,-17.607
81.8028,-17.2115
81.9209,-16.8131
82.051,-16.4179
82.1854,-16.0251
82.3309,-15.635
82.4696,-15.2436
82.6156,-14.8544
82.7839,-14.4736
82.9424,-14.0908
83.1163,-13.7107
83.263,-13.3248
83.3898,-12.9269
83.4923,-12.5257
83.4692,-12.1138
83.4209,-11.6983
83.3897,-11.2859
83.308,-10.8764
83.2242,-10.4708
83.1394,-10.063
83.0511,-9.6569
82.9616,-9.2515
82.8611,-8.8471
82.7676,-8.4432
82.6697,-8.038
82.5409,-7.6463
82.3592,-7.2724
82.1709,-6.9009
81.9978,-6.5242
81.8115,-6.1509
81.6139,-5.7882
81.3805,-5.4425
81.1494,-5.0977
80.923,-4.7491
80.6847,-4.4078
80.5321,-4.0221
80.3867,-3.6367
80.098,-3.3721
79.725,-3.1792
79.388,-2.9439
79.1092,-2.6401
78.8369,-2.3209
78.5639,-2.0118
78.2597,-1.7347
77.8912,-1.5457
77.5158,-1.3669
77.146,-1.1727
76.773,-0.99715
76.4155,-0.77595
76.0673,-0.55875
75.7164,-0.32828
75.3676,-0.10535
