84.7676,-322.8618
85.1349,-322.6994
85.4851,-322.5037
85.8214,-322.2816
86.1649,-322.0728
86.5031,-321.8544
86.8444,-321.6415
87.1848,-321.4271
87.5243,-321.2108
87.8659,-320.9987
88.2048,-320.7815
88.5463,-320.569
88.886,-320.3533
89.2263,-320.1386
89.5673,-319.9252
89.9065,-319.7086
90.2482,-319.4962
90.5873,-319.2798
90.9282,-319.066
91.2688,-318.8519
91.6079,-318.6354
91.9504,-318.424
92.2861,-318.2026
92.6195,-317.9773
92.947,-317.7436
93.2575,-317.488
93.5644,-317.2279
93.873,-316.9694
94.189,-316.7215
94.5208,-316.4938
94.8554,-316.2703
95.1871,-316.0428
95.5211,-315.818
95.8539,-315.5925
96.1864,-315.3656
96.5206,-315.1418
96.8524,-314.914
97.1988,-314.7124
97.5686,-314.5543
97.9381,-314.3956
98.3103,-314.2408
98.6772,-314.0787
98.9913,-313.8365
99.2743,-313.5488
99.5671,-313.2742
99.8502,-312.987
100.142,-312.7109
100.4683,-312.4763
100.8003,-312.2484
101.1291,-312.0169
101.4596,-311.7871
101.7955,-311.5665
102.1434,-311.3641
102.4908,-311.1613
102.839,-310.9596
103.186,-310.7561
103.5146,-310.5251
103.8346,-310.281
104.1561,-310.0393
104.4764,-309.7956
104.8035,-309.5619
105.1396,-309.3407
105.476,-309.1199
105.8122,-308.8989
106.1486,-308.6782
106.4846,-308.4569
106.8209,-308.2359
107.157,-308.0149
107.4928,-307.7934
107.8006,-307.5386
108.0735,-307.2427
108.3499,-306.9507
108.6217,-306.6535
108.899,-306.3626
109.2225,-306.1259
109.5591,-305.9046
109.8901,-305.6765
110.2261,-305.4545
110.5511,-305.2181
110.8672,-304.9692
111.1808,-304.7171
111.4964,-304.4676
111.8103,-304.2159
112.1056,-303.9431
112.3938,-303.6623
112.6838,-303.3835
112.972,-303.1027
113.2637,-302.8257
113.5581,-302.5514
113.8534,-302.2782
114.1483,-302.0044
114.4432,-301.7308
114.741,-301.4602
115.0393,-301.1902
115.3379,-300.9206
115.6363,-300.6507
115.935,-300.3812
116.2353,-300.1134
116.5354,-299.8454
116.8357,-299.5777
117.1359,-299.3097
117.4384,-299.0445
117.7454,-298.7845
118.0526,-298.5247
118.3594,-298.2644
118.667,-298.005
118.9787,-297.7508
119.2935,-297.5
119.6062,-297.247
119.9211,-296.9964
120.2217,-296.7304
120.4972,-296.4373
120.7716,-296.1429
121.0464,-295.8491
121.3213,-295.5553
121.6117,-295.2773
121.9092,-295.0063
122.2061,-294.7348
122.5032,-294.4635
122.8014,-294.1935
123.1059,-293.9305
123.4116,-293.6688
123.7158,-293.4056
124.0214,-293.1438
124.3128,-292.8673
124.5847,-292.5708
124.8569,-292.2745
125.128,-291.9772
125.4014,-291.6821
125.6937,-291.4057
125.9885,-291.1319
126.2808,-290.8555
126.5754,-290.5814
126.8639,-290.301
127.1522,-290.0203
127.4398,-289.739
127.7274,-289.4576
128.0068,-289.1686
128.2677,-288.8622
128.5302,-288.5575
128.7909,-288.2508
129.0536,-287.9462
129.3436,-287.6682
129.6431,-287.3993
129.9404,-287.1284
130.2396,-286.8593
130.5253,-286.5767
130.797,-286.2799
131.068,-285.9826
131.3393,-285.6854
131.6107,-285.3884
131.8896,-285.0984
132.17,-284.81
132.4497,-284.5207
132.7302,-284.2323
133.0012,-283.9351
133.2644,-283.6308
133.5266,-283.3256
133.7897,-283.0213
134.0506,-282.7151
134.3025,-282.4013
134.5539,-282.0872
134.8053,-281.773
135.0573,-281.4594
135.3268,-281.1611
135.606,-280.8713
135.8826,-280.5793
136.1624,-280.29
136.4302,-279.9905
136.6727,-279.6696
136.9117,-279.3458
137.1538,-279.0246
137.3935,-278.7013
137.6374,-278.3814
137.8813,-278.0614
138.125,-277.7413
138.3699,-277.4221
138.623,-277.1096
138.89,-276.8085
139.1536,-276.5047
139.421,-276.2039
139.6844,-275.9
139.9163,-275.5716
140.1404,-275.2373
140.368,-274.9056
140.5927,-274.5718
140.8286,-274.2461
141.073,-273.9265
141.3185,-273.6077
141.5635,-273.2886
141.8085,-272.9695
142.055,-272.6515
142.3009,-272.3331
142.5475,-272.0151
142.7934,-271.6967
143.0337,-271.3741
143.2674,-271.0466
143.5022,-270.7199
143.7356,-270.3921
143.9719,-270.0666
144.2251,-269.7539
144.48,-269.4426
144.7334,-269.1301
144.9879,-268.8184
145.2263,-268.4946
145.4565,-268.1646
145.6875,-267.8353
145.9173,-267.505
146.1473,-267.1749
146.375,-266.8432
146.6033,-266.5119
146.8319,-266.1808
147.0592,-265.8488
147.2807,-265.513
147.499,-265.1749
147.7205,-264.8391
147.9389,-264.5012
148.168,-264.1707
148.4146,-263.8529
148.6622,-263.5358
148.9097,-263.2185
149.1561,-262.9005
149.3996,-262.5802
149.6423,-262.2593
149.8855,-261.9388
150.1286,-261.6182
150.3563,-261.2871
150.5686,-260.9452
150.7803,-260.6031
150.9923,-260.2612
151.2054,-259.9199
151.4227,-259.5813
151.6404,-259.2429
151.8577,-258.9043
152.075,-258.5657
152.2847,-258.2225
152.4894,-257.876
152.6962,-257.5309
152.9004,-257.1842
153.1143,-256.8437
153.3468,-256.5154
153.5802,-256.1877
153.8141,-255.8603
154.0461,-255.5317
154.2557,-255.1887
154.4542,-254.8386
154.6568,-254.4911
154.8558,-254.1413
155.0647,-253.7978
155.2898,-253.4642
155.5138,-253.1301
155.7406,-252.7976
155.9633,-252.4627
156.1591,-252.1118
156.3418,-251.7532
156.529,-251.3972
156.7126,-251.039
156.904,-250.6854
157.115,-250.3429
157.3271,-250.0009
157.5383,-249.6585
157.7504,-249.3166
157.9554,-248.9704
158.1593,-248.6235
158.3621,-248.2761
158.5655,-247.9289
158.7599,-247.577
158.935,-247.2147
159.1128,-246.8539
159.2868,-246.491
159.4654,-246.1306
159.6805,-245.791
159.9029,-245.4555
160.1216,-245.1179
160.3427,-244.7818
160.5306,-244.4274
160.6921,-244.059
160.8554,-243.6913
161.0163,-243.3224
161.1808,-242.9554
161.3565,-242.5934
161.5339,-242.2323
161.7103,-241.8707
161.887,-241.5092
162.0606,-241.1463
162.2324,-240.7824
162.4048,-240.4189
162.5767,-240.0551
162.7492,-239.6917
162.9235,-239.329
163.0976,-238.9663
163.2717,-238.6036
163.4461,-238.241
163.622,-237.8792
163.8004,-237.5185
163.9767,-237.1569
164.1557,-236.7965
164.33,-236.434
164.4834,-236.0621
164.6334,-235.6887
164.7867,-235.3168
164.9369,-234.9435
165.0893,-234.5711
165.2383,-234.1974
165.3892,-233.8244
165.5387,-233.4509
165.6889,-233.0777
165.8574,-232.7123
166.0268,-232.3474
166.1978,-231.9831
166.3665,-231.618
166.5003,-231.2393
166.6177,-230.8544
166.7378,-230.4705
166.8555,-230.0857
166.9761,-229.7019
167.0988,-229.3187
167.222,-228.9357
167.3454,-228.5527
167.468,-228.1695
167.5851,-227.7847
167.6968,-227.3981
167.8101,-227.0121
167.9218,-226.6255
168.0357,-226.2397
168.1581,-225.8564
168.2819,-225.4736
168.4047,-225.0905
168.5281,-224.7075
168.6447,-224.3225
168.7526,-223.9349
168.862,-223.5477
168.9693,-223.16
169.0795,-222.773
169.2083,-222.3919
169.3399,-222.0116
169.4692,-221.6307
169.6,-221.2502
169.7038,-220.8624
169.781,-220.4676
169.8594,-220.0729
169.936,-219.6779
170.0147,-219.2834
170.1113,-218.8929
170.2133,-218.5037
170.3134,-218.114
170.4151,-217.7248
170.5148,-217.3349
170.6148,-216.9452
170.7133,-216.5552
170.8137,-216.1655
170.9092,-215.7748
170.9839,-215.3794
171.0557,-214.9836
171.1302,-214.5882
171.2026,-214.1924
171.288,-213.7993
171.379,-213.4074
171.4688,-213.0153
171.5609,-212.6235
171.6476,-212.2307
171.7255,-211.836
171.8,-211.4406
171.8771,-211.0458
171.9527,-210.6505
172.0227,-210.2544
172.0883,-209.8574
172.1512,-209.46
172.218,-209.0633
172.28,-208.6657
172.3241,-208.266
172.3629,-207.8654
172.4058,-207.4654
172.4457,-207.065
172.5029,-206.6672
172.5858,-206.2736
172.6668,-205.8795
172.7512,-205.486
172.831,-205.0918
172.8792,-204.6924
172.9213,-204.2923
172.9682,-203.8927
173.0114,-203.4927
173.0641,-203.0938
173.1212,-202.6955
173.1766,-202.2971
173.2353,-201.8989
173.2868,-201.5001
173.3197,-201.0991
173.3476,-200.6977
173.3798,-200.2967
173.4089,-199.8954
173.4375,-199.4941
173.4637,-199.0926
173.4894,-198.6911
173.5162,-198.2896
173.5418,-197.8881
173.5754,-197.4872
173.6099,-197.0863
173.6434,-196.6854
173.6788,-196.2845
173.7117,-195.8836
173.7477,-195.4828
173.7808,-195.0819
173.8165,-194.6811
173.85,-194.2802
173.8602,-193.8782
173.8638,-193.4758
173.8687,-193.0735
173.8722,-192.6712
173.8773,-192.2689
173.8804,-191.8666
173.8856,-191.4642
173.8886,-191.0619
173.8936,-190.6596
173.9125,-190.2577
173.9348,-189.8561
173.9564,-189.4542
173.9784,-189.0526
173.9903,-188.6505
173.9907,-188.2482
173.9906,-187.8459
173.9913,-187.4435
173.9908,-187.0412
173.9916,-186.6388
173.9912,-186.2365
173.9916,-185.8342
173.9918,-185.4318
173.9871,-185.0296
173.9787,-184.6272
173.9688,-184.2251
173.9606,-183.8228
173.9508,-183.4206
173.9393,-183.0184
173.927,-182.6162
173.9149,-182.2141
173.903,-181.8119
173.8803,-181.4104
173.8488,-181.0093
173.8169,-180.6081
173.7852,-180.2071
173.7534,-179.806
173.7127,-179.4058
173.6664,-179.0061
173.6203,-178.6064
173.5738,-178.2068
173.5273,-177.8071
173.4773,-177.408
173.4278,-177.0086
173.3781,-176.6094
173.3281,-176.2102
173.2838,-175.8102
173.2423,-175.4102
173.2019,-175.0098
173.1607,-174.6096
173.1196,-174.2093
173.0783,-173.8091
173.0355,-173.4091
172.9947,-173.0087
172.9519,-172.6088
172.9141,-172.2082
172.8859,-171.8068
172.856,-171.4057
172.8297,-171.004
172.7981,-170.6032
172.7333,-170.2066
172.653,-169.8122
172.5784,-169.417
172.4998,-169.0222
172.4406,-168.625
172.4088,-168.2237
172.3743,-167.8231
172.3441,-167.4217
172.3089,-167.021
172.2453,-166.624
172.1737,-166.2279
172.105,-165.8317
172.0345,-165.4354
171.9599,-165.0402
171.8786,-164.6461
171.798,-164.2519
171.7161,-163.8581
171.6363,-163.4636
171.5745,-163.0662
171.5175,-162.6678
171.4579,-162.2699
171.3999,-161.8719
171.3113,-161.4803
171.1948,-161.0953
171.0817,-160.7092
170.9641,-160.3243
170.8602,-159.9361
170.7858,-159.5407
170.7136,-159.145
170.6415,-158.749
170.5668,-158.3539
170.4619,-157.9661
170.3374,-157.5832
170.22,-157.1988
170.0959,-156.8156
169.9932,-156.4281
169.9447,-156.0286
169.8977,-155.6292
169.851,-155.2294
169.8028,-154.8301
169.6947,-154.4455
169.5526,-154.0687
169.4107,-153.6926
169.2703,-153.3153
169.1257,-152.94
168.9538,-152.5764
168.7759,-152.2152
168.6045,-151.8516
168.4268,-151.4903
168.2623,-151.1236
168.1197,-150.7474
167.9802,-150.3699
167.839,-149.9933
167.6983,-149.6162
167.5455,-149.2442
167.3879,-148.874
167.2317,-148.5032
167.0741,-148.133
166.9268,-147.7586
166.783,-147.3829
166.639,-147.0072
166.4959,-146.6311
166.371,-146.2496
166.2764,-145.8583
166.1792,-145.4681
166.0845,-145.0769
165.9879,-144.6864
165.868,-144.3025
165.7481,-143.9181
165.626,-143.5351
165.5076,-143.1502
165.3789,-142.7698
165.2066,-142.4063
165.0285,-142.0453
164.8556,-141.6823
164.6787,-141.3206
164.524,-140.95
164.3869,-140.5716
164.25,-140.1933
164.1136,-139.8148
163.9765,-139.4364
163.8382,-139.0588
163.6999,-138.6808
163.5601,-138.3037
163.4227,-137.9254
163.274,-137.552
163.0988,-137.19
162.9209,-136.8288
162.7448,-136.4673
162.5686,-136.1055
162.4079,-135.7367
162.2491,-135.367
162.0876,-134.9984
161.9291,-134.6288
161.7637,-134.2619
161.5899,-133.8992
161.415,-133.5368
161.2403,-133.1743
161.0661,-132.8117
160.9015,-132.4446
160.7435,-132.0747
160.5842,-131.7051
160.426,-131.3352
160.2636,-130.9672
160.0951,-130.6018
159.9262,-130.2367
159.7577,-129.8712
159.5888,-129.5062
159.421,-129.1404
159.2529,-128.7748
159.0851,-128.4093
158.9174,-128.0434
158.7422,-127.6814
158.5634,-127.3209
158.3834,-126.9611
158.2049,-126.6005
158.0247,-126.2407
157.8266,-125.8907
157.6272,-125.5411
157.4288,-125.1911
157.2298,-124.8415
157.059,-124.4777
156.9021,-124.1074
156.7442,-123.7372
156.5879,-123.3665
156.4297,-122.9967
156.2768,-122.6242
156.1192,-122.2545
155.9677,-121.8811
155.8086,-121.5123
155.5928,-121.1746
155.3552,-120.8492
155.1277,-120.518
154.8901,-120.1924
154.6735,-119.855
154.4969,-119.4937
154.3268,-119.1289
154.1521,-118.7666
153.9802,-118.4027
153.8168,-118.0353
153.6622,-117.6637
153.5078,-117.2923
153.3534,-116.9207
153.196,-116.5505
153.0333,-116.1825
152.8667,-115.8163
152.7058,-115.4474
152.5376,-115.0821
152.3217,-114.7441
152.0879,-114.416
151.8623,-114.0833
151.6298,-113.7547
151.4147,-113.4148
151.2076,-113.0701
150.9999,-112.7253
150.7957,-112.3787
150.5871,-112.0348
150.3886,-111.6844
150.1825,-111.3394
149.9833,-110.9892
149.779,-110.6432
149.5235,-110.3321
149.2679,-110.0218
149.0096,-109.7128
148.7561,-109.4009
148.5705,-109.0463
148.4044,-108.6792
148.2333,-108.3156
148.0655,-107.9495
147.8767,-107.5946
147.6828,-107.242
147.4912,-106.8881
147.2967,-106.5361
147.1054,-106.182
146.9148,-105.8277
146.7238,-105.4736
146.5353,-105.118
146.3425,-104.7652
146.1358,-104.4198
145.9224,-104.0789
145.7144,-103.7344
145.5018,-103.3928
145.2568,-103.0757
144.9889,-102.7753
144.722,-102.4744
144.4547,-102.1736
144.2092,-101.8562
143.989,-101.5195
143.7689,-101.1826
143.5492,-100.8457
143.3281,-100.5095
143.0844,-100.1906
142.8189,-99.8877
142.5608,-99.5798
142.293,-99.2785
142.0365,-98.9695
141.8525,-98.613
141.6821,-98.2476
141.5023,-97.8883
141.329,-97.5249
141.0969,-97.201
140.8244,-96.905
140.5551,-96.6064
140.2806,-96.3116
140.0127,-96.012
139.7521,-95.7052
139.4951,-95.3958
139.2364,-95.0876
138.9775,-94.7795
138.7273,-94.4647
138.4781,-94.1486
138.2309,-93.8314
137.9828,-93.5145
137.7339,-93.1985
137.487,-92.8808
137.2358,-92.5665
136.9899,-92.248
136.7384,-91.934
136.4552,-91.6499
136.1564,-91.3801
135.8609,-91.1071
135.5632,-90.8366
135.2692,-90.5618
134.9835,-90.2788
134.6991,-89.994
134.413,-89.7111
134.1291,-89.4261
133.8566,-89.1301
133.5895,-88.8294
133.32,-88.5305
133.0522,-88.2303
132.7822,-87.9321
132.5115,-87.6342
132.2419,-87.3358
131.9707,-87.0383
131.7,-86.7409
131.4265,-86.4457
131.1539,-86.1498
130.8811,-85.8542
130.6078,-85.5587
130.341,-85.2577
130.0727,-84.9578
129.8062,-84.6563
129.5377,-84.357
129.2374,-84.0919
128.9135,-83.8534
128.5926,-83.6105
128.2681,-83.3726
127.9506,-83.1261
127.6612,-82.8468
127.376,-82.563
127.0872,-82.2827
126.8009,-82.0003
126.4922,-81.7434
126.1678,-81.5054
125.8458,-81.2645
125.5202,-81.0276
125.2004,-80.7842
124.8944,-80.5226
124.5918,-80.2576
124.2872,-79.9947
123.983,-79.7312
123.6712,-79.4777
123.3503,-79.2344
123.0328,-78.9878
122.7115,-78.7451
122.3939,-78.4984
122.104,-78.2207
121.8254,-77.9301
121.545,-77.642
121.2659,-77.3518
120.966,-77.0859
120.6423,-76.847
120.3174,-76.6094
119.994,-76.3704
119.6685,-76.1335
119.3411,-75.9001
119.0123,-75.668
118.6843,-75.435
118.3562,-75.2023
118.0346,-74.9605
117.7204,-74.7095
117.4041,-74.4606
117.0904,-74.2086
116.7738,-73.9606
116.4376,-73.7403
116.0933,-73.5323
115.7517,-73.3195
115.4078,-73.1109
115.0752,-72.8855
114.7598,-72.6358
114.4447,-72.3857
114.1302,-72.1345
113.8143,-71.8858
113.4847,-71.6549
113.1509,-71.4303
112.8195,-71.2023
112.4862,-70.9767
112.1615,-70.7399
111.8476,-70.4878
111.5321,-70.2386
111.2195,-69.9849
110.9021,-69.7379
110.565,-69.5188
110.2238,-69.305
109.8861,-69.0868
109.5458,-68.8716
109.1979,-68.6709
108.8386,-68.49
108.4788,-68.3094
108.1198,-68.1285
107.7654,-67.9382
107.4243,-67.7252
107.0842,-67.5101
106.7421,-67.2981
106.4027,-67.0825
106.0707,-66.8553
105.7455,-66.6185
105.4188,-66.3835
105.0925,-66.1482
104.7561,-65.9284
104.4085,-65.7254
104.0632,-65.5195
103.7154,-65.3166
103.37,-65.1107
103.0316,-64.893
102.6937,-64.6743
102.3562,-64.4558
102.0178,-64.2376
101.6719,-64.0334
101.3152,-63.847
100.9585,-63.6609
100.6025,-63.4738
100.2453,-63.288
99.8925,-63.0951
99.5385,-62.9033
99.1851,-62.7113
98.8321,-62.5183
98.4782,-62.3267
98.1269,-62.131
97.773,-61.939
97.4216,-61.7436
97.0664,-61.5547
96.6995,-61.3892
96.3339,-61.2223
95.9654,-61.0591
95.6011,-60.8901
95.261,-60.676
94.9295,-60.4476
94.5932,-60.2274
94.2609,-59.9996
93.9241,-59.7806
93.5763,-59.5777
93.2272,-59.3779
92.8789,-59.1765
92.5301,-58.9756
92.1795,-58.7791
91.8265,-58.5851
91.4743,-58.3914
91.1214,-58.1976
90.7672,-58.007
90.4104,-57.8214
90.0531,-57.6357
89.6967,-57.4498
89.3392,-57.2645
88.9821,-57.0796
88.6243,-56.8957
88.2666,-56.7109
87.9094,-56.5266
87.5527,-56.3395
87.1987,-56.1492
86.8431,-55.9604
86.489,-55.7695
86.1322,-55.5842
85.7673,-55.4138
85.4022,-55.2459
85.037,-55.0761
84.672,-54.9074
84.3092,-54.7335
83.9478,-54.556
83.5868,-54.3794
83.2253,-54.2015
82.8635,-54.0266
82.4968,-53.8606
82.1297,-53.6957
81.7635,-53.53
81.396,-53.3649
81.038,-53.1834
80.6873,-52.9852
80.3377,-52.7867
79.9875,-52.5887
79.6372,-52.39
79.2889,-52.1898
78.9397,-51.9887
78.5913,-51.7884
78.2425,-51.5875
77.8916,-51.3903
77.5399,-51.1959
77.1868,-51.0016
76.8353,-50.8074
76.4842,-50.6097
76.1358,-50.4091
75.788,-50.207
75.4384,-50.0069
75.0916,-49.8044
74.7506,-49.5895
74.4143,-49.3698
74.0753,-49.1525
73.7376,-48.9335
73.3975,-48.7198
73.0514,-48.5129
72.709,-48.3036
72.3619,-48.0981
72.0233,-47.8824
71.7035,-47.6388
71.3865,-47.3896
71.0686,-47.145
70.7497,-46.8976
70.4449,-46.6375
70.1549,-46.3579
69.8688,-46.0749
69.5914,-45.7849
69.3244,-45.4822
69.0575,-45.183
68.7896,-44.8811
68.6118,-44.5387
68.5506,-44.1431
68.4822,-43.7441
68.3957,-43.3537
68.3262,-42.9553
68.2372,-42.5636
68.1833,-42.1673
68.2242,-41.7679
68.289,-41.3712
68.3302,-40.9689
68.4121,-40.5792
68.5637,-40.2065
68.7306,-39.8403
68.8873,-39.4701
69.0486,-39.1006
69.1861,-38.7249
69.2908,-38.3343
69.4051,-37.9507
69.5074,-37.5598
69.623,-37.1751
69.7959,-36.8135
69.9829,-36.4548
70.1974,-36.1179
70.4153,-35.7764
70.6329,-35.4404
70.9156,-35.1561
71.2149,-34.8861
71.5099,-34.615
71.809,-34.3426
72.1102,-34.0798
72.4309,-33.8335
72.7501,-33.5908
73.0703,-33.3463
73.3895,-33.1009
73.7537,-32.9341
74.1222,-32.7709
74.3762,-32.4686
74.6156,-32.1415
74.8571,-31.8229
75.0299,-31.4573
75.2005,-31.0943
75.3728,-30.7305
75.542,-30.3648
75.7174,-30.0039
75.892,-29.6401
76.0696,-29.2801
76.246,-28.9179
76.4212,-28.5558
76.5608,-28.1797
76.6846,-27.7958
76.8162,-27.4166
76.9395,-27.0328
77.0702,-26.6527
77.1956,-26.2704
77.3234,-25.8885
77.452,-25.5079
77.577,-25.1249
77.7206,-24.7494
77.8637,-24.3734
78.0116,-23.999
78.1573,-23.6242
78.3089,-23.2517
78.4874,-22.8906
78.6574,-22.5268
78.8378,-22.166
79.0076,-21.8024
79.1047,-21.4158
79.1615,-21.0174
79.2202,-20.6194
79.2808,-20.2216
79.3362,-19.8231
79.3931,-19.4248
79.4473,-19.0261
79.4992,-18.6272
79.5606,-18.2294
79.6407,-17.8365
79.7531,-17.4479
79.8336,-17.0558
79.8014,-16.6616
79.7167,-16.2641
79.6605,-15.8678
79.5592,-15.4804
79.3944,-15.1107
79.2369,-14.7477
79.0591,-14.3751
78.9121,-14.0143
78.8285,-13.6174
78.8798,-13.2469
79.2166,-13.0506
79.5402,-12.827
79.6475,-12.4409
79.7629,-12.0531
79.8812,-11.6713
79.9543,-11.2737
80.0084,-10.8793
80.0427,-10.4746
80.0991,-10.0784
80.1132,-9.6775
80.0637,-9.2783
80.0066,-8.882
79.9522,-8.48
79.8988,-8.0849
79.8601,-7.6818
79.8375,-7.2815
79.7461,-6.8965
79.5828,-6.5267
79.4198,-6.1624
79.2463,-5.7957
79.0581,-5.4434
78.8661,-5.0882
78.6783,-4.7318
78.4797,-4.385
78.2524,-4.0489
78.0204,-3.725
77.7935,-3.3885
77.5609,-3.0626
77.3015,-2.7578
77.0105,-2.4765
76.6953,-2.2326
76.374,-1.9839
76.0565,-1.7422
75.7161,-1.5255
75.371,-1.3174
75.0275,-1.1134
74.6815,-0.89923
74.338,-0.70036
73.9674,-0.534
73.5948,-0.38841
73.2254,-0.22898
72.8499,-0.076255
72.4697,-0.029565
