89.5666,-327.878
89.8745,-327.6172
90.1802,-327.3546
90.4866,-327.0927
90.794,-326.8315
91.0989,-326.5684
91.407,-326.3078
91.7123,-326.0448
92.0192,-325.7833
92.3262,-325.5217
92.6313,-325.2588
92.9395,-324.9982
93.2444,-324.735
93.5519,-324.4739
93.8583,-324.2119
94.1638,-323.9493
94.4719,-323.6886
94.7766,-323.4253
95.0845,-323.1646
95.3904,-322.902
95.6964,-322.6399
96.0043,-322.379
96.3088,-322.1156
96.6172,-321.8552
96.9224,-321.5922
97.229,-321.3305
97.5365,-321.0693
97.8411,-320.8059
98.1498,-320.5457
98.4544,-320.2823
98.7617,-320.0212
99.0687,-319.7595
99.3735,-319.4964
99.6823,-319.2362
99.9864,-318.9724
100.2945,-318.7119
100.6007,-318.4496
100.906,-318.1869
101.2148,-317.9267
101.5185,-317.6626
101.8273,-317.4025
102.1327,-317.1398
102.4384,-316.8773
102.7474,-316.6172
103.0503,-316.3526
103.3554,-316.0877
103.6554,-315.8193
103.9564,-315.5509
104.2645,-315.2906
104.5944,-315.0621
104.9384,-314.8472
105.2674,-314.6176
105.6068,-314.3979
105.9349,-314.1632
106.2598,-313.9274
106.5973,-313.7015
106.9236,-313.4723
107.2933,-313.299
107.6434,-313.104
107.9423,-312.8424
108.2306,-312.5541
108.4963,-312.2583
108.8749,-312.1156
109.2385,-312.0113
109.4326,-311.7424
109.7151,-311.4892
110.0847,-311.2963
110.4067,-311.0678
110.717,-310.8093
110.9963,-310.5187
111.2781,-310.2317
111.5667,-309.948
111.851,-309.6649
112.1573,-309.4001
112.4596,-309.135
112.7591,-308.8647
113.0685,-308.6056
113.4072,-308.3915
113.7601,-308.1914
114.1013,-307.9798
114.4493,-307.775
114.7809,-307.5454
115.105,-307.307
115.4377,-307.0773
115.7603,-306.837
116.0759,-306.5863
116.379,-306.3201
116.6846,-306.058
116.9913,-305.7953
117.3043,-305.5433
117.6428,-305.323
117.9772,-305.0984
118.3141,-304.8772
118.6504,-304.6541
118.9682,-304.4071
119.2865,-304.1588
119.6031,-303.9098
119.9203,-303.6609
120.224,-303.3966
120.5074,-303.1101
120.7944,-302.8268
121.0775,-302.5398
121.364,-302.2563
121.6724,-301.9977
121.9927,-301.7531
122.3126,-301.5073
122.6325,-301.2625
122.9446,-301.0078
123.2344,-300.7276
123.522,-300.4452
123.8124,-300.1654
124.1001,-299.8831
124.4073,-299.6226
124.7241,-299.3734
125.0396,-299.1227
125.3584,-298.8753
125.664,-298.6137
125.9495,-298.3292
126.2293,-298.0388
126.514,-297.7535
126.7947,-297.4639
127.068,-297.1678
127.3411,-296.8711
127.6134,-296.5738
127.887,-296.2778
128.1614,-295.9824
128.4371,-295.6883
128.713,-295.3943
128.9879,-295.0994
129.2637,-294.8054
129.5373,-294.5092
129.8125,-294.2147
130.0867,-293.9191
130.3647,-293.6273
130.6535,-293.346
130.9408,-293.0631
131.2301,-292.7824
131.5171,-292.4993
131.7879,-292.2007
132.056,-291.8996
132.3256,-291.5999
132.5944,-291.2994
132.8703,-291.0055
133.1506,-290.7157
133.4303,-290.4254
133.7105,-290.1356
133.9712,-289.8295
134.2053,-289.5012
134.4409,-289.1741
134.674,-288.845
134.9143,-288.5219
135.1897,-288.2278
135.4688,-287.9366
135.7451,-287.6431
136.0226,-287.3507
136.2656,-287.0304
136.4901,-286.6954
136.7195,-286.3641
136.9425,-286.0279
137.1754,-285.6993
137.4319,-285.3885
137.6936,-285.0816
137.9519,-284.7722
138.2115,-284.4637
138.4637,-284.1493
138.7103,-283.8303
138.9594,-283.5133
139.2061,-283.1945
139.4558,-282.878
139.711,-282.5658
139.9656,-282.2533
140.2213,-281.9416
140.476,-281.6291
140.7259,-281.3129
140.9694,-280.9915
141.2111,-280.6689
141.4555,-280.3483
141.6951,-280.0241
141.9268,-279.6942
142.1557,-279.3623
142.3864,-279.0317
142.6164,-278.7007
142.8416,-278.3662
143.064,-278.0301
143.2854,-277.693
143.5076,-277.3567
143.7285,-277.0195
143.9465,-276.6803
144.1656,-276.342
144.3831,-276.0024
144.6036,-275.6651
144.8339,-275.3342
145.0655,-275.0041
145.2964,-274.6737
145.5274,-274.3432
145.7548,-274.0105
145.9813,-273.6769
146.2085,-273.3439
146.4351,-273.0105
146.6572,-272.674
146.8751,-272.3349
147.0926,-271.9953
147.3108,-271.6564
147.5279,-271.3167
147.7314,-270.9689
147.9234,-270.6145
148.1174,-270.261
148.3096,-269.9066
148.5109,-269.5577
148.7299,-269.2191
148.9489,-268.8808
149.1688,-268.5427
149.387,-268.2039
149.5854,-267.8533
149.7721,-267.4959
149.961,-267.1399
150.1484,-266.7828
150.3456,-266.4315
150.5587,-266.0892
150.7701,-265.746
150.9839,-265.4042
151.1949,-265.0606
151.3834,-264.7046
151.5669,-264.3454
151.7525,-263.9876
151.9366,-263.6289
152.1183,-263.2691
152.2873,-262.9031
152.457,-262.5374
152.6257,-262.1713
152.7958,-261.8058
152.9922,-261.454
153.1958,-261.106
153.3968,-260.7565
153.6004,-260.4086
153.7921,-260.054
153.9769,-259.6958
154.1602,-259.3367
154.3447,-258.9782
154.528,-258.6192
154.7007,-258.2549
154.8728,-257.8903
155.0452,-257.5259
155.2178,-257.1615
155.4013,-256.8027
155.589,-256.4458
155.7746,-256.088
155.963,-255.7315
156.1481,-255.3734
156.3194,-255.0086
156.486,-254.6414
156.6552,-254.2756
156.8226,-253.9088
156.998,-253.5458
157.1812,-253.1868
157.3636,-252.8272
157.5475,-252.4685
157.7243,-252.1063
157.8884,-251.738
158.0502,-251.3688
158.2142,-251.0004
158.3762,-250.6314
158.5324,-250.2597
158.685,-249.8866
158.8389,-249.514
158.9916,-249.1408
159.1475,-248.7691
159.3125,-248.4012
159.4788,-248.034
159.6438,-247.6662
159.8102,-247.2989
159.9784,-246.9327
160.15,-246.5677
160.3199,-246.2022
160.4915,-245.8373
160.6579,-245.4702
160.8072,-245.0959
160.9549,-244.7206
161.1043,-244.3463
161.2518,-243.971
161.3999,-243.5961
161.5438,-243.2195
161.6902,-242.8438
161.8341,-242.4673
161.9803,-242.0915
162.1471,-241.7247
162.3177,-241.3594
162.4879,-240.9938
162.6577,-240.6284
162.8002,-240.252
162.9215,-239.8675
163.0443,-239.4836
163.1658,-239.0991
163.2883,-238.7151
163.4203,-238.3341
163.5558,-237.9545
163.6912,-237.5748
163.8268,-237.1951
163.962,-236.8154
164.0998,-236.4363
164.2356,-236.0569
164.3739,-235.6781
164.5094,-235.2985
164.6219,-234.9116
164.7274,-234.5223
164.8344,-234.1338
164.941,-233.7449
165.0697,-233.3633
165.213,-232.9864
165.3527,-232.6083
165.4971,-232.2319
165.6345,-231.8529
165.748,-231.4663
165.8559,-231.0777
165.9688,-230.6907
166.0778,-230.3026
166.1809,-229.9129
166.2747,-229.5209
166.3678,-229.1286
166.4629,-228.7368
166.5588,-228.3453
166.6658,-227.9565
166.7708,-227.5674
166.8764,-227.1782
166.9831,-226.7895
167.0725,-226.3965
167.1579,-226.0025
167.2391,-225.6077
167.3237,-225.2133
167.3965,-224.8176
167.4306,-224.4154
167.4698,-224.0148
167.5003,-223.6119
167.5425,-223.2119
167.6741,-222.8327
167.8265,-222.4582
167.9652,-222.0806
168.1159,-221.7059
168.2472,-221.3254
168.3674,-220.9404
168.4821,-220.554
168.6011,-220.1687
168.7163,-219.7826
168.7772,-219.3857
168.8131,-218.984
168.8532,-218.583
168.8896,-218.1813
168.9495,-217.7832
169.028,-217.3877
169.105,-216.9921
169.1858,-216.597
169.2541,-216.2001
169.2941,-215.7991
169.327,-215.3971
169.3666,-214.996
169.4003,-214.5942
169.4169,-214.1916
169.4245,-213.7885
169.4363,-213.3855
169.4434,-212.9824
169.4637,-212.5802
169.5237,-212.1819
169.5906,-211.784
169.651,-211.3856
169.7166,-210.9877
169.7772,-210.5891
169.8374,-210.1906
169.8986,-209.792
169.9576,-209.3933
170.0162,-208.9944
170.0705,-208.5949
170.1229,-208.1953
170.1803,-207.796
170.2296,-207.3962
170.2361,-206.9941
170.22,-206.5907
170.2152,-206.188
170.2008,-205.7848
170.1937,-205.3819
170.2109,-204.9792
170.23,-204.5764
170.2486,-204.1738
170.2676,-203.771
170.308,-203.3704
170.3691,-202.9718
170.4243,-202.5726
170.487,-202.1741
170.5328,-201.7743
170.5341,-201.3714
170.5292,-200.9681
170.5283,-200.565
170.5259,-200.1619
170.5449,-199.7595
170.5795,-199.3579
170.6116,-198.956
170.6459,-198.5543
170.6723,-198.1522
170.6839,-197.7492
170.6959,-197.3462
170.7073,-196.9432
170.719,-196.5402
170.7365,-196.1375
170.7553,-195.7348
170.7753,-195.3322
170.7943,-194.9294
170.8066,-194.5266
170.8074,-194.1235
170.806,-193.7202
170.8075,-193.3172
170.8063,-192.914
170.8374,-192.5133
170.9038,-192.1156
170.9664,-191.7176
171.0357,-191.32
171.0961,-190.9219
171.1126,-190.5196
171.1141,-190.1162
171.1228,-189.7133
171.1274,-189.31
171.1134,-188.9079
171.0734,-188.5069
171.0287,-188.106
170.9893,-187.705
170.9458,-187.304
170.9264,-186.9021
170.9342,-186.4988
170.9357,-186.096
170.9471,-185.6925
170.9381,-185.2908
170.8558,-184.897
170.7599,-184.5046
170.6761,-184.1107
170.5825,-183.7182
170.5351,-183.3208
170.5444,-182.9181
170.5557,-182.515
170.5667,-182.1119
170.577,-181.7091
170.5523,-181.3078
170.498,-180.9084
170.4442,-180.5089
170.3906,-180.1092
170.3361,-179.7099
170.2829,-179.3101
170.2285,-178.9109
170.1745,-178.5112
170.1217,-178.1115
170.1051,-177.7106
170.1267,-177.307
170.1371,-176.9055
170.1631,-176.5011
170.1695,-176.1001
170.0505,-175.7213
169.8857,-175.3502
169.7438,-174.9754
169.582,-174.6038
169.5027,-174.2203
169.5449,-173.8202
169.5888,-173.4194
169.6375,-173.0186
169.6761,-172.6183
169.6124,-172.2253
169.5042,-171.8355
169.4104,-171.4445
169.3044,-171.0546
169.2346,-170.6601
169.225,-170.2574
169.2176,-169.8541
169.2105,-169.4511
169.2016,-169.048
169.1511,-168.6494
169.0766,-168.2531
169.0038,-167.8566
168.9298,-167.4603
168.8549,-167.0641
168.7744,-166.6692
168.6947,-166.2739
168.6138,-165.879
168.5347,-165.4837
168.4791,-165.0846
168.431,-164.6843
168.38,-164.2844
168.332,-163.8841
168.2681,-163.4864
168.1871,-163.0914
168.1038,-162.697
168.0219,-162.3022
167.9398,-161.9076
167.863,-161.5118
167.7905,-161.1152
167.7141,-160.7195
167.6423,-160.3226
167.5495,-159.9314
167.4137,-159.5519
167.2758,-159.1731
167.138,-158.7941
167.0022,-158.4147
166.9064,-158.024
166.829,-157.6281
166.7471,-157.2336
166.6688,-156.8379
166.6027,-156.4408
166.5595,-156.0398
166.5161,-155.6392
166.4735,-155.2381
166.428,-154.8379
166.2999,-154.4624
166.1105,-154.1051
165.9352,-153.7437
165.7427,-153.3874
165.5851,-153.0205
165.5305,-152.6227
165.4907,-152.2201
165.441,-151.8209
165.3954,-151.4199
165.2939,-151.0319
165.1621,-150.6504
165.039,-150.2669
164.907,-149.8857
164.81,-149.4961
164.7599,-149.0963
164.7085,-148.6965
164.6625,-148.2956
164.6081,-147.8967
164.5072,-147.5071
164.3882,-147.1217
164.2782,-146.7339
164.1605,-146.3483
164.0033,-145.9791
163.8149,-145.6222
163.6344,-145.2623
163.4436,-144.9062
163.2766,-144.5419
163.2006,-144.1473
163.1428,-143.7468
163.0659,-143.3522
163.0073,-142.9522
162.9217,-142.5596
162.7884,-142.1797
162.6468,-141.8018
162.5098,-141.4229
162.3707,-141.0444
162.2289,-140.667
162.0875,-140.2895
161.946,-139.9119
161.8039,-139.5348
161.6474,-139.1634
161.4802,-138.7965
161.3138,-138.4293
161.1478,-138.062
161.0244,-137.6806
160.94,-137.2861
160.8516,-136.893
160.7672,-136.4986
160.6524,-136.1139
160.492,-135.7443
160.3316,-135.3743
160.1695,-135.0052
160.0102,-134.6349
159.8773,-134.2546
159.7547,-133.8706
159.6301,-133.4871
159.5063,-133.1035
159.3598,-132.7289
159.1844,-132.3658
159.0107,-132.0021
158.8353,-131.639
158.671,-131.2715
158.5401,-130.8901
158.4094,-130.5088
158.2788,-130.1274
158.1481,-129.7459
157.9902,-129.3756
157.8198,-129.0102
157.6487,-128.6452
157.4782,-128.2798
157.3004,-127.9182
157.1073,-127.5643
156.9148,-127.2101
156.7215,-126.8563
156.5288,-126.5022
156.3391,-126.1465
156.1492,-125.7908
155.962,-125.4339
155.7706,-125.0789
155.6059,-124.7126
155.4845,-124.3285
155.3691,-123.942
155.2488,-123.5573
155.106,-123.1816
154.9315,-122.818
154.7557,-122.4553
154.5832,-122.091
154.3981,-121.733
154.1929,-121.3864
153.9824,-121.0422
153.7764,-120.6959
153.5671,-120.3513
153.3736,-119.9979
153.1986,-119.635
153.0231,-119.2718
152.8487,-118.9085
152.6653,-118.5496
152.4689,-118.1975
152.2728,-117.8454
152.0752,-117.4937
151.8804,-117.141
151.7036,-116.7788
151.5355,-116.4122
151.3616,-116.0488
151.1939,-115.6818
151.0199,-115.3185
150.8136,-114.9723
150.5999,-114.6304
150.3906,-114.2859
150.1779,-113.9432
149.9778,-113.5937
149.7888,-113.2374
149.6008,-112.8809
149.4125,-112.5244
149.224,-112.168
149.0377,-111.8106
148.8496,-111.4539
148.664,-111.0961
148.4711,-110.7423
148.2555,-110.4017
148.0359,-110.0636
147.8202,-109.7229
147.6012,-109.3846
147.3829,-109.0455
147.1632,-108.7075
146.9433,-108.3697
146.7246,-108.0309
146.5022,-107.6948
146.2753,-107.3615
146.0463,-107.0297
145.8189,-106.6969
145.5904,-106.3646
145.3459,-106.045
145.0831,-105.7391
144.8216,-105.4324
144.5576,-105.1276
144.3016,-104.8166
144.0825,-104.4787
143.8693,-104.136
143.6501,-103.7981
143.436,-103.4562
143.2037,-103.127
142.9628,-102.8039
142.7233,-102.4793
142.4801,-102.158
142.232,-101.8403
141.975,-101.5296
141.7225,-101.2155
141.4675,-100.903
141.2305,-100.5786
141.0291,-100.2285
140.8212,-99.884
140.6225,-99.5322
140.4128,-99.1889
140.1328,-98.9011
139.8369,-98.6256
139.5518,-98.3418
139.2575,-98.0652
138.9976,-97.7609
138.7854,-97.4186
138.5756,-97.0742
138.3661,-96.7296
138.1536,-96.3875
137.878,-96.1008
137.56,-95.8517
137.2505,-95.5945
136.9322,-95.3458
136.6355,-95.0756
136.3776,-94.7663
136.1245,-94.4522
135.8686,-94.1407
135.6139,-93.8283
135.3877,-93.4959
135.1863,-93.1468
134.983,-92.7989
134.7837,-92.4478
134.5598,-92.1155
134.29,-91.8162
134.011,-91.5247
133.7404,-91.2263
133.464,-90.9323
133.2112,-90.6207
132.9949,-90.2791
132.7702,-89.9463
132.5582,-89.601
132.3307,-89.2704
132.0144,-89.0244
131.6811,-88.7938
131.3602,-88.5524
131.0307,-88.3182
130.7318,-88.0497
130.4448,-87.7664
130.1563,-87.4847
129.8705,-87.2006
129.5833,-86.9175
129.3117,-86.6197
129.0403,-86.3215
128.767,-86.0251
128.4971,-85.7257
128.2332,-85.4213
127.9843,-85.1038
127.7297,-84.7917
127.4812,-84.4735
127.2217,-84.1667
126.9081,-83.914
126.5868,-83.6696
126.2734,-83.4168
125.9524,-83.172
125.66,-82.8976
125.399,-82.5906
125.1413,-82.2805
124.8823,-81.9714
124.6229,-81.663
124.3579,-81.3592
124.0891,-81.0587
123.8216,-80.7572
123.5536,-80.4558
123.2762,-80.1639
122.9838,-79.8864
122.6903,-79.6099
122.3971,-79.3334
122.105,-79.0554
121.8346,-78.7567
121.5688,-78.4533
121.2983,-78.1544
121.0318,-77.852
120.7286,-77.5915
120.3888,-77.374
120.0542,-77.1506
119.7105,-76.9369
119.3794,-76.7103
119.1195,-76.4063
118.8842,-76.0765
118.6336,-75.7629
118.3969,-75.4341
118.1184,-75.1544
117.7655,-74.9617
117.4049,-74.7796
117.0507,-74.5882
116.7038,-74.3834
116.3716,-74.1553
116.0344,-73.9336
115.7018,-73.7067
115.3832,-73.4594
115.0717,-73.204
114.7583,-72.9501
114.4456,-72.6956
114.149,-72.4232
113.8574,-72.1444
113.5661,-71.8662
113.2752,-71.5866
112.9735,-71.3198
112.6657,-71.0595
112.3544,-70.8032
112.0473,-70.5422
111.735,-70.2871
111.3969,-70.0683
111.0536,-69.8565
110.7156,-69.6367
110.3721,-69.4257
110.0347,-69.205
109.7163,-68.9584
109.4037,-68.7034
109.0861,-68.4551
108.7722,-68.2024
108.4534,-67.9552
108.1263,-67.7201
107.8001,-67.4829
107.4721,-67.2484
107.146,-67.0118
106.8124,-66.7852
106.4708,-66.5716
106.131,-66.3543
105.7883,-66.142
105.4538,-65.9174
105.1262,-65.6822
104.7996,-65.4464
104.4743,-65.2075
104.1391,-64.9846
103.798,-64.7697
103.4508,-64.5646
103.1089,-64.3508
102.7638,-64.1429
102.3903,-63.9929
102.0135,-63.8531
101.6311,-63.7198
101.2734,-63.5497
100.9834,-63.2709
100.6978,-62.9851
100.4111,-62.7026
100.118,-62.4265
99.7648,-62.2354
99.4032,-62.0533
99.0506,-61.8608
98.6901,-61.678
98.3592,-61.4506
98.0437,-61.2004
97.7268,-60.9505
97.4139,-60.6968
97.0857,-60.4636
96.7386,-60.2595
96.387,-60.0621
96.0381,-59.8594
95.6884,-59.66
95.3529,-59.4381
95.0464,-59.1767
94.7386,-58.9164
94.3992,-58.7038
94.038,-58.5262
93.6758,-58.3474
93.3105,-58.179
92.9374,-58.025
92.5646,-57.8718
92.1924,-57.7178
91.8174,-57.5685
91.4378,-57.4346
91.0576,-57.2993
90.6767,-57.1671
90.299,-57.0278
89.9395,-56.8448
89.5846,-56.6543
89.2249,-56.4714
88.8693,-56.2817
88.5111,-56.0972
88.1536,-55.9097
87.7971,-55.7228
87.4385,-55.5373
87.0824,-55.3492
86.7242,-55.164
86.367,-54.9764
86.0101,-54.7902
85.6519,-54.6038
85.2954,-54.4166
84.9375,-54.2306
84.5801,-54.0437
84.2235,-53.8567
83.878,-53.6486
83.5429,-53.4255
83.2039,-53.2067
82.8685,-52.9829
82.525,-52.7733
82.1658,-52.5892
81.8068,-52.4074
81.4464,-52.2252
81.0926,-52.0336
80.7532,-51.8162
80.416,-51.5943
80.0772,-51.3772
79.7393,-51.1557
79.3957,-50.9466
79.0433,-50.7502
78.6905,-50.5549
78.3382,-50.3598
77.9852,-50.1636
77.6326,-49.9699
77.2792,-49.7745
76.9264,-49.58
76.5733,-49.3859
76.2203,-49.1899
75.8664,-48.9982
75.5143,-48.8006
75.159,-48.6106
74.8096,-48.4103
74.4949,-48.1586
74.188,-47.8975
73.873,-47.6449
73.5655,-47.3853
73.2521,-47.1307
72.942,-46.8734
72.6318,-46.6164
72.3185,-46.3614
72.0152,-46.0979
71.7169,-45.8248
71.4273,-45.5458
71.1295,-45.273
70.8666,-44.9714
70.6572,-44.6286
70.4072,-44.3123
70.1373,-44.0161
69.9292,-43.6769
69.812,-43.2944
69.7578,-42.8945
69.7094,-42.4941
69.7194,-42.0979
69.8045,-41.7028
69.8967,-41.3113
69.9759,-40.9149
70.0737,-40.5249
70.2291,-40.1552
70.4219,-39.7995
70.6312,-39.4596
70.8028,-39.0965
70.946,-38.7158
71.1159,-38.3549
71.1988,-37.9522
71.3039,-37.5711
71.606,-37.3148
71.9424,-37.0874
72.2593,-36.8431
72.5799,-36.5944
72.8733,-36.3221
73.1778,-36.0537
73.4766,-35.7861
73.7742,-35.5128
74.0749,-35.2435
74.3605,-34.9615
74.6419,-34.6698
74.9021,-34.365
75.136,-34.0355
75.3517,-33.6954
75.5825,-33.3646
75.8016,-33.0258
75.9542,-32.6547
76.096,-32.2759
76.2449,-31.9022
76.386,-31.5241
76.5441,-31.1534
76.7274,-30.7955
76.919,-30.4395
77.1047,-30.0826
77.2925,-29.7255
77.4389,-29.3521
77.5446,-28.9632
77.6597,-28.5764
77.7645,-28.1875
77.8783,-27.8004
78.0164,-27.4219
78.157,-27.0443
78.2995,-26.6666
78.4376,-26.2886
78.5547,-25.9035
78.6349,-25.5086
78.7156,-25.1136
78.7989,-24.7189
78.8816,-24.325
78.9983,-23.9384
79.1125,-23.5522
79.2252,-23.1651
79.3441,-22.7794
79.4633,-22.3954
79.5978,-22.0139
79.7217,-21.6314
79.8515,-21.2491
79.983,-20.8677
80.12,-20.4901
80.2713,-20.1138
80.4062,-19.7366
80.5548,-19.3596
80.6728,-18.9757
80.7588,-18.5827
80.8471,-18.1865
80.9038,-17.7922
80.9579,-17.3884
80.909,-16.9965
80.7476,-16.6229
80.5544,-16.2778
80.224,-16.0887
79.8296,-15.9911
79.4535,-15.8533
79.0553,-15.753
78.6982,-15.5939
78.3966,-15.3247
78.1865,-15.0176
78.1433,-14.6177
78.2001,-14.2153
78.2235,-13.8182
78.2828,-13.4101
78.4781,-13.079
78.6948,-12.7242
78.9592,-12.4596
79.3432,-12.4243
79.7641,-12.4498
80.1548,-12.4163
80.4726,-12.224
80.764,-11.928
81.0558,-11.665
81.3702,-11.4027
81.6267,-11.1044
81.6881,-10.7222
81.784,-10.3136
81.9026,-9.9478
81.7945,-9.5698
81.6451,-9.1945
81.5474,-8.8092
81.4219,-8.4163
81.3435,-8.0346
81.3539,-7.6206
81.3141,-7.2357
81.0928,-6.9068
80.8267,-6.5895
80.6034,-6.2667
80.4011,-5.9117
80.2414,-5.5463
80.0765,-5.177
79.9043,-4.8104
79.6774,-4.4931
79.3764,-4.2144
79.0887,-3.9398
78.7945,-3.6608
78.4991,-3.3848
78.2109,-3.1083
77.9127,-2.8293
77.6237,-2.5555
77.3293,-2.2751
77.0352,-2.0008
76.7232,-1.7496
76.3918,-1.5136
76.0671,-1.2822
75.7388,-1.0415
75.4078,-0.81595
75.0508,-0.62968
74.6836,-0.45804
74.3279,-0.27404
73.9623,-0.098319
73.5862,-0.030224
