87.005,-330.2872
87.3693,-330.1094
87.737,-329.9376
88.1012,-329.7595
88.4684,-329.587
88.8335,-329.4104
89.1877,-329.2135
89.5382,-329.0093
89.8887,-328.8053
90.2392,-328.6014
90.59,-328.3977
90.9401,-328.1932
91.2912,-327.9899
91.6413,-327.7853
91.9938,-327.5847
92.3503,-327.3911
92.7062,-327.1971
93.063,-327.0039
93.4191,-326.81
93.7753,-326.616
94.1324,-326.4234
94.4874,-326.2278
94.8455,-326.0368
95.1997,-325.8398
95.5406,-325.6201
95.8782,-325.3952
96.2181,-325.1742
96.5569,-324.9509
96.8958,-324.7284
97.2352,-324.5063
97.5739,-324.2832
97.9131,-324.061
98.2523,-323.8384
98.591,-323.6156
98.9305,-323.3935
99.2693,-323.1705
99.6084,-322.9481
99.9477,-322.7257
100.2863,-322.5027
100.6259,-322.2808
100.9645,-322.0577
101.3036,-321.8354
101.6431,-321.6131
101.9814,-321.3898
102.3213,-321.1682
102.6597,-320.9448
102.999,-320.7227
103.3384,-320.5004
103.6764,-320.2767
104.0172,-320.0562
104.3541,-319.8309
104.6955,-319.6115
105.0322,-319.3857
105.338,-319.1206
105.6355,-318.8443
105.9366,-318.573
106.2346,-318.2977
106.5352,-318.0254
106.8336,-317.751
107.1338,-317.4778
107.4292,-317.2005
107.7163,-316.9138
108.0048,-316.6288
108.2908,-316.3414
108.5801,-316.0567
108.866,-315.7696
109.1546,-315.4839
109.4419,-315.1983
109.6881,-314.8772
109.9203,-314.5454
110.1486,-314.2096
110.3814,-313.8777
110.6935,-313.6287
111.0287,-313.4008
111.3128,-313.1123
111.595,-312.8201
111.8811,-312.5334
112.1622,-312.2405
112.4483,-311.9533
112.7304,-311.6618
113.0148,-311.3725
113.2988,-311.0833
113.5816,-310.7922
113.8666,-310.5039
114.1492,-310.2129
114.4336,-309.9237
114.7173,-309.634
115.0005,-309.3435
115.2851,-309.0547
115.5679,-308.7639
115.8523,-308.4748
116.1359,-308.1849
116.4193,-307.8946
116.7037,-307.6056
116.9867,-307.315
117.271,-307.0258
117.5545,-306.7358
117.838,-306.4457
118.1223,-306.1565
118.4054,-305.866
118.6896,-305.5768
118.9731,-305.2868
119.2567,-304.9968
119.5409,-304.7075
119.8241,-304.417
120.1083,-304.1278
120.3918,-303.8377
120.6754,-303.5478
120.9596,-303.2585
121.2427,-302.968
121.527,-302.6788
121.8105,-302.3887
122.0941,-302.0988
122.3783,-301.8095
122.6614,-301.519
122.9457,-301.2299
123.2291,-300.9397
123.5128,-300.6498
123.797,-300.3606
124.0799,-300.0699
124.3645,-299.781
124.6477,-299.4906
124.9314,-299.2007
125.2132,-298.9092
125.4898,-298.6124
125.7697,-298.3191
126.0459,-298.0219
126.3298,-297.7328
126.6378,-297.469
126.9464,-297.2059
127.2562,-296.9439
127.5632,-296.6792
127.8404,-296.3839
128.1085,-296.0793
128.3798,-295.7781
128.649,-295.4746
128.9312,-295.1835
129.22,-294.8987
129.5077,-294.6129
129.7968,-294.3285
130.0848,-294.0429
130.3749,-293.7595
130.6646,-293.4756
130.9544,-293.1919
131.2442,-292.9081
131.5273,-292.6178
131.8082,-292.3252
132.0894,-292.033
132.3702,-291.7403
132.651,-291.4477
132.9307,-291.154
133.2104,-290.8603
133.4903,-290.5668
133.77,-290.2731
134.0496,-289.9793
134.3293,-289.6856
134.6086,-289.3916
134.8885,-289.0981
135.1631,-288.7997
135.4257,-288.4907
135.6884,-288.1817
135.9506,-287.8722
136.2137,-287.5636
136.4956,-287.2722
136.7816,-286.9847
137.0673,-286.6967
137.3524,-286.4084
137.6103,-286.0962
137.8554,-285.773
138.1036,-285.4524
138.3485,-285.1289
138.5999,-284.8109
138.8562,-284.4964
139.1146,-284.1838
139.3713,-283.8699
139.6293,-283.557
139.9021,-283.2569
140.1762,-282.958
140.4492,-282.658
140.7233,-282.3591
140.9841,-282.0487
141.2376,-281.7321
141.4907,-281.4152
141.7439,-281.0984
141.9942,-280.7794
142.2366,-280.4541
142.4784,-280.1286
142.7213,-279.8038
142.9625,-279.4777
143.198,-279.1476
143.4298,-278.8147
143.6637,-278.4835
143.896,-278.151
144.1397,-277.8271
144.398,-277.5145
144.6556,-277.2012
144.9143,-276.8888
145.1719,-276.5756
145.426,-276.2595
145.6783,-275.942
145.9293,-275.6234
146.1826,-275.3066
146.4314,-274.9864
146.6718,-274.6597
146.9082,-274.3302
147.1484,-274.0034
147.3852,-273.6742
147.5981,-273.3293
147.8028,-272.9792
148.009,-272.63
148.2144,-272.2802
148.4415,-271.9449
148.6829,-271.6189
148.9233,-271.2924
149.165,-270.9666
149.4054,-270.6399
149.6499,-270.3163
149.8938,-269.9923
150.1381,-269.6686
150.3823,-269.3448
150.5993,-269.0033
150.7946,-268.6479
150.9913,-268.2932
151.1856,-267.9371
151.3851,-267.5842
151.6025,-267.2419
151.824,-266.9021
152.0422,-266.5602
152.2621,-266.2195
152.4684,-265.8705
152.6629,-265.5145
152.8618,-265.1612
153.0549,-264.8043
153.2543,-264.4513
153.4773,-264.1127
153.7053,-263.7772
153.9304,-263.4399
154.1567,-263.1033
154.3813,-262.7656
154.6037,-262.4265
154.8264,-262.0875
155.0498,-261.749
155.2681,-261.4073
155.4779,-261.0602
155.6831,-260.7104
155.8933,-260.3635
156.0988,-260.0139
156.2853,-259.6538
156.4669,-259.2912
156.6504,-258.9295
156.8327,-258.5672
157.0104,-258.2027
157.1808,-257.8346
157.3541,-257.4681
157.5235,-257.0993
157.7054,-256.7376
157.9248,-256.3967
158.1488,-256.0584
158.3692,-255.7181
158.5919,-255.379
158.7938,-255.0278
158.9821,-254.6686
159.1709,-254.3096
159.3593,-253.9505
159.5373,-253.5864
159.6967,-253.2135
159.8542,-252.8396
160.0141,-252.4671
160.1714,-252.0932
160.329,-251.7195
160.4852,-251.3452
160.6418,-250.971
160.7988,-250.5972
160.9541,-250.2224
161.1093,-249.8477
161.2641,-249.4729
161.4188,-249.0979
161.5919,-248.7321
161.7935,-248.3801
161.9947,-248.0281
162.1978,-247.6768
162.3971,-247.3239
162.5445,-246.9477
162.6687,-246.5611
162.801,-246.1782
162.9257,-245.7919
163.0744,-245.4154
163.2514,-245.0507
163.4278,-244.6855
163.6083,-244.3221
163.7819,-243.9559
163.9266,-243.5774
164.0577,-243.1934
164.195,-242.8119
164.3292,-242.4291
164.4713,-242.0494
164.6283,-241.6753
164.7785,-241.2988
164.937,-240.9251
165.0872,-240.5487
165.1922,-240.1575
165.2867,-239.763
165.3831,-239.3691
165.4799,-238.9753
165.6005,-238.5884
165.7329,-238.2049
165.8626,-237.8208
165.9944,-237.4371
166.1395,-237.0587
166.2984,-236.6856
166.4563,-236.312
166.6159,-235.9391
166.7649,-235.5623
166.8884,-235.1761
167.0072,-234.7882
167.1305,-234.4019
167.2506,-234.0145
167.3764,-233.6289
167.508,-233.2452
167.6348,-232.8602
167.7688,-232.4771
167.8923,-232.0912
167.9736,-231.694
168.0486,-231.2953
168.1272,-230.8974
168.2055,-230.4996
168.3254,-230.113
168.4625,-229.731
168.594,-229.3476
168.7303,-228.9654
168.8234,-228.5729
168.8751,-228.1706
168.9301,-227.7689
168.9793,-227.3661
169.0358,-226.9647
169.1311,-226.5715
169.2467,-226.1825
169.3579,-225.7926
169.4712,-225.4032
169.5763,-225.0116
169.6638,-224.6156
169.754,-224.2202
169.8415,-223.8241
169.9311,-223.4286
170.0422,-223.0386
170.1552,-222.6491
170.2685,-222.2596
170.3811,-221.87
170.4731,-221.4753
170.5561,-221.0782
170.6393,-220.6813
170.7225,-220.2844
170.7995,-219.8863
170.8612,-219.4854
170.9232,-219.0846
170.9847,-218.6838
171.0468,-218.283
171.1253,-217.8851
171.2073,-217.4879
171.2887,-217.0906
171.371,-216.6935
171.4539,-216.2965
171.5456,-215.9013
171.6341,-215.5057
171.7267,-215.1106
171.8146,-214.7149
171.8599,-214.3127
171.8889,-213.908
171.9208,-213.5038
171.9515,-213.0993
172.0043,-212.6974
172.0655,-212.2964
172.1235,-211.8951
172.1852,-211.4942
172.2436,-211.0929
172.305,-210.692
172.365,-210.2908
172.4252,-209.8898
172.4861,-209.4888
172.5292,-209.0856
172.5653,-208.6817
172.6016,-208.2777
172.6366,-207.8737
172.6696,-207.4695
172.6945,-207.0646
172.7238,-206.6602
172.7484,-206.2552
172.7775,-205.8508
172.8377,-205.4498
172.9014,-205.0492
172.9619,-204.6482
173.0255,-204.2476
173.0772,-203.8455
173.1231,-203.4425
173.165,-203.0391
173.2112,-202.6361
173.2529,-202.2328
173.2668,-201.8276
173.2757,-201.422
173.2881,-201.0167
173.2979,-200.6112
173.3176,-200.2061
173.3432,-199.8014
173.3687,-199.3966
173.3946,-198.9919
173.4209,-198.5872
173.4493,-198.1826
173.4784,-197.7781
173.5062,-197.3734
173.5357,-196.9689
173.5769,-196.5655
173.6227,-196.1625
173.6679,-195.7595
173.7127,-195.3564
173.7336,-194.952
173.7344,-194.5464
173.7371,-194.1408
173.7384,-193.7352
173.7402,-193.3297
173.7409,-192.9241
173.7398,-192.5185
173.7413,-192.113
173.7402,-191.7074
173.7489,-191.302
173.7708,-190.897
173.7902,-190.492
173.8147,-190.087
173.8318,-189.682
173.8121,-189.2772
173.7817,-188.8725
173.7599,-188.4677
173.7315,-188.063
173.7233,-187.6581
173.7434,-187.253
173.7611,-186.8479
173.7833,-186.4427
173.7999,-186.0376
173.7897,-185.6323
173.7738,-185.227
173.7613,-184.8217
173.7469,-184.4163
173.7281,-184.0112
173.7031,-183.6064
173.6784,-183.2016
173.6529,-182.7968
173.6289,-182.3919
173.6153,-181.9867
173.6051,-181.5812
173.5923,-181.1758
173.5818,-180.7704
173.5654,-180.3652
173.5359,-179.9607
173.5059,-179.5562
173.4761,-179.1518
173.4462,-178.7473
173.4289,-178.3421
173.4159,-177.9368
173.403,-177.5314
173.3902,-177.1261
173.3634,-176.7216
173.3257,-176.3178
173.2866,-175.9141
173.249,-175.5102
173.2075,-175.1068
173.1568,-174.7044
173.1072,-174.3019
173.0551,-173.8997
173.0069,-173.4971
172.9878,-173.0923
172.9795,-172.6866
172.9656,-172.2814
172.9569,-171.8758
172.9299,-171.4717
172.8732,-171.0702
172.8142,-170.6689
172.7567,-170.2675
172.6982,-169.8661
172.6476,-169.4637
172.5985,-169.0611
172.5491,-168.6586
172.5004,-168.2559
172.4506,-167.8535
172.4035,-167.4506
172.3542,-167.0481
172.3071,-166.6452
172.2581,-166.2426
172.1933,-165.8424
172.1243,-165.4426
172.0556,-165.043
171.9868,-164.6433
171.9127,-164.2446
171.8248,-163.8486
171.74,-163.4521
171.6507,-163.0563
171.567,-162.6597
171.5213,-162.2568
171.4806,-161.8532
171.4364,-161.45
171.3935,-161.0468
171.3131,-160.6502
171.2115,-160.2574
171.1147,-159.8637
171.0126,-159.471
170.9195,-159.0765
170.8421,-158.6783
170.7655,-158.2801
170.6904,-157.8815
170.6118,-157.4836
170.5077,-157.0921
170.3902,-156.7038
170.2772,-156.3144
170.161,-155.9258
170.0653,-155.5323
169.9975,-155.1325
169.9281,-154.7329
169.8612,-154.3328
169.7882,-153.934
169.694,-153.5395
169.5966,-153.1459
169.5026,-152.7513
169.4047,-152.3578
169.2871,-151.97
169.1559,-151.586
169.031,-151.2004
168.8993,-150.8165
168.7782,-150.4298
168.6943,-150.0332
168.6155,-149.6352
168.5331,-149.2382
168.4527,-148.8406
168.347,-148.4498
168.2208,-148.0643
168.0951,-147.6787
167.969,-147.2933
167.8426,-146.9078
167.715,-146.5229
167.5864,-146.1382
167.4592,-145.7531
167.3306,-145.3685
167.2018,-144.9839
167.0725,-144.5995
166.943,-144.2152
166.8141,-143.8306
166.6767,-143.4491
166.5306,-143.0707
166.3842,-142.6926
166.2377,-142.3144
166.0917,-141.936
165.9488,-141.5565
165.807,-141.1764
165.6647,-140.7967
165.5227,-140.4167
165.3837,-140.0357
165.2464,-139.6542
165.1088,-139.2726
164.9719,-138.8909
164.8288,-138.5114
164.674,-138.1366
164.5167,-137.7628
164.3623,-137.3877
164.205,-137.0139
164.0401,-136.6434
163.8706,-136.275
163.7024,-135.9059
163.5336,-135.5371
163.3665,-135.1676
163.2054,-134.7953
163.0441,-134.4233
162.8828,-134.0512
162.7219,-133.6788
162.5603,-133.3069
162.4001,-132.9342
162.2383,-132.5624
162.0783,-132.1897
161.9062,-131.8229
161.7096,-131.4682
161.512,-131.114
161.315,-130.7595
161.1177,-130.4051
160.935,-130.0431
160.7563,-129.6791
160.5771,-129.3152
160.3987,-128.951
160.2256,-128.5843
160.0646,-128.2121
159.9016,-127.8407
159.741,-127.4682
159.5765,-127.0977
159.3883,-126.7384
159.1974,-126.3805
159.0088,-126.0215
158.8185,-125.6633
158.6414,-125.2986
158.468,-124.9319
158.2938,-124.5657
158.1211,-124.1987
157.9375,-123.8372
157.7418,-123.4822
157.5434,-123.1283
157.3473,-122.7733
157.1482,-122.42
156.944,-122.0695
156.7401,-121.7191
156.535,-121.3691
156.3317,-121.0182
156.1383,-120.6617
155.9492,-120.3029
155.7584,-119.9451
155.5687,-119.5865
155.3704,-119.233
155.1584,-118.8872
154.9468,-118.5412
154.7348,-118.1955
154.5237,-117.8492
154.3216,-117.4976
154.1182,-117.1467
153.9166,-116.7947
153.7129,-116.4442
153.4854,-116.1088
153.2466,-115.781
153.0097,-115.4518
152.7713,-115.1237
152.5373,-114.7926
152.3067,-114.4587
152.0784,-114.1238
151.8466,-113.7906
151.6199,-113.4547
151.4304,-113.0971
151.2588,-112.729
151.0775,-112.3669
150.9065,-111.9984
150.7191,-111.6399
150.4834,-111.3103
150.2399,-110.9855
150.0022,-110.6572
149.7609,-110.331
149.5384,-109.9925
149.3309,-109.644
149.1209,-109.297
148.9146,-108.9479
148.704,-108.6012
148.4762,-108.2659
148.2424,-107.9344
148.0111,-107.6013
147.7785,-107.2691
147.543,-106.9388
147.3029,-106.612
147.0616,-106.286
146.8214,-105.9592
146.5807,-105.6329
146.3463,-105.3018
146.1146,-104.969
145.8811,-104.6374
145.6494,-104.3045
145.3989,-103.9865
145.1265,-103.6858
144.8569,-103.3833
144.5819,-103.0845
144.3147,-102.78
144.092,-102.4421
143.8835,-102.0933
143.6639,-101.7531
143.4545,-101.405
143.2301,-101.0682
142.9694,-100.7578
142.7042,-100.4507
142.442,-100.1415
142.1776,-99.8337
141.9131,-99.5265
141.6456,-99.2215
141.3801,-98.9149
141.113,-98.6098
140.8586,-98.2944
140.6261,-97.9621
140.3906,-97.6322
140.1602,-97.2978
139.9228,-96.9697
139.6395,-96.6807
139.343,-96.4033
139.0541,-96.1191
138.7592,-95.8402
138.4796,-95.5473
138.2176,-95.2377
137.9562,-94.9277
137.695,-94.6173
137.4336,-94.3072
137.1731,-93.9965
136.9132,-93.685
136.6519,-93.3749
136.3926,-93.063
136.1421,-92.7442
135.8979,-92.4203
135.6512,-92.0984
135.4074,-91.7743
135.1512,-91.4609
134.8609,-91.178
134.565,-90.9003
134.2755,-90.6165
133.9795,-90.3389
133.7016,-90.0445
133.4482,-89.7281
133.1953,-89.4111
132.9455,-89.0911
132.6891,-88.7777
132.3972,-88.4969
132.0918,-88.2292
131.7968,-87.9516
131.4933,-87.6817
131.2105,-87.3935
130.969,-87.0672
130.7254,-86.7437
130.4867,-86.4149
130.2414,-86.0927
129.9392,-85.8268
129.6142,-85.583
129.2943,-85.3346
128.9705,-85.0897
128.651,-84.8403
128.3321,-84.5894
128.018,-84.3333
127.6972,-84.0843
127.3851,-83.8262
127.1294,-83.5134
126.8888,-83.1856
126.6372,-82.8684
126.3953,-82.5421
126.1249,-82.2425
125.8186,-81.9773
125.5096,-81.7143
125.2013,-81.4507
124.8937,-81.1867
124.5887,-80.9191
124.2854,-80.6499
123.9815,-80.3814
123.6778,-80.1124
123.368,-79.8514
123.0441,-79.6069
122.7203,-79.3629
122.3965,-79.1187
122.0729,-78.8742
121.7743,-78.6016
121.4928,-78.3092
121.2091,-78.0198
120.9284,-77.7267
120.6441,-77.4376
120.3467,-77.1622
120.0454,-76.8903
119.747,-76.616
119.4465,-76.3434
119.1278,-76.0946
118.7886,-75.8724
118.4503,-75.6484
118.1106,-75.427
117.7731,-75.2022
117.4639,-74.9412
117.1657,-74.6661
116.8641,-74.3949
116.5653,-74.1208
116.2473,-73.8703
115.913,-73.6408
115.5797,-73.4099
115.2443,-73.1814
114.916,-72.9441
114.5986,-72.6914
114.2832,-72.4365
113.9667,-72.183
113.6503,-71.9289
113.3349,-71.6744
113.0186,-71.4202
112.7031,-71.1655
112.3873,-70.911
112.0709,-70.6571
111.7556,-70.4023
111.4377,-70.1502
111.1232,-69.8941
110.8048,-69.6432
110.4616,-69.4284
110.1083,-69.2291
109.7591,-69.0229
109.4062,-68.8228
109.0758,-68.5917
108.7799,-68.3145
108.4846,-68.0368
108.1901,-67.7573
107.8934,-67.4814
107.5679,-67.2407
107.2321,-67.0127
106.9001,-66.7806
106.5649,-66.5513
106.2309,-66.322
105.8929,-66.0975
105.5543,-65.8741
105.2172,-65.6491
104.8783,-65.4255
104.545,-65.1953
104.2121,-64.9631
103.8789,-64.7319
103.547,-64.4992
103.212,-64.2699
102.8779,-64.0407
102.5422,-63.8125
102.2074,-63.5838
101.872,-63.3561
101.5289,-63.1391
101.187,-62.9219
100.8438,-62.7049
100.5019,-62.4873
100.1785,-62.2435
99.8646,-61.9861
99.5487,-61.7328
99.2356,-61.4738
98.9123,-61.2308
98.5658,-61.0205
98.2143,-60.8171
97.8676,-60.6079
97.517,-60.4027
97.1649,-60.2023
96.8105,-60.005
96.4556,-59.8081
96.1019,-59.6109
95.7352,-59.4378
95.3595,-59.2856
94.9858,-59.1287
94.6082,-58.9784
94.2496,-58.797
93.9287,-58.5491
93.613,-58.2943
93.2937,-58.0445
92.9758,-57.7921
92.6361,-57.5731
92.2845,-57.3694
91.9364,-57.1628
91.585,-56.9592
91.2315,-56.7609
90.8701,-56.5775
90.508,-56.3934
90.1476,-56.2092
89.7853,-56.0254
89.4334,-55.8244
89.0818,-55.6226
88.7289,-55.4215
88.3782,-55.2193
88.0287,-55.0126
87.6938,-54.7843
87.3579,-54.5574
87.0219,-54.3291
86.6867,-54.1025
86.3256,-53.9183
85.956,-53.7525
85.5879,-53.5825
85.2166,-53.4174
84.8504,-53.2458
84.4857,-53.0658
84.1253,-52.8815
83.7622,-52.7005
83.3997,-52.5175
83.0478,-52.3181
82.6967,-52.1128
82.3481,-51.9074
81.998,-51.7018
81.6437,-51.5042
81.2843,-51.3185
80.9208,-51.1354
80.5617,-50.9498
80.1994,-50.7658
79.8452,-50.5684
79.4973,-50.3616
79.1446,-50.1584
78.7981,-49.9507
78.4459,-49.7472
78.0968,-49.5413
77.7489,-49.3344
77.3946,-49.1331
77.0519,-48.9212
76.6935,-48.7244
76.3581,-48.5033
76.0992,-48.1942
75.8556,-47.8663
75.6007,-47.554
75.3523,-47.2309
75.1023,-46.9129
74.8496,-46.5955
74.6031,-46.2728
74.3477,-45.9585
74.103,-45.6346
73.9532,-45.2678
73.8634,-44.8711
73.7622,-44.478
73.6732,-44.0837
73.5814,-43.6869
73.4919,-43.2928
73.4055,-42.896
73.31,-42.5009
73.2409,-42.1032
73.1618,-41.7028
73.1112,-41.304
73.161,-40.902
73.2287,-40.5012
73.2829,-40.1003
73.3438,-39.6981
73.3987,-39.2973
73.453,-38.8948
73.5096,-38.4932
73.5418,-38.091
73.5186,-37.6848
73.5821,-37.309
73.8354,-36.9932
74.0675,-36.6646
74.1979,-36.2811
74.3939,-35.9344
74.6736,-35.6437
74.9575,-35.3518
75.2392,-35.0613
75.525,-34.7732
75.8105,-34.4847
76.0964,-34.1981
76.3815,-33.9084
76.6789,-33.634
76.9814,-33.3631
77.2537,-33.0642
77.5121,-32.7517
77.7727,-32.4403
78.0052,-32.1105
78.2113,-31.7604
78.4144,-31.4099
78.6206,-31.0606
78.8242,-30.7094
79.0227,-30.3566
79.2189,-30.0006
79.4124,-29.6451
79.6108,-29.2908
79.8027,-28.9335
79.9695,-28.5646
80.1293,-28.1907
80.2941,-27.8212
80.4564,-27.4488
80.6288,-27.0821
80.8144,-26.7219
80.9974,-26.359
81.1826,-25.9993
81.3644,-25.6358
81.5354,-25.2686
81.7095,-24.9025
81.8795,-24.5333
82.0534,-24.1683
82.2475,-23.811
82.4457,-23.4581
82.6441,-23.104
82.8417,-22.7493
83.0389,-22.3963
83.2366,-22.0403
83.4309,-21.686
83.63,-21.3316
83.8241,-20.9755
84.0107,-20.6168
84.191,-20.2512
84.3677,-19.8888
84.5514,-19.525
84.7278,-19.1607
84.92,-18.8046
85.0861,-18.4339
85.1677,-18.0412
85.2656,-17.6423
85.3286,-17.2483
85.2301,-16.8591
85.0965,-16.47
84.9948,-16.0825
84.8702,-15.6928
84.755,-15.3048
84.6459,-14.9164
84.5159,-14.5268
84.4269,-14.1385
84.4065,-13.7314
84.4257,-13.327
84.5411,-12.9596
84.7722,-12.6194
84.9885,-12.2796
85.0872,-11.9021
85.0971,-11.4965
85.1024,-11.0917
85.1221,-10.6853
85.1325,-10.2812
85.1076,-9.8786
85.0214,-9.4827
84.9322,-9.0871
84.8488,-8.6895
84.7239,-8.3046
84.6008,-7.9174
84.4748,-7.5323
84.3484,-7.1473
84.2527,-6.7518
84.154,-6.3606
84.064,-5.9628
83.951,-5.5761
83.7809,-5.2083
83.6067,-4.8402
83.4321,-4.4773
83.2631,-4.1046
83.0517,-3.7711
82.7338,-3.5226
82.3982,-3.289
82.0809,-3.0418
81.7565,-2.7937
81.4468,-2.5344
81.1113,-2.3129
80.7319,-2.169
80.3513,-2.0335
79.9688,-1.8927
79.5776,-1.7911
79.1866,-1.6827
78.7932,-1.5786
78.4044,-1.4731
78.0348,-1.3003
77.6752,-1.1192
77.3107,-0.93845
76.9488,-0.75223
76.5824,-0.58989
76.2012,-0.43277
75.8233,-0.30938
75.4424,-0.14378
75.0632,-0.025584
