86.3192,-55.1898
85.5896,-54.7993
84.8598,-54.4086
84.1299,-54.0179
83.4,-53.627
82.6702,-53.2363
81.9418,-52.8465
81.2133,-52.4566
80.4846,-52.0666
79.7557,-51.6764
79.0266,-51.2862
78.2973,-50.8959
77.5678,-50.5054
76.8391,-50.1152
76.1141,-49.7216
75.4002,-49.3155
74.7127,-48.8799
74.0748,-48.3917
73.5091,-47.8331
73.0306,-47.2005
72.6464,-46.5031
72.3569,-45.7556
72.1551,-44.9737
72.0353,-44.1736
72.004,-43.3695
72.0749,-42.5728
72.2537,-41.7936
72.5297,-41.0364
72.8799,-40.3006
73.2761,-39.581
73.6935,-38.8708
74.1179,-38.1659
74.5389,-37.4618
74.9513,-36.755
75.3581,-36.0456
75.7609,-35.3331
76.1527,-34.6132
76.5151,-33.878
76.8319,-33.1227
77.0931,-32.3472
77.2909,-31.5539
77.4237,-30.7471
77.4977,-29.9312
77.5295,-29.1102
77.5463,-28.2876
77.5801,-27.4675
77.6594,-26.6559
77.8074,-25.863
78.0426,-25.0998
78.3717,-24.3723
78.7808,-23.6771
79.244,-23.0054
79.7412,-22.3523
80.2646,-21.7186
80.8116,-21.1048
81.3728,-20.5033
81.9311,-19.9005
82.467,-19.2828
82.9605,-18.6377
83.3989,-17.9562
83.7793,-17.2379
84.1083,-16.4906
84.3883,-15.7241
84.6074,-14.9431
84.7513,-14.1487
84.8182,-13.3423
84.8207,-12.5293
84.7718,-11.7187
84.6646,-10.9213
84.4792,-10.1458
84.2033,-9.3967
83.8454,-8.6736
83.427,-7.9746
82.9686,-7.2965
82.4922,-6.6311
82.0147,-5.9674
81.5389,-5.3016
81.0551,-4.6413
80.5473,-4.0032
79.9987,-3.4083
78.5053,-2.1677
77.7528,-1.8745
77.0664,-1.4511
76.371,-1.0845
75.5595,-1.065
-49.0101,-38.142