85.6379,-54.9138
84.8723,-54.619
84.1065,-54.3242
83.3408,-54.0293
82.5755,-53.733
81.8123,-53.4322
81.0541,-53.1208
80.3044,-52.7909
79.5659,-52.4371
78.8379,-52.0609
78.1194,-51.668
77.4104,-51.261
76.7165,-50.8344
76.0495,-50.375
75.4214,-49.8689
74.8384,-49.3108
74.2998,-48.7064
73.8057,-48.0638
73.3607,-47.3866
72.9659,-46.6777
72.6173,-45.9432
72.3123,-45.1907
72.0639,-44.427
71.9041,-43.6574
71.8676,-42.889
71.9745,-42.1332
72.2178,-41.4003
72.5691,-40.6932
72.9907,-40.0067
73.4504,-39.3342
73.9279,-38.67
74.4062,-38.0062
74.867,-37.3322
75.2949,-36.6388
75.6801,-35.921
76.0219,-35.1803
76.3245,-34.4212
76.595,-33.6487
76.8408,-32.8679
77.0637,-32.0809
77.2599,-31.289
77.4212,-30.4914
77.5479,-29.688
77.6581,-28.8813
77.7787,-28.0754
77.9303,-27.2743
78.1198,-26.4807
78.3456,-25.6962
78.6064,-24.923
78.904,-24.1638
79.2394,-23.4201
79.6096,-22.6924
80.0105,-21.9819
80.4443,-21.2941
80.9184,-20.6363
81.4326,-20.0093
81.9703,-19.4027
82.4997,-18.7961
82.9813,-18.1645
83.3828,-17.4883
83.6952,-16.7617
83.9352,-15.9954
84.1299,-15.2056
84.2967,-14.4055
84.4423,-13.6032
84.5589,-12.803
84.6242,-12.0059
84.6176,-11.2142
84.528,-10.4313
84.3512,-9.6629
84.0909,-8.9138
83.7608,-8.1856
83.3765,-7.4806
82.9421,-6.8031
82.4602,-6.1541
81.9418,-5.5276
81.4015,-4.9143
80.8491,-4.3089
80.2862,-3.7129
79.7087,-3.1321
78.3075,-1.8205
77.6595,-1.3429
77.0083,-0.86975
76.3137,-0.46238
75.6219,-0.052217
-50.8274,-38.7993