85.0839,-54.9622
84.4204,-54.5304
83.7585,-54.0978
83.0979,-53.6668
82.4364,-53.2392
81.7719,-52.816
81.1044,-52.3971
80.4359,-51.9796
79.7704,-51.5574
79.1122,-51.1242
78.4629,-50.6781
77.8196,-50.2235
77.1774,-49.7687
76.5355,-49.3164
75.9048,-48.8547
75.3064,-48.3608
74.762,-47.8148
74.287,-47.2095
73.8874,-46.5489
73.5592,-45.8444
73.2947,-45.1099
73.0923,-44.3573
72.9639,-43.5953
72.9227,-42.8287
72.9695,-42.0607
73.0868,-41.2927
73.2485,-40.5255
73.4355,-39.7608
73.6451,-39.0028
73.8882,-38.2586
74.1817,-37.5366
74.5345,-36.8424
74.9422,-36.1759
75.3925,-35.5337
75.876,-34.9152
76.3859,-34.3199
76.9103,-33.743
77.4243,-33.1674
77.8941,-32.5672
78.2956,-31.9224
78.6282,-31.2306
78.9087,-30.5045
79.1536,-29.7593
79.3663,-29.0036
79.5358,-28.2426
79.6404,-27.4779
79.6634,-26.7111
79.6079,-25.9443
79.5018,-25.179
79.3864,-24.4151
79.2962,-23.6522
79.2569,-22.8923
79.2941,-22.1402
79.4278,-21.4011
79.6535,-20.6746
79.9382,-19.9547
80.2471,-19.2348
80.5621,-18.5137
80.8854,-17.7971
81.2318,-17.0934
81.6132,-16.4091
82.0295,-15.7439
82.4624,-15.0886
82.8844,-14.4305
83.2654,-13.757
83.5828,-13.0594
83.8311,-12.3362
84.015,-11.5915
84.1325,-10.8329
84.1669,-10.0698
84.0977,-9.313
83.9163,-8.5748
83.629,-7.8655
83.2529,-7.1907
82.8104,-6.5496
82.3254,-5.9332
81.8214,-5.3281
81.3139,-4.7239
80.8059,-4.1209
80.2887,-3.5304
78.97,-2.1273
78.2807,-1.7782
77.5848,-1.4595
76.8493,-1.2452
76.1124,-1.0225
-48.8408,-33.6442