89.8868,-57.0605
89.135,-56.5728
88.3739,-56.0946
87.608,-55.6197
86.8455,-55.1408
86.091,-54.6533
85.3396,-54.1613
84.5894,-53.6758
83.8354,-53.1911
83.0843,-52.6965
82.3406,-52.1913
81.5975,-51.6897
80.8408,-51.214
80.0649,-50.7816
79.2667,-50.3821
78.4583,-49.9916
77.6537,-49.59
76.8583,-49.1698
76.0735,-48.7299
75.3023,-48.2726
74.538,-47.799
73.7764,-47.3171
73.016,-46.8371
72.2597,-46.3572
71.5204,-45.8608
70.8228,-45.3241
70.1828,-44.7302
69.6185,-44.0802
69.1605,-43.3747
68.8331,-42.6091
68.6419,-41.7877
68.5723,-40.9284
68.5972,-40.0484
68.6969,-39.1632
68.865,-38.2868
69.1059,-37.4301
69.4324,-36.6141
69.8628,-35.8726
70.4097,-35.2475
71.0724,-34.7691
71.8264,-34.4207
72.615,-34.1234
73.379,-33.7755
74.0822,-33.3127
74.719,-32.7329
75.3101,-32.0768
75.8819,-31.3865
76.4399,-30.6809
76.9797,-29.963
77.4903,-29.2269
77.9585,-28.4656
78.3821,-27.6784
78.7782,-26.8734
79.1686,-26.0642
79.58,-25.2669
80.0296,-24.4925
80.5161,-23.7423
81.0202,-23.0069
81.5059,-22.2668
81.9167,-21.5012
82.2094,-20.7034
82.3605,-19.8782
82.3841,-19.0359
82.3567,-18.1948
82.3928,-17.3813
82.5709,-16.6272
82.8954,-15.945
83.2815,-15.2936
83.6134,-14.6026
83.8246,-13.8303
83.9231,-12.9877
83.9319,-12.1078
83.868,-11.22
83.7305,-10.3412
83.516,-9.4766
83.2312,-8.6295
82.8905,-7.8039
82.4928,-7.0073
82.0337,-6.2539
81.5003,-5.5553
