84.4049,-53.3039
83.6861,-52.8763
82.9421,-52.4976
82.1682,-52.1791
81.3709,-51.9097
80.5619,-51.6633
79.753,-51.411
78.953,-51.133
78.1673,-50.819
77.4015,-50.462
76.6584,-50.0597
75.9367,-49.6173
75.2307,-49.1466
74.5362,-48.6577
73.8526,-48.1544
73.1839,-47.6335
72.5312,-47.0939
71.8893,-46.5428
71.2541,-45.9902
70.6373,-45.4366
70.078,-44.8623
69.633,-44.2363
69.3496,-43.5401
69.2436,-42.7816
69.298,-41.9884
69.4771,-41.1871
69.7398,-40.3909
70.0504,-39.6044
70.3909,-38.8289
70.7614,-38.0708
71.1741,-37.3405
71.6393,-36.6455
72.1501,-35.9813
72.6786,-35.3295
73.1892,-34.6661
73.6574,-33.9742
74.084,-33.2527
74.49,-32.5142
74.8984,-31.7732
75.3167,-31.0355
75.7381,-30.2985
76.1525,-29.5575
76.5574,-28.8111
76.9604,-28.0639
77.3715,-27.3209
77.7937,-26.584
78.2223,-25.8508
78.6524,-25.1191
79.086,-24.3905
79.5306,-23.6699
79.9886,-22.9599
80.4527,-22.259
80.911,-21.5639
81.3431,-20.8655
81.7169,-20.1501
82.0001,-19.4089
82.1655,-18.6465
82.1975,-17.8739
82.111,-17.0949
81.9578,-16.3056
81.803,-15.5019
81.6825,-14.6846
81.6099,-13.8612
81.5974,-13.0392
81.6547,-12.2241
81.7746,-11.4206
81.9122,-10.629
81.9968,-9.8435
81.9721,-9.058
81.823,-8.2731
81.5697,-7.4973
81.2338,-6.7429
80.828,-6.0181
80.3663,-5.3228
79.8628,-4.6528
79.3232,-4.0099
78.7446,-3.4009
78.1273,-2.8279
77.4795,-2.2843
76.8118,-1.7603
