84.8518,-54.0176
84.1253,-53.5681
83.3988,-53.1236
82.6632,-52.6948
81.9136,-52.294
81.1575,-51.9363
80.4007,-51.6353
79.653,-51.3901
78.9096,-51.1769
78.1475,-50.9457
77.3586,-50.6489
76.5695,-50.2701
75.8182,-49.8204
75.1216,-49.3147
74.4765,-48.7612
73.8731,-48.1701
73.2882,-47.5572
72.7166,-46.9353
72.1556,-46.3067
71.6144,-45.6666
71.1135,-45.0027
70.6817,-44.2996
70.3425,-43.5492
70.1047,-42.7565
69.9641,-41.9343
69.9164,-41.0983
69.9563,-40.2627
70.094,-39.4453
70.3456,-38.6702
70.7241,-37.9658
71.2255,-37.3501
71.8231,-36.8149
72.4635,-36.3152
73.0856,-35.79
73.6498,-35.1987
74.1503,-34.5381
74.6029,-33.8281
75.0235,-33.09
75.421,-32.3365
75.7984,-31.5732
76.1511,-30.8008
76.4612,-30.0144
76.7107,-29.2103
76.8917,-28.3882
77.0166,-27.5531
77.118,-26.7135
77.2397,-25.8798
77.4218,-25.0623
77.6866,-24.269
78.0327,-23.5069
78.4536,-22.784
78.9422,-22.1078
79.4781,-21.4722
80.0111,-20.8486
80.4716,-20.1963
80.7985,-19.4874
80.9676,-18.7221
81.0101,-17.9233
80.9963,-17.1213
81.0137,-16.3416
81.1313,-15.5968
81.3703,-14.8804
81.6859,-14.1672
81.9988,-13.4291
82.2463,-12.6504
82.414,-11.8363
82.5069,-11.0014
82.5303,-10.1592
82.4812,-9.3189
82.3567,-8.4867
82.1612,-7.6669
81.9007,-6.8651
81.5746,-6.0887
81.1797,-5.3468
80.7162,-4.6481
80.1869,-3.9971
79.5991,-3.394
78.9646,-2.8353
78.2945,-2.3155
77.5976,-1.8282
