88.156,-55.8324
87.4779,-55.3397
86.7835,-54.8667
86.071,-54.4152
85.3482,-53.9749
84.6277,-53.5343
83.9118,-53.0841
83.2001,-52.6254
82.4908,-52.1642
81.7853,-51.7022
81.0824,-51.2337
80.3832,-50.7575
79.6849,-50.2786
78.9839,-49.8069
78.2767,-49.3486
77.5658,-48.8963
76.8627,-48.4321
76.1795,-47.9443
75.5121,-47.4332
74.8481,-46.914
74.1741,-46.4064
73.4847,-45.9191
72.7922,-45.4451
72.1147,-44.9586
71.4793,-44.4303
70.9073,-43.8414
70.4133,-43.1905
70.004,-42.4818
69.6895,-41.7241
69.4731,-40.9277
69.3522,-40.1072
69.3213,-39.2752
69.3726,-38.4423
69.5063,-37.6232
69.7341,-36.8406
70.0741,-36.1277
70.5437,-35.5191
71.1375,-35.0262
71.8146,-34.617
72.5149,-34.2233
73.1831,-33.7762
73.795,-33.2443
74.3548,-32.6374
74.8792,-31.9838
75.3726,-31.3001
75.8377,-30.5958
76.2759,-29.8745
76.6893,-29.138
77.0797,-28.3884
77.4401,-27.6247
77.767,-26.8471
78.0623,-26.0573
78.3381,-25.2607
78.6156,-24.4653
78.9222,-23.6837
79.2807,-22.9293
79.7078,-22.2145
80.2008,-21.5445
80.735,-20.91
81.2614,-20.2838
81.7172,-19.6305
82.0469,-18.9221
82.24,-18.1575
82.3298,-17.3542
82.3731,-16.5313
82.4215,-15.6998
82.4913,-14.8641
82.5738,-14.0254
82.6532,-13.1847
82.7146,-12.3433
82.7378,-11.5027
82.7045,-10.666
82.6003,-9.8373
82.4254,-9.02
82.1935,-8.2137
81.9224,-7.4186
81.6211,-6.6407
81.2791,-5.8971
80.8646,-5.2077
80.3593,-4.5809
