83.2241,-55.6353
82.4655,-55.3055
81.6911,-54.9969
80.9125,-54.69
80.1291,-54.3829
79.3402,-54.0862
78.5437,-53.8046
77.7452,-53.5285
76.9525,-53.2378
76.1736,-52.9146
75.4103,-52.5536
74.6601,-52.1624
73.9179,-51.7531
73.1824,-51.3324
72.4585,-50.8962
71.7657,-50.4309
71.1285,-49.9217
70.5724,-49.3622
70.108,-48.7551
69.7159,-48.1079
69.3605,-47.4265
69.0268,-46.7121
68.7363,-45.9621
68.5281,-45.1781
68.427,-44.371
68.4431,-43.5589
68.5769,-42.7606
68.8183,-41.9864
69.1398,-41.2317
69.5046,-40.4858
69.8874,-39.7453
70.2901,-39.0224
70.7357,-38.3442
71.2466,-37.7347
71.8321,-37.2062
72.4838,-36.7552
73.1817,-36.3583
73.8943,-35.9697
74.5853,-35.5384
75.2236,-35.0335
75.7863,-34.4477
76.2562,-33.7839
76.6344,-33.0552
76.9436,-32.2824
77.2206,-31.4882
77.5002,-30.691
77.8056,-29.9028
78.1446,-29.128
78.5113,-28.3654
78.8905,-27.6093
79.2603,-26.851
79.597,-26.0806
79.8864,-25.2922
80.133,-24.4872
80.3565,-23.6724
80.5785,-22.8553
80.8098,-22.0399
81.0477,-21.2263
81.2821,-20.4116
81.5042,-19.5936
81.7128,-18.7717
81.9138,-17.9477
82.113,-17.1234
82.3138,-16.3
82.5154,-15.4779
82.7064,-14.6565
82.8629,-13.8346
82.9533,-13.0129
82.9498,-12.1944
82.8435,-11.3821
82.6491,-10.5765
82.3941,-9.7783
82.0971,-8.9912
81.7574,-8.223
81.3677,-7.4819
80.9249,-6.7701
80.4377,-6.0833
79.9195,-5.4155
79.3786,-4.7643
78.8173,-4.1302
