82.0498,-55.2156
81.241,-54.9439
80.4289,-54.6762
79.6161,-54.4086
78.804,-54.1394
77.9943,-53.8651
77.1907,-53.5775
76.3982,-53.2659
75.6208,-52.9212
74.858,-52.5436
74.1065,-52.1418
73.37,-51.7214
72.6596,-51.2799
71.9942,-50.807
71.3881,-50.2949
70.8389,-49.745
70.3388,-49.1649
69.9011,-48.5546
69.564,-47.9004
69.3579,-47.1874
69.2734,-46.4165
69.2699,-45.6029
69.3006,-44.7652
69.3379,-43.9179
69.3817,-43.0682
69.4487,-42.2206
69.5574,-41.3804
69.7255,-40.5614
69.978,-39.7896
70.344,-39.1
70.8398,-38.5212
71.4541,-38.0537
72.1431,-37.6557
72.8477,-37.2594
73.5166,-36.8069
74.1153,-36.2698
74.6309,-35.6471
75.0735,-34.9553
75.4698,-34.2193
75.8453,-33.4612
76.2097,-32.6918
76.5614,-31.9138
76.8995,-31.1287
77.226,-30.3381
77.5463,-29.5446
77.8683,-28.752
78.1999,-27.9642
78.5486,-27.1852
78.9188,-26.4173
79.3051,-25.6579
79.6917,-24.899
80.0592,-24.1311
80.3938,-23.3483
80.6899,-22.5499
80.9476,-21.7374
81.171,-20.914
81.3686,-20.083
81.5519,-19.248
81.7327,-18.412
81.9227,-17.5788
82.1296,-16.7534
82.3515,-15.9415
82.5772,-15.1494
82.7784,-14.3765
82.9169,-13.6114
82.9709,-12.8375
82.9496,-12.0448
82.8687,-11.2379
82.731,-10.4289
82.5282,-9.6289
82.2559,-8.8467
81.9122,-8.0877
81.5035,-7.353
81.0459,-6.6395
80.5575,-5.9413
80.0505,-5.2538
79.5323,-4.5747
79.0006,-3.9095
78.4426,-3.273
77.8449,-2.6826
