79.3823,-54.4664
78.6879,-54.0496
77.9878,-53.6428
77.2834,-53.2447
76.5808,-52.8456
75.8885,-52.4316
75.2116,-51.9933
74.5494,-51.5316
73.8984,-51.0524
73.2603,-50.5566
72.6444,-50.0371
72.0653,-49.4841
71.5424,-48.8878
71.0958,-48.2413
70.7381,-47.5435
70.4672,-46.8018
70.2688,-46.0292
70.1267,-45.2388
70.028,-44.4394
69.966,-43.6371
69.9444,-42.8367
69.9786,-42.0448
70.0915,-41.2717
70.3107,-40.5385
70.6537,-39.8754
71.1267,-39.3152
71.7131,-38.8762
72.3677,-38.5389
73.0307,-38.2366
73.6497,-37.8833
74.1949,-37.4209
74.6642,-36.8436
75.071,-36.1809
75.4377,-35.4699
75.7827,-34.7382
76.1143,-33.9987
76.4369,-33.2551
76.7517,-32.5083
77.0637,-31.7603
77.3794,-31.0139
77.7032,-30.2709
78.0345,-29.5311
78.3681,-28.7923
78.6965,-28.0514
79.012,-27.3053
79.3098,-26.5521
79.588,-25.7918
79.8441,-25.0248
80.0729,-24.2521
80.2578,-23.4743
80.3735,-22.6942
80.3997,-21.9166
80.3317,-21.1497
80.1949,-20.3986
80.0465,-19.6603
79.9596,-18.9279
79.9925,-18.2014
80.1699,-17.492
80.4829,-16.8133
80.8971,-16.1662
81.3551,-15.5351
81.7913,-14.8935
82.1486,-14.2171
82.3964,-13.4956
82.536,-12.7336
82.5877,-11.9453
82.5736,-11.1452
82.5074,-10.343
82.3967,-9.5447
82.2431,-8.7538
82.0481,-7.9722
81.815,-7.2024
81.5518,-6.446
81.2607,-5.7083
80.9284,-5.0009
80.5354,-4.3355
80.0713,-3.7172
79.5439,-3.1413
78.9739,-2.5936
78.382,-2.0582
