88.096210,-322.101239
88.433612,-321.863303
88.769476,-321.626198
89.103491,-321.390162
89.435359,-321.155424
89.764802,-320.922203
90.091560,-320.690706
90.415400,-320.461123
90.736116,-320.233630
91.053526,-320.008382
91.367483,-319.785513
91.677869,-319.565138
91.984598,-319.347346
92.287617,-319.132205
92.586906,-318.919757
92.882479,-318.710020
93.174380,-318.502989
93.462684,-318.298633
93.747496,-318.096898
94.028948,-317.897708
94.307198,-317.700965
94.582429,-317.506550
94.854840,-317.314327
95.124654,-317.124142
95.392104,-316.935826
95.657436,-316.749198
95.920907,-316.564065
96.182777,-316.380226
96.443310,-316.197475
96.702768,-316.015599
96.961408,-315.834387
97.219484,-315.653628
97.477235,-315.473112
97.734893,-315.292638
97.992671,-315.112009
98.250767,-314.931039
98.509361,-314.749554
98.768611,-314.567390
99.028655,-314.384399
99.289607,-314.200450
99.551558,-314.015425
99.814578,-313.829225
100.078710,-313.641769
100.343975,-313.452993
100.610374,-313.262852
100.877884,-313.071318
101.146460,-312.878382
101.416043,-312.684050
101.686553,-312.488347
101.957895,-312.291311
102.229961,-312.092995
102.502634,-311.893464
102.775784,-311.692797
103.049277,-311.491081
103.322974,-311.288411
103.596735,-311.084891
103.870419,-310.880627
104.143887,-310.675732
104.417007,-310.470319
104.689651,-310.264499
104.961702,-310.058386
105.233050,-309.852088
105.503601,-309.645709
105.773270,-309.439347
106.041987,-309.233093
106.309697,-309.027031
106.576360,-308.821236
106.841952,-308.615771
107.106464,-308.410691
107.369902,-308.206040
107.632288,-308.001850
107.893656,-307.798142
108.154055,-307.594927
108.413546,-307.392202
108.672202,-307.189958
108.930104,-306.988173
109.187342,-306.786816
109.444012,-306.585846
109.700216,-306.385218
109.956058,-306.184877
110.211644,-305.984761
110.467081,-305.784807
110.722472,-305.584945
110.977917,-305.385104
111.233512,-305.185210
111.489345,-304.985188
111.745498,-304.784967
112.002042,-304.584474
112.259038,-304.383639
112.516538,-304.182398
112.774581,-303.980687
113.033194,-303.778451
113.292393,-303.575637
113.552179,-303.372202
113.812543,-303.168105
114.073464,-302.963314
114.334907,-302.757806
114.596829,-302.551560
114.859176,-302.344566
115.121884,-302.136819
115.384881,-301.928322
115.648088,-301.719081
115.911421,-301.509111
116.174791,-301.298431
116.438107,-301.087064
116.701273,-300.875039
116.964196,-300.662386
117.226784,-300.449138
117.488945,-300.235333
117.750591,-300.021005
118.011641,-299.806194
118.272019,-299.590935
118.531653,-299.375265
118.790482,-299.159220
119.048453,-298.942831
119.305521,-298.726129
119.561650,-298.509140
119.816815,-298.291887
120.071000,-298.074391
120.324200,-297.856665
120.576417,-297.638722
120.827666,-297.420566
121.077967,-297.202201
121.327351,-296.983623
121.575855,-296.764825
121.823524,-296.545797
122.070409,-296.326523
122.316564,-296.106985
122.562048,-295.887161
122.806923,-295.667026
123.051253,-295.446553
123.295103,-295.225714
123.538535,-295.004479
123.781612,-294.782816
124.024395,-294.560694
124.266938,-294.338081
124.509295,-294.114948
124.751512,-293.891265
124.993630,-293.667004
125.235685,-293.442140
125.477702,-293.216648
125.719704,-292.990508
125.961703,-292.763703
126.203705,-292.536217
126.445707,-292.308040
126.687701,-292.079164
126.929668,-291.849584
127.171585,-291.619300
127.413423,-291.388315
127.655145,-291.156634
127.896710,-290.924267
128.138073,-290.691226
128.379184,-290.457525
128.619990,-290.223182
128.860438,-289.988216
129.100471,-289.752647
129.340035,-289.516499
129.579073,-289.279793
129.817531,-289.042555
130.055358,-288.804806
130.292505,-288.566572
130.528926,-288.327875
130.764582,-288.088738
130.999435,-287.849180
131.233455,-287.609221
131.466618,-287.368879
131.698904,-287.128168
131.930300,-286.887102
132.160801,-286.645691
132.390405,-286.403944
132.619119,-286.161865
132.846955,-285.919457
133.073930,-285.676721
133.300066,-285.433655
133.525392,-285.190253
133.749939,-284.946510
133.973743,-284.702415
134.196842,-284.457958
134.419278,-284.213127
134.641092,-283.967908
134.862329,-283.722286
135.083032,-283.476245
135.303246,-283.229769
135.523011,-282.982841
135.742369,-282.735446
135.961357,-282.487567
136.180010,-282.239189
136.398360,-281.990298
136.616434,-281.740879
136.834255,-281.490923
137.051841,-281.240417
137.269205,-280.989354
137.486356,-280.737726
137.703297,-280.485529
137.920025,-280.232759
138.136533,-279.979417
138.352809,-279.725502
138.568836,-279.471018
138.784594,-279.215970
139.000056,-278.960364
139.215195,-278.704209
139.429979,-278.447515
139.644374,-278.190292
139.858344,-277.932553
140.071851,-277.674310
140.284857,-277.415579
140.497325,-277.156373
140.709215,-276.896706
140.920492,-276.636593
141.131119,-276.376048
141.341064,-276.115086
141.550295,-275.853718
141.758786,-275.591959
141.966511,-275.329818
142.173450,-275.067306
142.379587,-274.804433
142.584907,-274.541205
142.789404,-274.277629
142.993074,-274.013709
143.195915,-273.749448
143.397934,-273.484848
143.599138,-273.219908
143.799540,-272.954628
143.999157,-272.689005
144.198007,-272.423033
144.396113,-272.156709
144.593501,-271.890025
144.790197,-271.622975
144.986231,-271.355551
145.181631,-271.087744
145.376429,-270.819546
145.570656,-270.550947
145.764342,-270.281939
145.957516,-270.012513
146.150208,-269.742660
146.342444,-269.472373
146.534249,-269.201645
146.725646,-268.930469
146.916653,-268.658839
147.107287,-268.386752
147.297562,-268.114203
147.487488,-267.841191
147.677070,-267.567715
147.866313,-267.293774
148.055213,-267.019371
148.243769,-266.744508
148.431970,-266.469188
148.619808,-266.193418
148.807267,-265.917202
148.994331,-265.640548
149.180980,-265.363463
149.367194,-265.085956
149.552948,-264.808036
149.738218,-264.529712
149.922979,-264.250993
150.107203,-263.971890
150.290865,-263.692411
150.473937,-263.412568
150.656395,-263.132368
150.838212,-262.851821
151.019367,-262.570934
151.199836,-262.289716
151.379599,-262.008172
151.558640,-261.726310
151.736942,-261.444133
151.914492,-261.161646
152.091282,-260.878851
152.267303,-260.595751
152.442551,-260.312345
152.617025,-260.028634
152.790727,-259.744617
152.963660,-259.460291
153.135831,-259.175653
153.307251,-258.890699
153.477929,-258.605424
153.647881,-258.319824
153.817120,-258.033892
153.985664,-257.747623
154.153531,-257.461009
154.320738,-257.174044
154.487306,-256.886722
154.653253,-256.599036
154.818599,-256.310980
154.983361,-256.022547
155.147558,-255.733732
155.311205,-255.444531
155.474318,-255.154938
155.636910,-254.864951
155.798993,-254.574565
155.960576,-254.283780
156.121665,-253.992592
156.282267,-253.701003
156.442382,-253.409012
156.602012,-253.116621
156.761152,-252.823831
156.919799,-252.530645
157.077944,-252.237067
157.235578,-251.943101
157.392690,-251.648751
157.549264,-251.354023
157.705286,-251.058923
157.860738,-250.763456
158.015602,-250.467628
158.169859,-250.171446
158.323488,-249.874917
158.476469,-249.578046
158.628781,-249.280839
158.780403,-248.983303
158.931314,-248.685442
159.081495,-248.387262
159.230928,-248.088768
159.379594,-247.789962
159.527478,-247.490849
159.674564,-247.191431
159.820839,-246.891710
159.966293,-246.591688
160.110917,-246.291365
160.254702,-245.990741
160.397646,-245.689816
160.539745,-245.388589
160.680998,-245.087057
160.821407,-244.785219
160.960976,-244.483072
161.099711,-244.180612
161.237619,-243.877837
161.374709,-243.574744
161.510991,-243.271328
161.646479,-242.967587
161.781185,-242.663516
161.915123,-242.359114
162.048309,-242.054376
162.180757,-241.749300
162.312482,-241.443884
162.443502,-241.138127
162.573830,-240.832028
162.703482,-240.525586
162.832472,-240.218801
162.960814,-239.911675
163.088521,-239.604209
163.215603,-239.296406
163.342072,-238.988268
163.467936,-238.679801
163.593202,-238.371007
163.717877,-238.061893
163.841965,-237.752465
163.965468,-237.442728
164.088389,-237.132689
164.210726,-236.822357
164.332478,-236.511738
164.453643,-236.200840
164.574214,-235.889672
164.694188,-235.578241
164.813557,-235.266555
164.932313,-234.954622
165.050449,-234.642450
165.167954,-234.330047
165.284820,-234.017418
165.401037,-233.704571
165.516593,-233.391511
165.631480,-233.078244
165.745686,-232.764774
165.859203,-232.451106
165.972021,-232.137242
166.084130,-231.823186
166.195523,-231.508938
166.306192,-231.194501
166.416130,-230.879873
166.525331,-230.565055
166.633790,-230.250044
166.741502,-229.934841
166.848465,-229.619441
166.954675,-229.303841
167.060131,-228.988039
167.164833,-228.672030
167.268781,-228.355811
167.371974,-228.039375
167.474415,-227.722719
167.576105,-227.405838
167.677047,-227.088728
167.777242,-226.771382
167.876695,-226.453798
167.975408,-226.135970
168.073385,-225.817896
168.170627,-225.499570
168.267138,-225.180991
168.362920,-224.862156
168.457975,-224.543062
168.552306,-224.223708
168.645912,-223.904095
168.738795,-223.584220
168.830954,-223.264086
168.922388,-222.943693
169.013096,-222.623044
169.103076,-222.302139
169.192324,-221.980984
169.280838,-221.659581
169.368612,-221.337934
169.455643,-221.016048
169.541923,-220.693928
169.627449,-220.371579
169.712212,-220.049008
169.796207,-219.726219
169.879427,-219.403219
169.961864,-219.080014
170.043513,-218.756610
170.124364,-218.433013
170.204413,-218.109229
170.283652,-217.785263
170.362075,-217.461122
170.439676,-217.136809
170.516450,-216.812330
170.592393,-216.487689
170.667500,-216.162891
170.741768,-215.837939
170.815196,-215.512835
170.887781,-215.187583
170.959522,-214.862184
171.030421,-214.536641
171.100478,-214.210955
171.169695,-213.885125
171.238074,-213.559154
171.305620,-213.233040
171.372337,-212.906783
171.438229,-212.580384
171.503303,-212.253840
171.567564,-211.927152
171.631020,-211.600317
171.693677,-211.273335
171.755543,-210.946205
171.816626,-210.618924
171.876933,-210.291492
171.936471,-209.963908
171.995249,-209.636172
172.053273,-209.308281
172.110551,-208.980237
172.167089,-208.652039
172.222894,-208.323687
172.277970,-207.995181
172.332322,-207.666524
172.385956,-207.337716
172.438873,-207.008758
172.491077,-206.679653
172.542570,-206.350404
172.593351,-206.021013
172.643422,-205.691484
172.692781,-205.361819
172.741427,-205.032023
172.789356,-204.702099
172.836566,-204.372052
172.883052,-204.041886
172.928810,-203.711606
172.973833,-203.381216
173.018116,-203.050721
173.061653,-202.720124
173.104435,-202.389432
173.146455,-202.058647
173.187706,-201.727775
173.228180,-201.396820
173.267868,-201.065784
173.306763,-200.734672
173.344857,-200.403487
173.382141,-200.072232
173.418609,-199.740909
173.454252,-199.409522
173.489064,-199.078071
173.523039,-198.746558
173.556170,-198.414985
173.588451,-198.083353
173.619878,-197.751661
173.650447,-197.419912
173.680153,-197.088103
173.708993,-196.756236
173.736966,-196.424311
173.764069,-196.092325
173.790301,-195.760279
173.815661,-195.428173
173.840149,-195.096004
173.863766,-194.763774
173.886513,-194.431479
173.908391,-194.099121
173.929402,-193.766698
173.949549,-193.434211
173.968833,-193.101658
173.987258,-192.769041
174.004826,-192.436359
174.021541,-192.103613
174.037406,-191.770804
174.052423,-191.437933
174.066597,-191.105002
174.079929,-190.772014
174.092423,-190.438969
174.104082,-190.105871
174.114907,-189.772723
174.124901,-189.439528
174.134066,-189.106290
174.142402,-188.773013
174.149912,-188.439700
174.156594,-188.106356
174.162451,-187.772986
174.167481,-187.439595
174.171683,-187.106186
174.175058,-186.772766
174.177603,-186.439338
174.179316,-186.105908
174.180196,-185.772481
174.180239,-185.439061
174.179444,-185.105652
174.177807,-184.772260
174.175324,-184.438888
174.171994,-184.105541
174.167811,-183.772222
174.162772,-183.438935
174.156874,-183.105682
174.150112,-182.772468
174.142484,-182.439293
174.133986,-182.106161
174.124614,-181.773074
174.114365,-181.440032
174.103236,-181.107038
174.091225,-180.774092
174.078330,-180.441196
174.064548,-180.108349
174.049877,-179.775552
174.034318,-179.442806
174.017868,-179.110109
174.000528,-178.777463
173.982299,-178.444866
173.963180,-178.112319
173.943173,-177.779821
173.922281,-177.447372
173.900505,-177.114972
173.877848,-176.782620
173.854314,-176.450317
173.829907,-176.118063
173.804630,-175.785858
173.778490,-175.453702
173.751490,-175.121597
173.723637,-174.789544
173.694937,-174.457543
173.665396,-174.125596
173.635021,-173.793705
173.603819,-173.461872
173.571796,-173.130099
173.538961,-172.798389
173.505321,-172.466744
173.470884,-172.135167
173.435656,-171.803662
173.399646,-171.472231
173.362861,-171.140879
173.325308,-170.809608
173.286995,-170.478423
173.247929,-170.147326
173.208116,-169.816322
173.167562,-169.485414
173.126275,-169.154606
173.084260,-168.823900
173.041521,-168.493302
172.998064,-168.162813
172.953893,-167.832436
172.909012,-167.502175
172.863425,-167.172032
172.817133,-166.842010
172.770139,-166.512110
172.722446,-166.182334
172.674053,-165.852684
172.624961,-165.523161
172.575171,-165.193766
172.524682,-164.864499
172.473492,-164.535362
172.421600,-164.206355
172.369004,-163.877476
172.315702,-163.548728
172.261689,-163.220108
172.206964,-162.891617
172.151523,-162.563254
172.095361,-162.235019
172.038474,-161.906911
171.980859,-161.578928
171.922511,-161.251072
171.863426,-160.923340
171.803598,-160.595734
171.743025,-160.268251
171.681701,-159.940894
171.619623,-159.613661
171.556787,-159.286552
171.493189,-158.959570
171.428826,-158.632713
171.363696,-158.305985
171.297796,-157.979385
171.231123,-157.652917
171.163677,-157.326581
171.095457,-157.000381
171.026462,-156.674319
170.956692,-156.348399
170.886148,-156.022622
170.814830,-155.696993
170.742741,-155.371515
170.669883,-155.046193
170.596258,-154.721030
170.521869,-154.396030
170.446721,-154.071197
170.370816,-153.746536
170.294159,-153.422051
170.216754,-153.097746
170.138607,-152.773624
170.059722,-152.449691
169.980103,-152.125949
169.899757,-151.802402
169.818688,-151.479054
169.736901,-151.155908
169.654400,-150.832965
169.571191,-150.510230
169.487277,-150.187703
169.402662,-149.865388
169.317350,-149.543284
169.231344,-149.221394
169.144647,-148.899718
169.057259,-148.578257
168.969183,-148.257010
168.880420,-147.935979
168.790970,-147.615162
168.700831,-147.294559
168.610003,-146.974170
168.518485,-146.653993
168.426273,-146.334028
168.333365,-146.014274
168.239757,-145.694729
168.145444,-145.375394
168.050423,-145.056266
167.954688,-144.737347
167.858233,-144.418635
167.761052,-144.100130
167.663140,-143.781832
167.564489,-143.463742
167.465093,-143.145861
167.364946,-142.828190
167.264040,-142.510732
167.162370,-142.193487
167.059929,-141.876458
166.956710,-141.559650
166.852708,-141.243065
166.747918,-140.926707
166.642334,-140.610582
166.535952,-140.294693
166.428768,-139.979046
166.320778,-139.663647
166.211981,-139.348501
166.102373,-139.033615
165.991953,-138.718996
165.880722,-138.404648
165.768678,-138.090580
165.655823,-137.776798
165.542158,-137.463308
165.427686,-137.150116
165.312408,-136.837229
165.196330,-136.524652
165.079454,-136.212392
164.961785,-135.900453
164.843328,-135.588840
164.724089,-135.277557
164.604074,-134.966608
164.483287,-134.655996
164.361736,-134.345723
164.239427,-134.035791
164.116365,-133.726201
163.992558,-133.416954
163.868011,-133.108049
163.742731,-132.799485
163.616722,-132.491262
163.489992,-132.183377
163.362543,-131.875827
163.234382,-131.568610
163.105513,-131.261721
162.975938,-130.955158
162.845661,-130.648915
162.714686,-130.342988
162.583012,-130.037374
162.450643,-129.732067
162.317579,-129.427063
162.183820,-129.122357
162.049365,-128.817946
161.914215,-128.513827
161.778368,-128.209994
161.641822,-127.906447
161.504576,-127.603182
161.366626,-127.300198
161.227970,-126.997494
161.088606,-126.695069
160.948529,-126.392926
160.807738,-126.091064
160.666229,-125.789486
160.523998,-125.488196
160.381043,-125.187197
160.237360,-124.886493
160.092948,-124.586092
159.947804,-124.285998
159.801925,-123.986219
159.655310,-123.686762
159.507958,-123.387635
159.359868,-123.088847
159.211039,-122.790407
159.061471,-122.492323
158.911165,-122.194605
158.760122,-121.897262
158.608343,-121.600303
158.455830,-121.303737
158.302585,-121.007572
158.148612,-120.711817
157.993912,-120.416479
157.838490,-120.121565
157.682349,-119.827081
157.525493,-119.533032
157.367926,-119.239423
157.209652,-118.946258
157.050676,-118.653538
156.891002,-118.361265
156.730633,-118.069439
156.569575,-117.778060
156.407832,-117.487126
156.245406,-117.196635
156.082302,-116.906581
155.918523,-116.616962
155.754073,-116.327770
155.588953,-116.039001
155.423167,-115.750647
155.256717,-115.462701
155.089604,-115.175155
154.921830,-114.888001
154.753395,-114.601231
154.584302,-114.314836
154.414549,-114.028810
154.244138,-113.743143
154.073068,-113.457830
153.901339,-113.172862
153.728951,-112.888235
153.555902,-112.603943
153.382194,-112.319982
153.207824,-112.036348
153.032792,-111.753040
152.857099,-111.470056
152.680743,-111.187397
152.503724,-110.905065
152.326043,-110.623062
152.147700,-110.341393
151.968695,-110.060062
151.789030,-109.779076
151.608705,-109.498443
151.427723,-109.218171
151.246085,-108.938269
151.063794,-108.658749
150.880853,-108.379621
150.697265,-108.100895
150.513033,-107.822586
150.328161,-107.544703
150.142653,-107.267259
149.956514,-106.990266
149.769747,-106.713736
149.582358,-106.437679
149.394352,-106.162105
149.205732,-105.887025
149.016503,-105.612447
148.826670,-105.338378
148.636238,-105.064824
148.445210,-104.791790
148.253590,-104.519279
148.061381,-104.247295
147.868587,-103.975836
147.675209,-103.704902
147.481251,-103.434491
147.286712,-103.164598
147.091595,-102.895218
146.895899,-102.626344
146.699624,-102.357969
146.502770,-102.090084
146.305333,-101.822679
146.107313,-101.555742
145.908705,-101.289264
145.709508,-101.023232
145.509718,-100.757636
145.309329,-100.492463
145.108337,-100.227703
144.906738,-99.963345
144.704526,-99.699379
144.501695,-99.435796
144.298241,-99.172589
144.094158,-98.909752
143.889439,-98.647279
143.684081,-98.385169
143.478078,-98.123419
143.271425,-97.862030
143.064117,-97.601005
142.856152,-97.340350
142.647525,-97.080070
142.438234,-96.820175
142.228277,-96.560675
142.017652,-96.301584
141.806359,-96.042916
141.594397,-95.784687
141.381767,-95.526915
141.168470,-95.269618
140.954510,-95.012816
140.739888,-94.756531
140.524608,-94.500782
140.308675,-94.245592
140.092094,-93.990981
139.874869,-93.736969
139.657006,-93.483578
139.438513,-93.230824
139.219394,-92.978726
138.999659,-92.727300
138.779313,-92.476560
138.558363,-92.226516
138.336818,-91.977179
138.114683,-91.728555
137.891967,-91.480648
137.668676,-91.233459
137.444818,-90.986987
137.220397,-90.741226
136.995421,-90.496168
136.769895,-90.251802
136.543824,-90.008116
136.317214,-89.765092
136.090068,-89.522712
135.862391,-89.280953
135.634187,-89.039794
135.405458,-88.799208
135.176208,-88.559168
134.946438,-88.319648
134.716152,-88.080617
134.485351,-87.842048
134.254037,-87.603911
134.022212,-87.366178
133.789878,-87.128821
133.557037,-86.891814
133.323690,-86.655131
133.089839,-86.418750
132.855488,-86.182650
132.620638,-85.946814
132.385294,-85.711226
132.149457,-85.475875
131.913133,-85.240752
131.676326,-85.005853
131.439041,-84.771177
131.201282,-84.536725
130.963057,-84.302504
130.724372,-84.068525
130.485234,-83.834799
130.245650,-83.601343
130.005627,-83.368178
129.765175,-83.135325
129.524302,-82.902810
129.283015,-82.670659
129.041325,-82.438901
128.799238,-82.207567
128.556764,-81.976686
128.313910,-81.746290
128.070685,-81.516411
127.827096,-81.287077
127.583148,-81.058320
127.338849,-80.830165
127.094204,-80.602639
126.849216,-80.375765
126.603889,-80.149563
126.358225,-79.924050
126.112225,-79.699239
125.865889,-79.475139
125.619217,-79.251757
125.372204,-79.029093
125.124849,-78.807145
124.877146,-78.585905
124.629089,-78.365362
124.380672,-78.145502
124.131887,-77.926304
123.882724,-77.707746
123.633175,-77.489802
123.383230,-77.272443
123.132878,-77.055638
122.882108,-76.839354
122.630909,-76.623557
122.379271,-76.408210
122.127182,-76.193278
121.874632,-75.978727
121.621611,-75.764521
121.368111,-75.550628
121.114121,-75.337019
120.859636,-75.123664
120.604648,-74.910540
120.349152,-74.697626
120.093145,-74.484906
119.836625,-74.272368
119.579589,-74.060006
119.322039,-73.847819
119.063976,-73.635810
118.805403,-73.423989
118.546327,-73.212372
118.286751,-73.000980
118.026685,-72.789839
117.766135,-72.578980
117.505112,-72.368439
117.243626,-72.158258
116.981687,-71.948479
116.719307,-71.739153
116.456497,-71.530328
116.193268,-71.322058
115.929632,-71.114397
115.665600,-70.907400
115.401181,-70.701121
115.136385,-70.495614
114.871221,-70.290931
114.605694,-70.087122
114.339811,-69.884232
114.073576,-69.682303
113.806990,-69.481374
113.540054,-69.281477
113.272767,-69.082637
113.005126,-68.884875
112.737124,-68.688205
112.468756,-68.492632
112.200012,-68.298155
111.930882,-68.104768
111.661353,-67.912454
111.391413,-67.721191
111.121046,-67.530949
110.850237,-67.341692
110.578971,-67.153378
110.307230,-66.965960
110.034998,-66.779385
109.762258,-66.593595
109.488996,-66.408530
109.215197,-66.224127
108.940846,-66.040322
108.665932,-65.857048
108.390446,-65.674240
108.114378,-65.491834
107.837725,-65.309768
107.560484,-65.127981
107.282654,-64.946420
107.004239,-64.765033
106.725246,-64.583775
106.445685,-64.402607
106.165568,-64.221498
105.884913,-64.040422
105.603739,-63.859364
105.322069,-63.678315
105.039928,-63.497274
104.757346,-63.316248
104.474352,-63.135255
104.190979,-62.954318
103.907262,-62.773468
103.623237,-62.592745
103.338941,-62.412193
103.054409,-62.231864
102.769680,-62.051814
102.484789,-61.872103
102.199772,-61.692794
101.914661,-61.513953
101.629488,-61.335645
101.344281,-61.157937
101.059066,-60.980894
100.773864,-60.804579
100.488694,-60.629049
100.203569,-60.454360
99.918498,-60.280561
99.633485,-60.107693
99.348531,-59.935793
99.063628,-59.764885
98.778767,-59.594990
98.493932,-59.426117
98.209102,-59.258264
97.924253,-59.091423
97.639355,-58.925574
97.354376,-58.760687
97.069278,-58.596726
96.784022,-58.433644
96.498567,-58.271385
96.212867,-58.109888
95.926879,-57.949085
95.640557,-57.788901
95.353856,-57.629259
95.066732,-57.470078
94.779143,-57.311276
94.491048,-57.152769
94.202412,-56.994475
93.913202,-56.836316
93.623388,-56.678216
93.332949,-56.520104
93.041865,-56.361917
92.750126,-56.203599
92.457726,-56.045102
92.164667,-55.886390
91.870957,-55.727435
91.576610,-55.568222
91.281649,-55.408747
90.986102,-55.249019
90.690006,-55.089058
90.393400,-54.928897
90.096332,-54.768580
89.798855,-54.608162
89.501024,-54.447710
89.202902,-54.287298
88.904552,-54.127010
88.606039,-53.966936
88.307432,-53.807171
88.008799,-53.647814
87.710206,-53.488965
87.411720,-53.330724
87.113405,-53.173190
86.815323,-53.016455
86.517528,-52.860606
86.220075,-52.705721
85.923010,-52.551866
85.626373,-52.399097
85.330199,-52.247451
85.034516,-52.096952
84.739346,-51.947603
84.444702,-51.799390
84.150591,-51.652274
83.857014,-51.506197
83.563968,-51.361079
83.271440,-51.216812
82.979416,-51.073270
82.687879,-50.930299
82.396807,-50.787726
82.106178,-50.645353
81.815972,-50.502961
81.526169,-50.360313
81.236754,-50.217151
80.947717,-50.073205
80.659055,-49.928186
80.370777,-49.781797
80.082899,-49.633731
79.795454,-49.483674
79.508488,-49.331310
79.222067,-49.176323
78.936273,-49.018399
78.651210,-48.857232
78.367004,-48.692525
78.083805,-48.523993
77.801789,-48.351369
77.521156,-48.174402
77.242134,-47.992865
76.964978,-47.806555
76.689970,-47.615295
76.417420,-47.418938
76.147666,-47.217367
75.881071,-47.010497
75.618024,-46.798277
75.358939,-46.580690
75.104251,-46.357754
74.854417,-46.129520
74.609911,-45.896076
74.371223,-45.657542
74.138858,-45.414069
73.913329,-45.165842
73.695155,-44.913073
73.484859,-44.656002
73.282963,-44.394893
73.089985,-44.130033
72.906433,-43.861726
72.732805,-43.590292
72.569579,-43.316065
72.417215,-43.039386
72.276147,-42.760603
72.146780,-42.480063
72.029490,-42.198114
71.924611,-41.915098
71.832444,-41.631347
71.753242,-41.347182
71.687217,-41.062909
71.634530,-40.778816
71.595294,-40.495170
71.569569,-40.212216
71.557363,-39.930173
71.558628,-39.649234
71.573262,-39.369564
71.601110,-39.091299
71.641959,-38.814546
71.695546,-38.539382
71.761553,-38.265854
71.839613,-37.993982
71.929311,-37.723755
72.030184,-37.455137
72.141727,-37.188066
72.263398,-36.922457
72.394616,-36.658203
72.534768,-36.395177
72.683216,-36.133237
72.839297,-35.872225
73.002330,-35.611973
73.171619,-35.352304
73.346461,-35.093034
73.526147,-34.833977
73.709972,-34.574947
73.897233,-34.315760
74.087240,-34.056238
74.279318,-33.796206
74.472810,-33.535504
74.667085,-33.273980
74.861538,-33.011496
75.055597,-32.747927
75.248723,-32.483165
75.440416,-32.217117
75.630216,-31.949709
75.817704,-31.680882
76.002506,-31.410594
76.184293,-31.138821
76.362784,-30.865553
76.537742,-30.590798
76.708977,-30.314574
76.876345,-30.036916
77.039749,-29.757868
77.199133,-29.477482
77.354483,-29.195820
77.505828,-28.912949
77.653231,-28.628941
77.796792,-28.343868
77.936641,-28.057805
78.072938,-27.770824
78.205867,-27.482993
78.335634,-27.194376
78.462464,-26.905031
78.586593,-26.615009
78.708270,-26.324352
78.827749,-26.033092
78.945287,-25.741253
79.061139,-25.448847
79.175558,-25.155876
79.288784,-24.862334
79.401050,-24.568203
79.512573,-24.273459
79.623552,-23.978066
79.734168,-23.681985
79.844577,-23.385170
79.954914,-23.087570
80.065286,-22.789132
80.175775,-22.489804
80.286433,-22.189531
80.397283,-21.888265
80.508320,-21.585958
80.619510,-21.282573
80.730788,-20.978078
80.842062,-20.672449
80.953210,-20.365675
81.064086,-20.057757
81.174517,-19.748708
81.284305,-19.438554
81.393230,-19.127338
81.501053,-18.815115
81.607515,-18.501955
81.712339,-18.187943
81.815238,-17.873178
81.915908,-17.557771
82.014039,-17.241845
82.109312,-16.925532
82.201403,-16.608977
82.289985,-16.292328
82.374730,-15.975739
82.455314,-15.659368
82.531415,-15.343373
82.602715,-15.027911
82.668906,-14.713133
82.729689,-14.399186
82.784776,-14.086208
82.833889,-13.774325
82.876767,-13.463653
82.913162,-13.154292
82.942843,-12.846325
82.965594,-12.539820
82.981219,-12.234824
82.989538,-11.931368
82.990393,-11.629463
82.983641,-11.329099
82.969160,-11.030252
82.946849,-10.732875
82.916626,-10.436909
82.878426,-10.142281
82.832206,-9.848902
82.777942,-9.556677
82.715628,-9.265504
82.645277,-8.975276
82.566922,-8.685888
82.480613,-8.397238
82.386416,-8.109233
82.284418,-7.821792
82.174719,-7.534851
82.057440,-7.248364
81.932713,-6.962314
81.800691,-6.676710
81.661539,-6.391596
81.515437,-6.107052
81.362581,-5.823198
81.203180,-5.540199
81.037457,-5.258263
80.865649,-4.977650
80.688003,-4.698667
80.504780,-4.421673
80.316254,-4.147079
80.122706,-3.875346
79.924431,-3.606986
79.721732,-3.342563
79.514921,-3.082684
79.304318,-2.828002
79.090250,-2.579211
78.873052,-2.337042
78.653062,-2.102258
78.430624,-1.875647
78.206085,-1.658021
77.979793,-1.450204
77.752098,-1.253031
77.523349,-1.067335
77.293892,-0.893945
77.064072,-0.733676
76.834228,-0.587323
76.604693,-0.455650
76.375793,-0.339389
76.147845,-0.239224
75.921156,-0.155792
75.696019,-0.089673
75.472717,-0.041382
75.251517,-0.011367
75.032669,0.000000
74.816408,-0.007575
74.602950,-0.034303
74.392493,-0.080310
74.185213,-0.145634
73.981268,-0.230221
73.780791,-0.333930
73.583898,-0.456529
73.390678,-0.597694
73.201201,-0.757020
73.015514,-0.934012
72.833642,-1.128098
72.655587,-1.338629
72.481330,-1.564886
72.310834,-1.806083
72.144039,-2.061378
71.980867,-2.329877
71.821224,-2.610640
71.664998,-2.902695
71.512062,-3.205039
71.362277,-3.516652
71.215491,-3.836501
71.071541,-4.163554
70.930258,-4.496784
70.791463,-4.835178
70.654975,-5.177747
70.520610,-5.523533
70.388180,-5.871617
70.257501,-6.221121
70.128389,-6.571224
70.000665,-6.921157
69.874157,-7.270214
69.748697,-7.617757
69.624128,-7.963216
69.500302,-8.306090
69.377083,-8.645958
69.254346,-8.982467
69.131978,-9.315343
69.009880,-9.644384
68.887968,-9.969462
68.766170,-10.290518
68.644430,-10.607560
68.522705,-10.920661
68.400966,-11.229953
68.279198,-11.535621
68.157398,-11.837900
68.035577,-12.137071
67.913754,-12.433448
67.791962,-12.727380
67.670240,-13.019239
67.548636,-13.309417
67.427206,-13.598316
67.306009,-13.886344
67.185109,-14.173909
67.064572,-14.461413
66.944465,-14.749242
66.824855,-15.037769
66.705807,-15.327341
66.587381,-15.618280
66.469634,-15.910876
66.352618,-16.205386
66.236376,-16.502028
66.120945,-16.800985
66.006352,-17.102395
65.892616,-17.406360
65.779744,-17.712936
65.667734,-18.022140
65.556574,-18.333951
65.446239,-18.648306
65.336695,-18.965109
65.227899,-19.284228
65.119795,-19.605500
65.012319,-19.928737
64.905398,-20.253724
64.798954,-20.580229
64.692898,-20.908001
64.587139,-21.236780
64.481580,-21.566296
64.376121,-21.896279
64.270662,-22.226458
64.165100,-22.556567
64.059338,-22.886349
63.953278,-23.215562
63.846828,-23.543977
63.739904,-23.871386
63.632426,-24.197603
63.524327,-24.522465
63.415548,-24.845838
63.306042,-25.167611
63.195776,-25.487707
63.084731,-25.806074
62.972901,-26.122692
62.860299,-26.437569
62.746952,-26.750742
62.632905,-27.062274
62.518220,-27.372256
62.402975,-27.680802
62.287267,-27.988047
62.171210,-28.294145
62.054935,-28.599268
61.938587,-28.903601
61.822328,-29.207341
61.706334,-29.510691
61.590796,-29.813858
61.475916,-30.117053
61.361908,-30.420483
61.248993,-30.724351
61.137403,-31.028853
61.027377,-31.334174
60.919158,-31.640485
60.812991,-31.947944
60.709125,-32.256691
60.607809,-32.566846
60.509288,-32.878510
60.413807,-33.191764
60.321604,-33.506663
60.232912,-33.823243
60.147954,-34.141515
60.066947,-34.461468
59.990095,-34.783071
59.917593,-35.106268
59.849621,-35.430985
59.786347,-35.757130
59.727926,-36.084591
59.674496,-36.413242
59.626183,-36.742943
59.583096,-37.073542
59.545328,-37.404877
59.512960,-37.736778
59.486054,-38.069070
59.464661,-38.401575
59.448816,-38.734114
59.438540,-39.066506
59.433844,-39.398576
59.434723,-39.730151
59.441165,-40.061067
59.453146,-40.391164
59.470634,-40.720294
59.493587,-41.048317
59.521960,-41.375103
59.555699,-41.700535
59.594748,-42.024507
59.639046,-42.346926
59.688533,-42.667709
59.743145,-42.986786
59.802819,-43.304097
59.867493,-43.619594
59.937108,-43.933238
60.011605,-44.245000
60.090932,-44.554856
60.175037,-44.862791
60.263875,-45.168796
60.357406,-45.472864
60.455593,-45.774993
60.558406,-46.075183
60.665818,-46.373431
60.777810,-46.669737
60.894365,-46.964096
61.015472,-47.256504
61.141123,-47.546949
61.271315,-47.835417
61.406047,-48.121887
61.545320,-48.406333
61.689137,-48.688723
61.837502,-48.969018
61.990419,-49.247172
62.147890,-49.523135
62.309916,-49.796850
62.476497,-50.068253
62.647627,-50.337276
62.823298,-50.603849
63.003495,-50.867896
63.188201,-51.129340
63.377388,-51.388103
63.571025,-51.644105
63.769072,-51.897270
63.971482,-52.147522
64.178198,-52.394790
64.389159,-52.639006
64.604290,-52.880109
64.823513,-53.118045
65.046738,-53.352767
65.273869,-53.584238
65.504800,-53.812429
65.739420,-54.037325
65.977610,-54.258917
66.219245,-54.477211
66.464192,-54.692223
66.712317,-54.903981
66.963477,-55.112526
67.217530,-55.317910
67.474328,-55.520194
67.733723,-55.719453
67.995566,-55.915771
68.259707,-56.109240
68.525999,-56.299962
68.794294,-56.488046
69.064450,-56.673607
69.336326,-56.856767
69.609787,-57.037650
69.884702,-57.216383
70.160946,-57.393097
70.438402,-57.567920
70.716957,-57.740981
70.996508,-57.912407
71.276958,-58.082321
71.558219,-58.250843
71.840210,-58.418087
72.122858,-58.584159
72.406102,-58.749162
72.689883,-58.913187
72.974154,-59.076321
73.258875,-59.238639
73.544013,-59.400211
73.829542,-59.561094
74.115440,-59.721340
74.401696,-59.880989
74.688299,-60.040077
74.975245,-60.198628
75.262535,-60.356660
75.550171,-60.514186
75.838158,-60.671211
76.126505,-60.827736
76.415219,-60.983758
76.704310,-61.139269
76.993787,-61.294261
77.283659,-61.448723
77.573931,-61.602646
77.864609,-61.756018
78.155696,-61.908832
78.447191,-62.061082
78.739092,-62.212766
79.031392,-62.363884
79.324081,-62.514444
79.617146,-62.664457
79.910568,-62.813941
80.204326,-62.962918
80.498395,-63.111419
80.792746,-63.259480
81.087348,-63.407145
81.382164,-63.554461
81.677157,-63.701484
81.972287,-63.848274
82.267510,-63.994899
82.562783,-64.141428
82.858060,-64.287935
83.153295,-64.434500
83.448442,-64.581202
83.743455,-64.728123
84.038288,-64.875346
84.332898,-65.022952
84.627244,-65.171024
84.921285,-65.319641
85.214984,-65.468878
85.508307,-65.618808
85.801223,-65.769499
86.093705,-65.921012
86.385731,-66.073405
86.677281,-66.226727
86.968340,-66.381019
87.258898,-66.536316
87.548949,-66.692645
87.838490,-66.850025
88.127524,-67.008465
88.416058,-67.167967
88.704101,-67.328524
88.991667,-67.490124
89.278773,-67.652744
89.565439,-67.816355
89.851688,-67.980923
90.137545,-68.146406
90.423036,-68.312758
90.708189,-68.479929
90.993032,-68.647863
91.277596,-68.816504
91.561908,-68.985794
91.845998,-69.155672
92.129894,-69.326078
92.413621,-69.496954
92.697205,-69.668243
92.980668,-69.839889
93.264030,-70.011841
93.547309,-70.184053
93.830519,-70.356481
94.113671,-70.529089
94.396775,-70.701845
94.679834,-70.874724
94.962849,-71.047708
95.245819,-71.220784
95.528738,-71.393947
95.811596,-71.567200
96.094382,-71.740551
96.377080,-71.914015
96.659671,-72.087613
96.942136,-72.261373
97.224450,-72.435328
97.506588,-72.609515
97.788524,-72.783978
98.070230,-72.958760
98.351676,-73.133913
98.632831,-73.309486
98.913667,-73.485533
99.194152,-73.662108
99.474257,-73.839264
99.753952,-74.017055
100.033211,-74.195533
100.312006,-74.374747
100.590313,-74.554744
100.868109,-74.735569
101.145372,-74.917261
101.422085,-75.099857
101.698230,-75.283386
101.973796,-75.467876
102.248770,-75.653347
102.523146,-75.839814
102.796916,-76.027286
103.070079,-76.215770
103.342634,-76.405262
103.614584,-76.595756
103.885932,-76.787242
104.156686,-76.979703
104.426854,-77.173117
104.696447,-77.367461
104.965476,-77.562706
105.233955,-77.758821
105.501897,-77.955772
105.769318,-78.153523
106.036234,-78.352038
106.302660,-78.551279
106.568611,-78.751207
106.834103,-78.951786
107.099151,-79.152979
107.363769,-79.354750
107.627969,-79.557066
107.891765,-79.759898
108.155166,-79.963216
108.418183,-80.166996
108.680822,-80.371216
108.943089,-80.575859
109.204990,-80.780910
109.466526,-80.986359
109.727700,-81.192201
109.988509,-81.398431
110.248952,-81.605053
110.509025,-81.812070
110.768722,-82.019492
111.028037,-82.227330
111.286963,-82.435597
111.545490,-82.644312
111.803608,-82.853493
112.061308,-83.063160
112.318579,-83.273337
112.575409,-83.484045
112.831788,-83.695309
113.087704,-83.907150
113.343147,-84.119593
113.598106,-84.332658
113.852573,-84.546367
114.106537,-84.760737
114.359992,-84.975787
114.612930,-85.191530
114.865346,-85.407978
115.117236,-85.625141
115.368597,-85.843024
115.619427,-86.061630
115.869725,-86.280960
116.119494,-86.501009
116.368735,-86.721772
116.617452,-86.943239
116.865652,-87.165397
117.113339,-87.388232
117.360521,-87.611725
117.607207,-87.835857
117.853406,-88.060606
118.099127,-88.285948
118.344381,-88.511858
118.589179,-88.738312
118.833532,-88.965282
119.077450,-89.192741
119.320944,-89.420665
119.564024,-89.649027
119.806702,-89.877802
120.048985,-90.106967
120.290883,-90.336500
120.532403,-90.566381
120.773552,-90.796592
121.014335,-91.027119
121.254756,-91.257948
121.494818,-91.489070
121.734522,-91.720477
121.973868,-91.952166
122.212856,-92.184135
122.451481,-92.416386
122.689739,-92.648924
122.927625,-92.881757
123.165131,-93.114895
123.402249,-93.348351
123.638968,-93.582140
123.875278,-93.816280
124.111167,-94.050790
124.346621,-94.285690
124.581627,-94.521004
124.816171,-94.756753
125.050236,-94.992962
125.283809,-95.229654
125.516872,-95.466854
125.749411,-95.704586
125.981410,-95.942872
126.212852,-96.181736
126.443723,-96.421198
126.674007,-96.661279
126.903691,-96.901996
127.132759,-97.143366
127.361200,-97.385404
127.589001,-97.628122
127.816151,-97.871530
128.042639,-98.115637
128.268455,-98.360448
128.493592,-98.605966
128.718042,-98.852193
128.941799,-99.099128
129.164856,-99.346767
129.387211,-99.595106
129.608859,-99.844138
129.829799,-100.093853
130.050029,-100.344243
130.269547,-100.595295
130.488356,-100.846998
130.706454,-101.099337
130.923845,-101.352300
131.140529,-101.605871
131.356509,-101.860035
131.571788,-102.114779
131.786370,-102.370088
132.000257,-102.625948
132.213454,-102.882346
132.425963,-103.139269
132.637788,-103.396706
132.848933,-103.654645
133.059401,-103.913077
133.269195,-104.171995
133.478318,-104.431391
133.686773,-104.691259
133.894562,-104.951595
134.101686,-105.212396
134.308149,-105.473660
134.513950,-105.735387
134.719091,-105.997577
134.923573,-106.260232
135.127396,-106.523355
135.330560,-106.786948
135.533064,-107.051015
135.734909,-107.315562
135.936092,-107.580594
136.136615,-107.846115
136.336475,-108.112131
136.535671,-108.378648
136.734203,-108.645670
136.932068,-108.913203
137.129266,-109.181250
137.325796,-109.449816
137.521656,-109.718903
137.716846,-109.988515
137.911365,-110.258653
138.105211,-110.529317
138.298385,-110.800507
138.490887,-111.072223
138.682715,-111.344462
138.873870,-111.617221
139.064353,-111.890497
139.254163,-112.164284
139.443301,-112.438577
139.631767,-112.713370
139.819563,-112.988656
140.006690,-113.264427
140.193147,-113.540676
140.378936,-113.817395
140.564057,-114.094574
140.748512,-114.372207
140.932300,-114.650284
141.115423,-114.928797
141.297880,-115.207738
141.479671,-115.487099
141.660797,-115.766874
141.841256,-116.047056
142.021047,-116.327639
142.200170,-116.608618
142.378623,-116.889989
142.556403,-117.171747
142.733508,-117.453892
142.909935,-117.736420
143.085681,-118.019331
143.260742,-118.302625
143.435115,-118.586304
143.608794,-118.870368
143.781774,-119.154821
143.954052,-119.439665
144.125621,-119.724906
144.296475,-120.010547
144.466609,-120.296593
144.636017,-120.583050
144.804692,-120.869922
144.972629,-121.157217
145.139821,-121.444940
145.306262,-121.733097
145.471946,-122.021693
145.636868,-122.310733
145.801021,-122.600224
145.964401,-122.890168
146.127002,-123.180571
146.288819,-123.471435
146.449849,-123.762763
146.610087,-124.054558
146.769530,-124.346820
146.928176,-124.639549
147.086022,-124.932746
147.243066,-125.226409
147.399307,-125.520536
147.554745,-125.815123
147.709378,-126.110167
147.863208,-126.405664
148.016236,-126.701608
148.168461,-126.997993
148.319888,-127.294813
148.470516,-127.592061
148.620350,-127.889730
148.769391,-128.187812
148.917643,-128.486298
149.065110,-128.785182
149.211793,-129.084455
149.357698,-129.384108
149.502827,-129.684134
149.647184,-129.984526
149.790772,-130.285275
149.933595,-130.586376
150.075654,-130.887820
150.216954,-131.189603
150.357495,-131.491719
150.497280,-131.794163
150.636311,-132.096930
150.774589,-132.400018
150.912113,-132.703423
151.048884,-133.007143
151.184901,-133.311177
151.320163,-133.615524
151.454669,-133.920184
151.588415,-134.225157
151.721400,-134.530444
151.853619,-134.836046
151.985068,-135.141966
152.115744,-135.448205
152.245642,-135.754767
152.374755,-136.061654
152.503079,-136.368869
152.630608,-136.676416
152.757334,-136.984297
152.883253,-137.292516
153.008357,-137.601075
153.132641,-137.909977
153.256097,-138.219225
153.378719,-138.528821
153.500500,-138.838767
153.621436,-139.149063
153.741520,-139.459711
153.860747,-139.770712
153.979111,-140.082064
154.096610,-140.393767
154.213237,-140.705821
154.328991,-141.018222
154.443869,-141.330968
154.557868,-141.644057
154.670986,-141.957485
154.783224,-142.271247
154.894582,-142.585340
155.005059,-142.899758
155.114657,-143.214495
155.223378,-143.529547
155.331225,-143.844907
155.438201,-144.160569
155.544310,-144.476527
155.649556,-144.792773
155.753945,-145.109302
155.857481,-145.426107
155.960170,-145.743181
156.062018,-146.060518
156.163032,-146.378112
156.263218,-146.695957
156.362583,-147.014046
156.461133,-147.332376
156.558874,-147.650939
156.655814,-147.969732
156.751958,-148.288750
156.847312,-148.607989
156.941883,-148.927446
157.035676,-149.247117
157.128695,-149.566999
157.220945,-149.887090
157.312431,-150.207389
157.403155,-150.527893
157.493120,-150.848601
157.582330,-151.169512
157.670785,-151.490625
157.758486,-151.811940
157.845435,-152.133458
157.931630,-152.455176
158.017072,-152.777097
158.101758,-153.099219
158.185688,-153.421544
158.268858,-153.744071
158.351266,-154.066801
158.432910,-154.389733
158.513785,-154.712869
158.593887,-155.036208
158.673213,-155.359749
158.751759,-155.683493
158.829520,-156.007439
158.906492,-156.331585
158.982670,-156.655932
159.058051,-156.980477
159.132630,-157.305220
159.206404,-157.630158
159.279369,-157.955289
159.351522,-158.280612
159.422860,-158.606123
159.493380,-158.931820
159.563080,-159.257700
159.631959,-159.583760
159.700015,-159.909997
159.767248,-160.236407
159.833658,-160.562986
159.899245,-160.889732
159.964010,-161.216640
160.027954,-161.543706
160.091078,-161.870928
160.153385,-162.198302
160.214877,-162.525823
160.275558,-162.853489
160.335429,-163.181295
160.394494,-163.509240
160.452757,-163.837319
160.510220,-164.165530
160.566888,-164.493870
160.622764,-164.822337
160.677851,-165.150928
160.732151,-165.479640
160.785669,-165.808473
160.838406,-166.137424
160.890365,-166.466492
160.941547,-166.795675
160.991954,-167.124973
161.041587,-167.454384
161.090444,-167.783908
161.138527,-168.113543
161.185834,-168.443290
161.232363,-168.773148
161.278112,-169.103116
161.323077,-169.433195
161.367256,-169.763384
161.410643,-170.093682
161.453233,-170.424090
161.495021,-170.754607
161.536001,-171.085233
161.576165,-171.415967
161.615507,-171.746809
161.654018,-172.077758
161.691692,-172.408814
161.728518,-172.739975
161.764489,-173.071240
161.799596,-173.402608
161.833829,-173.734079
161.867180,-174.065649
161.899641,-174.397317
161.931201,-174.729081
161.961854,-175.060940
161.991589,-175.392890
162.020400,-175.724929
162.048278,-176.057055
162.075218,-176.389264
162.101211,-176.721553
162.126252,-177.053920
162.150336,-177.386361
162.173458,-177.718873
162.195613,-178.051452
162.216798,-178.384094
162.237010,-178.716797
162.256248,-179.049556
162.274509,-179.382368
162.291793,-179.715230
162.308100,-180.048137
162.323431,-180.381086
162.337786,-180.714074
162.351168,-181.047097
162.363577,-181.380152
162.375018,-181.713236
162.385493,-182.046344
162.395005,-182.379476
162.403559,-182.712626
162.411157,-183.045793
162.417804,-183.378974
162.423504,-183.712165
162.428260,-184.045366
162.432078,-184.378572
162.434961,-184.711783
162.436913,-185.044995
162.437937,-185.378207
162.438036,-185.711417
162.437214,-186.044622
162.435473,-186.377821
162.432815,-186.711012
162.429243,-187.044193
162.424757,-187.377362
162.419359,-187.710518
162.413048,-188.043659
162.405826,-188.376783
162.397691,-188.709887
162.388644,-189.042971
162.378682,-189.376033
162.367805,-189.709069
162.356010,-190.042079
162.343295,-190.375059
162.329659,-190.708008
162.315097,-191.040924
162.299609,-191.373803
162.283190,-191.706643
162.265839,-192.039442
162.247551,-192.372196
162.228326,-192.704903
162.208160,-193.037560
162.187050,-193.370163
162.164995,-193.702709
162.141994,-194.035196
162.118044,-194.367620
162.093145,-194.699976
162.067296,-195.032263
162.040497,-195.364477
162.012749,-195.696614
161.984053,-196.028670
161.954411,-196.360643
161.923823,-196.692529
161.892294,-197.024324
161.859827,-197.356026
161.826425,-197.687631
161.792092,-198.019136
161.756834,-198.350539
161.720656,-198.681837
161.683563,-199.013027
161.645562,-199.344106
161.606659,-199.675072
161.566862,-200.005923
161.526176,-200.336657
161.484609,-200.667273
161.442169,-200.997768
161.398863,-201.328141
161.354698,-201.658391
161.309682,-201.988517
161.263821,-202.318517
161.217123,-202.648390
161.169595,-202.978137
161.121241,-203.307755
161.072069,-203.637245
161.022085,-203.966607
160.971292,-204.295838
160.919695,-204.624940
160.867300,-204.953911
160.814107,-205.282752
160.760122,-205.611461
160.705345,-205.940038
160.649778,-206.268482
160.593421,-206.596793
160.536276,-206.924969
160.478340,-207.253010
160.419614,-207.580914
160.360096,-207.908680
160.299782,-208.236306
160.238670,-208.563791
160.176757,-208.891131
160.114039,-209.218326
160.050511,-209.545372
159.986169,-209.872267
159.921007,-210.199007
159.855021,-210.525590
159.788205,-210.852012
159.720554,-211.178269
159.652061,-211.504358
159.582721,-211.830274
159.512529,-212.156014
159.441478,-212.481572
159.369564,-212.806946
159.296782,-213.132129
159.223127,-213.457118
159.148594,-213.781908
159.073179,-214.106495
158.996879,-214.430873
158.919691,-214.755040
158.841612,-215.078989
158.762641,-215.402718
158.682774,-215.726221
158.602013,-216.049496
158.520356,-216.372539
158.437805,-216.695346
158.354359,-217.017914
158.270021,-217.340240
158.184794,-217.662323
158.098679,-217.984159
158.011680,-218.305747
157.923802,-218.627086
157.835048,-218.948174
157.745425,-219.269011
157.654937,-219.589595
157.563591,-219.909928
157.471393,-220.230009
157.378349,-220.549838
157.284467,-220.869417
157.189754,-221.188746
157.094217,-221.507827
156.997864,-221.826660
156.900703,-222.145248
156.802740,-222.463592
156.703985,-222.781694
156.604444,-223.099556
156.504126,-223.417179
156.403037,-223.734565
156.301184,-224.051716
156.198575,-224.368633
156.095217,-224.685318
155.991115,-225.001772
155.886275,-225.317996
155.780703,-225.633990
155.674404,-225.949756
155.567383,-226.265294
155.459644,-226.580602
155.351191,-226.895681
155.242026,-227.210530
155.132153,-227.525147
155.021574,-227.839531
154.910290,-228.153680
154.798303,-228.467592
154.685613,-228.781263
154.572221,-229.094691
154.458125,-229.407872
154.343327,-229.720802
154.227823,-230.033478
154.111613,-230.345895
153.994695,-230.658049
153.877065,-230.969935
153.758722,-231.281548
153.639663,-231.592883
153.519883,-231.903934
153.399380,-232.214698
153.278150,-232.525169
153.156188,-232.835341
153.033491,-233.145209
152.910054,-233.454770
152.785874,-233.764017
152.660945,-234.072946
152.535264,-234.381552
152.408826,-234.689832
152.281628,-234.997782
152.153664,-235.305397
152.024932,-235.612674
151.895427,-235.919610
151.765146,-236.226201
151.634085,-236.532446
151.502242,-236.838342
151.369614,-237.143886
151.236197,-237.449076
151.101990,-237.753912
150.966992,-238.058392
150.831199,-238.362514
150.694612,-238.666278
150.557229,-238.969682
150.419049,-239.272726
150.280074,-239.575409
150.140302,-239.877731
149.999734,-240.179691
149.858372,-240.481289
149.716216,-240.782524
149.573269,-241.083396
149.429532,-241.383904
149.285007,-241.684047
149.139698,-241.983825
148.993606,-242.283238
148.846736,-242.582283
148.699091,-242.880960
148.550675,-243.179267
148.401490,-243.477204
148.251543,-243.774769
148.100836,-244.071960
147.949375,-244.368775
147.797164,-244.665213
147.644208,-244.961271
147.490512,-245.256948
147.336080,-245.552241
147.180917,-245.847149
147.025030,-246.141669
146.868422,-246.435800
146.711098,-246.729539
146.553064,-247.022884
146.394324,-247.315834
146.234883,-247.608387
146.074745,-247.900542
145.913916,-248.192298
145.752400,-248.483653
145.590201,-248.774606
145.427323,-249.065158
145.263770,-249.355307
145.099546,-249.645054
144.934655,-249.934399
144.769099,-250.223343
144.602882,-250.511885
144.436008,-250.800029
144.268478,-251.087774
144.100296,-251.375121
143.931464,-251.662074
143.761984,-251.948633
143.591857,-252.234801
143.421087,-252.520579
143.249674,-252.805970
143.077620,-253.090975
142.904927,-253.375596
142.731595,-253.659837
142.557625,-253.943697
142.383019,-254.227180
142.207777,-254.510286
142.031900,-254.793016
141.855388,-255.075372
141.678243,-255.357355
141.500465,-255.638963
141.322053,-255.920197
141.143009,-256.201057
140.963334,-256.481541
140.783027,-256.761648
140.602090,-257.041376
140.420522,-257.320723
140.238325,-257.599686
140.055500,-257.878262
139.872046,-258.156448
139.687965,-258.434239
139.503259,-258.711632
139.317927,-258.988622
139.131971,-259.265204
138.945393,-259.541374
138.758194,-259.817127
138.570376,-260.092458
138.381939,-260.367361
138.192887,-260.641832
138.003220,-260.915866
137.812940,-261.189458
137.622050,-261.462604
137.430551,-261.735299
137.238447,-262.007541
137.045738,-262.279325
136.852426,-262.550648
136.658516,-262.821508
136.464007,-263.091903
136.268903,-263.361832
136.073206,-263.631293
135.876917,-263.900286
135.680039,-264.168811
135.482573,-264.436868
135.284522,-264.704459
135.085886,-264.971585
134.886668,-265.238248
134.686869,-265.504451
134.486489,-265.770196
134.285530,-266.035486
134.083993,-266.300324
133.881878,-266.564714
133.679186,-266.828658
133.475916,-267.092160
133.272069,-267.355224
133.067644,-267.617852
132.862641,-267.880046
132.657058,-268.141810
132.450897,-268.403144
132.244154,-268.664052
132.036829,-268.924532
131.828920,-269.184586
131.620427,-269.444214
131.411346,-269.703414
131.201677,-269.962184
130.991418,-270.220522
130.780567,-270.478424
130.569122,-270.735886
130.357081,-270.992905
130.144443,-271.249473
129.931206,-271.505584
129.717367,-271.761233
129.502927,-272.016412
129.287883,-272.271112
129.072235,-272.525326
128.855981,-272.779045
128.639121,-273.032261
128.421655,-273.284964
128.203583,-273.537146
127.984905,-273.788798
127.765622,-274.039912
127.545735,-274.290480
127.325244,-274.540495
127.104152,-274.789949
126.882462,-275.038836
126.660174,-275.287150
126.437292,-275.534888
126.213820,-275.782045
125.989760,-276.028619
125.765116,-276.274608
125.539892,-276.520012
125.314093,-276.764831
125.087722,-277.009068
124.860785,-277.252724
124.633286,-277.495805
124.405231,-277.738315
124.176623,-277.980259
123.947469,-278.221646
123.717773,-278.462481
123.487539,-278.702775
123.256774,-278.942535
123.025480,-279.181772
122.793664,-279.420494
122.561328,-279.658711
122.328477,-279.896433
122.095115,-280.133669
121.861244,-280.370429
121.626867,-280.606720
121.391987,-280.842552
121.156605,-281.077931
120.920723,-281.312863
120.684342,-281.547352
120.447463,-281.781403
120.210084,-282.015018
119.972207,-282.248198
119.733830,-282.480941
119.494951,-282.713246
119.255568,-282.945109
119.015680,-283.176524
118.775284,-283.407484
118.534376,-283.637980
118.292954,-283.868003
118.051013,-284.097540
117.808551,-284.326580
117.565564,-284.555107
117.322048,-284.783107
117.077999,-285.010565
116.833414,-285.237463
116.588289,-285.463785
116.342621,-285.689513
116.096407,-285.914632
115.849645,-286.139125
115.602334,-286.362975
115.354471,-286.586167
115.106056,-286.808687
114.857089,-287.030522
114.607571,-287.251661
114.357504,-287.472094
114.106890,-287.691814
113.855732,-287.910815
113.604035,-288.129094
113.351805,-288.346651
113.099047,-288.563487
112.845769,-288.779607
112.591980,-288.995018
112.337688,-289.209731
112.082905,-289.423758
111.827642,-289.637116
111.571911,-289.849821
111.315725,-290.061896
111.059099,-290.273362
110.802048,-290.484246
110.544586,-290.694575
110.286732,-290.904378
110.028500,-291.113686
109.769909,-291.322530
109.510976,-291.530945
109.251718,-291.738963
108.992155,-291.946619
108.732304,-292.153946
108.472183,-292.360978
108.211810,-292.567748
107.951202,-292.774289
107.690377,-292.980631
107.429351,-293.186803
107.168140,-293.392831
106.906758,-293.598743
106.645222,-293.804559
106.383544,-294.010300
106.121736,-294.215982
105.859811,-294.421621
105.597777,-294.627226
105.335646,-294.832807
105.073423,-295.038366
104.811117,-295.243907
104.548732,-295.449426
104.286272,-295.654919
104.023740,-295.860377
103.761138,-296.065791
103.498466,-296.271147
103.235723,-296.476428
102.972906,-296.681617
102.710013,-296.886694
102.447039,-297.091636
102.183979,-297.296422
101.920827,-297.501028
101.657575,-297.705428
101.394217,-297.909600
101.130743,-298.113518
100.867147,-298.317158
100.603417,-298.520497
100.339546,-298.723514
100.075524,-298.926189
99.811342,-299.128501
99.546991,-299.330436
99.282462,-299.531979
99.017746,-299.733118
98.752835,-299.933844
98.487723,-300.134151
98.222401,-300.334036
97.956865,-300.533498
97.691109,-300.732541
97.425129,-300.931168
97.158921,-301.129390
96.892483,-301.327217
96.625814,-301.524662
96.358913,-301.721742
96.091782,-301.918475
95.824421,-302.114881
95.556835,-302.310981
95.289026,-302.506799
95.021000,-302.702358
94.752763,-302.897682
94.484320,-303.092796
94.215679,-303.287725
93.946848,-303.482493
93.677836,-303.677122
93.408652,-303.871634
93.139305,-304.066049
92.869804,-304.260387
92.600161,-304.454663
92.330384,-304.648891
92.060484,-304.843082
91.790470,-305.037245
91.520352,-305.231386
91.250138,-305.425507
90.979838,-305.619608
90.709459,-305.813684
90.439008,-306.007730
90.168491,-306.201735
89.897915,-306.395688
89.627284,-306.589573
89.356601,-306.783373
89.085869,-306.977067
88.815091,-307.170635
88.544265,-307.364054
88.273392,-307.557298
88.002471,-307.750344
87.731499,-307.943164
87.460471,-308.135734
87.189385,-308.328028
86.918234,-308.520021
86.647012,-308.711691
86.375713,-308.903014
86.104328,-309.093972
85.832851,-309.284547
85.561272,-309.474723
85.289584,-309.664488
