66.4856,-329.0721
66.8706,-328.9115
67.2572,-328.7539
67.6423,-328.5935
68.0284,-328.4351
68.4132,-328.273
68.7965,-328.1089
69.1817,-327.9473
69.5643,-327.7818
69.9655,-327.6687
70.3702,-327.5702
70.7344,-327.3787
71.0786,-327.1416
71.4249,-326.9099
71.7695,-326.6736
72.1155,-326.4409
72.4605,-326.2058
72.8061,-325.9718
73.1515,-325.738
73.4966,-325.5028
73.8425,-325.2699
74.1873,-325.0343
74.5332,-324.8012
74.8782,-324.5664
75.2237,-324.3321
75.5693,-324.0986
75.9141,-323.8631
76.2603,-323.6305
76.6048,-323.3947
76.951,-323.1616
77.2959,-322.927
77.6413,-322.6923
77.9871,-322.4593
78.3201,-322.2075
78.6501,-321.9525
78.9777,-321.6937
79.3077,-321.4383
79.6635,-321.2228
80.0306,-321.0235
80.3964,-320.8234
80.7632,-320.624
81.1291,-320.4234
81.4961,-320.2249
81.8617,-320.0232
82.2288,-319.8256
82.5945,-319.6237
82.9612,-319.4255
83.3278,-319.2249
83.698,-319.0366
84.1048,-318.94
84.509,-318.8399
84.8616,-318.6265
85.1976,-318.3785
85.5358,-318.1345
85.8855,-317.908
86.2529,-317.7106
86.6211,-317.5136
86.9882,-317.3156
87.3559,-317.1182
87.7261,-316.9253
88.0949,-316.7306
88.4671,-316.5409
88.834,-316.3433
89.175,-316.1029
89.5249,-315.8776
89.8956,-315.6854
90.2644,-315.4902
90.6298,-315.2893
90.9802,-315.0627
91.3276,-314.8314
91.6785,-314.6056
92.0262,-314.3746
92.3862,-314.1641
92.7511,-313.9615
93.1158,-313.7588
93.4815,-313.5576
93.8463,-313.3552
94.2128,-313.1554
94.5668,-312.9352
94.913,-312.7022
95.2608,-312.4715
95.6066,-312.2379
95.9544,-312.0074
96.3011,-311.7749
96.6479,-311.5429
96.9956,-311.3121
97.3434,-311.0816
97.6934,-310.8543
98.0415,-310.624
98.3908,-310.3957
98.7365,-310.162
99.078,-309.9223
99.4214,-309.6851
99.7625,-309.4446
100.1086,-309.2116
100.4608,-308.9877
100.8138,-308.7653
101.1669,-308.5427
101.5192,-308.3192
101.8755,-308.1017
102.2307,-307.8827
102.5865,-307.6647
102.9423,-307.4466
103.2756,-307.1979
103.5903,-306.9239
103.9045,-306.6491
104.2186,-306.3745
104.5348,-306.1021
104.8569,-305.8368
105.1818,-305.575
105.5033,-305.3088
105.8284,-305.0473
106.1713,-304.8106
106.5253,-304.5895
106.8775,-304.3657
107.2308,-304.1436
107.5718,-303.9046
107.8909,-303.6356
108.2099,-303.3667
108.529,-303.0977
108.8531,-302.8353
109.1977,-302.6
109.5428,-302.3652
109.887,-302.1295
110.2326,-301.8952
110.5661,-301.645
110.8964,-301.3897
111.2252,-301.1328
111.5547,-300.8768
111.8765,-300.6116
112.1813,-300.3265
112.4879,-300.0435
112.7923,-299.7579
113.0994,-299.4755
113.4236,-299.2127
113.7491,-298.9515
114.0738,-298.6894
114.399,-298.4279
114.7296,-298.1736
115.0698,-297.9316
115.4073,-297.6866
115.7489,-297.4462
116.0804,-297.1941
116.3786,-296.9027
116.6706,-296.604
116.968,-296.3117
117.2617,-296.0149
117.5739,-295.7394
117.9054,-295.4856
118.2336,-295.2281
118.5667,-294.9763
118.8915,-294.715
119.1849,-294.4188
119.4736,-294.117
119.7655,-293.819
120.0558,-293.5192
120.3602,-293.2338
120.6674,-292.9514
120.9731,-292.6672
121.2803,-292.3848
121.5766,-292.0911
121.869,-291.7933
122.1618,-291.496
122.4536,-291.1975
122.754,-290.9081
123.0617,-290.6263
123.3703,-290.3453
123.6786,-290.0642
123.9845,-289.7802
124.2859,-289.4917
124.5859,-289.2015
124.8874,-288.9131
125.1875,-288.6231
125.4836,-288.329
125.7783,-288.0336
126.074,-287.739
126.3688,-287.4437
126.6585,-287.1434
126.9438,-286.8388
127.2293,-286.5345
127.5149,-286.2301
127.8031,-285.9284
128.0956,-285.6307
128.3868,-285.3318
128.6798,-285.0347
128.9683,-284.7332
129.2411,-284.4176
129.5114,-284.0996
129.7841,-283.7837
130.0548,-283.4661
130.3287,-283.1512
130.6024,-282.8363
130.8761,-282.5211
131.1504,-282.2067
131.4224,-281.8902
131.6938,-281.5731
131.9633,-281.2546
132.2347,-280.9375
132.5027,-280.6178
132.7592,-280.2886
133.0151,-279.9589
133.271,-279.6293
133.5274,-279.3
133.798,-278.9826
134.0753,-278.6707
134.3524,-278.3587
134.6291,-278.0464
134.8891,-277.7204
135.1364,-277.3843
135.3856,-277.0495
135.633,-276.7134
135.8898,-276.3848
136.1595,-276.0663
136.4286,-275.7474
136.6994,-275.4297
136.9668,-275.1095
137.2227,-274.7798
137.4758,-274.448
137.7311,-274.118
137.9852,-273.7869
138.2403,-273.4567
138.4967,-273.1273
138.7515,-272.7969
139.0078,-272.4676
139.2438,-272.1245
139.4503,-271.7619
139.6587,-271.4004
139.8637,-271.0367
140.0755,-270.6776
140.3254,-270.3436
140.5802,-270.0129
140.8311,-269.6795
141.0843,-269.3477
141.3094,-268.9972
141.5184,-268.6358
141.7303,-268.2766
141.9384,-267.9146
142.1665,-267.5664
142.4266,-267.2402
142.6885,-266.9152
142.9502,-266.5902
143.2106,-266.2641
143.4451,-265.9194
143.6707,-265.5682
143.8997,-265.2194
144.1254,-264.8683
144.3414,-264.5118
144.5339,-264.1415
144.7287,-263.7725
144.9211,-263.402
145.1163,-263.0334
145.3619,-262.6969
145.6188,-262.3679
145.8714,-262.0359
146.1285,-261.7069
146.3556,-261.3577
146.5721,-261.0008
146.7864,-260.6429
147.0016,-260.2851
147.2147,-259.9267
147.3985,-259.5517
147.5837,-259.178
147.7676,-258.8032
147.9524,-258.429
148.1808,-258.0813
148.4248,-257.7427
148.6698,-257.4049
148.9136,-257.0662
149.127,-256.7088
149.3196,-256.3387
149.5124,-255.9684
149.7055,-255.5986
149.9001,-255.2294
150.1041,-254.8654
150.3079,-254.5013
150.5116,-254.1368
150.7157,-253.7731
150.9003,-253.3986
151.0834,-253.0238
151.2664,-252.6487
151.4487,-252.2732
151.6642,-251.9172
151.8976,-251.5711
152.133,-251.2267
152.3671,-250.881
152.6205,-250.5516
152.9147,-250.2549
153.2039,-249.9551
153.5008,-249.6603
153.7877,-249.3589
153.9883,-248.9975
154.1577,-248.6149
154.3388,-248.2399
154.5096,-247.8583
154.6625,-247.4713
154.794,-247.0749
154.9297,-246.6802
155.0627,-246.2849
155.2131,-245.8966
155.4159,-245.5323
155.6204,-245.1682
155.8229,-244.8035
156.0276,-244.4398
156.1996,-244.0599
156.3643,-243.6766
156.5281,-243.2926
156.6917,-242.9088
156.888,-242.5417
157.1058,-242.1859
157.3261,-241.8314
157.5441,-241.4756
157.739,-241.1077
157.9089,-240.7265
158.0783,-240.3451
158.2492,-239.9644
158.4199,-239.5835
158.5994,-239.2069
158.7767,-238.8291
158.9559,-238.4521
159.1334,-238.0746
159.2781,-237.6839
159.4037,-237.2861
159.5312,-236.8886
159.6563,-236.4905
159.7903,-236.0955
159.9386,-235.7054
160.0897,-235.3165
160.2386,-234.9265
160.3888,-234.5373
160.5372,-234.1472
160.6846,-233.7567
160.8336,-233.367
160.9806,-232.9763
161.1459,-232.5938
161.3331,-232.2208
161.5203,-231.8479
161.7086,-231.4754
161.8948,-231.102
162.0743,-230.7253
162.2504,-230.3469
162.4296,-229.97
162.606,-229.5919
162.7482,-229.2005
162.8707,-228.8016
162.9953,-228.4032
163.1178,-228.0043
163.2544,-227.6102
163.3996,-227.2189
163.5469,-226.8286
163.6928,-226.4374
163.8468,-226.0501
164.0307,-225.6752
164.2118,-225.2996
164.3973,-224.9253
164.5771,-224.5492
164.6887,-224.1491
164.7763,-223.7406
164.8707,-223.3346
164.9587,-222.9262
165.0562,-222.5208
165.1519,-222.1144
165.2528,-221.7096
165.3485,-221.3032
165.4503,-220.8987
165.6009,-220.5098
165.7573,-220.1226
165.9082,-219.7337
166.0638,-219.3464
166.187,-218.9485
166.2899,-218.5442
166.3923,-218.1396
166.4938,-217.7348
166.5978,-217.3307
166.7032,-216.9268
166.8108,-216.5237
166.9168,-216.12
167.0234,-215.7166
167.1279,-215.3126
167.2305,-214.908
167.3349,-214.5041
167.4374,-214.0995
167.5422,-213.6955
167.6463,-213.2914
167.751,-212.8874
167.8558,-212.4836
167.9625,-212.0801
168.0829,-211.6805
168.2014,-211.2805
168.3221,-210.8809
168.4404,-210.4808
168.5255,-210.0724
168.6047,-209.6626
168.6866,-209.2535
168.766,-208.8437
168.877,-208.4424
169.01,-208.0468
169.1429,-207.6513
169.2772,-207.256
169.3953,-206.8564
169.4896,-206.4499
169.5797,-206.0423
169.6742,-205.636
169.7641,-205.2284
169.8497,-204.82
169.9331,-204.4111
170.0176,-204.0024
170.1019,-203.5937
170.1768,-203.1831
170.2495,-202.7723
170.3219,-202.3613
170.3941,-201.9502
170.4654,-201.5391
170.5296,-201.1267
170.5957,-200.7147
170.6596,-200.3023
170.7261,-199.8903
170.8095,-199.4815
170.8953,-199.073
170.9787,-198.6642
171.0645,-198.2557
171.1573,-197.849
171.2557,-197.4434
171.3515,-197.0372
171.4496,-196.6316
171.5338,-196.2231
171.5997,-195.8111
171.666,-195.399
171.7311,-194.9869
171.7996,-194.5752
171.872,-194.1642
171.9449,-193.7534
172.019,-193.3426
172.0875,-192.9311
172.1464,-192.5179
172.1972,-192.1037
172.2576,-191.6907
172.3065,-191.2765
172.3105,-190.8595
172.3062,-190.442
172.3079,-190.0247
172.3064,-189.6075
172.3181,-189.1903
172.3364,-188.7735
172.3521,-188.3564
172.3703,-187.9394
172.397,-187.5233
172.4338,-187.1074
172.4732,-186.6921
172.508,-186.2761
172.5568,-185.8621
172.6423,-185.454
172.7332,-185.0463
172.8206,-184.6386
172.9089,-184.2306
172.9596,-183.817
172.9939,-183.4011
173.034,-182.9856
173.068,-182.5698
173.1061,-182.1541
173.1382,-181.7381
173.1719,-181.3222
173.2062,-180.9061
173.239,-180.4903
173.2903,-180.0759
173.3392,-179.6617
173.3885,-179.2472
173.4402,-178.8329
173.4901,-178.4191
173.5499,-178.0053
173.5987,-177.5917
173.6596,-177.1779
173.6898,-176.7644
173.6292,-176.3523
173.5617,-175.9399
173.4974,-175.5279
173.4337,-175.1154
173.4264,-174.6987
173.4296,-174.2811
173.425,-173.864
173.4281,-173.4465
173.4309,-173.0294
173.4423,-172.6122
173.451,-172.1949
173.4603,-171.7778
173.4624,-171.3606
173.4441,-170.9436
173.4288,-170.5267
173.4106,-170.1097
173.3966,-169.6927
173.4052,-169.2755
173.4145,-168.8583
173.4239,-168.4411
173.4324,-168.0238
173.4194,-167.607
173.397,-167.1902
173.377,-166.7734
173.3547,-166.3567
173.3411,-165.9396
173.3356,-165.5224
173.3297,-165.1051
173.326,-164.6877
173.3105,-164.2711
173.2728,-163.8554
173.2271,-163.4407
173.1905,-163.0248
173.1446,-162.6102
173.0571,-162.2029
172.9557,-161.7979
172.8582,-161.3921
172.7602,-160.9867
172.7164,-160.5744
172.7185,-160.1567
172.7117,-159.7399
172.7153,-159.322
172.7075,-158.9053
172.6501,-158.4922
172.5841,-158.0798
172.5246,-157.667
172.461,-157.2544
172.406,-156.8409
172.3538,-156.4268
172.3007,-156.0129
172.249,-155.5988
172.1899,-155.1857
172.1269,-154.7732
172.0638,-154.3606
172.0004,-153.9482
171.9311,-153.5368
171.8496,-153.1275
171.7682,-152.7182
171.6872,-152.3088
171.6054,-151.8996
171.5301,-151.4891
171.4533,-151.0789
171.378,-150.6685
171.3014,-150.2582
171.2129,-149.8504
171.124,-149.4427
171.0349,-149.035
170.9464,-148.6272
170.872,-148.2167
170.8051,-147.8048
170.7372,-147.393
170.6701,-146.9811
170.5838,-146.5735
170.4712,-146.1716
170.3583,-145.7699
170.2456,-145.3681
170.1335,-144.9661
170.0365,-144.5603
169.9397,-144.1543
169.8426,-143.7485
169.7458,-143.3425
169.6351,-142.9402
169.5212,-142.5387
169.4076,-142.1372
169.2933,-141.7358
169.1748,-141.3358
169.0446,-140.9393
168.9152,-140.5425
168.7855,-140.1459
168.6564,-139.7491
168.5348,-139.3498
168.4114,-138.9512
168.2905,-138.5517
168.1652,-138.1538
168.0238,-137.7612
167.88,-137.3694
167.7379,-136.977
167.595,-136.5849
167.4574,-136.191
167.3229,-135.7959
167.1877,-135.4011
167.0532,-135.0061
166.907,-134.6155
166.7443,-134.2312
166.5825,-133.8465
166.4193,-133.4624
166.259,-133.0772
166.1156,-132.6853
165.9731,-132.2931
165.8306,-131.9008
165.6872,-131.509
165.5254,-131.1244
165.3568,-130.7426
165.1908,-130.3598
165.0224,-129.9779
164.859,-129.594
164.7012,-129.2077
164.5426,-128.8217
164.386,-128.4349
164.2264,-128.0493
164.0527,-127.6699
163.8756,-127.292
163.7014,-126.9127
163.5251,-126.5345
163.3533,-126.1542
163.1819,-125.7738
163.0093,-125.3938
162.8387,-125.0129
162.6627,-124.6346
162.4825,-124.2582
162.2992,-123.8833
162.1187,-123.507
161.9359,-123.1319
161.7358,-122.7657
161.5332,-122.4009
161.3309,-122.0359
161.1288,-121.6707
160.9436,-121.297
160.7648,-120.9199
160.5851,-120.5433
160.4062,-120.1662
160.2288,-119.7886
160.0569,-119.4083
159.8841,-119.0284
159.7126,-118.6479
159.5349,-118.2705
159.3379,-117.9027
159.1373,-117.5367
158.941,-117.1685
158.7401,-116.8027
158.5284,-116.4432
158.3109,-116.087
158.096,-115.7293
157.8799,-115.3723
157.6678,-115.0129
157.4607,-114.6506
157.2512,-114.2896
157.0444,-113.9272
156.8314,-113.5684
156.6055,-113.2176
156.3787,-112.8673
156.1519,-112.517
155.9257,-112.1663
155.7062,-111.8114
155.4885,-111.4554
155.2704,-111.0996
155.0521,-110.7439
154.8254,-110.3937
154.592,-110.0477
154.3592,-109.7013
154.1264,-109.355
153.8896,-109.0114
153.6433,-108.6747
153.3946,-108.3395
153.1487,-108.0024
152.9,-107.6672
152.6517,-107.3318
152.4016,-106.9977
152.1515,-106.6636
151.9026,-106.3287
151.652,-105.995
151.4045,-105.659
151.1542,-105.3251
150.9066,-104.9891
150.6567,-104.655
150.385,-104.3383
150.1103,-104.0241
149.8374,-103.7085
149.5624,-103.3944
149.2979,-103.0719
149.0367,-102.7464
148.7779,-102.4191
148.5172,-102.0931
148.2593,-101.7651
148.0142,-101.4274
147.7673,-101.091
147.5235,-100.7522
147.2752,-100.4169
147.0046,-100.0994
146.7295,-99.7855
146.4581,-99.4684
146.1841,-99.1537
145.8979,-98.8505
145.5998,-98.5585
145.3014,-98.2667
145.0036,-97.9744
144.7047,-97.6833
144.4016,-97.3962
144.0993,-97.1087
143.7957,-96.8222
143.4937,-96.5344
143.2114,-96.2273
142.9336,-95.9158
142.6556,-95.6047
142.3769,-95.294
142.0724,-95.0094
141.7585,-94.7344
141.4471,-94.4566
141.1331,-94.1817
140.8313,-93.8938
140.5379,-93.5971
140.2453,-93.2996
139.9528,-93.0018
139.6571,-92.7076
139.3569,-92.4175
139.0542,-92.1303
138.7545,-91.8399
138.4513,-91.5531
138.1406,-91.2747
137.8281,-90.9979
137.5163,-90.7207
137.2049,-90.4428
136.8948,-90.1635
136.5872,-89.8817
136.2778,-89.6014
135.9693,-89.3205
135.6486,-89.0545
135.3085,-88.8122
134.9729,-88.565
134.6309,-88.3247
134.2965,-88.0761
134.0069,-87.7762
133.7248,-87.468
133.4368,-87.1667
133.1524,-86.8607
132.8527,-86.5708
132.5502,-86.2829
132.2505,-85.9927
131.9475,-85.7058
131.6472,-85.4158
131.3454,-85.1279
131.043,-84.84
130.7432,-84.5499
130.4392,-84.264
130.1209,-83.9944
129.7963,-83.732
129.4757,-83.4647
129.153,-83.2004
128.8389,-82.9256
128.5336,-82.6411
128.2247,-82.3608
127.9202,-82.075
127.6091,-81.7975
127.2814,-81.5389
126.9516,-81.2833
126.6224,-81.0268
126.294,-80.7692
125.9732,-80.5027
125.6556,-80.2315
125.3362,-79.9633
125.0182,-79.693
124.6986,-79.4245
124.3776,-79.1581
124.0576,-78.8899
123.7363,-78.624
123.4165,-78.3556
123.0966,-78.0877
122.7769,-77.8197
122.4577,-77.5504
122.1374,-77.2834
121.8205,-77.0113
121.5009,-76.7434
121.1845,-76.4712
120.8647,-76.203
120.519,-75.9701
120.1691,-75.742
119.8215,-75.5115
119.4723,-75.2829
119.1412,-75.0294
118.8183,-74.7655
118.4946,-74.5017
118.1723,-74.237
117.8454,-73.9775
117.5162,-73.7209
117.1851,-73.4672
116.8557,-73.2104
116.5227,-72.9596
116.1812,-72.7194
115.8391,-72.4805
115.4973,-72.2412
115.1554,-72.0015
114.8108,-71.7668
114.4643,-71.5336
114.1173,-71.3022
113.7711,-71.0691
113.4212,-70.8417
113.0564,-70.6397
112.6908,-70.4379
112.3256,-70.2363
111.9606,-70.034
111.6183,-69.796
111.2821,-69.549
110.9441,-69.304
110.6081,-69.0568
110.2593,-68.8277
109.9066,-68.6046
109.5534,-68.3829
109.1997,-68.1607
108.8433,-67.9447
108.4773,-67.7434
108.1134,-67.5395
107.7476,-67.3387
107.3832,-67.1349
107.0292,-66.9146
106.6759,-66.6919
106.3234,-66.4689
105.9697,-66.2475
105.609,-66.0374
105.2436,-65.8367
104.8783,-65.6341
104.5136,-65.432
104.1495,-65.2277
103.7908,-65.0142
103.4301,-64.805
103.0712,-64.591
102.707,-64.3894
102.3235,-64.224
101.9401,-64.0597
101.556,-63.8965
101.1743,-63.7276
100.8096,-63.5259
100.4463,-63.3196
100.0818,-63.1172
99.718,-62.9124
99.3482,-62.7188
98.9754,-62.532
98.6034,-62.3421
98.2302,-62.156
97.8642,-61.9565
97.5192,-61.7216
97.175,-61.4864
96.8307,-61.2494
96.4857,-61.016
96.1088,-60.8385
95.7244,-60.6755
95.3426,-60.5081
94.9584,-60.3436
94.6001,-60.1334
94.2516,-59.9028
93.902,-59.6756
93.5552,-59.4433
93.2032,-59.2189
92.849,-58.999
92.4898,-58.7857
92.1349,-58.5666
91.777,-58.352
91.407,-58.1586
91.0369,-57.9666
90.6656,-57.7752
90.2961,-57.5818
89.9216,-57.3979
89.5471,-57.2126
89.1725,-57.0306
88.7752,-56.9044
88.3729,-56.7966
87.9695,-56.6876
87.5806,-56.5471
87.2273,-56.3254
86.872,-56.1057
86.52,-55.8823
86.1638,-55.6646
85.7659,-55.543
85.3628,-55.4329
84.963,-55.3134
84.5611,-55.2025
84.1967,-55.0101
83.861,-54.7638
83.5243,-54.5171
83.1888,-54.2677
82.8464,-54.0319
82.49,-53.8123
82.1327,-53.5988
81.7764,-53.3806
81.4189,-53.1648
81.0628,-52.949
80.7051,-52.7314
80.349,-52.5165
79.9976,-52.2899
79.6487,-52.061
79.2998,-51.8335
78.9506,-51.6025
78.6056,-51.3705
78.262,-51.1315
77.9172,-50.8971
77.5743,-50.6603
77.2401,-50.4088
76.9201,-50.1441
76.6016,-49.8716
76.278,-49.6093
75.9639,-49.3356
75.6766,-49.0311
75.4082,-48.7152
75.1204,-48.4075
74.8508,-48.0939
74.6991,-47.723
74.643,-47.3089
74.5886,-46.896
74.5233,-46.4824
74.477,-46.0694
74.4681,-45.6524
74.5089,-45.2377
74.6041,-44.8342
74.7217,-44.4313
74.8221,-44.0277
74.9123,-43.6199
74.9988,-43.2112
75.0848,-42.8039
75.1733,-42.3947
75.2486,-41.9856
75.32,-41.5735
75.3932,-41.163
75.4625,-40.7518
75.516,-40.3376
75.5466,-39.9225
75.581,-39.5054
75.6132,-39.0902
75.6694,-38.6781
75.7829,-38.2761
75.8967,-37.8756
76.0091,-37.4724
76.1226,-37.072
76.2111,-36.6634
76.3045,-36.2567
76.3933,-35.8497
76.4853,-35.4413
76.6123,-35.0462
76.7553,-34.653
76.9003,-34.2621
77.0432,-33.8705
77.1952,-33.4806
77.3533,-33.0961
77.5082,-32.7069
77.6677,-32.3225
77.8243,-31.9355
77.9867,-31.5501
78.1503,-31.1681
78.308,-30.7792
78.4759,-30.3995
78.6614,-30.0247
78.8626,-29.6589
79.0541,-29.2896
79.2492,-28.9179
79.4619,-28.5626
79.6751,-28.2003
79.9549,-27.9176
80.3258,-27.7432
80.7055,-27.5586
81.0688,-27.3593
81.4404,-27.1678
81.8095,-26.9697
82.157,-26.7475
82.4858,-26.4857
82.8042,-26.2194
83.1303,-25.9578
83.4587,-25.6983
83.7812,-25.4384
84.115,-25.1807
84.4352,-24.9202
84.6961,-24.5979
84.9185,-24.2458
85.2027,-23.9484
85.5322,-23.6833
85.7651,-23.3637
85.8941,-22.9667
85.9625,-22.5545
85.9874,-22.141
85.9922,-21.7212
86.0068,-21.3061
86.0729,-20.8915
86.0914,-20.4825
86.0384,-20.0711
86.0346,-19.6592
86.04,-19.2365
85.9144,-18.8573
85.6118,-18.5806
85.2698,-18.3261
84.9795,-18.0427
84.7946,-17.6671
84.6489,-17.2897
84.2375,-17.1137
83.9108,-16.9204
84.0221,-16.538
84.0619,-16.1288
83.9548,-15.7211
83.942,-15.3053
83.9716,-14.895
84.0419,-14.4781
84.0901,-14.067
84.1603,-13.655
84.2727,-13.2515
84.3654,-12.848
84.4819,-12.4423
84.5764,-12.0406
84.661,-11.6285
84.7372,-11.2201
84.8031,-10.8084
84.8936,-10.3975
85.0113,-10.0121
85.241,-9.6452
85.3478,-9.2856
85.1667,-8.9179
84.9436,-8.5572
84.7035,-8.2241
84.5059,-7.8695
84.4481,-7.4595
84.4078,-7.039
84.3378,-6.6333
84.1954,-6.2405
84.0085,-5.8669
83.8587,-5.477
83.6783,-5.1002
83.3992,-4.8107
83.0588,-4.5653
82.7232,-4.3176
82.3914,-4.0669
82.0597,-3.8099
81.7312,-3.5568
81.4013,-3.2972
81.0947,-3.0175
80.7922,-2.7281
80.4859,-2.4447
80.1825,-2.1603
79.8785,-1.8699
79.556,-1.6174
79.1773,-1.4384
78.791,-1.2826
78.4132,-1.1049
78.0271,-0.94258
77.6573,-0.75792
77.2881,-0.54861
76.9244,-0.36658
76.5549,-0.1422
76.2228,-0.091764
