55.4244,-328.7545
55.8204,-328.635
56.2172,-328.5157
56.6125,-328.3939
57.0088,-328.2747
57.4086,-328.166
57.8073,-328.0578
58.2096,-327.957
58.6077,-327.846
58.9768,-327.6662
59.3313,-327.4503
59.6912,-327.2476
60.0449,-327.0313
60.4053,-326.8284
60.7877,-326.6721
61.1756,-326.5263
61.561,-326.3753
61.9465,-326.2257
62.3375,-326.089
62.7313,-325.9609
63.1208,-325.8244
63.5198,-325.7048
63.9044,-325.5602
64.2315,-325.3129
64.5384,-325.0305
64.8584,-324.7708
65.171,-324.4983
65.4908,-324.2355
65.8255,-323.993
66.1562,-323.7429
66.4897,-323.4984
66.8195,-323.2486
67.1391,-322.9845
67.4638,-322.7292
67.7829,-322.4642
68.107,-322.2077
68.47,-322.015
68.8507,-321.8512
69.2274,-321.681
69.609,-321.519
69.9771,-321.3332
70.3218,-321.1048
70.662,-320.8683
71.0046,-320.6364
71.3469,-320.4037
71.6869,-320.1673
72.0271,-319.9318
72.3683,-319.6977
72.7065,-319.4584
73.061,-319.2486
73.4405,-319.0844
73.8229,-318.9254
74.2051,-318.7663
74.5847,-318.6019
74.9485,-318.4056
75.3064,-318.1968
75.6677,-317.9954
76.0354,-317.806
76.4112,-317.6328
76.7896,-317.4646
77.1649,-317.2902
77.516,-317.0767
77.8427,-316.8222
78.1713,-316.5704
78.4981,-316.3165
78.8385,-316.0839
79.2109,-315.9039
79.5845,-315.7256
79.9585,-315.5477
80.3299,-315.366
80.6678,-315.1284
80.9972,-314.8766
81.3326,-314.6351
81.6633,-314.3853
82.0136,-314.1672
82.3794,-313.9734
82.7436,-313.7766
83.1101,-313.5845
83.4701,-313.3804
83.8235,-313.1648
84.1754,-312.9474
84.529,-312.7315
84.8781,-312.5103
85.2022,-312.253
85.5209,-311.9882
85.8453,-311.7319
86.1652,-311.4686
86.5207,-311.2665
86.9088,-311.1205
87.2904,-310.9635
87.682,-310.8237
88.0612,-310.6622
88.394,-310.4186
88.7167,-310.1571
89.0465,-309.9084
89.3723,-309.6525
89.6937,-309.3918
90.0117,-309.127
90.3309,-308.8634
90.6472,-308.5963
90.9743,-308.3443
91.3305,-308.1342
91.6925,-307.9327
92.0502,-307.7249
92.4097,-307.5196
92.7576,-307.2958
93.0988,-307.0612
93.4437,-306.8326
93.7855,-306.599
94.1227,-306.3591
94.4556,-306.1134
94.7867,-305.8646
95.1203,-305.6199
95.4485,-305.3678
95.7687,-305.1053
96.0896,-304.8443
96.4081,-304.5793
96.7302,-304.32
97.0765,-304.0943
97.432,-303.8818
97.7836,-303.6639
98.138,-303.4497
98.4565,-303.1918
98.7348,-302.8847
99.018,-302.5841
99.293,-302.2729
99.5837,-301.9816
99.9377,-301.7699
100.3025,-301.5715
100.6598,-301.3642
101.02,-301.1597
101.3388,-300.8994
101.6382,-300.6128
101.9441,-300.3344
102.2454,-300.0508
102.5852,-299.819
102.9515,-299.6241
103.3059,-299.4135
103.6766,-299.2235
104.0269,-299.0083
104.3116,-298.7101
104.5824,-298.3951
104.8626,-298.0917
105.138,-297.7819
105.4171,-297.4766
105.6989,-297.1734
105.979,-296.8684
106.2602,-296.5651
106.5448,-296.2643
106.8397,-295.9741
107.1383,-295.6875
107.4319,-295.3953
107.7311,-295.1099
108.0432,-294.8379
108.3607,-294.5723
108.6757,-294.3041
108.9912,-294.0357
109.3236,-293.7911
109.6738,-293.5705
110.024,-293.3498
110.377,-293.1333
110.7234,-292.9076
111.0363,-292.6376
111.3372,-292.3524
111.6502,-292.0817
111.9532,-291.7999
112.2389,-291.5007
112.5169,-291.1945
112.7938,-290.8863
113.0735,-290.5815
113.3476,-290.2714
113.6207,-289.96
113.8949,-289.6504
114.1665,-289.3377
114.4608,-289.0484
114.7796,-288.7847
115.0978,-288.5199
115.4187,-288.2583
115.7355,-287.9922
116.0343,-287.7059
116.3276,-287.4138
116.6234,-287.1243
116.9178,-286.8333
117.206,-286.5364
117.4902,-286.2354
117.7764,-285.9364
118.0604,-285.6353
118.3502,-285.3398
118.6499,-285.0543
118.948,-284.7674
119.2495,-284.4835
119.5465,-284.1955
119.8233,-283.8879
120.0948,-283.5754
120.3685,-283.265
120.6414,-282.9537
120.9228,-282.6504
121.212,-282.3543
121.5018,-282.0586
121.7906,-281.7623
122.0783,-281.4646
122.3631,-281.1643
122.6462,-280.8624
122.9324,-280.5631
123.2144,-280.2605
123.4862,-279.9483
123.7562,-279.6344
124.0265,-279.3211
124.2973,-279.0079
124.5694,-278.6961
124.8428,-278.3853
125.1187,-278.0767
125.3907,-277.7648
125.6669,-277.4565
125.9592,-277.1635
126.2545,-276.8738
126.5514,-276.5849
126.8449,-276.2935
127.1138,-275.98
127.3665,-275.6519
127.6198,-275.3248
127.8746,-274.9985
128.1237,-274.668
128.3619,-274.3297
128.5997,-273.9907
128.8355,-273.6506
129.0782,-273.3156
129.3478,-273.0016
129.6212,-272.691
129.8936,-272.3789
130.1631,-272.0654
130.3842,-271.7173
130.5832,-271.3532
130.7942,-270.9984
130.9929,-270.6338
131.2257,-270.2959
131.5198,-270.0057
131.8195,-269.7194
132.1172,-269.4323
132.4104,-269.1403
132.6756,-268.8228
132.935,-268.5
133.2003,-268.1824
133.461,-267.8609
133.7221,-267.5397
133.9815,-267.2172
134.2387,-266.8929
134.4992,-266.5712
134.755,-266.2459
135.0025,-265.9141
135.2496,-265.5821
135.496,-265.2494
135.7434,-264.9176
136.0049,-264.5971
136.2758,-264.2842
136.5476,-263.9721
136.8185,-263.6591
137.0609,-263.3258
137.2707,-262.9692
137.478,-262.6106
137.6881,-262.2542
137.9145,-261.9088
138.1703,-261.5834
138.4288,-261.2601
138.6829,-260.9334
138.9426,-260.611
139.2018,-260.2884
139.4615,-259.9661
139.7238,-259.6458
139.9812,-259.3218
140.2237,-258.9868
140.4534,-258.6424
140.6852,-258.2995
140.9176,-257.957
141.147,-257.6124
141.378,-257.269
141.6065,-256.9239
141.8359,-256.5793
142.066,-256.2353
142.2901,-255.8872
142.5142,-255.5392
142.7379,-255.191
142.9606,-254.8421
143.1864,-254.4952
143.4127,-254.1487
143.6415,-253.8037
143.8683,-253.4574
144.098,-253.1133
144.3435,-252.7799
144.5895,-252.4472
144.8354,-252.1141
145.0808,-251.7808
145.2958,-251.4283
145.4911,-251.0631
145.6902,-250.7004
145.8855,-250.3354
146.0852,-249.9728
146.2909,-249.6138
146.4946,-249.2533
146.7024,-248.8954
146.9053,-248.5346
147.0953,-248.167
147.28,-247.7967
147.4646,-247.4261
147.651,-247.0566
147.8344,-246.6855
148.0173,-246.3141
148.2021,-245.9439
148.3824,-245.5712
148.5716,-245.2032
148.7794,-244.8454
148.9918,-244.49
149.2018,-244.1334
149.4121,-243.7769
149.6253,-243.422
149.8393,-243.0679
150.0525,-242.713
150.2682,-242.3597
150.4776,-242.0029
150.6756,-241.6393
150.8712,-241.2745
151.0674,-240.9101
151.2643,-240.5459
151.4596,-240.1811
151.6545,-239.8159
151.8512,-239.4517
152.0447,-239.0859
152.2505,-238.7269
152.4733,-238.3781
152.6939,-238.0282
152.9208,-237.6813
153.1381,-237.3297
153.3115,-236.9546
153.4704,-236.5719
153.6364,-236.1932
153.7991,-235.8123
153.9745,-235.4377
154.162,-235.0687
154.3468,-234.6982
154.5335,-234.329
154.7185,-233.9586
154.8985,-233.5859
155.0784,-233.2132
155.2595,-232.8408
155.438,-232.4676
155.6033,-232.0882
155.7611,-231.7054
155.9217,-231.3241
156.0809,-230.9419
156.2495,-230.5641
156.432,-230.1926
156.6137,-229.8206
156.7957,-229.449
156.977,-229.0768
157.1514,-228.7015
157.3264,-228.3264
157.5015,-227.9512
157.6758,-227.5759
157.8557,-227.2031
158.0368,-226.8309
158.2177,-226.4587
158.4002,-226.0871
158.5751,-225.7121
158.7385,-225.3319
158.8981,-224.9499
159.0611,-224.5695
159.2213,-224.1879
159.363,-223.7992
159.493,-223.4063
159.626,-223.0143
159.755,-222.6209
159.8926,-222.2309
160.0575,-221.8512
160.228,-221.4741
160.3936,-221.0948
160.5627,-220.7169
160.727,-220.3371
160.8905,-219.9567
161.0564,-219.5775
161.2191,-219.197
161.3987,-218.8242
161.5925,-218.4586
161.7831,-218.0914
161.9809,-217.7272
162.1589,-217.355
162.2861,-216.9615
162.4013,-216.5635
162.5258,-216.1691
162.6453,-215.7725
162.7689,-215.3777
162.8965,-214.9839
163.02,-214.5887
163.1467,-214.1949
163.2767,-213.8017
163.4097,-213.4099
163.546,-213.0191
163.6791,-212.627
163.8101,-212.2346
163.9374,-211.8406
164.0619,-211.4459
164.1899,-211.0523
164.3155,-210.6578
164.4403,-210.2633
164.5684,-209.8696
164.6913,-209.4742
164.8194,-209.0809
164.961,-208.6918
165.1036,-208.3034
165.2493,-207.9159
165.3898,-207.5265
165.5055,-207.1296
165.6112,-206.7292
165.7184,-206.3294
165.8266,-205.9301
165.9511,-205.5354
166.0891,-205.1453
166.2254,-204.7545
166.362,-204.3636
166.4936,-203.9715
166.6152,-203.5757
166.7361,-203.1798
166.8598,-202.7849
166.9754,-202.3874
167.0748,-201.9859
167.1684,-201.5826
167.2663,-201.1803
167.3623,-200.7779
167.4574,-200.3748
167.5548,-199.9727
167.6495,-199.5698
167.7462,-199.1671
167.8514,-198.7671
167.9641,-198.3688
168.0793,-197.9711
168.1917,-197.573
168.3072,-197.1753
168.4276,-196.7793
168.5461,-196.3829
168.6684,-195.9871
168.7855,-195.5905
168.8794,-195.1874
168.9648,-194.7823
169.0539,-194.3783
169.1411,-193.9734
169.23,-193.5694
169.3198,-193.1653
169.4084,-192.7608
169.4976,-192.3569
169.5788,-191.9508
169.655,-191.544
169.7341,-191.1379
169.8099,-190.7307
169.8885,-190.3246
169.9765,-189.92
170.0646,-189.5155
170.1543,-189.1117
170.2418,-188.7069
170.3099,-188.2992
170.3608,-187.8885
170.4106,-187.4773
170.4626,-187.067
170.5133,-186.656
170.5671,-186.2456
170.6234,-185.8358
170.6743,-185.4246
170.7325,-185.0151
170.8135,-184.6095
170.9057,-184.2057
170.9954,-183.802
171.0845,-183.3975
171.1868,-182.9966
171.3012,-182.5991
171.4138,-182.2007
171.5336,-181.8042
171.6371,-181.4043
171.6827,-180.9935
171.7115,-180.58
171.7542,-180.1685
171.7885,-179.7559
171.8371,-179.3452
171.9054,-178.9367
171.9684,-178.5279
172.0365,-178.1195
172.0964,-177.71
172.1342,-177.298
172.173,-176.8857
172.2108,-176.4736
172.2484,-176.0615
172.297,-175.6502
172.345,-175.2394
172.3936,-174.8282
172.4443,-174.4172
172.4721,-174.0053
172.4687,-173.5915
172.4584,-173.1776
172.4525,-172.7639
172.4463,-172.3498
172.4556,-171.9364
172.478,-171.5229
172.494,-171.1093
172.514,-170.696
172.5322,-170.2822
172.5411,-169.8686
172.5565,-169.455
172.5645,-169.0409
172.5791,-168.6277
172.6234,-168.2158
172.6675,-167.8045
172.7154,-167.3932
172.7564,-166.9813
172.7478,-166.5684
172.7251,-166.1545
172.7124,-165.741
172.6917,-165.3277
172.6699,-164.9142
172.6399,-164.5016
172.607,-164.0889
172.5789,-163.6758
172.5466,-163.2634
172.5271,-162.8497
172.5105,-162.4362
172.4883,-162.023
172.472,-161.6091
172.4319,-161.1976
172.3799,-160.7868
172.3362,-160.3752
172.2812,-159.965
172.2496,-159.5525
172.2422,-159.1386
172.2289,-158.7256
172.2301,-158.3103
172.1995,-157.8999
172.1014,-157.4985
171.9918,-157.0989
171.8848,-156.6992
171.7829,-156.2981
171.7071,-155.8918
171.6474,-155.482
171.587,-155.0726
171.5211,-154.664
171.4823,-154.2525
171.478,-153.8387
171.4715,-153.4257
171.4773,-153.01
171.4623,-152.5984
171.3559,-152.2019
171.2134,-151.8116
171.0839,-151.4194
170.9507,-151.0272
170.8445,-150.6283
170.7721,-150.2208
170.6975,-149.8134
170.6202,-149.4071
170.551,-148.9987
170.4858,-148.5901
170.4226,-148.1813
170.3639,-147.771
170.2894,-147.3646
170.1827,-146.965
170.0683,-146.567
169.954,-146.1692
169.8476,-145.7693
169.7799,-145.3618
169.7292,-144.9506
169.6725,-144.5405
169.613,-144.1314
169.5193,-143.729
169.3987,-143.3325
169.2888,-142.9339
169.1752,-142.5356
169.0544,-142.1397
168.9319,-141.7447
168.799,-141.3523
168.6725,-140.9584
168.5458,-140.5644
168.3996,-140.1768
168.253,-139.7904
168.1018,-139.4047
167.9501,-139.0195
167.8507,-138.6212
167.8001,-138.2107
167.7545,-137.7992
167.7096,-137.3875
167.6542,-136.9779
167.5713,-136.5725
167.476,-136.1694
167.3893,-135.7649
167.3003,-135.3605
167.1586,-134.9763
166.9556,-134.6169
166.7456,-134.2592
166.5396,-133.9005
166.3334,-133.542
166.1608,-133.167
166.0208,-132.7778
165.882,-132.3878
165.7377,-131.9995
165.6156,-131.6053
165.5354,-131.1994
165.4625,-130.7919
165.3871,-130.3849
165.3087,-129.9786
165.1695,-129.5931
164.9817,-129.2233
164.802,-128.8508
164.6175,-128.4805
164.4366,-128.1077
164.2699,-127.7293
164.0969,-127.3531
163.9313,-126.9735
163.7586,-126.5979
163.5547,-126.2376
163.3419,-125.8829
163.1306,-125.5269
162.9192,-125.1709
162.6983,-124.8214
162.4662,-124.4782
162.2379,-124.1335
162.0026,-123.7923
161.7961,-123.4363
161.6549,-123.0482
161.5219,-122.6556
161.3851,-122.265
161.2465,-121.8755
161.0484,-121.5148
160.8176,-121.1704
160.5963,-120.8214
160.3686,-120.4751
160.1551,-120.121
159.9579,-119.7571
159.7556,-119.3958
159.5577,-119.0326
159.3605,-118.6684
159.1645,-118.3039
158.9735,-117.9368
158.7771,-117.5722
158.5842,-117.2063
158.395,-116.8379
158.2031,-116.4712
158.0159,-116.1022
157.8244,-115.735
157.6223,-115.3741
157.4157,-115.0154
157.2072,-114.6577
157.0008,-114.2991
156.7912,-113.9421
156.5765,-113.5882
156.3631,-113.2337
156.1488,-112.8793
155.9326,-112.5266
155.7099,-112.1777
155.4822,-111.8318
155.2597,-111.4831
155.0334,-111.1363
154.7987,-110.7954
154.5627,-110.4556
154.3248,-110.1166
154.0883,-109.7771
153.8546,-109.4355
153.6244,-109.0914
153.3982,-108.7449
153.1678,-108.4008
152.9446,-108.0525
152.7364,-107.6948
152.5269,-107.3377
152.3199,-106.9793
152.1102,-106.6224
151.8748,-106.2829
151.624,-105.9537
151.3735,-105.624
151.1229,-105.2947
150.8736,-104.9643
150.6241,-104.6339
150.3752,-104.3034
150.1262,-103.9726
149.8721,-103.6459
149.6152,-103.3215
149.3571,-102.9978
149.0996,-102.6738
148.8425,-102.3494
148.5839,-102.0261
148.3278,-101.7012
148.0688,-101.3781
147.8126,-101.0531
147.577,-100.7131
147.3495,-100.3672
147.1202,-100.0228
146.8924,-99.6771
146.644,-99.3471
146.3715,-99.0358
146.0979,-98.725
145.8256,-98.4134
145.5494,-98.1051
145.2684,-97.8012
144.9839,-97.5005
144.7029,-97.1966
144.429,-96.8866
144.1642,-96.5684
143.9021,-96.2481
143.6349,-95.932
143.3749,-95.6099
143.1287,-95.2773
142.8861,-94.942
142.6428,-94.6069
142.3976,-94.2737
142.1441,-93.9466
141.8815,-93.6266
141.6198,-93.306
141.3593,-92.9842
141.088,-92.6719
140.8085,-92.3668
140.5273,-92.0629
140.2462,-91.7591
139.966,-91.4545
139.6785,-91.1566
139.3894,-90.8605
139.1037,-90.561
138.8131,-90.2661
138.5415,-89.9549
138.2946,-89.6225
138.0452,-89.2927
137.8029,-88.9562
137.5504,-88.6291
137.2532,-88.3429
136.9415,-88.0697
136.634,-87.793
136.3265,-87.516
136.036,-87.2217
135.7583,-86.9148
135.4784,-86.6098
135.1986,-86.3049
134.9271,-85.9926
134.6644,-85.6725
134.3997,-85.3549
134.1412,-85.0306
133.8725,-84.717
133.5566,-84.4513
133.2263,-84.2004
132.9038,-83.9417
132.5791,-83.6848
132.2856,-83.3948
132.0119,-83.0836
131.7288,-82.7821
131.4538,-82.4725
131.1638,-82.1779
130.8508,-81.907
130.5414,-81.6323
130.2268,-81.3629
129.9279,-81.0778
129.6544,-80.7668
129.3771,-80.4603
129.108,-80.1446
128.8265,-79.8424
128.498,-79.592
128.1605,-79.3513
127.8278,-79.1053
127.495,-78.8596
127.1884,-78.583
126.8985,-78.2871
126.6043,-77.9964
126.3119,-77.7031
126.0291,-77.4013
125.7573,-77.0894
125.4879,-76.7748
125.2187,-76.4606
124.9425,-76.1528
124.639,-75.8717
124.3258,-75.6007
124.0216,-75.3201
123.7116,-75.0459
123.3998,-74.7735
123.0902,-74.4989
122.7753,-74.2302
122.4658,-73.9552
122.1528,-73.6846
121.8237,-73.4335
121.4929,-73.185
121.1614,-72.937
120.8287,-72.6906
120.5107,-72.4271
120.2137,-72.1392
119.9256,-71.8417
119.6286,-71.5533
119.3392,-71.2577
119.0826,-70.933
118.8329,-70.6032
118.5791,-70.2761
118.3291,-69.9459
118.047,-69.6467
117.7312,-69.3787
117.4164,-69.1104
117.0977,-68.8459
116.785,-68.5747
116.4997,-68.2762
116.2236,-67.9671
115.9455,-67.6607
115.6667,-67.3553
115.3764,-67.0602
115.0706,-66.7818
114.7624,-66.5054
114.4601,-66.2221
114.1431,-65.9576
113.8032,-65.7213
113.4607,-65.4896
113.1148,-65.2611
112.7779,-65.0217
112.477,-64.7398
112.1911,-64.4388
111.898,-64.1472
111.6064,-63.8538
111.3147,-63.5591
111.0178,-63.2717
110.7233,-62.9806
110.4309,-62.6868
110.1146,-62.4245
109.7647,-62.2042
109.4075,-61.9943
109.0533,-61.7803
108.7165,-61.543
108.4135,-61.2624
108.1169,-60.9726
107.8176,-60.6868
107.514,-60.4067
107.1762,-60.168
106.8262,-59.9457
106.4874,-59.7088
106.1419,-59.4799
105.8044,-59.2412
105.4769,-58.9876
105.1433,-58.7424
104.8143,-58.4919
104.4843,-58.2411
104.1511,-57.9962
103.8225,-57.7445
103.4902,-57.4971
103.1586,-57.2504
102.8231,-57.0074
102.4756,-56.7824
102.1314,-56.5532
101.7869,-56.3228
101.4342,-56.107
101.0792,-55.8947
100.7193,-55.6892
100.3613,-55.4823
100.0054,-55.2707
99.6444,-55.0674
99.2889,-54.8567
98.9303,-54.6486
98.571,-54.444
98.2592,-54.1803
97.993,-53.8638
97.7274,-53.5483
97.467,-53.2224
97.1955,-52.9148
96.8548,-52.6993
96.4672,-52.546
96.0877,-52.3852
95.7071,-52.222
95.3263,-52.0575
94.9583,-51.8716
94.5863,-51.6866
94.2128,-51.5095
93.8462,-51.3185
93.4892,-51.1089
93.1496,-50.8745
92.8119,-50.6334
92.4724,-50.3956
92.1373,-50.1583
91.7709,-50.0589
90.7057,-50.0589
91.7709,-50.0589
90.6497,-50.021
90.3662,-49.7016
90.0635,-49.4296
89.7586,-49.1468
89.4551,-48.8631
89.1379,-48.6014
88.8334,-48.3171
88.5284,-48.0384
88.2232,-47.7618
87.9437,-47.4491
87.6258,-47.1936
87.2469,-47.0377
86.8531,-46.9088
86.4568,-46.7761
86.1159,-46.5742
85.8565,-46.2584
85.6188,-45.912
85.3693,-45.5875
85.0924,-45.2773
84.8078,-44.9783
84.5166,-44.6856
84.2243,-44.3882
84.0863,-44.034
84.088,-43.6241
83.9824,-43.2435
83.7519,-42.9015
83.5035,-42.5652
83.2928,-42.2149
83.2051,-41.8163
83.1704,-41.3976
83.0967,-40.9934
83.0421,-40.5822
82.9951,-40.1699
82.9413,-39.7615
82.9085,-39.347
82.8592,-38.9367
82.817,-38.5253
82.8113,-38.1102
82.8033,-37.6978
82.7956,-37.283
82.7956,-36.8693
82.816,-36.4573
82.8637,-36.0446
82.899,-35.6331
82.9351,-35.2206
82.9745,-34.8085
82.9833,-34.3942
83.0191,-33.9821
83.1166,-33.5812
83.2278,-33.1823
83.3383,-32.7829
83.4581,-32.3877
83.5968,-31.9971
83.7472,-31.6116
83.8945,-31.2252
84.084,-30.8607
84.3424,-30.5407
84.6178,-30.2298
84.8813,-29.91
85.1528,-29.5996
85.4339,-29.2937
85.7113,-28.9873
85.9924,-28.6844
86.2713,-28.3765
86.5301,-28.0557
86.7846,-27.7284
87.0414,-27.4029
87.2941,-27.0773
87.5557,-26.7541
87.8178,-26.4351
88.0791,-26.1148
88.3458,-25.7956
88.5954,-25.4688
88.8362,-25.1303
89.0716,-24.7895
89.2821,-24.4358
89.4998,-24.0796
89.7056,-23.7245
89.8207,-23.3332
89.8791,-22.9216
89.9732,-22.5228
90.1034,-22.1268
90.2295,-21.7342
90.332,-21.3347
90.347,-20.9271
90.2541,-20.5302
90.1693,-20.1186
90.0814,-19.7188
89.8455,-19.4089
89.5157,-19.1549
89.2094,-18.8807
88.9105,-18.5916
88.6076,-18.3104
88.3073,-18.0266
88.0082,-17.738
87.7033,-17.4606
87.4076,-17.1693
87.1797,-16.8286
86.97,-16.4713
86.7579,-16.1156
86.6694,-15.7252
86.6548,-15.3083
86.6128,-14.897
86.5919,-14.4856
86.5576,-14.0693
86.5261,-13.66
86.6142,-13.2673
86.7889,-12.8947
86.9775,-12.5264
87.1436,-12.145
87.2822,-11.7581
87.4308,-11.3705
87.5651,-10.9773
87.7154,-10.5957
87.9278,-10.2362
88.1365,-9.8825
88.3555,-9.53
88.5612,-9.1686
88.6733,-8.7758
88.7941,-8.3747
88.9191,-7.9846
88.9363,-7.5755
88.9232,-7.1551
88.9115,-6.7479
88.863,-6.3343
88.7856,-5.9278
88.6407,-5.5476
88.474,-5.1613
88.3233,-4.7791
88.1134,-4.4253
87.8844,-4.074
87.6729,-3.7246
87.4399,-3.3796
87.2271,-3.0208
86.9988,-2.6844
86.684,-2.4144
86.3434,-2.1834
86.0081,-1.9431
85.6682,-1.6977
85.3315,-1.4686
84.9738,-1.2544
84.6051,-1.0633
84.2437,-0.87403
83.8752,-0.66814
83.5022,-0.50546
83.1069,-0.39132
82.6973,-0.28876
82.3061,-0.19291
81.9002,-0.073574
81.5013,-0.042669
