70.9117,-326.9734
71.2647,-326.7651
71.6176,-326.5564
71.9705,-326.348
72.3235,-326.1396
72.6763,-325.931
73.0293,-325.7227
73.3821,-325.514
73.735,-325.3056
74.088,-325.0972
74.4408,-324.8886
74.7938,-324.6803
75.1467,-324.4716
75.4996,-324.2632
75.8526,-324.0548
76.2053,-323.8461
76.5584,-323.638
76.9112,-323.4292
77.2642,-323.2209
77.6171,-323.0123
77.9699,-322.8038
78.323,-322.5955
78.6682,-322.375
79.0047,-322.1411
79.3411,-321.9068
79.6774,-321.6726
80.0141,-321.4387
80.3501,-321.204
80.6799,-320.9607
81.007,-320.7136
81.3349,-320.4677
81.6622,-320.221
81.9899,-319.9747
82.3174,-319.7283
82.6449,-319.4817
82.9726,-319.2355
83.2999,-318.9889
83.6276,-318.7426
83.9551,-318.4962
84.2826,-318.2497
84.6103,-318.0034
84.9377,-317.7568
85.2653,-317.5105
85.5928,-317.2641
85.9204,-317.0176
86.248,-316.7713
86.5754,-316.5247
86.9031,-316.2784
87.2306,-316.0319
87.5581,-315.7855
87.8857,-315.5392
88.2132,-315.2926
88.5408,-315.0463
88.8683,-314.7998
89.1959,-314.5535
89.5234,-314.307
89.8509,-314.0605
90.1786,-313.8143
90.5059,-313.5676
90.8337,-313.3216
91.161,-313.0746
91.4889,-312.8288
91.8225,-312.5906
92.1581,-312.3553
92.4927,-312.1186
92.8282,-311.8831
93.163,-311.6467
93.4982,-311.4107
93.8336,-311.175
94.1678,-310.9379
94.5015,-310.6997
94.8333,-310.4592
95.1673,-310.2215
95.4991,-309.9808
95.8161,-309.7215
96.1264,-309.4536
96.438,-309.1873
96.7488,-308.9201
97.0704,-308.6667
97.405,-308.43
97.7392,-308.1926
98.074,-307.9562
98.4081,-307.7186
98.733,-307.4688
99.0569,-307.2177
99.381,-306.9666
99.7053,-306.7161
100.0457,-306.4889
100.3969,-306.2773
100.7462,-306.0631
101.0977,-305.8519
101.4466,-305.637
101.79,-305.4132
102.1318,-305.187
102.4749,-304.9627
102.8169,-304.7368
103.1309,-304.4772
103.4155,-304.1822
103.7018,-303.8889
103.9859,-303.5933
104.2727,-303.3006
104.5847,-303.0355
104.9045,-302.7788
105.2216,-302.5193
105.5406,-302.2618
105.8495,-301.9927
106.1514,-301.7154
106.4546,-301.4397
106.7555,-301.1612
107.0607,-300.8878
107.3776,-300.628
107.6973,-300.3712
108.015,-300.1124
108.3335,-299.8543
108.6468,-299.59
108.9579,-299.3232
109.2704,-299.0578
109.5822,-298.7919
109.9097,-298.5461
110.2477,-298.3137
110.5803,-298.075
110.9202,-297.8445
111.2396,-297.5913
111.5133,-297.287
111.7809,-296.9758
112.0519,-296.6687
112.3226,-296.3608
112.6141,-296.073
112.9113,-295.7904
113.2038,-295.5034
113.5,-295.22
113.7901,-294.9305
114.0767,-294.6375
114.3645,-294.3455
114.6505,-294.052
114.9374,-293.7593
115.2211,-293.4633
115.5037,-293.1665
115.7882,-292.8714
116.0708,-292.5745
116.3606,-292.2847
116.656,-292.0005
116.9493,-291.7143
117.2461,-291.4314
117.5388,-291.1446
117.8185,-290.8451
118.0948,-290.5422
118.3726,-290.2409
118.6501,-289.9392
118.9334,-289.6431
119.2233,-289.3533
119.5123,-289.0626
119.802,-288.7727
120.089,-288.4802
120.3645,-288.1767
120.639,-287.8723
120.9146,-287.5688
121.1894,-287.2647
121.4838,-286.9805
121.7927,-286.7109
122.099,-286.4388
122.409,-286.1702
122.7118,-285.8944
123.0004,-285.6034
123.2866,-285.3099
123.5736,-285.0174
123.8612,-284.7251
124.131,-284.4177
124.378,-284.0906
124.6255,-283.7639
124.8708,-283.4355
125.1272,-283.1165
125.4143,-282.8242
125.7048,-282.5348
125.9934,-282.2439
126.2793,-281.9503
126.5426,-281.6362
126.8026,-281.3193
127.0657,-281.005
127.327,-280.6892
127.609,-280.3923
127.9001,-280.1035
128.1877,-279.8117
128.4789,-279.523
128.7566,-279.2219
129.0232,-278.9106
129.2913,-278.6005
129.5565,-278.288
129.832,-277.9848
130.1203,-277.6934
130.4088,-277.4024
130.6991,-277.1129
130.9825,-276.8171
131.2503,-276.5068
131.5141,-276.193
131.7807,-275.8818
132.046,-275.5692
132.3097,-275.2554
132.5742,-274.9424
132.8377,-274.6283
133.1019,-274.315
133.3725,-274.0071
133.6461,-273.7019
133.9199,-273.3969
134.1937,-273.0918
134.4597,-272.7803
134.7172,-272.4614
134.9742,-272.142
135.2314,-271.8229
135.4894,-271.5043
135.7519,-271.1896
136.0156,-270.8757
136.2783,-270.5611
136.5413,-270.2468
136.8005,-269.9292
137.0575,-269.6099
137.3161,-269.2919
137.5732,-268.9726
137.8318,-268.6546
138.0939,-268.3395
138.3557,-268.0241
138.6183,-267.7093
138.8801,-267.394
139.1427,-267.0793
139.4062,-266.7652
139.6684,-266.4503
139.9324,-266.1366
140.1807,-265.8114
140.405,-265.4683
140.6285,-265.1247
140.8521,-264.7812
141.0762,-264.438
141.3196,-264.1087
141.5741,-263.7874
141.8279,-263.4656
142.0822,-263.144
142.3367,-262.8228
142.5939,-262.5036
142.8502,-262.1838
143.1078,-261.8649
143.3637,-261.5447
143.6033,-261.2124
143.8365,-260.8752
144.0723,-260.54
144.3055,-260.2029
144.5471,-259.8719
144.7994,-259.549
145.0524,-259.2264
145.3059,-258.9043
145.5577,-258.5809
145.8023,-258.252
146.0434,-257.9206
146.287,-257.5908
146.5291,-257.2601
146.7625,-256.9234
146.987,-256.5804
147.2091,-256.2359
147.4338,-255.8931
147.655,-255.5481
147.8702,-255.1992
148.0858,-254.8506
148.3001,-254.5012
148.5159,-254.1527
148.7393,-253.8092
148.9674,-253.4686
149.1965,-253.1287
149.4239,-252.7877
149.6572,-252.4507
149.8985,-252.1193
150.1382,-251.787
150.3812,-251.4566
150.6199,-251.1236
150.8398,-250.778
151.0514,-250.4269
151.264,-250.0766
151.4777,-249.7267
151.6787,-249.3699
151.8601,-249.0024
152.0409,-248.6345
152.2198,-248.2656
152.4094,-247.9029
152.6355,-247.5613
152.869,-247.224
153.0959,-246.8829
153.3272,-246.5444
153.545,-246.1974
153.7528,-245.8441
153.9626,-245.4919
154.1702,-245.1385
154.3746,-244.7833
154.5702,-244.4231
154.7639,-244.0619
154.9602,-243.7021
155.1543,-243.341
155.3564,-242.9844
155.5601,-242.6287
155.7618,-242.2719
155.9658,-241.9164
156.1451,-241.5486
156.3026,-241.1701
156.4628,-240.793
156.6183,-240.4135
156.7796,-240.0369
156.9614,-239.6696
157.1488,-239.305
157.3335,-238.9391
157.5193,-238.5737
157.7126,-238.2124
157.9116,-237.854
158.1098,-237.4953
158.3098,-237.1374
158.4959,-236.7727
158.6576,-236.3962
158.8167,-236.0184
158.9774,-235.6413
159.1379,-235.2642
159.3093,-234.8919
159.4852,-234.5217
159.6595,-234.1507
159.8349,-233.7802
160.0119,-233.4106
160.1927,-233.0427
160.3737,-232.6749
160.5549,-232.3073
160.7351,-231.9391
160.904,-231.5657
161.0691,-231.1905
161.2368,-230.8165
161.4025,-230.4416
161.5733,-230.069
161.748,-229.6982
161.921,-229.3266
162.0967,-228.9562
162.2685,-228.5842
162.4301,-228.2075
162.589,-227.8296
162.75,-227.4527
162.9096,-227.0752
163.0645,-226.6957
163.2163,-226.3149
163.3678,-225.9341
163.5199,-225.5535
163.6711,-225.1725
163.8195,-224.7904
163.9661,-224.4076
164.115,-224.0257
164.2612,-223.6428
164.3898,-223.2539
164.5084,-222.8614
164.6306,-222.4702
164.7492,-222.0778
164.8821,-221.6905
165.0417,-221.3131
165.2025,-220.936
165.3635,-220.5591
165.5184,-220.1798
165.6479,-219.791
165.774,-219.4009
165.9034,-219.012
166.0303,-218.6222
166.1682,-218.2362
166.3084,-217.8511
166.4473,-217.4654
166.5882,-217.0805
166.7206,-216.6926
166.8478,-216.303
166.9743,-215.9131
167.1005,-215.5231
167.2286,-215.1338
167.3563,-214.7443
167.4861,-214.3555
167.6141,-213.9661
167.7461,-213.5781
167.8909,-213.1947
168.0353,-212.8111
168.1808,-212.4279
168.3247,-212.0441
168.4486,-211.6536
168.5652,-211.2605
168.6837,-210.8682
168.8006,-210.4753
168.9272,-210.0856
169.0616,-209.6983
169.1953,-209.3109
169.3304,-208.9238
169.4622,-208.5358
169.5869,-208.1453
169.7101,-207.7544
169.8342,-207.3637
169.958,-206.973
170.0875,-206.5841
170.2231,-206.1973
170.3585,-205.8104
170.4939,-205.4236
170.6225,-205.0345
170.7411,-204.6421
170.859,-204.2495
170.9785,-203.8574
171.0949,-203.4645
171.2027,-203.069
171.3071,-202.6726
171.4145,-202.2771
171.52,-201.881
171.6378,-201.4886
171.7722,-201.1013
171.9043,-200.7134
172.0394,-200.3264
172.1713,-199.9383
172.2817,-199.5438
172.3854,-199.1471
172.4909,-198.7511
172.595,-198.3547
172.7019,-197.9589
172.8099,-197.5636
172.9188,-197.1683
173.0272,-196.7731
173.1354,-196.3778
173.245,-195.9827
173.3524,-195.5873
173.463,-195.1924
173.5696,-194.7968
173.6555,-194.3962
173.7333,-193.9936
173.8146,-193.592
173.8934,-193.1897
173.9754,-192.7881
174.0612,-192.3873
174.1455,-191.9861
174.2326,-191.5856
174.3149,-191.1841
174.3801,-190.7795
174.4401,-190.374
174.5051,-189.9693
174.5659,-189.564
174.6177,-189.1574
174.6653,-188.7503
174.7128,-188.3431
174.7616,-187.9361
174.808,-187.5289
174.8488,-187.1211
174.8877,-186.713
174.9278,-186.3051
174.9675,-185.8971
175.0112,-185.4896
175.0571,-185.0823
175.1015,-184.6748
175.1475,-184.2675
175.1751,-183.8591
175.1759,-183.4493
175.176,-183.0393
175.1762,-182.6294
175.179,-182.2197
175.2031,-181.8105
175.2298,-181.4014
175.2534,-180.9923
175.2799,-180.5832
175.2905,-180.1736
175.2933,-179.7637
175.2974,-179.3538
175.2987,-178.9439
175.3151,-178.5345
175.3453,-178.1259
175.3765,-177.7171
175.4093,-177.3085
175.4211,-176.8997
175.3986,-176.4906
175.3693,-176.0816
175.346,-175.6724
175.3188,-175.2634
175.2926,-174.8543
175.2681,-174.4452
175.2402,-174.0362
175.216,-173.6271
175.1805,-173.2189
175.1276,-172.8123
175.0781,-172.4057
175.0221,-171.9993
174.9778,-171.5923
174.9811,-171.1828
174.9941,-170.7727
174.9985,-170.3631
175.0098,-169.9532
174.9919,-169.5449
174.9359,-169.139
174.8778,-168.7332
174.8206,-168.3273
174.7635,-167.9214
174.7159,-167.5143
174.6695,-167.107
174.6219,-166.6999
174.5751,-166.2927
174.517,-165.8871
174.4513,-165.4825
174.3876,-165.0776
174.3214,-164.6731
174.2632,-164.2674
174.2188,-163.86
174.1752,-163.4524
174.1318,-163.0448
174.0876,-162.6373
174.0398,-162.2302
173.9906,-161.8233
173.9409,-161.4165
173.8925,-161.0094
173.8333,-160.604
173.759,-160.2009
173.6836,-159.798
173.6089,-159.395
173.5336,-158.9921
173.4473,-158.5916
173.3482,-158.1938
173.2529,-157.7952
173.1521,-157.3977
173.0598,-156.9986
173.0016,-156.593
172.9481,-156.1865
172.8925,-155.7805
172.836,-155.3745
172.751,-154.9739
172.6555,-154.5751
172.565,-154.1754
172.4708,-153.7765
172.3874,-153.3752
172.3085,-152.973
172.2281,-152.571
172.1497,-152.1687
172.0487,-151.772
171.9269,-151.3807
171.806,-150.9891
171.6833,-150.5979
171.5662,-150.2052
171.4595,-149.8094
171.3539,-149.4134
171.2476,-149.0175
171.142,-148.6214
171.044,-148.2235
170.9511,-147.8242
170.8561,-147.4255
170.7631,-147.0263
170.655,-146.6313
170.5272,-146.2418
170.4016,-145.8517
170.2723,-145.4626
170.1519,-145.0712
170.0609,-144.6715
169.972,-144.2714
169.8832,-143.8712
169.7921,-143.4717
169.6634,-143.0835
169.5141,-142.7016
169.3691,-142.3184
169.2207,-141.9362
169.0762,-141.5526
168.9391,-141.1664
168.8034,-140.7796
168.666,-140.3934
168.535,-140.0052
168.4226,-139.611
168.3124,-139.2162
168.201,-138.8217
168.0894,-138.4274
167.9459,-138.0444
167.7795,-137.6697
167.6164,-137.2938
167.4505,-136.9189
167.2892,-136.5421
167.1353,-136.1623
166.981,-135.7825
166.8272,-135.4026
166.6735,-135.0225
166.5298,-134.6388
166.3922,-134.2526
166.2515,-133.8677
166.1138,-133.4816
165.9633,-133.1006
165.7965,-132.7262
165.6312,-132.3511
165.463,-131.9772
165.2983,-131.602
165.1475,-131.2209
164.9992,-130.8387
164.8504,-130.4568
164.7011,-130.0751
164.5488,-129.6946
164.3944,-129.3148
164.2391,-128.9355
164.0863,-128.5551
163.9229,-128.1795
163.7377,-127.8141
163.5478,-127.4507
163.3616,-127.0855
163.1731,-126.7216
162.9838,-126.358
162.7942,-125.9946
162.6042,-125.6314
162.4146,-125.268
162.2222,-124.9061
162.0272,-124.5455
161.8328,-124.1847
161.638,-123.8241
161.4416,-123.4643
161.2429,-123.1058
161.0419,-122.7485
160.8438,-122.3897
160.6426,-122.0326
160.426,-121.6849
160.202,-121.3416
159.9794,-120.9974
159.7561,-120.6536
159.5399,-120.3055
159.3313,-119.9527
159.1225,-119.6
158.9137,-119.2472
158.7052,-118.8944
158.4986,-118.5404
158.2927,-118.1859
158.0865,-117.8317
157.8803,-117.4774
157.6611,-117.1314
157.4293,-116.7933
157.1988,-116.4543
156.9667,-116.1166
156.7383,-115.7762
156.5228,-115.4276
156.3093,-115.0777
156.0941,-114.7288
155.8801,-114.3793
155.6637,-114.0311
155.4465,-113.6835
155.23,-113.3355
155.0125,-112.988
154.7927,-112.6422
154.5692,-112.2985
154.3455,-111.9551
154.1228,-111.6109
153.8929,-111.2717
153.6513,-110.9407
153.4076,-110.611
153.1654,-110.2804
152.9227,-109.9501
152.686,-109.6154
152.4509,-109.2797
152.2141,-108.9451
151.9785,-108.6097
151.7319,-108.2825
151.4768,-107.9615
151.2246,-107.6386
150.9688,-107.3182
150.7209,-106.992
150.4897,-106.6536
150.2593,-106.3145
150.0301,-105.9747
149.798,-105.6369
149.5492,-105.3113
149.2959,-104.989
149.0459,-104.6642
148.7941,-104.3407
148.5475,-104.0133
148.3032,-103.6841
148.0571,-103.3565
147.8127,-103.0273
147.5565,-102.7077
147.286,-102.3998
147.0159,-102.0915
146.7452,-101.7838
146.478,-101.473
146.219,-101.1552
145.959,-100.8385
145.7007,-100.5201
145.4403,-100.2036
145.1667,-99.8985
144.8891,-99.5969
144.6125,-99.2945
144.3352,-98.9926
144.0582,-98.6906
143.7792,-98.3902
143.5014,-98.0888
143.2221,-97.7888
142.9443,-97.4874
142.6806,-97.1739
142.4237,-96.8545
142.1673,-96.5347
141.9097,-96.2159
141.6363,-95.9111
141.3502,-95.6176
141.0644,-95.3237
140.7792,-95.0294
140.4906,-94.7383
140.196,-94.4533
139.9007,-94.1692
139.6049,-93.8853
139.311,-93.5997
139.0353,-93.2967
138.7668,-92.9867
138.4934,-92.6816
138.2244,-92.372
137.9365,-92.082
137.6201,-91.8215
137.3038,-91.5609
136.9857,-91.3022
136.6707,-91.0402
136.3838,-90.7485
136.1086,-90.4445
135.829,-90.1449
135.5532,-89.8416
135.2682,-89.5473
134.9686,-89.2676
134.6689,-88.988
134.3681,-88.7095
134.0692,-88.429
133.7831,-88.1357
133.4993,-87.8399
133.2141,-87.5455
132.9292,-87.2509
132.6259,-86.976
132.3081,-86.7171
131.9928,-86.4552
131.6748,-86.1965
131.3605,-85.9336
131.0578,-85.6572
130.7561,-85.3798
130.454,-85.1027
130.152,-84.8256
129.8488,-84.5498
129.5458,-84.2737
129.2417,-83.9989
128.9392,-83.7222
128.6293,-83.4544
128.3047,-83.2041
127.9791,-82.9552
127.6537,-82.706
127.329,-82.4557
127.0178,-82.1894
126.7121,-81.9161
126.403,-81.647
126.0976,-81.3736
125.7887,-81.1041
125.4671,-80.8503
125.1426,-80.5998
124.8195,-80.3475
124.4958,-80.0961
124.1809,-79.834
123.8744,-79.5619
123.5674,-79.2902
123.261,-79.0179
122.9533,-78.7473
122.6422,-78.4803
122.3301,-78.2146
122.0194,-77.9473
121.707,-77.6818
121.381,-77.4342
121.0457,-77.1983
120.7118,-76.9606
120.3769,-76.7243
120.0518,-76.4752
119.7395,-76.2098
119.4269,-75.9446
119.115,-75.6787
118.8022,-75.4139
118.4845,-75.1547
118.1654,-74.8977
117.848,-74.6381
117.5285,-74.3815
117.1919,-74.149
116.8433,-73.9328
116.4971,-73.7137
116.1492,-73.4969
115.8075,-73.2708
115.4763,-73.0295
115.1446,-72.7884
114.8137,-72.5468
114.4821,-72.3058
114.148,-72.0682
113.814,-71.8308
113.4798,-71.5933
113.1456,-71.3562
112.8072,-71.1249
112.4661,-70.8974
112.1263,-70.6685
111.7852,-70.4409
111.4438,-70.2143
111.1003,-69.9906
110.756,-69.768
110.413,-69.5439
110.0694,-69.3201
109.731,-69.089
109.3935,-68.8564
109.0539,-68.6267
108.717,-68.3935
108.3694,-68.1768
108.0103,-67.9791
107.6527,-67.7794
107.2913,-67.5849
106.9354,-67.3826
106.6003,-67.1471
106.271,-66.9024
105.9382,-66.6637
105.6064,-66.4225
105.2654,-66.1959
104.9157,-65.9817
104.5691,-65.7628
104.2204,-65.5478
103.8767,-65.3243
103.5432,-65.0862
103.2071,-64.8517
102.8741,-64.6122
102.5383,-64.3778
102.1873,-64.1658
101.8349,-63.9568
101.4824,-63.7475
101.1303,-63.5373
100.7856,-63.3162
100.4418,-63.0925
100.0985,-62.8688
99.7548,-62.6457
99.4129,-62.4191
99.0763,-62.1857
98.7375,-61.9547
98.4018,-61.7193
98.0626,-61.4899
97.7065,-61.2865
97.3473,-61.0895
96.9901,-60.8881
96.6319,-60.6888
96.2773,-60.4838
95.9234,-60.2762
95.5689,-60.0711
95.215,-59.864
94.8607,-59.6576
94.5063,-59.4524
94.1526,-59.2443
93.7977,-59.0399
93.4465,-58.8288
93.1061,-58.5998
92.766,-58.3724
92.4273,-58.1397
92.0851,-57.9159
91.7111,-57.752
91.3253,-57.61
90.9466,-57.4564
90.5621,-57.3113
90.1981,-57.1282
89.8549,-56.904
89.5079,-56.6856
89.167,-56.4581
88.8155,-56.2482
88.4384,-56.0892
88.058,-55.9368
87.678,-55.7813
87.3,-55.6255
86.9522,-55.4158
86.6348,-55.156
86.3152,-54.9002
85.9968,-54.641
85.6777,-54.3847
85.3339,-54.1613
84.9874,-53.9417
84.6448,-53.7181
84.2974,-53.4987
83.9635,-53.2623
83.63,-53.0236
83.295,-52.787
82.9648,-52.5451
82.618,-52.3263
82.2589,-52.131
81.8951,-51.9414
81.532,-51.7498
81.1725,-51.5558
80.8118,-51.358
80.4604,-51.1489
80.1049,-50.9448
79.7485,-50.7403
79.4029,-50.5233
79.055,-50.3033
78.7193,-50.0702
78.3737,-49.8489
78.045,-49.6073
77.7997,-49.2791
77.5398,-48.9646
77.2081,-48.7269
76.8578,-48.5093
76.528,-48.2705
76.3283,-47.9289
76.194,-47.5382
75.9104,-47.2511
75.6139,-46.989
75.5509,-46.617
75.5183,-46.2122
75.2354,-45.9075
74.9519,-45.6382
74.945,-45.264
75.0054,-44.8409
75.0008,-44.4405
75.0199,-44.0274
75.0343,-43.6164
75.0424,-43.2108
75.0638,-42.7967
75.0726,-42.3901
75.0893,-41.9797
75.1129,-41.5691
75.1385,-41.1629
75.1699,-40.7513
75.1957,-40.3439
75.2251,-39.9351
75.2534,-39.5247
75.2816,-39.118
75.3095,-38.707
75.3394,-38.2993
75.4071,-37.8964
75.4988,-37.4954
75.5846,-37.0964
75.6748,-36.6951
75.7835,-36.3012
75.9207,-35.9157
76.0614,-35.5292
76.1981,-35.1444
76.3374,-34.7579
76.4539,-34.365
76.5678,-33.9719
76.6862,-33.5784
76.7999,-33.1856
76.9575,-32.8088
77.151,-32.4473
77.3408,-32.0849
77.5374,-31.724
77.7257,-31.3609
77.888,-30.9845
78.0441,-30.6051
78.2014,-30.2271
78.3614,-29.8494
78.5533,-29.4893
78.7775,-29.1458
78.9965,-28.7993
79.2174,-28.4541
79.4328,-28.1058
79.6223,-27.7416
79.8208,-27.3839
80.0106,-27.0197
80.206,-26.6598
80.5026,-26.3872
80.8271,-26.1389
81.0713,-25.812
81.2967,-25.4683
81.5342,-25.1355
81.786,-24.8138
82.0866,-24.537
82.3937,-24.2627
82.6893,-23.9814
82.9971,-23.7088
83.2923,-23.424
83.5914,-23.1464
83.8934,-22.8647
84.1875,-22.5844
84.5392,-22.373
84.9031,-22.1858
85.1851,-21.9158
85.3975,-21.5629
85.5811,-21.1989
85.805,-20.8516
85.9844,-20.4866
85.9918,-20.0847
85.972,-19.6687
85.9711,-19.2625
85.8973,-18.8594
85.8194,-18.455
85.775,-18.0538
85.7607,-17.6345
85.6812,-17.2505
85.3979,-16.9697
85.0599,-16.7148
84.7719,-16.438
84.4461,-16.1763
84.1559,-15.892
84.0135,-15.5385
83.9989,-15.1333
84.004,-14.7183
83.9877,-14.3124
84.029,-13.9051
84.1154,-13.5042
84.2045,-13.107
84.2959,-12.7034
84.3839,-12.3064
84.5061,-11.9142
84.6392,-11.5251
84.7638,-11.1381
84.9002,-10.7472
85.0095,-10.3559
85.1059,-9.9563
85.1933,-9.555
85.2874,-9.1582
85.3756,-8.7556
85.3177,-8.3563
85.2379,-7.9536
85.2769,-7.5436
85.2939,-7.137
85.3378,-6.7258
85.3846,-6.3226
85.2775,-5.9312
85.1405,-5.5391
84.9866,-5.1702
84.7513,-4.8277
84.5261,-4.4883
84.3045,-4.1445
84.0929,-3.7899
83.8979,-3.4337
83.6823,-3.0813
83.4886,-2.7207
83.2688,-2.3781
82.9863,-2.0778
82.6987,-1.7913
82.3754,-1.5467
81.9989,-1.3916
81.6159,-1.2439
81.2617,-1.0361
80.9285,-0.80793
80.59,-0.56701
80.2591,-0.32865
79.8987,-0.16503
79.49,-0.11037
79.0856,-0.096642
78.6711,-0.035174
78.2696,-0.020191
