75.3156,-321.4031
75.6613,-321.2052
76.0037,-321.0012
76.3486,-320.8017
76.6921,-320.5998
77.0358,-320.3982
77.3803,-320.1978
77.7237,-319.9957
78.0678,-319.7948
78.4119,-319.5937
78.7554,-319.3919
79.0997,-319.1912
79.4435,-318.9897
79.7872,-318.7882
80.1314,-318.5874
80.475,-318.3857
80.819,-318.1846
81.1631,-317.9836
81.5067,-317.7818
81.8508,-317.5809
82.1948,-317.3797
82.5384,-317.178
82.8827,-316.9773
83.2264,-316.7757
83.5702,-316.5743
83.9145,-316.3735
84.2579,-316.1717
84.602,-315.9707
84.9462,-315.7697
85.2895,-315.5677
85.634,-315.3672
85.9777,-315.1657
86.3212,-314.9639
86.6661,-314.7639
87.0089,-314.5612
87.3534,-314.3607
87.6977,-314.1599
88.0208,-313.93
88.3202,-313.6676
88.6167,-313.4009
88.9146,-313.1365
89.2137,-312.8732
89.5245,-312.6241
89.8426,-312.3841
90.1573,-312.1397
90.4727,-311.896
90.7947,-311.6617
91.1246,-311.4385
91.4589,-311.2214
91.7908,-311.0009
92.1222,-310.7798
92.4562,-310.5622
92.7877,-310.3413
93.1192,-310.1203
93.4544,-309.9044
93.7828,-309.6791
94.096,-309.4334
94.402,-309.1777
94.7108,-308.926
95.0204,-308.6753
95.3271,-308.4207
95.6365,-308.1697
95.9453,-307.9179
96.2522,-307.6636
96.5778,-307.4357
96.9211,-307.2336
97.2634,-307.0303
97.6107,-306.8331
97.9434,-306.6176
98.2307,-306.3428
98.5071,-306.054
98.7942,-305.7794
99.0708,-305.4906
99.3687,-305.2304
99.7132,-305.0322
100.0657,-304.8444
100.4137,-304.6516
100.7604,-304.4551
101.0877,-304.2284
101.4074,-303.99
101.7344,-303.7623
102.0571,-303.5287
102.3761,-303.2899
102.6917,-303.0469
103.0017,-302.7962
103.316,-302.5513
103.6289,-302.3048
103.9335,-302.0476
104.2396,-301.7926
104.5442,-301.5358
104.8481,-301.2779
105.1637,-301.0351
105.4855,-300.8002
105.808,-300.5662
106.1328,-300.3351
106.4465,-300.0901
106.7462,-299.8277
107.0435,-299.5625
107.3394,-299.2953
107.6402,-299.0343
107.9572,-298.7934
108.2807,-298.5603
108.6017,-298.3243
108.9218,-298.0871
109.2312,-297.8365
109.5292,-297.572
109.8294,-297.3099
110.1293,-297.0476
110.4284,-296.7842
110.7359,-296.5309
111.0448,-296.2792
111.3519,-296.0252
111.6611,-295.7738
111.961,-295.5117
112.2537,-295.2412
112.5495,-294.9744
112.8409,-294.7023
113.1392,-294.4386
113.4575,-294.199
113.7777,-293.9619
114.0973,-293.7237
114.4168,-293.4857
114.71,-293.2182
114.9818,-292.9267
115.2551,-292.6369
115.5256,-292.3441
115.8045,-292.0601
116.1068,-291.8009
116.414,-291.5467
116.7176,-291.2888
117.0229,-291.0327
117.321,-290.7683
117.6115,-290.4958
117.9035,-290.2246
118.1947,-289.9525
118.4859,-289.6806
118.782,-289.4139
119.0792,-289.1485
119.3761,-288.8828
119.674,-288.618
119.9678,-288.349
120.257,-288.0748
120.5463,-287.8008
120.8346,-287.5257
121.1245,-287.2523
121.4231,-286.9886
121.7253,-286.7289
122.0258,-286.4671
122.3283,-286.2078
122.6261,-285.9433
122.9111,-285.6648
123.1919,-285.382
123.4767,-285.1034
123.7582,-284.8213
124.0264,-284.527
124.2864,-284.2251
124.5479,-283.9244
124.8074,-283.6219
125.07,-283.3223
125.3486,-283.0375
125.6324,-282.7577
125.912,-282.4739
126.1943,-282.1927
126.4746,-281.9094
126.7519,-281.6232
127.0318,-281.3397
127.3085,-281.0528
127.5881,-280.7691
127.8801,-280.4979
128.1737,-280.2285
128.4668,-279.9586
128.7596,-279.6883
129.0381,-279.4038
129.3053,-279.1082
129.5735,-278.8135
129.8412,-278.5183
130.1061,-278.2207
130.3687,-277.9211
130.6305,-277.6206
130.8925,-277.3204
131.1556,-277.0212
131.4265,-276.729
131.7023,-276.4414
131.9747,-276.1506
132.2495,-275.862
132.5226,-275.5718
132.7847,-275.2716
133.0469,-274.9717
133.3102,-274.6726
133.5708,-274.3711
133.846,-274.0834
134.1345,-273.8086
134.423,-273.534
134.7154,-273.2628
134.9971,-272.9818
135.2503,-272.6746
135.4945,-272.3593
135.7449,-272.0495
135.993,-271.7377
136.2395,-271.4245
136.488,-271.1131
136.7348,-270.8002
136.9814,-270.4872
137.2299,-270.1758
137.4785,-269.8643
137.729,-269.5544
137.9797,-269.2447
138.2284,-268.9333
138.4826,-268.6265
138.7446,-268.3264
139.0071,-268.0266
139.2703,-267.7274
139.5325,-267.4274
139.7797,-267.1154
140.0117,-266.7916
140.2421,-266.4664
140.4737,-266.1422
140.7063,-265.8186
140.9451,-265.4996
141.1873,-265.1832
141.426,-264.8641
141.6672,-264.547
141.9206,-264.2397
142.181,-263.9381
142.4411,-263.6362
142.7026,-263.3355
142.9587,-263.0304
143.202,-262.7149
143.4417,-262.3965
143.684,-262.0802
143.925,-261.7629
144.1647,-261.4446
144.4037,-261.1257
144.6421,-260.8064
144.8813,-260.4878
145.117,-260.1665
145.3438,-259.8389
145.5664,-259.5084
145.794,-259.1812
146.0166,-258.8509
146.2182,-258.5073
146.4125,-258.1594
146.6107,-257.8139
146.804,-257.4651
147.013,-257.1269
147.2551,-256.8107
147.5033,-256.4987
147.7479,-256.1843
147.9927,-255.8699
148.22,-255.543
148.4332,-255.2064
148.6497,-254.8718
148.8655,-254.5369
149.0779,-254.1997
149.2861,-253.86
149.4905,-253.518
149.6971,-253.1772
149.9036,-252.8364
150.1139,-252.498
150.3323,-252.1647
150.549,-251.8303
150.7675,-251.497
150.9831,-251.1621
151.176,-250.8136
151.3606,-250.4603
151.5514,-250.1106
151.7377,-249.7583
151.9293,-249.409
152.1313,-249.0655
152.3302,-248.7202
152.5316,-248.3764
152.7327,-248.0324
152.9195,-247.6805
153.0994,-247.3251
153.2784,-246.969
153.4549,-246.6117
153.6373,-246.2576
153.8305,-245.9091
154.0291,-245.5636
154.2259,-245.2171
154.4206,-244.8695
154.6154,-244.5219
154.8054,-244.1716
154.9947,-243.821
155.189,-243.473
155.3748,-243.1206
155.5458,-242.7608
155.7117,-242.3985
155.8789,-242.0368
156.0477,-241.6759
156.2118,-241.3127
156.3727,-240.9481
156.5362,-240.5849
156.6946,-240.219
156.859,-239.8562
157.0509,-239.5076
157.2541,-239.1646
157.4543,-238.8202
157.6575,-238.4774
157.8477,-238.1277
158.0153,-237.7663
158.1784,-237.4026
158.3446,-237.0405
158.5098,-236.6779
158.6739,-236.3148
158.8385,-235.9519
159.0033,-235.5891
159.1662,-235.2254
159.3327,-234.8635
159.508,-234.5056
159.6853,-234.1488
159.8625,-233.7919
160.0384,-233.4344
160.2051,-233.0726
160.3624,-232.7065
160.5182,-232.3397
160.6768,-231.9742
160.8318,-231.6071
160.9766,-231.2358
161.1199,-230.8641
161.264,-230.4925
161.4073,-230.1207
161.5643,-229.7548
161.7348,-229.3946
161.9056,-229.0346
162.0783,-228.6755
162.2431,-228.3129
162.3861,-227.9411
162.5215,-227.5663
162.6636,-227.1939
162.801,-226.8201
162.9175,-226.4391
163.024,-226.0551
163.1355,-225.6729
163.2384,-225.2872
163.3538,-224.9066
163.524,-224.5474
163.7125,-224.1953
163.8884,-223.8385
164.0727,-223.4847
164.2302,-223.1205
164.3406,-222.7378
164.4503,-222.3545
164.5611,-221.9719
164.6704,-221.5886
164.8038,-221.2132
164.9408,-220.839
165.0733,-220.4632
165.2131,-220.0899
165.3297,-219.7096
165.4196,-219.3215
165.5081,-218.9331
165.5924,-218.5434
165.69,-218.1576
165.8206,-217.7815
165.9604,-217.408
166.0947,-217.033
166.2304,-216.6583
166.3643,-216.2829
166.4939,-215.9062
166.6239,-215.5295
166.7565,-215.1537
166.8839,-214.7763
166.9967,-214.3942
167.1017,-214.0097
167.2096,-213.6262
167.3174,-213.2426
167.4166,-212.8567
167.506,-212.4685
167.5927,-212.0795
167.6812,-211.691
167.7689,-211.3023
167.8502,-210.9123
167.9252,-210.5209
168.0004,-210.1296
168.0745,-209.7381
168.151,-209.347
168.2446,-208.9598
168.3444,-208.5739
168.4392,-208.1869
168.5375,-207.8009
168.6196,-207.4111
168.6854,-207.0179
168.7594,-206.6268
168.8218,-206.2324
168.8975,-205.8422
169.0379,-205.4697
169.1915,-205.1014
169.3341,-204.73
169.4859,-204.3607
169.5731,-203.9784
169.5841,-203.5801
169.5958,-203.182
169.6007,-202.7832
169.6197,-202.3858
169.7115,-201.9993
169.8224,-201.6152
169.9166,-201.2287
170.0219,-200.8442
170.1134,-200.4564
170.1827,-200.0643
170.2555,-199.6724
170.3254,-199.28
170.3961,-198.8881
170.4735,-198.497
170.5469,-198.1054
170.6236,-197.7144
170.6992,-197.3231
170.7571,-196.9292
170.8047,-196.5336
170.8503,-196.1376
170.8958,-195.7419
170.9469,-195.3467
171.0065,-194.9527
171.0712,-194.5596
171.1317,-194.1656
171.1947,-193.7722
171.2758,-193.3823
171.3648,-192.9938
171.4526,-192.6052
171.5427,-192.217
171.6219,-191.8267
171.6837,-191.4332
171.7417,-191.0389
171.8027,-190.6451
171.8618,-190.2511
171.9096,-189.8556
171.9471,-189.4589
171.9846,-189.0622
172.0222,-188.6655
172.0597,-188.2688
172.0997,-187.8723
172.1397,-187.4759
172.1802,-187.0795
172.22,-186.683
172.2637,-186.287
172.3175,-185.8921
172.3711,-185.4973
172.4257,-185.1025
172.4783,-184.7077
172.4962,-184.3105
172.49,-183.9119
172.4903,-183.5137
172.482,-183.1149
172.485,-182.7169
172.5357,-182.3221
172.5978,-181.928
172.6503,-181.5333
172.7095,-181.139
172.7464,-180.7431
172.7496,-180.3448
172.752,-179.9462
172.756,-179.5479
172.757,-179.1493
172.7716,-178.7512
172.7957,-178.3535
172.8191,-177.9557
172.8472,-177.5581
172.8673,-177.1604
172.8608,-176.7621
172.8444,-176.3639
172.8332,-175.9656
172.8202,-175.5673
172.816,-175.1691
172.829,-174.7708
172.8416,-174.3725
172.8536,-173.9743
172.8663,-173.5759
172.8656,-173.1775
172.861,-172.7791
172.8607,-172.3806
172.856,-171.9822
172.8551,-171.5837
172.8575,-171.1851
172.8557,-170.7868
172.8602,-170.3882
172.8582,-169.9899
172.8296,-169.5928
172.7895,-169.1963
172.7502,-168.7998
172.7109,-168.4033
172.6716,-168.0067
172.6279,-167.6107
172.5839,-167.2146
172.5402,-166.8186
172.4957,-166.4226
172.4682,-166.0254
172.457,-165.6271
172.4446,-165.2288
172.4352,-164.8304
172.4214,-164.4322
172.389,-164.0352
172.3516,-163.6384
172.3173,-163.2414
172.2814,-162.8446
172.2453,-162.4477
172.2068,-162.0512
172.1674,-161.6546
172.1292,-161.258
172.0899,-160.8615
172.0579,-160.4642
172.0306,-160.0667
172.0003,-159.6695
171.9754,-159.2716
171.9432,-158.8747
171.884,-158.4808
171.816,-158.088
171.7539,-157.6945
171.6884,-157.3014
171.6157,-156.9096
171.5371,-156.5191
171.4568,-156.1287
171.378,-155.7382
171.2986,-155.3477
171.2208,-154.9568
171.1438,-154.5659
171.0658,-154.1751
170.9884,-153.7842
170.9033,-153.395
170.8119,-153.0071
170.7242,-152.6185
170.6315,-152.2308
170.5444,-151.8421
170.4861,-151.4481
170.4356,-151.0527
170.3793,-150.6584
170.3294,-150.2628
170.2577,-149.8719
170.1442,-149.4903
170.0235,-149.1103
169.9081,-148.729
169.7902,-148.3483
169.6864,-147.9639
169.597,-147.5755
169.5055,-147.1877
169.4149,-146.7997
169.3249,-146.4114
169.2276,-146.0251
169.1296,-145.6388
169.0325,-145.2524
168.9327,-144.8667
168.8394,-144.4792
168.7538,-144.0901
168.6684,-143.701
168.5858,-143.3109
168.4982,-142.9224
168.389,-142.5395
168.268,-142.1597
168.1502,-141.7792
168.0304,-141.399
167.9145,-141.0179
167.8126,-140.6328
167.7139,-140.2466
167.6121,-139.8614
167.5121,-139.4757
167.4088,-139.0907
167.3016,-138.7071
167.1969,-138.3225
167.0911,-137.9384
166.9781,-137.5565
166.8564,-137.1769
166.7303,-136.799
166.6079,-136.4198
166.4836,-136.0411
166.3469,-135.6669
166.2063,-135.2942
166.0664,-134.921
165.9233,-134.5491
165.7918,-134.1732
165.6821,-133.7903
165.5783,-133.4055
165.4709,-133.0217
165.3645,-132.6378
165.2563,-132.2543
165.1435,-131.8721
165.0308,-131.49
164.9198,-131.1072
164.8057,-130.7254
164.6836,-130.3463
164.5533,-129.9696
164.4217,-129.5935
164.2944,-129.216
164.1608,-128.8405
164.0076,-128.4731
163.8428,-128.1103
163.6805,-127.7462
163.5188,-127.3822
163.3519,-127.0203
163.179,-126.6613
163.0027,-126.3041
162.8282,-125.9457
162.6537,-125.5875
162.4739,-125.232
162.2922,-124.8772
162.1109,-124.5225
161.9278,-124.1686
161.7473,-123.8132
161.5723,-123.4554
161.3989,-123.0966
161.2256,-122.7376
161.0512,-122.3796
160.8705,-122.0243
160.6814,-121.6737
160.4906,-121.324
160.3027,-120.9723
160.109,-120.6244
159.9048,-120.2822
159.699,-119.9409
159.4938,-119.5994
159.2884,-119.2579
159.088,-118.9135
158.8912,-118.5672
158.6942,-118.2206
158.4988,-117.8734
158.2986,-117.5291
158.0861,-117.1918
157.8691,-116.8577
157.6551,-116.5216
157.4405,-116.1857
157.2206,-115.8536
156.9972,-115.5236
156.7725,-115.1945
156.5469,-114.8661
156.3244,-114.5354
156.1097,-114.1999
155.8992,-113.8616
155.6873,-113.5239
155.4744,-113.1874
155.2585,-112.8524
155.0385,-112.52
154.8206,-112.1866
154.6022,-111.8531
154.3706,-111.5293
154.1269,-111.2142
153.8822,-110.8995
153.6382,-110.5846
153.3936,-110.2701
153.1484,-109.9558
152.9021,-109.6427
152.6569,-109.3285
152.4112,-109.0147
152.1585,-108.707
151.8997,-108.4039
151.6395,-108.102
151.38,-107.7999
151.121,-107.4968
150.8627,-107.1935
150.6061,-106.8887
150.3489,-106.5842
150.0908,-106.2808
149.8397,-105.9714
149.5948,-105.657
149.3497,-105.3431
149.1076,-105.0262
148.8598,-104.7144
148.5924,-104.4195
148.3166,-104.1314
148.0446,-103.8405
147.772,-103.5499
147.5007,-103.2578
147.2343,-102.9617
146.967,-102.6661
146.6981,-102.3718
146.4362,-102.072
146.1842,-101.7632
145.9357,-101.4517
145.6867,-101.1408
145.4347,-100.8319
145.1716,-100.5331
144.9006,-100.2408
144.6334,-99.945
144.3655,-99.6503
144.0926,-99.3598
143.817,-99.072
143.5377,-98.7881
143.2604,-98.5015
142.9831,-98.2157
142.6942,-97.9413
142.4021,-97.67
142.1115,-97.3978
141.8172,-97.1288
141.5388,-96.8446
141.2845,-96.5385
141.0326,-96.2293
140.7811,-95.9202
140.5268,-95.6139
140.249,-95.3289
139.9557,-95.0593
139.6649,-94.787
139.3728,-94.5156
139.0845,-94.2411
138.809,-93.9531
138.535,-93.6636
138.2591,-93.3764
137.9847,-93.0872
137.7005,-92.8081
137.4083,-92.5374
137.1186,-92.2635
136.8257,-91.9935
136.5367,-91.7194
136.266,-91.4267
135.9989,-91.1313
135.7278,-90.8392
135.461,-90.5429
135.1885,-90.2528
134.9054,-89.972
134.6209,-89.6931
134.3363,-89.4145
134.0527,-89.134
133.7606,-88.864
133.452,-88.6116
133.1438,-88.3589
132.8352,-88.1072
132.5265,-87.855
132.2532,-87.5685
132.0105,-87.2529
131.7658,-86.9381
131.5266,-86.6191
131.2781,-86.3085
130.9902,-86.0336
130.69,-85.7708
130.399,-85.4991
130.1034,-85.2314
129.8079,-84.9644
129.5162,-84.6929
129.2206,-84.4254
128.9273,-84.1561
128.6341,-83.8859
128.3328,-83.6251
128.0299,-83.3667
127.7265,-83.1079
127.4217,-82.8514
127.1248,-82.5861
126.8346,-82.3125
126.5451,-82.0392
126.257,-81.7637
125.9662,-81.4911
125.6691,-81.2262
125.3682,-80.9644
125.0664,-80.7044
124.7674,-80.4413
124.4647,-80.1816
124.1492,-79.9389
123.8302,-79.7001
123.5126,-79.4588
123.1946,-79.2195
122.8921,-78.9609
122.6059,-78.6833
122.3182,-78.4084
122.033,-78.1292
121.7442,-77.8551
121.4328,-77.6078
121.1123,-77.3699
120.7957,-77.1287
120.4764,-76.8902
120.1589,-76.6488
119.8453,-76.404
119.5311,-76.1583
119.2177,-75.912
118.9037,-75.6675
118.592,-75.4184
118.2847,-75.1651
117.9761,-74.9134
117.6694,-74.6581
117.3604,-74.4073
117.039,-74.172
116.7124,-73.9431
116.3868,-73.7143
116.0608,-73.4846
115.7344,-73.2559
115.4054,-73.0317
115.0773,-72.8049
114.748,-72.5808
114.42,-72.3551
114.1194,-72.0953
113.8402,-71.8114
113.557,-71.5314
113.2803,-71.2432
112.9945,-70.9676
112.6691,-70.7382
112.3328,-70.5229
112.005,-70.298
111.6724,-70.0771
111.3436,-69.8525
111.0197,-69.621
110.6922,-69.3927
110.3678,-69.1624
110.0417,-68.9332
109.7088,-68.7134
109.3765,-68.4949
109.0438,-68.2745
108.7107,-68.0557
108.3805,-67.8339
108.0508,-67.6087
107.7216,-67.385
107.3925,-67.1606
107.0625,-66.9361
106.7321,-66.7146
106.4015,-66.4917
106.0711,-66.2683
105.7403,-66.0476
105.4085,-65.8256
105.0763,-65.6058
104.7433,-65.3879
104.4124,-65.1643
104.0776,-64.9494
103.7335,-64.7487
103.3887,-64.5481
103.0415,-64.3531
102.6997,-64.1487
102.39,-63.9005
102.098,-63.63
101.8022,-63.3621
101.5074,-63.0943
101.1888,-62.8612
100.8365,-62.6731
100.484,-62.4881
100.1329,-62.3006
99.7805,-62.1124
99.4451,-61.8998
99.1145,-61.676
98.7793,-61.46
98.4483,-61.24
98.1163,-61.0178
97.7847,-60.7975
97.4571,-60.5717
97.1256,-60.3484
96.7956,-60.1269
96.4726,-59.8933
96.1513,-59.6563
95.8313,-59.4213
95.5139,-59.1781
95.1897,-58.9472
94.8438,-58.7546
94.4825,-58.583
94.124,-58.4098
93.7676,-58.2336
93.4182,-58.0409
93.0853,-57.8238
92.7525,-57.6041
92.4154,-57.3903
92.0847,-57.1701
91.756,-56.9435
91.4297,-56.7147
91.1057,-56.4843
90.7777,-56.2559
90.4526,-56.0266
90.1297,-55.7938
89.804,-55.5622
89.4814,-55.3303
89.1579,-55.097
88.8327,-54.8656
88.5113,-54.6322
88.1875,-54.3982
87.8627,-54.1675
87.5424,-53.9321
87.2244,-53.6897
86.911,-53.4451
86.5975,-53.1994
86.2807,-52.9558
85.9666,-52.7129
85.65,-52.4697
85.3304,-52.2311
85.0171,-51.9867
84.6973,-51.7474
84.3535,-51.5492
83.9968,-51.3736
83.6412,-51.1914
83.2803,-51.0216
82.9319,-50.8329
82.6349,-50.5706
82.3656,-50.276
82.0816,-49.9967
81.8022,-49.712
81.5319,-49.4202
81.2525,-49.1351
80.9815,-48.843
80.7106,-48.5516
80.4115,-48.2883
80.0966,-48.0477
79.7728,-47.8145
79.446,-47.5829
79.1547,-47.3207
78.9199,-47.0007
78.7101,-46.659
78.4872,-46.3308
78.2582,-46.0037
78.016,-45.6903
77.7259,-45.4111
77.4637,-45.1159
77.3196,-44.7581
77.2285,-44.3677
77.1437,-43.9786
77.1025,-43.5848
77.0838,-43.1845
77.061,-42.7873
77.0449,-42.39
77.0507,-41.9916
77.1042,-41.5986
77.1776,-41.206
77.2339,-40.811
77.2999,-40.419
77.3743,-40.0269
77.442,-39.6341
77.5174,-39.2435
77.589,-38.8508
77.6638,-38.4597
77.7568,-38.0725
77.8451,-37.6833
77.9332,-37.2951
78.027,-36.908
78.1142,-36.5185
78.2083,-36.1319
78.3028,-35.7447
78.3912,-35.3557
78.4874,-34.9697
78.577,-34.5809
78.6636,-34.1918
78.758,-33.8054
78.844,-33.4155
78.9369,-33.0283
79.0398,-32.6437
79.135,-32.2559
79.2362,-31.8712
79.3387,-31.4861
79.4431,-31.101
79.5632,-30.7219
79.6733,-30.3383
79.7839,-29.9552
79.9185,-29.5812
80.057,-29.2069
80.2044,-28.8371
80.3525,-28.4675
80.4929,-28.0935
80.6593,-27.7323
80.8256,-27.3699
80.9789,-27.0011
81.1534,-26.6444
81.3073,-26.2752
81.4513,-25.9028
81.6531,-25.5656
81.8726,-25.2318
82.1059,-24.9148
82.4171,-24.6859
82.7774,-24.5124
83.1322,-24.3263
83.4821,-24.1398
83.8412,-23.9682
84.1864,-23.7666
84.4879,-23.5108
84.7893,-23.2499
85.098,-22.9935
85.3743,-22.7106
85.6593,-22.4311
85.9423,-22.1473
86.2085,-21.8553
86.5481,-21.65
86.8788,-21.4618
87.0766,-21.1345
87.2471,-20.7565
87.4328,-20.414
87.6178,-20.0626
87.8588,-19.7339
88.041,-19.4029
88.0679,-19.0036
88.0745,-18.5999
88.0902,-18.2115
88.0296,-17.8101
87.9543,-17.4227
87.9544,-17.028
87.9808,-16.6208
87.973,-16.232
87.9505,-15.8324
87.8692,-15.4412
87.6887,-15.0918
87.4949,-14.7442
87.2966,-14.4
87.1275,-14.0391
87.0798,-13.6353
86.914,-13.3318
86.5746,-13.1951
86.5259,-13.034
86.6974,-12.732
86.6026,-12.3664
86.3988,-11.9949
86.3826,-11.6172
86.4626,-11.236
86.5775,-10.8529
86.6983,-10.4686
86.793,-10.0864
86.9086,-9.703
87.0176,-9.3178
87.1163,-8.9355
87.2327,-8.5514
87.3091,-8.1609
87.3672,-7.7685
87.4424,-7.3751
87.5082,-6.9835
87.5996,-6.5944
87.6557,-6.2024
87.5813,-5.8139
87.4751,-5.4284
87.4014,-5.0363
87.3175,-4.6461
87.2207,-4.2633
87.0637,-3.9008
86.817,-3.5859
86.5554,-3.2962
86.3243,-2.9809
86.1284,-2.6309
85.9424,-2.2784
85.6961,-1.9742
85.3885,-1.7232
85.071,-1.4824
84.7448,-1.2537
84.403,-1.05
84.0597,-0.84753
83.7122,-0.65339
83.3473,-0.49605
82.969,-0.37193
82.593,-0.23961
82.2191,-0.092642
81.8504,-0.0609
