68.946,-325.2167
69.2884,-324.9946
69.632,-324.7743
69.9737,-324.5517
70.3174,-324.3313
70.6736,-324.1338
71.0386,-323.9514
71.4038,-323.7689
71.7683,-323.5861
72.1335,-323.4037
72.4984,-323.2212
72.863,-323.0382
73.2285,-322.8562
73.5929,-322.6732
73.9579,-322.4905
74.3233,-322.3088
74.687,-322.1244
75.0538,-321.9445
75.4116,-321.7504
75.7477,-321.5194
76.0793,-321.2809
76.4146,-321.0491
76.7474,-320.8124
77.0813,-320.5783
77.4154,-320.3439
77.7485,-320.1079
78.0828,-319.8745
78.4161,-319.6386
78.75,-319.4042
79.0839,-319.1698
79.4171,-318.934
79.7514,-318.7004
80.0847,-318.4647
80.4185,-318.2301
80.7526,-317.996
81.0856,-317.7598
81.4201,-317.5266
81.7533,-317.2907
82.087,-317.0558
82.4216,-316.8225
82.7536,-316.5849
83.0894,-316.3537
83.4213,-316.1155
83.756,-315.8828
84.1214,-315.7008
84.4857,-315.5182
84.8107,-315.2742
85.1213,-315.0087
85.4385,-314.7528
85.7668,-314.5113
86.1081,-314.2875
86.4488,-314.063
86.7879,-313.836
87.1242,-313.6053
87.452,-313.362
87.7807,-313.1203
88.1101,-312.8797
88.4376,-312.6359
88.7676,-312.3962
89.0964,-312.1545
89.4243,-311.9115
89.7556,-311.6736
90.0959,-311.4485
90.4436,-311.2351
90.7871,-311.0146
91.1322,-310.7969
91.4789,-310.582
91.8212,-310.3591
92.1694,-310.1474
92.512,-309.9243
92.8613,-309.7167
93.2517,-309.5951
93.6266,-309.4485
93.9405,-309.1891
94.2475,-308.918
94.5607,-308.6589
94.8566,-308.3757
95.1526,-308.0962
95.4498,-307.8164
95.7439,-307.5328
96.059,-307.2768
96.3971,-307.0479
96.7384,-306.8245
97.0777,-306.5979
97.4178,-306.372
97.758,-306.1472
98.0977,-305.9206
98.4379,-305.6956
98.7778,-305.4699
99.1176,-305.2436
99.458,-305.0191
99.7973,-304.7921
100.1381,-304.5677
100.4772,-304.341
100.801,-304.0934
101.1135,-303.8314
101.427,-303.5698
101.7402,-303.3084
102.0576,-303.0523
102.3808,-302.8028
102.7026,-302.5523
103.0258,-302.303
103.3473,-302.0516
103.6606,-301.7906
103.9734,-301.5281
104.2867,-301.267
104.5994,-301.0047
104.917,-300.7485
105.2372,-300.4959
105.5573,-300.2426
105.8785,-299.991
106.1944,-299.733
106.4998,-299.4622
106.8019,-299.1882
107.1069,-298.9169
107.41,-298.6438
107.7121,-298.3696
108.0142,-298.095
108.3145,-297.8191
108.6165,-297.5445
108.9146,-297.2659
109.2076,-296.982
109.5024,-296.6997
109.7943,-296.4147
110.09,-296.1335
110.3985,-295.8666
110.7094,-295.6024
111.0189,-295.3363
111.329,-295.0713
111.6388,-294.8056
111.9487,-294.54
112.258,-294.2741
112.5682,-294.0088
112.8761,-293.7412
113.179,-293.4679
113.4812,-293.1934
113.7839,-292.9201
114.0859,-292.6455
114.379,-292.3619
114.6661,-292.0719
114.9561,-291.7848
115.2429,-291.4945
115.541,-291.2166
115.8608,-290.9632
116.1805,-290.7099
116.5022,-290.4583
116.8202,-290.2034
117.1089,-289.9162
117.3837,-289.6142
117.6622,-289.3164
117.9385,-289.0157
118.2169,-288.7176
118.4986,-288.4225
118.7792,-288.126
119.0611,-287.8313
119.3419,-287.535
119.6167,-287.2335
119.8894,-286.93
120.1623,-286.6265
120.4351,-286.3233
120.7203,-286.0318
121.0186,-285.7534
121.3167,-285.4749
121.6152,-285.1964
121.9133,-284.918
122.2088,-284.6366
122.5046,-284.3553
122.7996,-284.0737
123.0955,-283.7925
123.3775,-283.4986
123.6394,-283.1856
123.902,-282.8733
124.163,-282.5597
124.4282,-282.2496
124.7129,-281.9575
124.9985,-281.666
125.2848,-281.375
125.5687,-281.0823
125.8276,-280.767
126.0798,-280.4462
126.3353,-280.1282
126.5888,-279.8083
126.8592,-279.5034
127.1414,-279.2084
127.422,-278.9123
127.7039,-278.6174
127.9856,-278.322
128.2713,-278.0308
128.5584,-277.7407
128.8439,-277.4493
129.1304,-277.1589
129.4025,-276.855
129.6612,-276.5396
129.9217,-276.2256
130.1805,-275.9099
130.4411,-275.5962
130.7065,-275.286
130.9709,-274.9754
131.2368,-274.6658
131.5014,-274.355
131.7636,-274.0426
132.0247,-273.7289
132.2849,-273.4147
132.5462,-273.1013
132.796,-272.7788
133.0344,-272.4477
133.2748,-272.118
133.5122,-271.786
133.7593,-271.4618
134.0264,-271.1533
134.295,-270.8462
134.5637,-270.5391
134.8309,-270.2306
135.0843,-269.9111
135.3332,-269.5875
135.5843,-269.266
135.834,-268.9433
136.0807,-268.6182
136.323,-268.2901
136.5641,-267.9607
136.8069,-267.6328
137.0472,-267.3031
137.2799,-266.9678
137.5109,-266.6316
137.743,-266.2958
137.9752,-265.9604
138.229,-265.6418
138.4998,-265.3361
138.7644,-265.0261
139.037,-264.7217
139.2982,-264.4089
139.5183,-264.066
139.7314,-263.7174
139.9491,-263.3727
140.1649,-263.0262
140.3983,-262.6918
140.6417,-262.3644
140.8831,-262.0352
141.1261,-261.7076
141.3646,-261.3765
141.5987,-261.0422
141.8335,-260.7087
142.0677,-260.3744
142.3019,-260.0403
142.5355,-259.7058
142.7677,-259.37
143.0011,-259.0356
143.2338,-258.7002
143.4587,-258.3599
143.6771,-258.0154
143.8949,-257.67
144.1125,-257.3251
144.3342,-256.9826
144.5666,-256.6471
144.8048,-256.316
145.0358,-255.9792
145.2742,-255.6485
145.5404,-255.3396
145.8136,-255.0364
146.0856,-254.7322
146.356,-254.4267
146.5904,-254.0949
146.7987,-253.7436
147.0117,-253.3958
147.2214,-253.0458
147.4324,-252.6963
147.6462,-252.349
147.8574,-251.9997
148.0721,-251.6527
148.2834,-251.3037
148.5015,-250.9589
148.7339,-250.6235
148.9656,-250.2877
149.1991,-249.9529
149.4302,-249.6169
149.6526,-249.2746
149.8733,-248.9314
150.0948,-248.5888
150.3161,-248.2458
150.5169,-247.8916
150.6972,-247.5253
150.8793,-247.1603
151.0585,-246.7937
151.2515,-246.4346
151.4744,-246.0932
151.7003,-245.7531
151.9246,-245.4124
152.1487,-245.0714
152.3575,-244.7209
152.5605,-244.367
152.7669,-244.015
152.9706,-243.6613
153.1667,-243.3037
153.3546,-242.9414
153.5407,-242.5784
153.7294,-242.2166
153.9144,-241.8528
154.0931,-241.4861
154.272,-241.1193
154.4493,-240.7517
154.6292,-240.3856
154.8259,-240.0283
155.0315,-239.6759
155.236,-239.3227
155.4402,-238.9694
155.6328,-238.61
155.8159,-238.2451
156.0007,-237.8815
156.1845,-237.5172
156.3683,-237.1528
156.5539,-236.7895
156.7377,-236.4251
156.9233,-236.0618
157.1077,-235.6978
157.2702,-235.3242
157.4093,-234.9409
157.5468,-234.5564
157.6856,-234.1729
157.8337,-233.793
158.0047,-233.4224
158.1794,-233.0538
158.3484,-232.6823
158.5268,-232.3154
158.72,-231.9563
158.9187,-231.5996
159.1141,-231.2415
159.3103,-230.8837
159.4914,-230.5185
159.651,-230.143
159.8143,-229.769
159.9746,-229.3938
160.1406,-229.0212
160.331,-228.6601
160.5194,-228.2985
160.7109,-227.9379
160.8988,-227.5759
161.0536,-227.1985
161.2041,-226.819
161.3579,-226.4414
161.5084,-226.0618
161.6726,-225.6884
161.8417,-225.3173
162.0132,-224.9467
162.1841,-224.5764
162.3473,-224.2024
162.5068,-223.8267
162.659,-223.4484
162.8201,-223.073
162.972,-222.6948
163.0782,-222.3014
163.1724,-221.9042
163.27,-221.5082
163.3662,-221.1114
163.4832,-220.7212
163.616,-220.3352
163.7506,-219.9501
163.8821,-219.5638
164.0233,-219.181
164.1872,-218.8077
164.353,-218.4347
164.5193,-218.062
164.6827,-217.6883
164.8233,-217.3052
164.9585,-216.9202
165.0982,-216.5369
165.2351,-216.1523
165.3606,-215.7646
165.4695,-215.3711
165.5777,-214.9778
165.6858,-214.5843
165.81,-214.1964
165.972,-213.8223
166.1387,-213.4495
166.3006,-213.0752
166.4665,-212.7023
166.624,-212.3258
166.7799,-211.9488
166.9354,-211.5715
167.0914,-211.1945
167.2421,-210.8155
167.3693,-210.4277
167.493,-210.0389
167.6203,-209.6512
167.7449,-209.2626
167.8846,-208.8795
168.03,-208.498
168.1729,-208.1159
168.3188,-207.7348
168.4587,-207.3515
168.5965,-206.9676
168.7348,-206.5835
168.8714,-206.1991
169.0101,-205.8153
169.1475,-205.431
169.2852,-205.0471
169.4242,-204.6632
169.5607,-204.2788
169.6921,-203.8926
169.818,-203.5043
169.9455,-203.1169
170.0729,-202.7291
170.206,-202.3435
170.3508,-201.962
170.4932,-201.5795
170.6382,-201.1982
170.7805,-200.8157
170.8986,-200.4253
171.0105,-200.033
171.1254,-199.6413
171.2376,-199.2491
171.3554,-198.8584
171.4741,-198.4679
171.5927,-198.0777
171.7125,-197.6874
171.8305,-197.2969
171.9513,-196.9072
172.0698,-196.5166
172.1905,-196.127
172.3089,-195.7364
172.3927,-195.338
172.4545,-194.9347
172.5204,-194.5319
172.5817,-194.1286
172.6509,-193.7265
172.7393,-193.3282
172.8295,-192.9303
172.9197,-192.5322
173.0084,-192.1341
173.0807,-191.7327
173.1406,-191.329
173.2007,-190.9256
173.2625,-190.522
173.3209,-190.1183
173.3683,-189.7131
173.4103,-189.3071
173.4557,-188.9017
173.4993,-188.4959
173.5455,-188.0905
173.5977,-187.6859
173.6473,-187.2807
173.7,-186.8762
173.7496,-186.4711
173.7812,-186.0644
173.8075,-185.6573
173.8356,-185.2501
173.8623,-184.8431
173.8889,-184.4358
173.912,-184.0284
173.9353,-183.6211
173.9588,-183.2136
173.9819,-182.8063
174.016,-182.3997
174.0562,-181.9936
174.0952,-181.5876
174.1358,-181.1814
174.1751,-180.7754
174.2163,-180.3694
174.2577,-179.9634
174.2981,-179.5575
174.3396,-179.1514
174.3651,-178.7444
174.3799,-178.3366
174.3982,-177.929
174.4113,-177.5211
174.4481,-177.1155
174.5204,-176.714
174.5924,-176.3126
174.6699,-175.9114
174.732,-175.5093
174.7322,-175.1018
174.7166,-174.6933
174.7149,-174.2858
174.7041,-173.8775
174.7044,-173.4696
174.7118,-173.0616
174.7108,-172.6534
174.7197,-172.2456
174.7145,-171.8377
174.6834,-171.4308
174.654,-171.0242
174.6177,-170.6171
174.5917,-170.2106
174.6127,-169.8039
174.6535,-169.3976
174.6883,-168.9914
174.7251,-168.5847
174.7536,-168.1779
174.7703,-167.7702
174.7902,-167.3625
174.8091,-166.9551
174.8208,-166.5472
174.823,-166.1391
174.8147,-165.7314
174.8196,-165.3227
174.8102,-164.9157
174.7307,-164.517
174.6263,-164.1222
174.5318,-163.7255
174.4297,-163.33
174.367,-162.9295
174.3563,-162.5215
174.3493,-162.1136
174.3392,-161.7057
174.3314,-161.2976
174.3239,-160.8898
174.3139,-160.4818
174.3103,-160.0735
174.2964,-159.6663
174.2182,-159.2675
174.1118,-158.873
174.0188,-158.476
173.9161,-158.0809
173.8496,-157.68
173.8254,-157.2722
173.7951,-156.866
173.7732,-156.4578
173.7437,-156.0512
173.698,-155.646
173.6523,-155.2398
173.5997,-154.8361
173.558,-154.4292
173.4813,-154.0312
173.3344,-153.6514
173.1804,-153.2729
173.0287,-152.8944
172.8905,-152.5113
172.7972,-152.1142
172.7114,-151.7152
172.6178,-151.318
172.5317,-150.9192
172.4701,-150.5164
172.4258,-150.1103
172.3712,-149.7065
172.329,-149.2998
172.2676,-148.8977
172.1359,-148.5123
171.9913,-148.1298
171.8568,-147.7452
171.7158,-147.3619
171.5831,-146.9762
171.4524,-146.5897
171.3228,-146.2027
171.1908,-145.8166
171.0653,-145.4285
170.9729,-145.0312
170.8871,-144.6322
170.7957,-144.2345
170.7075,-143.8362
170.5966,-143.4439
170.4694,-143.0561
170.3453,-142.6676
170.2186,-142.2795
170.092,-141.8917
169.9634,-141.5044
169.8311,-141.1183
169.7037,-140.7308
169.5713,-140.3447
169.4191,-139.9664
169.2589,-139.5912
169.1008,-139.2149
168.941,-138.8396
168.8054,-138.4558
168.7039,-138.0606
168.604,-137.665
168.5038,-137.2694
168.4009,-136.8747
168.2754,-136.4864
168.1437,-136.1001
168.0193,-135.7116
167.8879,-135.3252
167.7373,-134.9466
167.5706,-134.5742
167.404,-134.2015
167.2393,-133.8285
167.0696,-133.4571
166.8988,-133.0867
166.7273,-132.7165
166.5548,-132.3464
166.3845,-131.9759
166.2185,-131.6029
166.0548,-131.2293
165.8903,-130.8559
165.7253,-130.4825
165.5518,-130.1136
165.3685,-129.7488
165.1865,-129.3836
165.004,-129.0189
164.8214,-128.6537
164.6454,-128.2858
164.4698,-127.9174
164.2937,-127.5492
164.1184,-127.181
163.9307,-126.8186
163.7314,-126.4627
163.5334,-126.1059
163.3326,-125.7505
163.1358,-125.3934
162.9588,-125.0256
162.7868,-124.6556
162.6119,-124.287
162.4382,-123.9176
162.2502,-123.556
162.0515,-123.1993
161.855,-122.8418
161.6566,-122.4853
161.4599,-122.1276
161.2655,-121.7691
161.0701,-121.4107
160.8761,-121.0517
160.6808,-120.6936
160.4853,-120.3352
160.2897,-119.9773
160.0934,-119.6195
159.8982,-119.2611
159.6969,-118.9065
159.4883,-118.5555
159.279,-118.2054
159.0701,-117.8548
158.8608,-117.5045
158.6489,-117.156
158.4368,-116.8071
158.2252,-116.4584
158.0128,-116.11
157.8015,-115.7607
157.5884,-115.4131
157.3775,-115.0634
157.1641,-114.7158
156.9313,-114.3812
156.6883,-114.0531
156.4473,-113.7241
156.2048,-113.3958
155.9664,-113.0647
155.7344,-112.7291
155.5026,-112.3931
155.271,-112.0574
155.0389,-111.7216
154.8029,-111.3887
154.5647,-111.0576
154.3273,-110.7255
154.0893,-110.3943
153.8524,-110.062
153.6182,-109.7277
153.3838,-109.394
153.1497,-109.0594
152.9155,-108.7255
152.6836,-108.3898
152.454,-108.0522
152.2222,-107.7168
151.9934,-107.3786
151.7556,-107.0475
151.4958,-106.733
151.2332,-106.4204
150.9724,-106.1069
150.7109,-105.7934
150.4628,-105.4698
150.2227,-105.14
149.9818,-104.8104
149.7414,-104.4809
149.501,-104.151
149.2642,-103.8188
149.0284,-103.4859
148.7918,-103.1532
148.556,-102.8204
148.3145,-102.4915
148.0667,-102.1672
147.8182,-101.8438
147.5705,-101.5193
147.322,-101.1958
147.0725,-100.8729
146.8231,-100.5498
146.573,-100.2276
146.3238,-99.9043
146.0681,-99.5865
145.8026,-99.2767
145.5387,-98.9654
145.2718,-98.6569
145.0091,-98.3446
144.7699,-98.0143
144.5371,-97.6792
144.3009,-97.3463
144.0667,-97.0124
143.8237,-96.6846
143.573,-96.3626
143.3214,-96.0416
143.0719,-95.7183
142.8164,-95.4006
142.5393,-95.1013
142.2569,-94.8064
141.9791,-94.508
141.6984,-94.2114
141.4293,-93.9051
141.1684,-93.5913
140.9047,-93.2798
140.6441,-92.966
140.3781,-92.6564
140.1046,-92.3537
139.8316,-92.0506
139.5573,-91.7482
139.2842,-91.4453
139.0122,-91.1409
138.7401,-90.8369
138.4691,-90.532
138.1968,-90.2278
137.9264,-89.9225
137.6574,-89.6155
137.387,-89.3099
137.1189,-89.0025
136.846,-88.6989
136.5631,-88.4051
136.2789,-88.1122
135.995,-87.819
135.7116,-87.5257
135.4332,-87.2271
135.1568,-86.9272
134.8804,-86.627
134.6031,-86.3275
134.3134,-86.041
134.0121,-85.7654
133.7122,-85.4888
133.4115,-85.2131
133.1119,-84.9358
132.8191,-84.652
132.5259,-84.368
132.233,-84.0839
131.9399,-83.8003
131.6384,-83.525
131.3333,-83.2545
131.0287,-82.9828
130.7233,-82.712
130.4194,-82.44
130.1162,-82.1666
129.8133,-81.8934
129.5106,-81.6198
129.2074,-81.3465
128.9053,-81.0726
128.6027,-80.7984
128.3001,-80.5249
127.9981,-80.2506
127.6963,-79.9757
127.3957,-79.7001
127.0945,-79.4245
126.7934,-79.1493
126.4913,-78.8751
126.1864,-78.6036
125.8825,-78.3317
125.5777,-78.0601
125.2741,-77.7875
124.9772,-77.5078
124.6804,-77.2274
124.3836,-76.9478
124.0868,-76.6676
123.7797,-76.3991
123.4652,-76.1395
123.151,-75.8787
122.8363,-75.6192
122.5223,-75.3587
122.2085,-75.0975
121.8947,-74.8372
121.5816,-74.5751
121.2672,-74.3152
120.9476,-74.0617
120.6245,-73.812
120.3028,-73.5615
119.9805,-73.311
119.6582,-73.0608
119.3378,-72.8083
119.0152,-72.5581
118.6958,-72.3044
118.3723,-72.0559
118.0252,-71.8419
117.6705,-71.6403
117.3209,-71.4295
116.9669,-71.2267
116.6226,-71.0084
116.2921,-70.7686
115.9592,-70.5339
115.6313,-70.2893
115.2965,-70.0576
114.9311,-69.8783
114.5567,-69.7137
114.1872,-69.5423
113.8156,-69.373
113.4528,-69.1867
113.0964,-68.9883
112.7374,-68.7937
112.3802,-68.5972
112.0241,-68.3976
111.6711,-68.1929
111.3203,-67.985
110.9674,-67.7793
110.6155,-67.5735
110.2596,-67.3737
109.9003,-67.18
109.5435,-66.9827
109.1845,-66.788
108.8161,-66.615
108.4364,-66.4657
108.0564,-66.3163
107.6761,-66.1688
107.2977,-66.0166
106.9508,-65.8076
106.6244,-65.5619
106.2918,-65.3258
105.9645,-65.0821
105.6293,-64.8496
105.2778,-64.6427
104.9275,-64.4336
104.5752,-64.2272
104.2242,-64.0197
103.8738,-63.8102
103.5207,-63.6055
103.1718,-63.3944
102.8188,-63.189
102.4764,-62.9687
102.1516,-62.7209
101.8232,-62.4797
101.5007,-62.2286
101.162,-62.006
100.7811,-61.8616
100.3967,-61.7244
100.0134,-61.5834
99.6308,-61.4432
99.2946,-61.2251
98.9939,-60.949
98.6927,-60.6743
98.3914,-60.3984
98.0754,-60.1428
97.7357,-59.9164
97.3939,-59.6931
97.0554,-59.4663
96.7134,-59.2425
96.369,-59.0248
96.0206,-58.8122
95.6711,-58.6009
95.3236,-58.3881
94.9773,-58.1713
94.6389,-57.9441
94.3042,-57.7107
93.963,-57.4858
93.6296,-57.2521
93.317,-56.9898
93.0128,-56.7183
92.7094,-56.4452
92.4012,-56.1777
92.071,-55.9407
91.7258,-55.7213
91.3852,-55.4974
91.0435,-55.2748
90.7011,-55.0515
90.3642,-54.8227
90.0256,-54.594
89.6855,-54.3686
89.3508,-54.1363
89.035,-53.8777
88.7322,-53.6047
88.4226,-53.3385
88.1158,-53.0693
87.8012,-52.811
87.4672,-52.5749
87.1379,-52.3354
86.8059,-52.0976
86.4732,-51.8606
86.1535,-51.6086
85.8294,-51.3588
85.5084,-51.1082
85.188,-50.8554
84.8572,-50.6152
84.5273,-50.3777
84.1913,-50.1437
83.8569,-49.9108
83.532,-49.6652
83.2175,-49.4039
82.9169,-49.1297
82.6044,-48.8654
82.297,-48.5979
82.0043,-48.3141
81.7045,-48.0356
81.4207,-47.7445
81.1249,-47.4609
80.8306,-47.1803
80.5795,-46.855
80.2875,-46.5755
80.0083,-46.3257
79.856,-45.963
79.7454,-45.5556
79.5984,-45.1853
79.3967,-44.8255
79.2122,-44.465
79.1529,-44.0671
79.1235,-43.6525
79.0682,-43.254
79.0535,-42.8433
79.0445,-42.4349
79.0291,-42.0302
79.0253,-41.6181
79.0179,-41.2134
79.0227,-40.8042
79.0286,-40.3952
79.0271,-39.9896
79.0389,-39.5789
79.063,-39.1738
79.0955,-38.7665
79.1235,-38.3582
79.1525,-37.9535
79.207,-37.5471
79.2747,-37.1462
79.3423,-36.7438
79.4113,-36.3402
79.4771,-35.9397
79.5403,-35.5346
79.603,-35.1324
79.6642,-34.7293
79.7293,-34.325
79.8074,-33.9266
79.8906,-33.5254
79.969,-33.1256
80.0515,-32.7267
80.1464,-32.3282
80.2528,-31.9365
80.3594,-31.541
80.4641,-31.1469
80.5765,-30.7558
80.6936,-30.3628
80.8146,-29.9755
80.9337,-29.5837
81.0546,-29.1938
81.186,-28.8095
81.3097,-28.4174
81.441,-28.034
81.5574,-27.6426
81.6259,-27.237
81.7832,-26.8911
82.0907,-26.6245
82.4304,-26.3946
82.7877,-26.2124
83.177,-26.0741
83.5496,-25.9094
83.9271,-25.772
84.3454,-25.7819
84.7391,-25.7706
85.0168,-25.5235
85.2239,-25.1652
85.4474,-24.8288
85.6863,-24.4969
85.955,-24.192
86.24,-23.8983
86.5067,-23.5898
86.7872,-23.2935
87.0623,-22.9915
87.326,-22.6813
87.602,-22.3813
87.7988,-22.0462
87.879,-21.6526
87.932,-21.2433
88.007,-20.8439
88.0664,-20.4406
88.0487,-20.0356
87.9898,-19.6337
87.9326,-19.2281
87.808,-18.8453
87.6302,-18.4789
87.4712,-18.102
87.2707,-17.7559
87.0011,-17.4478
86.7313,-17.1415
86.4717,-16.8295
86.2276,-16.4983
86.0026,-16.1637
85.7578,-15.8294
85.5964,-15.4607
85.6376,-15.0752
85.7707,-14.6893
85.8914,-14.2982
85.9977,-13.9069
86.0728,-13.5048
86.1446,-13.1027
86.2208,-12.7035
86.2938,-12.2999
86.4052,-11.9098
86.5348,-11.5223
86.6587,-11.1327
86.7905,-10.7483
86.9131,-10.3572
87.0248,-9.9658
87.1277,-9.5716
87.2381,-9.1764
87.3436,-8.7852
87.3745,-8.3799
87.3706,-7.9726
87.4014,-7.5683
87.4567,-7.1595
87.4919,-6.7578
87.4082,-6.3626
87.2834,-5.9721
87.2554,-5.5715
87.1654,-5.1831
86.9539,-4.8355
86.7546,-4.4806
86.5489,-4.1241
86.3439,-3.7777
86.1592,-3.4057
85.9389,-3.0691
85.6479,-2.8926
85.2183,-2.9146
84.8838,-2.8528
84.9411,-2.4571
84.9906,-2.0506
84.6751,-1.8603
84.2803,-1.6943
83.9309,-1.52
83.5428,-1.3608
83.1737,-1.1924
82.8026,-1.0375
82.4192,-0.86909
82.0539,-0.71192
81.6651,-0.57182
81.279,-0.43259
80.9018,-0.30433
80.5065,-0.15836
80.1223,-0.073548
79.7131,-0.056705
79.2961,-0.035316
78.9086,-0.040884
78.4718,0.0045607
