93.7246,-53.4335
93.0169,-53.0025
92.3095,-52.5641
91.5991,-52.1371
90.8767,-51.7289
90.1387,-51.3435
89.3908,-50.9845
88.6314,-50.6436
87.8725,-50.3099
87.1201,-49.9633
86.3797,-49.587
85.6597,-49.1798
84.9495,-48.7481
84.2447,-48.3097
83.5387,-47.8731
82.8285,-47.436
82.1247,-46.9963
81.4258,-46.5458
80.7374,-46.0843
80.0617,-45.6101
79.4123,-45.1093
78.8206,-44.5702
78.3092,-43.9854
77.8963,-43.3637
77.5812,-42.7192
77.3643,-42.0512
77.2719,-41.3526
77.3052,-40.6163
77.4257,-39.8515
77.5947,-39.0724
77.8006,-38.2885
78.0549,-37.5123
78.3571,-36.7475
78.706,-36.0014
79.1108,-35.2858
79.5705,-34.6063
80.0876,-33.9674
80.6488,-33.3648
81.2305,-32.7819
81.8046,-32.1929
82.3383,-31.5703
82.823,-30.9062
83.2605,-30.2054
83.6565,-29.4779
84.02,-28.7334
84.3459,-27.9718
84.6424,-27.1965
84.9202,-26.4124
85.1884,-25.6244
85.4626,-24.8394
85.741,-24.0565
86.0211,-23.2754
86.2843,-22.492
86.4934,-21.6999
86.6224,-20.8986
86.6582,-20.0891
86.6325,-19.2821
86.6173,-18.491
86.6905,-17.7288
86.9041,-17.0072
87.2257,-16.3202
87.5725,-15.6433
87.8712,-14.9443
88.0834,-14.2038
88.2163,-13.4241
88.2795,-12.6158
88.2903,-11.7929
88.2628,-10.9664
88.1867,-10.1428
88.0612,-9.3272
87.883,-8.5203
87.6584,-7.7227
87.4008,-6.9349
87.1077,-6.1596
86.7771,-5.4038
86.3935,-4.677
85.9448,-3.9897
85.4327,-3.3528
84.8528,-2.777
84.2144,-2.2713
