95.4518,-54.0248
94.6727,-53.6817
93.8977,-53.32
93.1316,-52.9313
92.3745,-52.5193
91.63,-52.1063
90.876,-51.7117
90.1018,-51.3552
89.3059,-51.0416
88.4949,-50.7575
87.6875,-50.4764
86.8973,-50.1688
86.1238,-49.8159
85.3651,-49.4248
84.6099,-49.0206
83.8449,-48.633
83.0732,-48.2793
82.2915,-47.9417
81.5113,-47.5943
80.7447,-47.2146
79.9976,-46.7929
79.2752,-46.3366
78.5769,-45.8522
77.8987,-45.336
77.2448,-44.7858
76.627,-44.2031
76.0781,-43.5891
75.6689,-42.9412
75.4567,-42.2469
75.4637,-41.5088
75.6527,-40.7439
75.9622,-39.9757
76.3531,-39.2245
76.7953,-38.4937
77.262,-37.7774
77.7462,-37.077
78.2564,-36.4064
78.8102,-35.783
79.4161,-35.2067
80.0369,-34.642
80.6261,-34.0489
81.1406,-33.4009
81.5513,-32.6896
81.8655,-31.9251
82.1255,-31.1295
82.3892,-30.33
82.7049,-29.5497
83.0893,-28.8015
83.5343,-28.0861
84.0287,-27.3971
84.5452,-26.7229
85.0633,-26.0581
85.5457,-25.3902
85.9317,-24.6939
86.1835,-23.9497
86.3094,-23.1545
86.3598,-22.3241
86.4052,-21.4834
86.5053,-20.6552
86.7016,-19.8579
87.0114,-19.1009
87.3926,-18.3701
87.7846,-17.637
88.1297,-16.8763
88.4033,-16.0809
88.6203,-15.2603
88.7966,-14.4247
88.9377,-13.5821
89.0354,-12.7349
89.0777,-11.8844
89.0596,-11.0354
88.9806,-10.1955
88.8187,-9.371
88.5724,-8.5647
88.2605,-7.773
87.9091,-6.9907
87.5411,-6.2191
87.148,-5.4657
86.7052,-4.7479
86.1918,-4.0831
