93.2808,-52.8689
92.5097,-52.566
91.7336,-52.2753
90.956,-51.9881
90.1804,-51.6955
89.409,-51.392
88.642,-51.0771
87.8774,-50.7564
87.1119,-50.4388
86.3419,-50.1345
85.5649,-49.8497
84.782,-49.5813
83.9974,-49.3169
83.2169,-49.041
82.4462,-48.7411
81.6922,-48.4062
80.9645,-48.0252
80.275,-47.587
79.6373,-47.0831
79.0649,-46.5102
78.5677,-45.8723
78.155,-45.178
77.8348,-44.4378
77.6126,-43.6629
77.49,-42.8651
77.4656,-42.056
77.5335,-41.2457
77.6855,-40.4441
77.9157,-39.6609
78.2225,-38.9053
78.6039,-38.185
79.0528,-37.5024
79.5542,-36.8525
80.0841,-36.2215
80.6145,-35.5901
81.1207,-34.941
81.5877,-34.2637
82.008,-33.5563
82.3797,-32.8216
82.7016,-32.0635
82.9731,-31.2858
83.1961,-30.4919
83.3774,-29.6858
83.5288,-28.872
83.6666,-28.0551
83.8105,-27.2408
83.9833,-26.4362
84.2076,-25.6492
84.4961,-24.8854
84.8406,-24.143
85.2095,-23.4121
85.5546,-22.6773
85.8258,-21.9242
85.9919,-21.1462
86.0566,-20.347
86.0626,-19.5388
86.0777,-18.7376
86.1719,-17.9615
86.391,-17.2267
86.7333,-16.5357
87.1482,-15.8694
87.5594,-15.1939
87.9021,-14.4812
88.1526,-13.7236
88.3239,-12.9304
88.4413,-12.1167
88.5215,-11.2942
88.5663,-10.4689
88.5703,-9.6436
88.5257,-8.8208
88.4262,-8.0041
88.268,-7.1978
88.0476,-6.4078
87.763,-5.6391
87.4162,-4.8967
87.0105,-4.1841
86.5502,-3.5044
86.0406,-2.8589
85.4884,-2.2477
84.8997,-1.6703
