96.6123,-54.6746
95.8821,-54.3029
95.1464,-53.9404
94.4082,-53.5888
93.6649,-53.2488
92.9112,-52.922
92.1538,-52.6139
91.3938,-52.3177
90.6284,-52.0177
89.8733,-51.707
89.1281,-51.3758
88.388,-51.0225
87.655,-50.6578
86.9258,-50.2884
86.1957,-49.9166
85.4647,-49.5437
84.7372,-49.1696
84.0139,-48.7892
83.2926,-48.3957
82.5819,-47.9911
81.8793,-47.5764
81.1751,-47.1527
80.4781,-46.7257
79.7913,-46.2881
79.125,-45.8234
78.5043,-45.3156
77.9541,-44.7488
77.4914,-44.1131
77.121,-43.4133
76.8429,-42.6676
76.6574,-41.8918
76.5607,-41.0945
76.5476,-40.2885
76.6008,-39.4801
76.7108,-38.6803
76.9024,-37.9123
77.2038,-37.1946
77.6209,-36.5335
78.1289,-35.9192
78.6849,-35.3282
79.2527,-34.7394
79.807,-34.1394
80.338,-33.5216
80.8339,-32.8772
81.2718,-32.1978
81.6533,-31.4858
81.9909,-30.7455
82.3015,-29.9894
82.6095,-29.2319
82.926,-28.4766
83.2512,-27.7246
83.5872,-26.9789
83.9391,-26.2415
84.305,-25.5102
84.67,-24.7802
85.0283,-24.0484
85.3845,-23.3136
85.7417,-22.5809
86.108,-21.8544
86.4675,-21.1226
86.8007,-20.3778
87.1116,-19.623
87.4073,-18.8601
87.6872,-18.0904
87.9465,-17.3152
88.18,-16.5332
88.3795,-15.742
88.5362,-14.9425
88.6624,-14.1379
88.7751,-13.329
88.8731,-12.5184
88.9499,-11.7098
88.9777,-10.9008
88.9346,-10.0922
88.8239,-9.2893
88.6523,-8.497
88.4175,-7.7222
88.1143,-6.9738
87.749,-6.2529
87.3377,-5.5522
