79.8509,-322.9214
80.1166,-322.6239
80.3844,-322.3315
80.7498,-322.1787
81.1323,-322.0524
81.4971,-321.899
81.8683,-321.7491
82.2294,-321.581
82.5896,-321.4111
82.9555,-321.2501
83.314,-321.0773
83.6749,-320.907
84.0364,-320.7382
84.3936,-320.5621
84.7573,-320.3974
85.1241,-320.2417
85.4909,-320.0861
85.8618,-319.9374
86.226,-319.777
86.5733,-319.5823
86.9134,-319.3731
87.2557,-319.1694
87.5983,-318.9649
87.9421,-318.7631
88.2895,-318.5676
88.6371,-318.3717
88.9835,-318.1746
89.3235,-317.9669
89.6545,-317.7443
89.9842,-317.5202
90.3166,-317.2998
90.652,-317.0842
90.9897,-316.8724
91.3275,-316.6601
91.6631,-316.445
91.9907,-316.218
92.3138,-315.984
92.6393,-315.754
92.9643,-315.5227
93.2937,-315.2982
93.6295,-315.0833
93.9634,-314.8651
94.2984,-314.649
94.6332,-314.4323
94.9638,-314.2093
95.2957,-313.9885
95.6264,-313.7655
95.958,-313.544
96.2969,-313.334
96.6369,-313.1257
96.9768,-312.9173
97.3171,-312.7093
97.6537,-312.4956
97.9871,-312.277
98.3186,-312.0553
98.6527,-311.8376
98.9836,-311.6153
99.3011,-311.3741
99.6156,-311.129
99.9313,-310.8853
100.2477,-310.6427
100.5788,-310.4214
100.9184,-310.2119
101.2545,-309.9976
101.5928,-309.7864
101.9328,-309.578
102.2749,-309.3737
102.6198,-309.1729
102.9624,-308.9692
103.3045,-308.7645
103.6416,-308.5512
103.9749,-308.3327
104.3126,-308.1202
104.647,-307.9031
104.9823,-307.6875
105.3205,-307.4757
105.6533,-307.2569
105.9937,-307.0479
106.3222,-306.8238
106.6084,-306.547
106.8865,-306.2605
107.1716,-305.9823
107.4509,-305.6971
107.756,-305.4441
108.0923,-305.2302
108.4303,-305.0185
108.768,-304.8064
109.105,-304.5934
109.4349,-304.3697
109.7604,-304.1392
110.085,-303.9078
110.4116,-303.6789
110.7349,-303.4456
111.0505,-303.2021
111.3645,-302.9561
111.679,-302.711
111.9938,-302.4663
112.3094,-302.2223
112.6252,-301.9792
112.9422,-301.7371
113.2575,-301.493
113.5753,-301.2524
113.8991,-301.0192
114.2215,-300.7851
114.5462,-300.5533
114.8688,-300.319
115.1642,-300.0547
115.4328,-299.7601
115.6982,-299.4621
115.9674,-299.1685
116.2349,-298.8724
116.5051,-298.5791
116.7791,-298.2899
117.0462,-297.9928
117.3218,-297.7056
117.6331,-297.4596
117.964,-297.2366
118.2921,-297.0102
118.6206,-296.7841
118.947,-296.5551
119.2673,-296.3177
119.5865,-296.0787
119.9086,-295.8435
120.2268,-295.6033
120.5229,-295.3382
120.8009,-295.0523
121.08,-294.7672
121.3591,-294.4828
121.6422,-294.202
121.9379,-293.9345
122.2358,-293.6695
122.5302,-293.4003
122.8287,-293.1361
123.1352,-292.8813
123.4453,-292.6304
123.7542,-292.3784
124.0632,-292.1263
124.3668,-291.868
124.6605,-291.5984
124.953,-291.3272
125.2475,-291.0586
125.5397,-290.7872
125.8276,-290.5113
126.1109,-290.2309
126.3941,-289.9499
126.6783,-289.6704
126.961,-289.3892
127.2424,-289.1065
127.522,-288.8224
127.8022,-288.5385
128.0824,-288.2548
128.356,-287.965
128.6221,-287.6679
128.8869,-287.37
129.1536,-287.0734
129.412,-286.7699
129.6568,-286.4554
129.8998,-286.1391
130.1437,-285.8236
130.3901,-285.5102
130.6484,-285.2064
130.9097,-284.9052
131.1679,-284.6014
131.4284,-284.2994
131.6866,-283.9957
131.9441,-283.6911
132.2034,-283.3882
132.4605,-283.0835
132.7192,-282.7799
132.9786,-282.4772
133.2369,-282.1733
133.4972,-281.8712
133.7554,-281.5675
134.0074,-281.2585
134.2526,-280.9441
134.4959,-280.6282
134.7419,-280.3143
134.9855,-279.9987
135.2288,-279.6827
135.4725,-279.3671
135.7144,-279.0501
135.9586,-278.7348
136.1948,-278.4138
136.4225,-278.0863
136.653,-277.761
136.8786,-277.432
137.1119,-277.1089
137.3698,-276.805
137.6322,-276.5047
137.8922,-276.2023
138.1526,-275.9004
138.406,-275.5926
138.6575,-275.283
138.9098,-274.9744
139.1621,-274.6655
139.4121,-274.3549
139.6519,-274.0364
139.8895,-273.7161
140.1294,-273.3976
140.3674,-273.0777
140.6074,-272.7591
140.8464,-272.4401
141.086,-272.1213
141.3252,-271.8023
141.5529,-271.475
141.7776,-271.1455
142.0039,-270.8173
142.2279,-270.4873
142.4606,-270.1637
142.7021,-269.8465
142.9461,-269.531
143.1886,-269.2144
143.4317,-268.8985
143.6924,-268.5971
143.9628,-268.304
144.2309,-268.0091
144.503,-267.717
144.7449,-267.4034
144.9412,-267.0567
145.1328,-266.7066
145.3267,-266.3585
145.5211,-266.0101
145.7378,-265.6762
145.968,-265.3503
146.1955,-265.023
146.4238,-264.6961
146.658,-264.3733
146.9016,-264.0579
147.148,-263.7442
147.3928,-263.4294
147.6375,-263.1148
147.8712,-262.7918
148.0918,-262.4597
148.3123,-262.1275
148.5351,-261.7967
148.7521,-261.4624
148.9588,-261.1214
149.1613,-260.7778
149.3657,-260.4355
149.5708,-260.0935
149.782,-259.7554
150.001,-259.4222
150.2182,-259.0877
150.4355,-258.7535
150.6541,-258.4199
150.8655,-258.0818
151.0749,-257.7425
151.2862,-257.4043
151.4937,-257.0638
151.7058,-256.7261
151.9267,-256.3942
152.1489,-256.0632
152.3727,-255.7329
152.5929,-255.4007
152.8012,-255.0609
153.0015,-254.716
153.2015,-254.3711
153.4041,-254.0276
153.5955,-253.678
153.7699,-253.3195
153.9441,-252.9609
154.1155,-252.6006
154.292,-252.2434
154.5026,-251.9058
154.731,-251.5788
154.956,-251.2497
155.1826,-250.9215
155.395,-250.5847
155.5878,-250.2356
155.7788,-249.8856
155.9732,-249.5375
156.1629,-249.1866
156.3362,-248.8279
156.5022,-248.4651
156.6721,-248.1044
156.8394,-247.7425
157.0205,-247.3876
157.2217,-247.0434
157.4219,-246.6986
157.6239,-246.3546
157.8236,-246.0097
158.0088,-245.6566
158.1903,-245.3014
158.3717,-244.9465
158.5548,-244.5921
158.7315,-244.2349
158.8878,-243.8681
159.0417,-243.5002
159.1958,-243.1324
159.3526,-242.7659
159.5416,-242.4155
159.7449,-242.0721
159.9409,-241.725
160.1428,-241.381
160.3277,-241.0284
160.4852,-240.6621
160.6418,-240.2954
160.799,-239.929
160.9552,-239.5621
161.1152,-239.1969
161.274,-238.831
161.4334,-238.4656
161.5933,-238.1003
161.7498,-237.7335
161.9035,-237.3657
162.0556,-236.9969
162.2083,-236.6286
162.3616,-236.2606
162.5174,-235.8934
162.6764,-235.5278
162.8338,-235.1614
162.9923,-234.7955
163.1475,-234.4283
163.2908,-234.0561
163.4325,-233.6835
163.5763,-233.3116
163.7181,-232.9388
163.864,-232.5678
164.0119,-232.1974
164.1582,-231.8265
164.3074,-231.4567
164.452,-231.0851
164.5853,-230.7094
164.7162,-230.3327
164.8485,-229.9565
164.9802,-229.5802
165.1148,-229.2048
165.253,-228.8308
165.3908,-228.4566
165.5292,-228.0826
165.6667,-227.7084
165.7998,-227.3325
165.9315,-226.956
166.0639,-226.58
166.1964,-226.2038
166.323,-225.8258
166.4423,-225.4454
166.5614,-225.0648
166.6795,-224.6839
166.8,-224.3038
166.9354,-223.9289
167.079,-223.5569
167.2206,-223.1841
167.3626,-222.8116
167.5043,-222.4388
167.6428,-222.0648
167.7801,-221.6906
167.9214,-221.3175
168.0557,-220.9423
168.1616,-220.5583
168.2544,-220.1702
168.3537,-219.7842
168.4501,-219.3972
168.5525,-219.0118
168.6654,-218.6295
168.7748,-218.246
168.8865,-217.8632
168.9979,-217.4804
169.1009,-217.095
169.2052,-216.7103
169.3089,-216.3252
169.4114,-215.9398
169.5192,-215.556
169.6285,-215.1724
169.7399,-214.7896
169.851,-214.4067
169.9607,-214.0233
170.0778,-213.6422
170.1963,-213.2614
170.3134,-212.8803
170.4347,-212.5003
170.5453,-212.1174
170.6374,-211.7296
170.7248,-211.3404
170.8141,-210.9518
170.9043,-210.5635
170.9993,-210.1761
171.0987,-209.79
171.1955,-209.4032
171.294,-209.0167
171.3889,-208.6296
171.4642,-208.238
171.5356,-207.8456
171.6124,-207.4545
171.6835,-207.0619
171.7763,-206.6749
171.898,-206.2951
172.0173,-205.9149
172.1423,-205.5358
172.2599,-205.1552
172.3242,-204.764
172.3559,-204.3663
172.3906,-203.9691
172.4238,-203.5718
172.4695,-203.176
172.5415,-202.7839
172.6179,-202.3925
172.6884,-202
172.7649,-201.6087
172.849,-201.2189
172.9357,-200.8297
173.0233,-200.4407
173.1086,-200.0512
173.1917,-199.6612
173.2707,-199.2704
173.3463,-198.8789
173.428,-198.4884
173.5023,-198.0969
173.5475,-197.7012
173.5779,-197.3036
173.6107,-196.9061
173.6432,-196.5087
173.6787,-196.1116
173.7199,-195.7149
173.7617,-195.3185
173.8013,-194.9216
173.8442,-194.5252
173.8979,-194.1302
173.9563,-193.7356
174.0125,-193.3409
174.0698,-192.9463
174.1254,-192.5514
174.1765,-192.156
174.227,-191.7604
174.2786,-191.365
174.3287,-190.9695
174.3686,-190.5728
174.3997,-190.1753
174.4326,-189.7779
174.464,-189.3803
174.4962,-188.983
174.535,-188.586
174.5726,-188.1891
174.6124,-187.7923
174.6493,-187.3953
174.6555,-186.9975
174.6393,-186.599
174.6247,-186.2005
174.6094,-185.8022
174.6139,-185.4041
174.6496,-185.0069
174.6842,-184.6099
174.7209,-184.2124
174.7537,-183.8155
174.7358,-183.4179
174.6988,-183.0203
174.6738,-182.6232
174.6357,-182.2251
174.6469,-181.8312
174.7385,-181.4434
174.8326,-181.0561
174.9306,-180.6689
175.0189,-180.2811
175.0114,-179.8883
174.9508,-179.4928
174.9039,-179.0977
174.8463,-178.7027
174.7987,-178.3069
174.7842,-177.9088
174.7721,-177.5099
174.7583,-177.1116
174.7463,-176.713
174.7301,-176.3144
174.7144,-175.9161
174.6976,-175.5176
174.681,-175.1192
174.6648,-174.7209
174.6427,-174.3227
174.6205,-173.9246
174.5989,-173.5264
174.5762,-173.1283
174.5624,-172.7299
174.5551,-172.3311
174.546,-171.9325
174.5407,-171.5338
174.5301,-171.1352
174.4972,-170.738
174.4557,-170.3413
174.4187,-169.9444
174.379,-169.5476
174.3449,-169.1503
174.3213,-168.7523
174.2963,-168.3543
174.2728,-167.9562
174.248,-167.5583
174.2063,-167.162
174.153,-166.7668
174.0996,-166.3716
174.0468,-165.9764
173.9925,-165.5814
173.934,-165.1869
173.8744,-164.7927
173.8157,-164.3983
173.7565,-164.0039
173.699,-163.6093
173.6423,-163.2146
173.5853,-162.82
173.5283,-162.4253
173.4731,-162.0304
173.4225,-161.6349
173.3727,-161.2393
173.3226,-160.8437
173.2721,-160.4482
173.2115,-160.0541
173.1433,-159.6613
173.0762,-159.2682
173.0085,-158.8752
172.941,-158.4822
172.8745,-158.089
172.8072,-157.696
172.7401,-157.3029
172.6762,-156.9094
172.6193,-156.5148
172.5642,-156.1198
172.5078,-155.7251
172.4516,-155.3303
172.3854,-154.9371
172.3114,-154.5453
172.2405,-154.1529
172.167,-153.761
172.0948,-153.3689
172.029,-152.9755
171.9621,-152.5825
171.8971,-152.189
171.8303,-151.7959
171.7518,-151.4051
171.6686,-151.0151
171.5855,-150.6251
171.5023,-150.2351
171.4197,-149.845
171.3366,-149.455
171.2544,-149.0648
171.1715,-148.6748
171.0888,-148.2847
171.0086,-147.8941
170.928,-147.5036
170.8475,-147.113
170.7675,-146.7224
170.691,-146.3311
170.6205,-145.9386
170.548,-145.5465
170.4776,-145.154
170.4051,-144.7619
170.3085,-144.3755
170.1991,-143.9919
170.093,-143.6076
169.9831,-143.2243
169.8819,-142.8387
169.7962,-142.4493
169.7118,-142.0596
169.6276,-141.6698
169.5421,-141.2804
169.4498,-140.8925
169.3529,-140.5056
169.2552,-140.1191
169.1601,-139.7318
169.0611,-139.3456
168.9505,-138.9625
168.8362,-138.5804
168.724,-138.1979
168.6112,-137.8153
168.501,-137.4321
168.3944,-137.048
168.2872,-136.6638
168.18,-136.2798
168.0731,-135.8956
167.9636,-135.5121
167.8534,-135.129
167.7442,-134.7454
167.6339,-134.3623
167.5182,-133.9808
167.3944,-133.6017
167.2689,-133.2232
167.1457,-132.844
167.0206,-132.4653
166.8997,-132.0854
166.7805,-131.7048
166.6573,-131.3256
166.5397,-130.9445
166.4103,-130.5677
166.2536,-130.2011
166.0937,-129.8358
165.9348,-129.47
165.7767,-129.1041
165.6378,-128.7306
165.5109,-128.3525
165.3834,-127.9748
165.2554,-127.5971
165.1294,-127.2188
165.011,-126.8381
164.8934,-126.457
164.7762,-126.0759
164.6571,-125.6954
164.5115,-125.3247
164.351,-124.9596
164.1951,-124.5926
164.0352,-124.2273
163.8861,-123.8577
163.7534,-123.4816
163.6202,-123.1059
163.4887,-122.7293
163.355,-122.3537
163.2151,-121.9803
163.0737,-121.6075
162.9328,-121.2344
162.7916,-120.8616
162.6272,-120.4989
162.4428,-120.1453
162.2631,-119.7896
162.0766,-119.4366
161.9142,-119.0745
161.8087,-118.6902
161.7095,-118.3038
161.6069,-117.9185
161.5041,-117.5334
161.3412,-117.1735
161.1347,-116.8316
160.9361,-116.4864
160.7295,-116.1449
160.5301,-115.7997
160.3668,-115.4368
160.2138,-115.0682
160.0583,-114.7012
159.904,-114.3335
159.7361,-113.9719
159.5558,-113.6165
159.3762,-113.2603
159.196,-112.9046
159.0151,-112.5494
158.834,-112.1939
158.6499,-111.8404
158.4706,-111.4842
158.2852,-111.1312
158.0731,-110.7941
157.8505,-110.463
157.6323,-110.1293
157.4116,-109.7973
157.1966,-109.4614
156.9903,-109.1203
156.7832,-108.7795
156.5765,-108.4384
156.3703,-108.0973
156.1643,-107.7557
155.9598,-107.4134
155.7541,-107.072
155.5489,-106.7299
155.3423,-106.389
155.1319,-106.0502
154.9223,-105.7109
154.7126,-105.3719
154.5019,-105.0333
154.2891,-104.696
154.073,-104.361
153.8594,-104.0241
153.6439,-103.6888
153.4172,-103.3608
153.1843,-103.0372
152.9507,-102.7141
152.7177,-102.3904
152.4866,-102.0655
152.2569,-101.7396
152.028,-101.4129
151.7986,-101.087
151.5689,-100.7609
151.3393,-100.4348
151.1076,-100.1105
150.8787,-99.7838
150.6467,-99.4596
150.3954,-99.1504
150.1354,-98.8479
149.8786,-98.543
149.6189,-98.2404
149.3667,-97.9316
149.1252,-97.6144
148.8812,-97.2991
148.6426,-96.9792
148.3938,-96.6684
148.1098,-96.389
147.8179,-96.1169
147.5308,-95.8403
147.2433,-95.564
146.9811,-95.2647
146.7333,-94.9516
146.4777,-94.646
146.2283,-94.3347
145.9759,-94.0258
145.7137,-93.7257
145.4542,-93.4226
145.1917,-93.1225
144.9306,-92.8213
144.6716,-92.5178
144.4099,-92.2173
144.1526,-91.9124
143.8919,-91.6107
143.6369,-91.3046
143.3955,-90.9865
143.148,-90.6747
142.9089,-90.3546
142.6603,-90.0436
142.3593,-89.7843
142.0448,-89.5378
141.738,-89.2839
141.4253,-89.036
141.1347,-88.7641
140.8597,-88.4753
140.5817,-88.1896
140.3092,-87.8982
140.0306,-87.6132
139.7446,-87.3355
139.4533,-87.0631
139.1581,-86.7952
138.87,-86.5192
138.567,-86.2608
138.2446,-86.0262
137.9236,-85.7905
137.5947,-85.5632
137.2784,-85.3221
137,-85.038
136.7339,-84.74
136.4621,-84.4487
136.1909,-84.1564
135.9311,-83.8537
135.675,-83.5481
135.4146,-83.2467
135.1644,-82.9347
134.893,-82.6455
134.5731,-82.4092
134.2445,-82.1826
133.9162,-81.9554
133.5996,-81.7156
133.3329,-81.421
133.0822,-81.1087
132.819,-80.8106
132.5618,-80.5052
132.3019,-80.2026
132.0363,-79.9058
131.7747,-79.6043
131.5127,-79.3039
131.2419,-79.0118
130.95,-78.7405
130.6488,-78.4788
130.3547,-78.2095
130.0577,-77.9435
129.7577,-77.6808
129.4576,-77.4182
129.1547,-77.159
128.8522,-76.899
128.5524,-76.6363
128.2669,-76.3588
127.994,-76.0676
127.7175,-75.7804
127.4423,-75.4919
127.1652,-75.2051
126.876,-74.9308
126.5864,-74.6565
126.2994,-74.3797
126.0068,-74.1089
125.7073,-73.8457
125.4036,-73.5873
125.1018,-73.3266
124.8006,-73.0653
124.5012,-72.8021
124.206,-72.5339
123.9089,-72.268
123.6123,-72.0015
123.3163,-71.7342
123.0143,-71.474
122.7124,-71.2134
122.4114,-70.9519
122.1085,-70.6926
121.808,-70.4304
121.5074,-70.1685
121.2069,-69.9063
120.9075,-69.6429
120.6065,-69.3815
120.3063,-69.1188
120.0058,-68.8569
119.7043,-68.5959
119.4044,-68.3329
119.1014,-68.074
118.7953,-67.8184
118.4889,-67.5631
118.1822,-67.3085
117.8759,-67.0529
117.5666,-66.8015
117.2557,-66.5517
116.9463,-66.3001
116.6351,-66.051
116.3292,-65.7951
116.0321,-65.5292
115.735,-65.2634
115.4387,-64.9962
115.1381,-64.7347
114.8255,-64.4872
114.5108,-64.242
114.1981,-63.995
113.8838,-63.7493
113.5707,-63.5024
113.2576,-63.2557
112.944,-63.0091
112.6314,-62.7618
112.314,-62.5205
111.99,-62.288
111.665,-62.0572
111.3405,-61.8251
111.016,-61.5936
110.6931,-61.3597
110.3717,-61.1234
110.0499,-60.8883
109.7285,-60.652
109.4066,-60.4167
109.0803,-60.1879
108.7515,-59.9618
108.424,-59.7347
108.0956,-59.5085
107.7658,-59.284
107.4345,-59.0626
107.1017,-58.8426
106.7708,-58.6201
106.4376,-58.4015
106.098,-58.192
105.7579,-57.9842
105.4176,-57.7763
105.0779,-57.5671
104.7463,-57.3465
104.4198,-57.1172
104.0928,-56.8891
103.766,-56.661
103.4393,-56.4318
103.1135,-56.2023
102.7874,-55.9727
102.462,-55.7418
102.1355,-55.5137
101.7966,-55.3037
101.4492,-55.108
101.1041,-54.9088
100.7568,-54.7119
100.4111,-54.514
100.0759,-54.2983
99.747,-54.0727
99.4188,-53.8469
99.0897,-53.621
98.7616,-53.3948
98.4356,-53.1653
98.1082,-52.937
97.7829,-52.7071
97.4554,-52.4794
97.1136,-52.2747
96.764,-52.0837
96.4151,-51.8898
96.0657,-51.698
95.7203,-51.4992
95.3809,-51.2891
95.0427,-51.0789
94.7031,-50.8692
94.3648,-50.658
94.03,-50.4424
93.696,-50.2234
93.3615,-50.0071
93.0275,-49.7893
92.6929,-49.5715
92.3585,-49.3556
92.0242,-49.1373
91.6894,-48.9208
91.3559,-48.703
91.0235,-48.4815
90.691,-48.2625
90.3594,-48.0408
90.0261,-47.8211
89.6868,-47.6132
89.3434,-47.4093
89.0008,-47.2056
88.6583,-47.0022
88.3175,-46.7938
87.9808,-46.5815
87.6438,-46.3678
87.3065,-46.1543
86.969,-45.9438
86.6263,-45.7383
86.2828,-45.5363
85.9412,-45.3315
85.5972,-45.1279
85.2484,-44.9372
84.8932,-44.755
84.5378,-44.5733
84.1832,-44.3933
83.8332,-44.2008
83.5039,-43.9776
83.1799,-43.7453
82.8481,-43.5219
82.5247,-43.2914
82.1976,-43.0614
81.8736,-42.8288
81.5836,-42.5594
81.3059,-42.2707
81.0339,-41.9812
80.7908,-41.6665
80.5682,-41.3344
80.3601,-40.9967
80.1565,-40.6518
79.9533,-40.3094
79.7897,-39.9505
79.6808,-39.5657
79.6245,-39.175
79.6294,-38.778
79.6565,-38.3781
79.6674,-37.9812
79.6712,-37.5813
79.6703,-37.1831
79.6661,-36.7848
79.6661,-36.3848
79.6654,-35.9875
79.6658,-35.5878
79.6692,-35.1891
79.6688,-34.7913
79.6714,-34.391
79.6842,-33.9938
79.6997,-33.595
79.7153,-33.1957
79.7313,-32.799
79.7472,-32.3989
79.7663,-32.0013
79.7853,-31.6037
79.8027,-31.2035
79.8229,-30.8073
79.843,-30.408
79.8654,-30.0092
79.8882,-29.6133
79.9092,-29.2125
79.9485,-28.8175
80.001,-28.4226
80.05,-28.0245
80.1045,-27.6327
80.1554,-27.2349
80.2079,-26.8395
80.2684,-26.4484
80.3119,-26.0468
80.3793,-25.6586
80.5129,-25.2842
80.6828,-24.9199
80.8813,-24.5805
81.0843,-24.2316
81.2907,-23.8934
81.5693,-23.6229
81.8995,-23.3922
82.2272,-23.1724
82.5533,-22.937
82.8827,-22.7159
83.2654,-22.6245
83.6569,-22.5587
83.9347,-22.318
84.149,-21.9775
84.3411,-21.6344
84.4626,-21.2549
84.5846,-20.8731
84.7461,-20.5106
84.8808,-20.1337
84.9693,-19.7476
85.0277,-19.3543
85.0897,-18.9576
85.1569,-18.5671
85.1849,-18.1693
85.1874,-17.7698
85.1895,-17.3736
85.1849,-16.9721
85.1914,-16.5747
85.2272,-16.1796
85.2881,-15.7832
85.3494,-15.3911
85.4047,-14.9958
85.4812,-14.6033
85.5696,-14.2168
85.6556,-13.8258
85.7519,-13.4385
85.8322,-13.0501
85.8691,-12.6514
85.8873,-12.2546
85.913,-11.8565
85.9384,-11.457
85.9552,-11.0612
85.9712,-10.6606
85.9827,-10.2624
85.9949,-9.8657
86.0102,-9.464
86.0026,-9.0683
85.991,-8.6689
85.9747,-8.2689
85.8972,-7.8831
85.7918,-7.4953
85.6943,-7.1097
85.5781,-6.7302
85.4657,-6.3434
85.3347,-5.9714
85.1384,-5.6235
84.9184,-5.289
84.6954,-4.9628
84.4647,-4.633
84.2366,-4.3084
84.0055,-3.9846
83.7772,-3.6531
83.547,-3.3331
83.3159,-3.0049
83.0909,-2.6738
82.8646,-2.3536
82.6671,-1.9947
82.4327,-1.6921
82.0627,-1.5572
81.6857,-1.4219
81.3957,-1.1593
81.1108,-0.86712
80.8133,-0.61115
80.4791,-0.42111
80.088,-0.31926
79.703,-0.23232
79.3202,-0.11284
78.9282,-0.031245
