80.4848,-323.7384
80.8722,-323.6148
81.2582,-323.4889
81.6446,-323.3636
82.0319,-323.24
82.4132,-323.1018
82.7907,-322.9507
83.1638,-322.791
83.542,-322.6413
83.9149,-322.4811
84.2611,-322.2698
84.6019,-322.0477
84.9463,-321.833
85.288,-321.6126
85.6317,-321.3965
85.9738,-321.177
86.3174,-320.9605
86.6592,-320.7408
87.0033,-320.5252
87.371,-320.3545
87.7468,-320.1991
88.1184,-320.0359
88.4945,-319.881
88.8574,-319.7014
89.2016,-319.486
89.5422,-319.2642
89.8854,-319.0472
90.2271,-318.8272
90.5623,-318.5979
90.8964,-318.3667
91.2291,-318.1336
91.5636,-317.9031
91.8961,-317.6696
92.2144,-317.4174
92.5304,-317.1619
92.8484,-316.9092
93.1645,-316.6539
93.4695,-316.3863
93.7605,-316.1027
94.0538,-315.8217
94.3446,-315.5379
94.6424,-315.2621
94.9606,-315.0096
95.2816,-314.7606
95.5999,-314.5082
95.9208,-314.2591
96.2596,-314.0372
96.6145,-313.839
96.9674,-313.638
97.3219,-313.4395
97.6709,-313.232
98.0089,-313.0066
98.3468,-312.7811
98.6839,-312.5543
99.0228,-312.3304
99.3752,-312.1288
99.7327,-311.9353
100.0859,-311.7351
100.4435,-311.5417
100.7904,-311.3318
101.1182,-311.0919
101.4448,-310.8504
101.7705,-310.6073
102.0994,-310.369
102.4512,-310.1688
102.8171,-309.9901
103.1755,-309.8007
103.541,-309.6213
103.8771,-309.4033
104.1477,-309.1009
104.4176,-308.7973
104.6852,-308.491
104.9634,-308.1977
105.3124,-307.9917
105.6695,-307.7955
106.0186,-307.5898
106.3745,-307.392
106.6982,-307.1495
107.0097,-306.8885
107.3211,-306.6278
107.6306,-306.3645
107.9493,-306.1128
108.2734,-305.8681
108.6009,-305.6274
108.9258,-305.3838
109.2521,-305.1416
109.58,-304.9018
109.9075,-304.6615
110.2366,-304.4232
110.564,-304.1828
110.8916,-303.9424
111.2161,-303.6981
111.5405,-303.4535
111.8656,-303.2099
112.1896,-302.9649
112.5177,-302.7252
112.8459,-302.4859
113.1743,-302.2467
113.5032,-302.0083
113.8308,-301.768
114.1558,-301.5242
114.4791,-301.2783
114.804,-301.0343
115.1277,-300.789
115.4545,-300.5475
115.7814,-300.3063
116.108,-300.0648
116.4351,-299.8238
116.7488,-299.5661
117.0546,-299.2988
117.3604,-299.0313
117.666,-298.7636
117.968,-298.4921
118.2611,-298.2106
118.5546,-297.9298
118.8477,-297.6486
119.1445,-297.3712
119.4507,-297.1043
119.7574,-296.8378
120.0633,-296.5706
120.3704,-296.3046
120.6864,-296.0495
121.0078,-295.8009
121.3267,-295.5494
121.6483,-295.3009
121.9666,-295.0487
122.2806,-294.7909
122.5928,-294.5309
122.9063,-294.2725
123.2189,-294.0131
123.5194,-293.7399
123.815,-293.4613
124.1113,-293.1833
124.4068,-292.9046
124.7034,-292.6269
124.9999,-292.3491
125.2972,-292.0723
125.5941,-291.795
125.8907,-291.5174
126.1772,-291.2298
126.4529,-290.9313
126.7314,-290.6356
127.0066,-290.3366
127.2897,-290.0458
127.596,-289.7791
127.9046,-289.5148
128.2119,-289.2491
128.5195,-288.9837
128.8054,-288.6963
129.075,-288.3923
129.3463,-288.09
129.6159,-287.786
129.8884,-287.4848
130.1685,-287.1906
130.4491,-286.8968
130.7297,-286.603
131.0101,-286.309
131.2906,-286.0152
131.5709,-285.721
131.8509,-285.4267
132.1315,-285.133
132.4113,-284.8384
132.6929,-284.5456
132.9737,-284.252
133.255,-283.9589
133.5364,-283.6659
133.8095,-283.3652
134.0792,-283.0614
134.3476,-282.7565
134.617,-282.4524
134.8835,-282.1459
135.1391,-281.83
135.3965,-281.5159
135.6507,-281.1987
135.9095,-280.8859
136.2017,-280.6044
136.5035,-280.3319
136.7984,-280.0529
137.1,-279.7803
137.3871,-279.494
137.6474,-279.1822
137.9034,-278.8666
138.1625,-278.5538
138.4196,-278.2392
138.6793,-277.9269
138.9394,-277.6148
139.1987,-277.3021
139.4593,-276.9903
139.7174,-276.6767
139.9756,-276.363
140.2324,-276.0482
140.4902,-275.7342
140.7475,-275.4198
140.9948,-275.0975
141.2425,-274.7756
141.4887,-274.4523
141.7371,-274.131
142.0151,-273.8361
142.3089,-273.5553
142.5994,-273.2715
142.8932,-272.9907
143.1707,-272.6952
143.4221,-272.3763
143.6711,-272.0551
143.922,-271.7357
144.1715,-271.4151
144.4268,-271.099
144.6833,-270.7841
144.9399,-270.4691
145.1968,-270.1544
145.4613,-269.8465
145.7433,-269.5539
146.0246,-269.2609
146.3064,-268.9682
146.5879,-268.6753
146.8396,-268.3579
147.0733,-268.0255
147.3067,-267.6931
147.5403,-267.3606
147.7609,-267.0203
147.9547,-266.6631
148.15,-266.3071
148.3427,-265.9491
148.5393,-265.594
148.7872,-265.2739
149.0529,-264.9658
149.3104,-264.6523
149.5767,-264.3447
149.8308,-264.0285
150.0648,-263.6964
150.2928,-263.3601
150.5243,-263.0264
150.7555,-262.6921
150.9976,-262.3668
151.2574,-262.0534
151.5071,-261.7341
151.7693,-261.4222
152.0176,-261.1021
152.1727,-260.7311
152.2973,-260.343
152.4328,-259.9609
152.5603,-259.5748
152.7598,-259.2305
153.035,-258.932
153.3082,-258.6314
153.5858,-258.3344
153.8575,-258.033
154.085,-257.6978
154.2949,-257.3498
154.5095,-257.005
154.7212,-256.6581
154.932,-256.311
155.1393,-255.9615
155.3447,-255.6111
155.5528,-255.2621
155.758,-254.9115
155.9514,-254.5545
156.1356,-254.1923
156.3212,-253.831
156.5056,-253.4689
156.6955,-253.1101
156.8996,-252.7587
157.1062,-252.409
157.3092,-252.057
157.5169,-251.7079
157.7515,-251.3772
158.0012,-251.0563
158.246,-250.7325
158.4945,-250.4109
158.7044,-250.0664
158.8652,-249.6934
159.0283,-249.3214
159.1875,-248.9475
159.3516,-248.576
159.5496,-248.2216
159.7539,-247.8703
159.9552,-247.5175
160.1576,-247.1652
160.3356,-246.8007
160.4974,-246.4279
160.6623,-246.0568
160.8241,-245.684
161.0069,-245.3221
161.2172,-244.9746
161.4262,-244.6263
161.6385,-244.2797
161.8451,-243.9302
162.0278,-243.5674
162.205,-243.2017
162.3866,-242.8384
162.5657,-242.4737
162.7434,-242.1085
162.9213,-241.7431
163.0959,-241.3764
163.2747,-241.0115
163.4426,-240.6419
163.5809,-240.2601
163.7183,-239.8777
163.8544,-239.4949
163.9939,-239.1135
164.1699,-238.7476
164.3533,-238.3849
164.5312,-238.0198
164.7134,-237.6566
164.8721,-237.2832
165.0135,-236.9023
165.1574,-236.5225
165.2968,-236.1407
165.4421,-235.7615
165.6113,-235.3924
165.7897,-235.0273
165.9629,-234.6599
166.1399,-234.2942
166.2994,-233.9213
166.4301,-233.5366
166.5615,-233.1522
166.6914,-232.7672
166.823,-232.383
166.9773,-232.0073
167.1379,-231.6342
167.2978,-231.2607
167.4579,-230.8873
167.5916,-230.5046
167.7015,-230.1135
167.8121,-229.7226
167.9221,-229.3315
168.0349,-228.9413
168.1579,-228.5541
168.2816,-228.1671
168.4044,-227.7799
168.5283,-227.393
168.6514,-227.0058
168.7762,-226.6192
168.8995,-226.2321
169.0243,-225.8456
169.1466,-225.4581
169.2546,-225.0666
169.3609,-224.6744
169.4689,-224.2828
169.5752,-223.8907
169.6895,-223.5008
169.8066,-223.1119
169.9245,-222.7231
170.0423,-222.3343
170.1595,-221.9454
170.2816,-221.5578
170.4009,-221.1696
170.524,-220.7823
170.6374,-220.3926
170.7168,-219.9943
170.7916,-219.5948
170.8705,-219.1964
170.9461,-218.7972
171.0353,-218.401
171.1316,-218.0063
171.228,-217.6117
171.325,-217.2172
171.4214,-216.8225
171.5232,-216.4292
171.6242,-216.0357
171.7256,-215.6424
171.8269,-215.2489
171.9158,-214.8526
171.9975,-214.4547
172.0792,-214.0567
172.1605,-213.6587
172.2433,-213.2609
172.3313,-212.8644
172.4204,-212.468
172.5086,-212.0714
172.5973,-211.675
172.6657,-211.275
172.7129,-210.8716
172.7616,-210.4682
172.8085,-210.0647
172.8638,-209.6624
172.9361,-209.2626
173.0087,-208.8629
173.0819,-208.4633
173.1536,-208.0635
173.2148,-207.6619
173.2705,-207.2594
173.328,-206.8573
173.3848,-206.455
173.4424,-206.053
173.505,-205.6514
173.5636,-205.2496
173.6277,-204.8482
173.6811,-204.4459
173.6906,-204.04
173.6932,-203.6335
173.7021,-203.2276
173.7056,-202.8211
173.7283,-202.4159
173.7636,-202.0112
173.8018,-201.6067
173.8374,-201.202
173.8755,-200.7976
173.94,-200.3966
174.0104,-199.9965
174.0776,-199.5958
174.148,-199.1957
174.2049,-198.7936
174.2517,-198.3901
174.2962,-197.9863
174.3427,-197.5827
174.3834,-197.1786
174.4078,-196.773
174.4303,-196.3675
174.455,-195.9619
174.4773,-195.5563
174.495,-195.1505
174.5087,-194.7444
174.5241,-194.3385
174.5388,-193.9325
174.5647,-193.5272
174.6032,-193.1228
174.6384,-192.7181
174.6778,-192.3137
174.7125,-191.9089
174.7232,-191.503
174.7287,-191.0967
174.7362,-190.6906
174.7435,-190.2844
174.775,-189.8798
174.8247,-189.4766
174.8698,-189.0729
174.9203,-188.6697
174.9652,-188.266
174.9861,-187.8605
174.9999,-187.4544
175.0168,-187.0485
175.0319,-186.6426
175.0407,-186.2364
175.0434,-185.8302
175.0453,-185.424
175.0482,-185.0177
175.05,-184.6115
175.047,-184.2052
175.0423,-183.799
175.0384,-183.3928
175.0338,-182.9865
175.029,-182.5804
175.0223,-182.1741
175.0166,-181.768
175.0099,-181.3617
175.0041,-180.9555
175.0068,-180.5493
175.0109,-180.143
175.0153,-179.7369
175.0188,-179.3305
175.0303,-178.9248
175.0669,-178.5201
175.1059,-178.1158
175.1424,-177.7112
175.1813,-177.3067
175.1795,-176.9024
175.1391,-176.4982
175.0981,-176.094
175.0567,-175.6898
175.0202,-175.2853
174.9953,-174.8798
174.9736,-174.4742
174.948,-174.0687
174.9267,-173.663
174.934,-173.2575
174.957,-172.8517
174.9766,-172.446
174.9985,-172.0403
174.9883,-171.6356
174.9399,-171.2323
174.8928,-170.8288
174.8433,-170.4255
174.8,-170.0217
174.7815,-169.6159
174.7667,-169.2099
174.7486,-168.8041
174.7332,-168.3981
174.7113,-167.9925
174.6798,-167.5875
174.6475,-167.1826
174.6155,-166.7775
174.5835,-166.3726
174.5556,-165.9672
174.5287,-165.5619
174.5016,-165.1566
174.4748,-164.7511
174.4443,-164.3461
174.4099,-163.9413
174.3742,-163.5367
174.3404,-163.1318
174.3041,-162.7271
174.2561,-162.3239
174.2026,-161.921
174.1529,-161.5179
174.0997,-161.1151
174.0575,-160.7114
174.0419,-160.3055
174.0273,-159.8994
174.013,-159.4935
173.9972,-159.0875
173.9533,-158.6839
173.9018,-158.2808
173.8541,-157.8774
173.8027,-157.4744
173.7547,-157.071
173.7047,-156.6679
173.6558,-156.2645
173.607,-155.8612
173.5581,-155.4579
173.5142,-155.054
173.4673,-154.6506
173.4236,-154.2466
173.3767,-153.8431
173.3119,-153.4422
173.2408,-153.0422
173.1712,-152.642
173.1007,-152.2418
173.0323,-151.8414
172.967,-151.4404
172.9017,-151.0395
172.8364,-150.6385
172.7713,-150.2375
172.703,-149.8371
172.6326,-149.4369
172.5619,-149.0369
172.4913,-148.6368
172.423,-148.2363
172.358,-147.8353
172.2937,-147.4342
172.2285,-147.0332
172.1641,-146.632
172.1002,-146.2309
172.0366,-145.8296
171.9733,-145.4283
171.9094,-145.0272
171.8489,-144.6254
171.7955,-144.2228
171.7423,-143.82
171.6897,-143.4171
171.6355,-143.0146
171.5535,-142.6173
171.4519,-142.224
171.3535,-141.8298
171.2522,-141.4364
171.1564,-141.0416
171.0684,-140.645
170.9797,-140.2486
170.8934,-139.8515
170.8032,-139.4556
170.6928,-139.0649
170.567,-138.6785
170.447,-138.2906
170.3215,-137.904
170.2008,-137.5163
170.1139,-137.1196
170.0337,-136.7213
169.9505,-136.3237
169.8702,-135.9254
169.785,-135.5283
169.698,-135.1313
169.6072,-134.7355
169.5203,-134.3385
169.4297,-133.9426
169.3154,-133.5532
169.1861,-133.168
169.0585,-132.7824
168.9299,-132.3969
168.802,-132.0115
168.6927,-131.6201
168.5869,-131.228
168.4771,-130.8368
168.3735,-130.4439
168.2886,-130.0476
168.2271,-129.6451
168.1536,-129.2465
168.0925,-128.8438
168.0088,-128.4485
167.8293,-128.0849
167.6428,-127.7234
167.46,-127.3609
167.2768,-126.9983
167.1678,-126.6087
167.0776,-126.2122
166.9816,-125.8179
166.8913,-125.4214
166.7692,-125.0348
166.6297,-124.6533
166.4893,-124.272
166.3478,-123.8912
166.2091,-123.5094
166.0803,-123.1242
165.9581,-122.7367
165.8322,-122.3505
165.709,-121.9633
165.5834,-121.577
165.4558,-121.1913
165.3282,-120.8056
165.2002,-120.42
165.0725,-120.0344
164.9326,-119.6531
164.7868,-119.2739
164.6425,-118.8941
164.4964,-118.5151
164.3449,-118.1382
164.1863,-117.7642
164.0281,-117.39
163.8705,-117.0155
163.7102,-116.6423
163.543,-116.2721
163.3731,-115.903
163.2057,-115.5329
163.0366,-115.1635
162.8729,-114.7917
162.7119,-114.4187
162.5489,-114.0466
162.3892,-113.673
162.2204,-113.3037
162.0335,-112.9431
161.8419,-112.5847
161.6546,-112.2243
161.4637,-111.8657
161.2622,-111.513
161.0542,-111.1641
160.8472,-110.8145
160.6397,-110.4653
160.4459,-110.1088
160.2777,-109.739
160.1093,-109.3693
159.9413,-108.9994
159.7727,-108.6299
159.582,-108.2713
159.3863,-107.9152
159.1922,-107.5584
158.9963,-107.2025
158.8024,-106.8455
158.6079,-106.4888
158.4144,-106.1317
158.2206,-105.7745
158.0261,-105.4179
157.8169,-105.07
157.5957,-104.7291
157.3776,-104.3865
157.1564,-104.0456
156.9395,-103.7022
156.7267,-103.3561
156.5139,-103.0101
156.303,-102.6629
156.088,-102.3181
155.8538,-101.9873
155.5987,-101.6703
155.3524,-101.348
155.0968,-101.0314
154.8504,-100.7091
154.6688,-100.3466
154.4971,-99.9779
154.3197,-99.6128
154.1464,-99.2451
153.9202,-98.9118
153.6562,-98.6032
153.3919,-98.2945
153.1273,-97.9863
152.869,-97.6728
152.6185,-97.353
152.3687,-97.0327
152.1183,-96.7127
151.8641,-96.396
151.5988,-96.0882
151.3339,-95.7803
151.0685,-95.4726
150.8038,-95.1645
150.5604,-94.8397
150.3246,-94.5088
150.0879,-94.1787
149.8521,-93.8478
149.6038,-93.5266
149.3478,-93.2111
149.0914,-92.896
148.8353,-92.5807
148.5688,-92.2744
148.2874,-91.9815
148.0058,-91.6886
147.7244,-91.3956
147.4429,-91.1027
147.166,-90.8054
146.889,-90.5083
146.612,-90.2111
146.3351,-89.9139
146.0489,-89.6258
145.7525,-89.348
145.4559,-89.0705
145.1594,-88.7926
144.8635,-88.5143
144.5717,-88.2316
144.2798,-87.9491
143.9879,-87.6665
143.6961,-87.3838
143.3979,-87.1082
143.093,-86.8396
142.788,-86.5714
142.4831,-86.3028
142.1779,-86.0347
141.8742,-85.765
141.5699,-85.4956
141.2669,-85.2252
140.9624,-84.956
140.6659,-84.6791
140.3894,-84.3814
140.1145,-84.0822
139.8383,-83.7845
139.563,-83.4855
139.2689,-83.2063
138.9625,-82.9393
138.6565,-82.6722
138.3499,-82.4057
138.0439,-82.1383
137.7364,-81.8731
137.4293,-81.6069
137.122,-81.3414
136.8146,-81.0756
136.5117,-80.805
136.2087,-80.5345
135.9062,-80.263
135.6031,-79.9929
135.2896,-79.7345
134.97,-79.4838
134.6515,-79.2316
134.332,-78.9806
134.0201,-78.7209
133.7209,-78.4458
133.422,-78.171
133.1233,-77.8954
132.8238,-77.6211
132.5124,-77.3603
132.1973,-77.1037
131.8842,-76.8451
131.5692,-76.5882
131.2493,-76.3383
130.9236,-76.0954
130.5975,-75.853
130.2728,-75.6091
129.9459,-75.3675
129.6117,-75.1371
129.2747,-74.9097
128.94,-74.6798
128.6038,-74.4516
128.2762,-74.2114
127.9549,-73.9632
127.6316,-73.7169
127.3109,-73.4677
126.9853,-73.2247
126.6509,-72.9942
126.3144,-72.7666
125.979,-72.5371
125.6436,-72.3083
125.3178,-72.0659
125.0056,-71.8061
124.6914,-71.5487
124.3791,-71.2886
124.0628,-71.0342
123.7297,-70.8014
123.3959,-70.5702
123.0625,-70.3378
122.7292,-70.1056
122.4001,-69.8675
122.0693,-69.6314
121.7412,-69.3922
121.4095,-69.1573
121.0594,-68.953
120.7,-68.7627
120.3448,-68.5659
119.9861,-68.3752
119.6481,-68.1539
119.3478,-67.8811
119.0474,-67.6072
118.7482,-67.3323
118.437,-67.0738
118.0869,-66.8676
117.7347,-66.6654
117.3842,-66.4597
117.0326,-66.2564
116.6989,-66.0252
116.3687,-65.7881
116.0378,-65.5531
115.7079,-65.3151
115.3727,-65.0865
115.0337,-64.8622
114.6934,-64.6404
114.3544,-64.4169
114.0114,-64.1987
113.661,-63.9939
113.3098,-63.7889
112.9592,-63.5842
112.6084,-63.3792
112.2646,-63.1629
111.9264,-62.9384
111.5873,-62.7139
111.2495,-62.489
110.907,-62.2701
110.5558,-62.0663
110.203,-61.865
109.8515,-61.6606
109.499,-61.4597
109.1435,-61.2621
108.7878,-61.0667
108.4319,-60.8703
108.0765,-60.6734
107.7271,-60.4669
107.3821,-60.2514
107.0359,-60.04
106.6911,-59.8241
106.344,-59.6137
105.9857,-59.4224
105.6253,-59.2341
105.2671,-59.0436
104.9068,-58.8546
104.5472,-58.6669
104.1856,-58.4808
103.8247,-58.2945
103.464,-58.1083
103.1023,-57.9221
102.7423,-57.7353
102.3804,-57.5494
102.0203,-57.3621
101.6586,-57.1771
101.2912,-57.003
100.9239,-56.8308
100.5558,-56.6571
100.189,-56.4842
99.8255,-56.3017
99.4642,-56.1163
99.1021,-55.9326
98.7402,-55.7467
98.3787,-55.5631
98.0157,-55.379
97.6536,-55.1961
97.2908,-55.0129
96.9282,-54.8291
96.564,-54.6507
96.1965,-54.4754
95.8304,-54.3013
95.4629,-54.1267
95.0966,-53.9515
94.7328,-53.7714
94.3701,-53.5869
94.0076,-53.4056
93.6445,-53.2211
93.2787,-53.0467
92.9019,-52.8941
92.525,-52.7419
92.1487,-52.5907
91.7715,-52.4372
91.4071,-52.2603
91.0437,-52.0767
90.6803,-51.8962
90.3178,-51.7131
89.9492,-51.541
89.5795,-51.375
89.2069,-51.2103
88.8371,-51.0443
88.465,-50.8802
88.0838,-50.7396
87.7022,-50.6022
87.3201,-50.4609
86.939,-50.3238
86.5615,-50.171
86.1885,-50.0118
85.8159,-49.8501
85.4417,-49.6897
85.0756,-49.5183
84.7228,-49.3135
84.3729,-49.1101
84.0212,-48.9049
83.6696,-48.7017
83.2998,-48.5369
82.9219,-48.3831
82.5491,-48.2271
82.1709,-48.0735
81.8,-47.9112
81.4317,-47.7392
81.064,-47.5643
80.699,-47.3904
80.3321,-47.2101
79.9699,-47.0317
79.6147,-46.834
79.2937,-46.5861
78.998,-46.31
78.7135,-46.0179
78.438,-45.7221
78.1478,-45.4345
77.8655,-45.1451
77.5699,-44.8648
77.2856,-44.5741
77.0778,-44.2325
76.905,-43.8612
76.7995,-43.475
76.7639,-43.068
76.7376,-42.6634
76.7504,-42.2589
76.7818,-41.8517
76.8037,-41.4485
76.833,-41.0412
76.8659,-40.6375
76.9019,-40.2327
76.9368,-39.827
76.9716,-39.424
77.0094,-39.0175
77.0488,-38.615
77.0891,-38.2096
77.1282,-37.8053
77.1715,-37.4024
77.2276,-36.9983
77.2872,-36.5986
77.3429,-36.1942
77.4023,-35.7935
77.4579,-35.391
77.5144,-34.9875
77.5713,-34.5875
77.6265,-34.1823
77.6742,-33.7818
77.6867,-33.374
77.6969,-32.968
77.746,-32.5692
77.8553,-32.1762
77.9844,-31.7931
78.0879,-31.3975
78.2391,-31.0217
78.375,-30.639
78.4958,-30.2515
78.7427,-29.9372
79.0112,-29.6257
79.2703,-29.3176
79.5948,-29.0741
79.9349,-28.8511
80.2688,-28.6221
80.5607,-28.3473
80.8004,-28.0202
81.0331,-27.6868
81.297,-27.3762
81.5423,-27.0577
81.6677,-26.6743
81.7544,-26.2742
81.8958,-25.8938
82.0109,-25.5045
82.0331,-25.1035
82.0207,-24.6953
82.0249,-24.2896
82.0151,-23.8839
82.0046,-23.4768
81.9985,-23.0717
81.9851,-22.6646
81.9786,-22.2592
81.9633,-21.8528
81.954,-21.4467
81.9404,-21.0408
81.9299,-20.6345
81.9673,-20.2308
82.0153,-19.827
82.0604,-19.4237
82.1091,-19.0199
82.1634,-18.618
82.2354,-18.2177
82.3033,-17.8174
82.3745,-17.4175
82.4434,-17.0167
82.491,-16.6141
82.5331,-16.2092
82.575,-15.8059
82.6174,-15.4014
82.6591,-14.9973
82.7011,-14.5937
82.7427,-14.1887
82.7847,-13.7857
82.8261,-13.3805
82.8548,-12.9761
82.8792,-12.5704
82.9041,-12.1644
82.9295,-11.7601
82.9465,-11.353
82.9345,-10.9485
82.9159,-10.5415
82.9062,-10.1356
82.8843,-9.7307
82.8295,-9.3271
82.7625,-8.9282
82.7074,-8.5234
82.641,-8.1246
82.5758,-7.7225
82.4865,-7.3271
82.3247,-6.9568
82.1373,-6.5935
81.9335,-6.2464
81.7169,-5.8989
81.5126,-5.5498
81.3077,-5.1996
81.1144,-4.8389
80.9224,-4.4867
80.7201,-4.1269
80.5385,-3.7706
80.449,-3.3763
80.4064,-2.9644
80.232,-2.6315
79.985,-2.3254
79.7299,-2.1613
79.3713,-2.1367
78.9985,-1.9707
78.6589,-1.7404
78.2957,-1.5657
77.9242,-1.3974
77.5428,-1.2617
77.1621,-1.1175
76.7845,-0.96685
76.4003,-0.83853
76.0115,-0.71757
75.6185,-0.61696
75.2286,-0.50296
74.8366,-0.39161
74.4438,-0.29921
74.044,-0.21257
73.6443,-0.15445
73.2458,-0.064682
72.8442,-0.0073905
