88.424,-324.5451
88.7682,-324.3477
89.1118,-324.149
89.4511,-323.9446
89.7982,-323.7509
90.1337,-323.5409
90.4427,-323.293
90.7467,-323.0375
91.0521,-322.7847
91.3591,-322.5335
91.6754,-322.2942
91.9951,-322.0593
92.3132,-321.8223
92.6311,-321.5851
92.9518,-321.3518
93.2771,-321.1247
93.6029,-320.8986
93.9297,-320.6735
94.2543,-320.4457
94.5729,-320.2095
94.8883,-319.9689
95.2036,-319.7284
95.5209,-319.4901
95.8223,-319.2337
96.0993,-318.95
96.3758,-318.6657
96.6496,-318.3782
96.9294,-318.0978
97.2493,-317.8663
97.5863,-317.6556
97.9156,-317.4353
98.2502,-317.2217
98.578,-316.9988
98.894,-316.7591
99.2112,-316.5208
99.5271,-316.281
99.8435,-316.0417
100.1625,-315.806
100.4812,-315.5699
100.8012,-315.3353
101.1205,-315.1001
101.4389,-314.8635
101.7557,-314.6247
102.071,-314.3842
102.3874,-314.1448
102.7036,-313.9054
103.0259,-313.6743
103.354,-313.4513
103.68,-313.2255
104.0081,-313.0025
104.3339,-312.7762
104.6507,-312.5377
104.9668,-312.2978
105.2834,-312.059
105.5994,-311.8192
105.9155,-311.5795
106.23,-311.3378
106.5454,-311.0972
106.8599,-310.8555
107.1755,-310.6153
107.4985,-310.385
107.8225,-310.1562
108.1454,-309.9259
108.4694,-309.6969
108.788,-309.4608
109.1025,-309.219
109.4175,-308.9779
109.7315,-308.7355
110.0466,-308.4947
110.3643,-308.2572
110.6829,-308.0208
111.0016,-307.7847
111.3198,-307.5478
111.6389,-307.3122
111.9587,-307.0776
112.2778,-306.8419
112.5985,-306.6084
112.9169,-306.3719
113.2251,-306.1224
113.5286,-305.867
113.8336,-305.6134
114.1379,-305.3589
114.4435,-305.106
114.7524,-304.8572
115.0612,-304.6083
115.3698,-304.3591
115.6789,-304.1105
115.9883,-303.8622
116.2983,-303.6147
116.6082,-303.3671
116.9179,-303.1193
117.2278,-302.8716
117.5368,-302.6229
117.8456,-302.374
118.155,-302.1258
118.4637,-301.8766
118.7711,-301.626
119.0772,-301.3737
119.3831,-301.1211
119.6898,-300.8697
119.9945,-300.6157
120.2942,-300.3558
120.5922,-300.0941
120.8915,-299.8337
121.19,-299.5726
121.4876,-299.3102
121.7844,-299.0471
122.0806,-298.7832
122.3775,-298.5202
122.6737,-298.2564
122.9678,-297.9902
123.2613,-297.7233
123.5551,-297.4569
123.8487,-297.1902
124.1421,-296.9232
124.4352,-296.656
124.728,-296.3883
125.0214,-296.1214
125.3139,-295.8534
125.6008,-295.5796
125.8854,-295.3033
126.1715,-295.0285
126.4563,-294.7524
126.7453,-294.4808
127.041,-294.2163
127.3363,-293.9516
127.6325,-293.6877
127.9275,-293.4225
128.2137,-293.148
128.4958,-292.8691
128.7787,-292.5911
129.0612,-292.3126
129.3437,-292.0342
129.6263,-291.7559
129.9086,-291.4771
130.1911,-291.1988
130.4735,-290.9201
130.7517,-290.6374
131.0261,-290.351
131.3013,-290.0653
131.5752,-289.7784
131.8524,-289.4948
132.1398,-289.2214
132.4288,-288.9497
132.7166,-288.6767
133.005,-288.4044
133.2809,-288.1199
133.5448,-287.8237
133.8091,-287.5279
134.073,-287.2317
134.3372,-286.9359
134.6062,-286.6444
134.8759,-286.3535
135.145,-286.0622
135.4148,-285.7714
135.6777,-285.4745
135.932,-285.1701
136.1864,-284.8657
136.44,-284.5607
136.6952,-284.2571
136.9643,-283.9659
137.2401,-283.6808
137.5135,-283.3933
137.7892,-283.1081
138.0583,-282.817
138.3139,-282.5136
138.5676,-282.2087
138.8229,-281.9052
139.0769,-281.6004
139.3293,-281.2945
139.5799,-280.987
139.8307,-280.6797
140.0817,-280.3725
140.3327,-280.0653
140.5858,-279.76
140.8389,-279.4545
141.0919,-279.149
141.3451,-278.8436
141.5906,-278.5322
141.8298,-278.2158
142.0701,-277.9002
142.3088,-277.5833
142.5499,-277.2684
142.8003,-276.9608
143.0523,-276.6544
143.3033,-276.3473
143.5546,-276.0404
143.7973,-275.7269
144.0323,-275.4072
144.2674,-275.0878
144.5027,-274.7685
144.7373,-274.4486
144.9689,-274.1266
145.1985,-273.8031
145.4294,-273.4805
145.6593,-273.1573
145.8922,-272.8362
146.1306,-272.5192
146.3685,-272.2018
146.6073,-271.8851
146.8449,-271.5675
147.0717,-271.2421
147.293,-270.9129
147.5156,-270.5846
147.7371,-270.2555
147.9612,-269.9283
148.1908,-269.6048
148.4202,-269.2812
148.6502,-268.958
148.8793,-268.6342
149.0979,-268.3034
149.3102,-267.9683
149.524,-267.6342
149.7363,-267.2991
149.9515,-266.9659
150.1736,-266.6373
150.3963,-266.309
150.6188,-265.9806
150.8412,-265.6522
151.0623,-265.3228
151.2828,-264.9931
151.5026,-264.6629
151.7239,-264.3337
151.9387,-264.0004
152.1373,-263.6571
152.3329,-263.3119
152.5308,-262.9683
152.7276,-262.6238
152.9345,-262.2855
153.1481,-261.9512
153.3591,-261.6153
153.5733,-261.2815
153.7812,-260.9438
153.9738,-260.5971
154.1639,-260.2489
154.3558,-259.9017
154.5466,-259.554
154.7411,-259.2083
154.9381,-258.864
155.1343,-258.5193
155.3319,-258.1753
155.5272,-257.83
155.715,-257.4807
155.9007,-257.1302
156.0882,-256.7806
156.2746,-256.4304
156.4619,-256.0808
156.6505,-255.7318
156.8381,-255.3823
157.0269,-255.0335
157.2147,-254.6841
157.3975,-254.3321
157.5788,-253.9793
157.7602,-253.6265
157.9418,-253.2739
158.1198,-252.9194
158.2901,-252.5612
158.4594,-252.2025
158.6297,-251.8442
158.7993,-251.4856
158.9789,-251.132
159.1651,-250.7817
159.3483,-250.43
159.536,-250.0804
159.7172,-249.7278
159.8772,-249.3649
160.0319,-248.9995
160.1906,-248.6361
160.347,-248.2715
160.5031,-247.9068
160.6588,-247.542
160.8133,-247.1766
160.9692,-246.8119
161.124,-246.4467
161.277,-246.0807
161.4295,-245.7146
161.582,-245.3483
161.7346,-244.9822
161.8841,-244.6149
162.0292,-244.2456
162.1737,-243.8763
162.319,-243.5072
162.4633,-243.1377
162.6053,-242.7673
162.7459,-242.3964
162.8868,-242.0256
163.028,-241.6549
163.1665,-241.2832
163.3009,-240.91
163.4346,-240.5366
163.5685,-240.1632
163.7029,-239.79
163.8415,-239.4183
163.9826,-239.0476
164.1229,-238.6766
164.2636,-238.3057
164.403,-237.9344
164.5394,-237.5619
164.6758,-237.1894
164.8126,-236.8171
164.9486,-236.4444
165.081,-236.0706
165.211,-235.6958
165.3417,-235.3213
165.4722,-234.9467
165.6019,-234.5718
165.7311,-234.1968
165.8594,-233.8214
165.9883,-233.4463
166.1171,-233.0711
166.2451,-232.6957
166.3733,-232.3204
166.501,-231.9448
166.6293,-231.5694
166.7559,-231.1935
166.8772,-230.8159
166.998,-230.438
167.1194,-230.0604
167.2401,-229.6826
167.3636,-229.3056
167.4882,-228.929
167.6122,-228.5522
167.7374,-228.1758
167.8603,-227.7987
167.9791,-227.4203
168.0965,-227.0414
168.2149,-226.6628
168.3328,-226.284
168.4434,-225.9031
168.5478,-225.5205
168.6525,-225.1379
168.7566,-224.7551
168.8615,-224.3726
168.9699,-223.991
169.079,-223.6096
169.1879,-223.2282
169.2966,-222.8467
169.4074,-222.4659
169.5216,-222.086
169.6355,-221.7061
169.7503,-221.3263
169.8638,-220.9463
169.9672,-220.5634
170.0636,-220.1786
170.1603,-219.794
170.2575,-219.4094
170.352,-219.0241
170.4406,-218.6375
170.5276,-218.2505
170.6159,-217.8638
170.7035,-217.4769
170.7941,-217.0907
170.8873,-216.7052
170.9802,-216.3195
171.0732,-215.9339
171.1664,-215.5484
171.2637,-215.1638
171.3621,-214.7796
171.4592,-214.395
171.5574,-214.0106
171.6392,-213.6229
171.7014,-213.2311
171.7651,-212.8397
171.8262,-212.4477
171.8909,-212.0564
171.9778,-211.6694
172.0692,-211.2833
172.1567,-210.8965
172.247,-210.5102
172.3275,-210.1219
172.4004,-209.732
172.4749,-209.3424
172.5472,-208.9523
172.6225,-208.5629
172.7053,-208.175
172.7887,-207.7872
172.8725,-207.3995
172.9551,-207.0115
173.0241,-206.6211
173.0813,-206.2286
173.1402,-205.8363
173.1973,-205.4438
173.2596,-205.0521
173.3414,-204.664
173.4255,-204.2763
173.5077,-203.8883
173.5908,-203.5005
173.6472,-203.1084
173.684,-202.7134
173.7246,-202.3189
173.7605,-201.9238
173.804,-201.5296
173.8665,-201.138
173.9311,-200.7466
173.995,-200.3551
174.0587,-199.9636
174.1201,-199.5717
174.1806,-199.1797
174.2385,-198.7873
174.3005,-198.3954
174.3574,-198.0029
174.3941,-197.608
174.426,-197.2126
174.4612,-196.8175
174.4946,-196.4223
174.5346,-196.0277
174.5815,-195.6338
174.6286,-195.2399
174.6751,-194.846
174.7227,-194.4522
174.7751,-194.059
174.8292,-193.6661
174.8823,-193.273
174.9359,-192.8799
174.9817,-192.486
175.0183,-192.091
175.0551,-191.6961
175.0917,-191.3011
175.1286,-190.9062
175.1713,-190.5118
175.2156,-190.1176
175.2588,-189.7233
175.3033,-189.3292
175.3399,-188.9343
175.3652,-188.5384
175.3904,-188.1426
175.4148,-187.7466
175.4409,-187.3509
175.4823,-186.9565
175.5303,-186.5627
175.5754,-186.1686
175.6234,-185.7748
175.6625,-185.3803
175.6843,-184.9842
175.7034,-184.588
175.725,-184.192
175.7444,-183.7957
175.7616,-183.3995
175.7767,-183.0031
175.7915,-182.6067
175.8072,-182.2104
175.8206,-181.8139
175.8299,-181.4174
175.8381,-181.0208
175.8469,-180.6242
175.8556,-180.2276
175.8632,-179.831
175.8705,-179.4344
175.878,-179.0379
175.8848,-178.6412
175.8946,-178.2447
175.9116,-177.8484
175.9296,-177.4522
175.9472,-177.0559
175.9643,-176.6596
175.9654,-176.2632
175.9547,-175.8666
175.9473,-175.47
175.9362,-175.0735
175.9303,-174.6769
175.9421,-174.2805
175.9563,-173.884
175.9689,-173.4876
175.9825,-173.0912
175.989,-172.6946
175.9902,-172.2979
175.9894,-171.9013
175.9918,-171.5045
175.9897,-171.108
175.9633,-170.7124
175.9286,-170.3171
175.8999,-169.9216
175.8664,-169.5262
175.8465,-169.1304
175.8457,-168.7337
175.8427,-168.3371
175.8438,-167.9403
175.8397,-167.5438
175.809,-167.1485
175.7696,-166.7538
175.7335,-166.3588
175.6954,-165.9639
175.6632,-165.5686
175.6379,-165.1728
175.6127,-164.7769
175.5873,-164.381
175.5624,-163.9852
175.5384,-163.5892
175.5152,-163.1932
175.4917,-162.7973
175.468,-162.4013
175.4499,-162.0051
175.44,-161.6086
175.4307,-161.212
175.4215,-160.8155
175.4112,-160.4189
175.39,-160.0229
175.3646,-159.627
175.3415,-159.231
175.3165,-158.8352
175.2939,-158.4391
175.2737,-158.043
175.2531,-157.6469
175.2331,-157.2507
175.2129,-156.8545
175.2006,-156.4581
175.1929,-156.0615
175.182,-155.665
175.1753,-155.2683
175.157,-154.8724
175.1131,-154.4783
175.0656,-154.0843
175.0206,-153.6903
174.9743,-153.2963
174.9376,-152.9014
174.9058,-152.506
174.8723,-152.1108
174.8412,-151.7153
174.8042,-151.3205
174.7547,-150.9269
174.7021,-150.5338
174.6523,-150.1402
174.6004,-149.747
174.5461,-149.354
174.4899,-148.9614
174.4316,-148.569
174.3769,-148.1761
174.3169,-147.7841
174.2386,-147.3953
174.1557,-147.0073
174.0765,-146.6187
173.9949,-146.2305
173.914,-145.8421
173.8332,-145.4538
173.7512,-145.0657
173.6707,-144.6773
173.5888,-144.2892
173.5058,-143.9013
173.4222,-143.5135
173.3387,-143.1257
173.2556,-142.7379
173.1646,-142.3519
173.0638,-141.9682
172.9616,-141.585
172.8611,-141.2013
172.7586,-140.8181
172.648,-140.4372
172.5333,-140.0575
172.4202,-139.6773
172.3059,-139.2974
172.1943,-138.9168
172.0872,-138.5349
171.9795,-138.1531
171.8727,-137.7711
171.7649,-137.3893
171.6522,-137.009
171.5377,-136.6293
171.4232,-136.2495
171.3092,-135.8695
171.1909,-135.491
171.0644,-135.115
170.9373,-134.7393
170.8106,-134.3634
170.6838,-133.9875
170.5638,-133.6095
170.4471,-133.2303
170.3292,-132.8516
170.2128,-132.4724
170.0906,-132.0951
169.9578,-131.7214
169.8233,-131.3482
169.6903,-130.9745
169.5562,-130.6012
169.4236,-130.2273
169.2917,-129.8532
169.1588,-129.4795
169.0275,-129.1052
168.8905,-128.733
168.7422,-128.3651
168.5922,-127.9979
168.4433,-127.6303
168.294,-127.2627
168.1485,-126.8938
168.0048,-126.524
167.8604,-126.1546
167.7164,-125.785
167.5725,-125.4153
167.4288,-125.0456
167.2853,-124.6758
167.1418,-124.306
166.998,-123.9363
166.8519,-123.5675
166.7043,-123.1994
166.5565,-122.8313
166.4095,-122.4629
166.2592,-122.0958
166.0999,-121.7325
165.9384,-121.3702
165.7787,-121.0071
165.6181,-120.6444
165.4635,-120.2792
165.3138,-119.9118
165.1623,-119.5453
165.013,-119.1777
164.8607,-118.8115
164.699,-118.4493
164.536,-118.0876
164.3739,-117.7257
164.2112,-117.3639
164.0514,-117.0008
163.8931,-116.6371
163.7348,-116.2734
163.5768,-115.9096
163.4171,-115.5465
163.2538,-115.185
163.0891,-114.8241
162.9258,-114.4627
162.7615,-114.1016
162.5947,-113.7418
162.4262,-113.3826
162.2567,-113.024
162.0885,-112.6648
161.919,-112.3061
161.7453,-111.9496
161.5708,-111.5933
161.3965,-111.237
161.2222,-110.8807
161.0515,-110.5226
160.8833,-110.1634
160.7149,-109.8043
160.5468,-109.4449
160.378,-109.086
160.2068,-108.7281
160.0344,-108.371
159.8631,-108.0132
159.6911,-107.6557
159.5117,-107.3021
159.3229,-106.9533
159.1316,-106.6058
158.9436,-106.2565
158.7519,-105.9092
158.5479,-105.5692
158.3385,-105.2322
158.1312,-104.894
157.923,-104.5564
157.7128,-104.22
157.4998,-103.8854
157.2849,-103.552
157.0722,-103.2172
156.8573,-102.8838
156.6339,-102.556
156.4062,-102.2313
156.1794,-101.9059
155.9523,-101.5806
155.7243,-101.2561
155.4955,-100.932
155.2654,-100.6089
155.0371,-100.2845
154.8067,-99.9616
154.5627,-99.6492
154.3106,-99.3428
154.0607,-99.0348
153.8091,-98.7282
153.5594,-98.4199
153.3162,-98.1066
153.073,-97.7933
152.8301,-97.4796
152.5868,-97.1664
152.3369,-96.8584
152.0815,-96.5549
151.8252,-96.2522
151.5703,-95.9482
151.3134,-95.6461
151.0509,-95.3486
150.7873,-95.0522
150.5243,-94.7554
150.261,-94.4585
149.9976,-94.1621
149.7336,-93.866
149.4704,-93.5692
149.2057,-93.2738
148.9431,-92.9764
148.6921,-92.6694
148.4447,-92.3594
148.195,-92.0511
147.9472,-91.7415
147.6907,-91.4391
147.4214,-91.1479
147.1506,-90.8581
146.8815,-90.5665
146.6105,-90.277
146.3349,-89.9917
146.0558,-89.7098
145.7776,-89.4272
145.4993,-89.1444
145.2193,-88.8635
144.9374,-88.5845
144.6542,-88.3066
144.3721,-88.0279
144.0894,-87.7496
143.8032,-87.4749
143.5156,-87.2019
143.2278,-86.9287
142.94,-86.6559
142.6528,-86.3823
142.3658,-86.1083
142.0795,-85.8339
141.7927,-85.5597
141.5062,-85.2855
141.2254,-85.0054
140.9483,-84.7214
140.6703,-84.4388
140.3939,-84.154
140.1123,-83.8749
139.8173,-83.6099
139.5197,-83.3474
139.2241,-83.0831
138.9274,-82.8197
138.6364,-82.5502
138.3506,-82.2753
138.0639,-82.001
137.778,-81.7261
137.4916,-81.4517
137.2033,-81.1792
136.9149,-80.9069
136.6265,-80.6345
136.338,-80.3623
136.0481,-80.0917
135.7558,-79.8233
135.4637,-79.5552
135.1717,-79.2866
134.8792,-79.0186
134.5862,-78.7514
134.2923,-78.4848
133.9989,-78.218
133.7054,-77.9512
133.409,-77.6874
133.1103,-77.4266
132.8113,-77.1658
132.5123,-76.9052
132.2136,-76.6443
131.9163,-76.3815
131.6199,-76.1181
131.3231,-75.8548
131.0264,-75.5915
130.7302,-75.3279
130.4348,-75.0628
130.1393,-74.7985
129.8446,-74.5329
129.5484,-74.2691
129.2393,-74.0211
128.922,-73.7826
128.6076,-73.5411
128.2903,-73.3029
127.98,-73.0561
127.6874,-72.7887
127.3963,-72.5189
127.1042,-72.2506
126.8126,-71.9818
126.508,-71.728
126.195,-71.4845
125.883,-71.2396
125.5698,-70.9959
125.2577,-70.7515
124.9463,-70.5054
124.635,-70.2598
124.3241,-70.0135
124.0126,-69.7677
123.7038,-69.519
123.3971,-69.2672
123.0895,-69.0168
122.7834,-68.7647
122.4755,-68.5143
122.1623,-68.2712
121.8475,-68.0297
121.5334,-67.7874
121.2191,-67.5456
120.9043,-67.304
120.5892,-67.0634
120.2738,-66.8227
119.9587,-66.5816
119.6433,-66.3414
119.3259,-66.1032
119.0077,-65.8664
118.6905,-65.6284
118.3724,-65.3911
118.0516,-65.1583
117.7273,-64.9296
117.4017,-64.703
117.0781,-64.4738
116.7522,-64.2474
116.4186,-64.0332
116.0825,-63.8225
115.7476,-63.6096
115.4121,-63.3984
115.0792,-63.1824
114.7506,-62.9604
114.4222,-62.738
114.0936,-62.5155
113.7652,-62.2934
113.4368,-62.0707
113.1086,-61.8479
112.7803,-61.6256
112.4523,-61.4021
112.1217,-61.1834
111.7862,-60.9715
111.4497,-60.7614
111.1144,-60.5498
110.7778,-60.3395
110.4331,-60.144
110.0825,-59.9584
109.734,-59.7688
109.3826,-59.5848
109.0398,-59.3865
108.7212,-59.1507
108.4066,-58.9089
108.0889,-58.6712
107.7728,-58.4319
107.4406,-58.2162
107.0964,-58.0187
106.754,-57.8191
106.4103,-57.6204
106.0663,-57.4234
105.7188,-57.2323
105.369,-57.0446
105.0216,-56.8539
104.6726,-56.6647
104.3289,-56.467
103.9898,-56.2616
103.6479,-56.0597
103.309,-55.8541
102.9674,-55.6524
102.619,-55.4625
102.2709,-55.273
101.9217,-55.0839
101.5736,-54.8944
101.2273,-54.7009
100.8815,-54.506
100.5377,-54.3091
100.1916,-54.1146
99.8489,-53.9152
99.5141,-53.7027
99.1793,-53.4894
98.8452,-53.2763
98.5103,-53.0632
98.1679,-52.8634
97.8195,-52.6744
97.4699,-52.4862
97.1215,-52.2971
96.7724,-52.1088
96.4221,-51.922
96.0725,-51.7357
95.7219,-51.5491
95.372,-51.3628
95.0175,-51.1855
94.6562,-51.0207
94.2959,-50.8561
93.9348,-50.6911
93.5738,-50.5265
93.2166,-50.3551
92.8586,-50.1828
92.5014,-50.0115
92.1442,-49.8388
91.7863,-49.6669
91.4305,-49.4929
91.0732,-49.3193
90.7166,-49.1462
90.3605,-48.972
90.0017,-48.8014
89.6444,-48.6308
89.2861,-48.4596
88.9272,-48.2903
88.5718,-48.1156
88.2178,-47.935
87.8663,-47.7524
87.5136,-47.5706
87.1603,-47.3893
86.8103,-47.2045
86.4586,-47.0194
86.1085,-46.8335
85.7585,-46.6477
85.408,-46.46
85.0674,-46.2587
84.7263,-46.0551
84.3828,-45.8561
84.0448,-45.6507
83.709,-45.4374
83.385,-45.2103
83.0598,-44.9831
82.7283,-44.7625
82.413,-44.5264
82.0883,-44.293
81.7879,-44.0375
81.5787,-43.7048
81.3856,-43.3541
81.1862,-43.0147
81.0701,-42.6388
81.0009,-42.2473
80.9198,-41.8609
80.8489,-41.4685
80.7691,-41.0814
80.6714,-40.6966
80.5778,-40.3106
80.4785,-39.9276
80.3837,-39.5413
80.3155,-39.1521
80.2677,-38.7585
80.2259,-38.3632
80.1763,-37.9706
80.1346,-37.5754
80.1206,-37.1796
80.1153,-36.7832
80.107,-36.3859
80.1004,-35.9901
80.095,-35.5929
80.0944,-35.1963
80.0945,-34.8002
80.0935,-34.4027
80.0936,-34.0068
80.088,-33.6098
80.0804,-33.213
80.074,-32.817
80.0655,-32.4196
80.0611,-32.0237
80.0612,-31.6268
80.0631,-31.2298
80.0634,-30.8339
80.0655,-30.4364
80.0882,-30.0414
80.1264,-29.6464
80.1634,-29.2509
80.1982,-28.8568
80.2407,-28.4613
80.3163,-28.0735
80.4143,-27.6883
80.5,-27.2999
80.597,-26.92
80.756,-26.558
81.0207,-26.283
81.3881,-26.1454
81.7753,-26.0431
82.1437,-25.9038
82.516,-25.7602
82.8647,-25.5776
83.16,-25.3168
83.4294,-25.0262
83.7066,-24.7421
83.9881,-24.4608
84.2555,-24.172
84.5076,-23.8639
84.7118,-23.526
84.7985,-23.1494
84.7668,-22.7536
84.7042,-22.3629
84.6513,-21.9703
84.5408,-21.593
84.3511,-21.248
84.1656,-20.8974
84.018,-20.5279
83.879,-20.1587
83.7496,-19.7827
83.6567,-19.3974
83.6252,-19.0066
83.6361,-18.609
83.6474,-18.2128
83.6626,-17.817
83.6901,-17.4202
83.7167,-17.0256
83.7412,-16.629
83.77,-16.2334
83.81,-15.8395
83.8574,-15.4446
83.9027,-15.0515
83.9491,-14.6572
83.9835,-14.262
83.9922,-13.8664
83.9965,-13.4687
84.0058,-13.0728
84.0112,-12.6762
84.0224,-12.2791
84.0378,-11.8836
84.0495,-11.4864
84.0651,-11.0902
84.0806,-10.6943
84.1038,-10.2975
84.1306,-9.9025
84.1184,-9.5066
84.0817,-9.1116
84.0502,-8.7168
84.0059,-8.3219
83.9601,-7.9281
83.8924,-7.5379
83.7626,-7.1636
83.6155,-6.7959
83.4748,-6.424
83.3262,-6.0567
83.1643,-5.6955
82.9528,-5.361
82.7113,-5.0476
82.4792,-4.7246
82.2223,-4.4234
81.9474,-4.1389
81.7078,-3.8233
81.507,-3.4847
81.3099,-3.1384
81.1147,-2.7928
80.9623,-2.4303
80.8143,-2.0565
80.5871,-1.7418
80.2973,-1.4717
79.9785,-1.2351
79.6245,-1.0686
79.2575,-0.90805
78.8985,-0.74044
78.5346,-0.59208
78.1604,-0.44219
77.7916,-0.31536
77.4204,-0.16508
77.0435,-0.032143
