68.5488,-334.3132
68.9528,-334.2083
69.3559,-334.1019
69.7603,-333.9984
70.1633,-333.8914
70.5672,-333.7873
70.9711,-333.6819
71.374,-333.5756
71.7788,-333.4725
72.1814,-333.3646
72.5857,-333.2617
72.9893,-333.1551
73.3922,-333.0498
73.7973,-332.946
74.1994,-332.8385
74.6119,-332.7832
75.0281,-332.7554
75.443,-332.727
75.8621,-332.704
76.2617,-332.6077
76.6605,-332.4788
77.0505,-332.3353
77.3903,-332.0992
77.716,-331.8376
78.0436,-331.5794
78.3943,-331.3697
78.7993,-331.2759
79.2097,-331.192
79.6144,-331.0974
80.0242,-331.0127
80.4242,-330.8982
80.8243,-330.7782
81.2214,-330.652
81.6214,-330.532
82.0115,-330.39
82.3687,-330.1757
82.7227,-329.9538
83.0797,-329.7391
83.4341,-329.5181
83.7923,-329.305
84.1498,-329.0894
84.51,-328.8794
84.8666,-328.6628
85.238,-328.4775
85.6355,-328.3538
86.036,-328.236
86.4365,-328.1171
86.8325,-327.9918
87.2284,-327.8534
87.6058,-327.6817
87.9455,-327.4476
88.3046,-327.2374
88.6868,-327.0646
89.0485,-326.8593
89.3878,-326.6202
89.7068,-326.3512
90.0289,-326.0851
90.3533,-325.8244
90.6755,-325.558
91.0113,-325.3111
91.3409,-325.0556
91.6745,-324.8041
92.004,-324.5501
92.3043,-324.2586
92.6093,-323.976
92.9081,-323.6832
93.2137,-323.4002
93.5748,-323.1978
93.9514,-323.0161
94.3239,-322.8298
94.699,-322.6465
95.0547,-322.4302
95.4004,-322.197
95.7468,-321.9643
96.0921,-321.7304
96.435,-321.493
96.7732,-321.2485
97.1122,-321.0057
97.4508,-320.7619
97.7904,-320.5197
98.1322,-320.2806
98.4732,-320.0401
98.815,-319.8012
99.1566,-319.5615
99.4998,-319.3245
99.843,-319.0875
100.1861,-318.85
100.5293,-318.6132
100.8651,-318.3655
101.1988,-318.1152
101.5331,-317.8659
101.8666,-317.615
102.2037,-317.3695
102.541,-317.1239
102.8788,-316.8792
103.2165,-316.6345
103.5562,-316.3921
103.9001,-316.1562
104.2419,-315.9171
104.5868,-315.682
104.9215,-315.4346
105.2299,-315.1536
105.533,-314.867
105.8413,-314.586
106.145,-314.2999
106.4395,-314.0049
106.7302,-313.7053
107.0217,-313.4071
107.3135,-313.109
107.6262,-312.8348
107.9618,-312.5871
108.2962,-312.3375
108.6313,-312.0894
108.9627,-311.836
109.2825,-311.5682
109.6021,-311.3003
109.9223,-311.0327
110.2414,-310.7641
110.5581,-310.4926
110.8724,-310.2182
111.1883,-309.946
111.5031,-309.672
111.8162,-309.3965
112.1269,-309.1182
112.4366,-308.8386
112.7478,-308.561
113.0577,-308.2814
113.3689,-308.0039
113.6798,-307.7258
113.9902,-307.447
114.302,-307.17
114.6113,-306.8898
114.9228,-306.6126
115.2322,-306.3327
115.5432,-306.0546
115.8699,-305.7956
116.1988,-305.5389
116.5291,-305.284
116.8569,-305.0264
117.1516,-304.7331
117.4275,-304.4201
117.707,-304.1105
117.9836,-303.7981
118.2632,-303.4887
118.5463,-303.1821
118.829,-302.8755
119.1127,-302.5696
119.3953,-302.2627
119.6803,-301.9582
119.9655,-301.6537
120.2503,-301.349
120.5359,-301.0448
120.8088,-300.7296
121.0726,-300.4066
121.3378,-300.0845
121.6005,-299.7604
121.8729,-299.4448
122.1631,-299.1453
122.4562,-298.8485
122.7476,-298.5499
123.0393,-298.2518
123.3261,-297.9488
123.6106,-297.6438
123.8976,-297.341
124.1828,-297.0365
124.4677,-296.732
124.7534,-296.4278
125.0364,-296.1214
125.3228,-295.8181
125.6015,-295.5079
125.8612,-295.1817
126.1201,-294.8545
126.3783,-294.5267
126.6385,-294.2009
126.921,-293.8943
127.2116,-293.595
127.4998,-293.2934
127.7898,-292.9934
128.0721,-292.6867
128.3494,-292.3748
128.6257,-292.0624
128.9033,-291.751
129.1791,-291.438
129.4394,-291.1122
129.6975,-290.7842
129.9574,-290.4581
130.2162,-290.1309
130.4955,-289.8216
130.7869,-289.5232
131.0769,-289.2233
131.3685,-288.925
131.6469,-288.6147
131.9131,-288.2935
132.1791,-287.9723
132.4447,-287.6505
132.7111,-287.3296
132.9776,-287.0087
133.2447,-286.6881
133.5116,-286.3677
133.7782,-286.0467
134.0466,-285.7275
134.3149,-285.408
134.584,-285.0892
134.8525,-284.7701
135.1246,-284.4538
135.4048,-284.1448
135.6841,-283.835
135.9647,-283.5263
136.2437,-283.2163
136.5102,-282.8953
136.7734,-282.5717
137.0382,-282.2494
137.3016,-281.9259
137.5619,-281.6
137.8184,-281.271
138.0759,-280.9428
138.3325,-280.6139
138.5937,-280.2887
138.8653,-279.9722
139.1377,-279.6562
139.4095,-279.3398
139.6814,-279.0234
139.9486,-278.703
140.2147,-278.3818
140.4828,-278.0621
140.7481,-277.7403
141.0031,-277.4103
141.2529,-277.0761
141.5058,-276.7444
141.7562,-276.4107
141.9982,-276.0711
142.234,-275.727
142.4694,-275.3825
142.7058,-275.0389
142.9458,-274.6977
143.1925,-274.3614
143.4389,-274.0248
143.6848,-273.6877
143.9319,-273.3517
144.1776,-273.0145
144.4249,-272.6786
144.6712,-272.342
144.9175,-272.0052
145.1614,-271.6669
145.4006,-271.325
145.6432,-270.9857
145.8824,-270.6439
146.1317,-270.3099
146.4037,-269.9936
146.6736,-269.6758
146.9484,-269.3614
147.216,-269.042
147.4378,-268.6895
147.6468,-268.328
147.8638,-267.9721
148.075,-267.612
148.2966,-267.2589
148.5258,-266.9102
148.7529,-266.5603
148.9834,-266.2127
149.2078,-265.861
149.4231,-265.5038
149.6363,-265.1452
149.8503,-264.7871
150.0646,-264.4292
150.2778,-264.0706
150.4917,-263.7126
150.7054,-263.3542
150.9187,-262.9958
151.1329,-262.6378
151.3461,-262.2792
151.56,-261.9212
151.7737,-261.5628
151.9783,-261.1995
152.1727,-260.8305
152.3664,-260.4609
152.5607,-260.0919
152.7563,-259.7233
152.958,-259.3583
153.16,-258.9933
153.3619,-258.6282
153.5635,-258.2631
153.7556,-257.8927
153.9451,-257.5211
154.1361,-257.1503
154.3257,-256.7786
154.5185,-256.4088
154.7118,-256.0391
154.9052,-255.6695
155.0989,-255.3
155.2923,-254.9304
155.4914,-254.5639
155.6903,-254.1972
155.8893,-253.8305
156.0881,-253.4639
156.2701,-253.0886
156.4419,-252.7086
156.6151,-252.3291
156.7867,-251.9488
156.9658,-251.5722
157.1526,-251.1991
157.339,-250.826
157.5271,-250.4536
157.7111,-250.0793
157.8826,-249.6991
158.0506,-249.3172
158.2213,-248.9366
158.3906,-248.5553
158.5686,-248.1782
158.7561,-247.8056
158.9407,-247.4314
159.1289,-247.0591
159.3117,-246.6843
159.474,-246.3
159.6339,-245.9147
159.7953,-245.53
159.9559,-245.1451
160.133,-244.7676
160.3207,-244.3951
160.5078,-244.0223
160.6958,-243.6498
160.8729,-243.2725
161.0335,-242.8875
161.1915,-242.5014
161.3525,-242.1166
161.5094,-241.73
161.6599,-241.3411
161.8083,-240.9512
161.9581,-240.5618
162.1073,-240.1723
162.2518,-239.7809
162.3933,-239.3886
162.5341,-238.9958
162.6753,-238.6033
162.8237,-238.2136
162.9797,-237.8266
163.1367,-237.4402
163.2927,-237.0533
163.4492,-236.6666
163.605,-236.2797
163.7597,-235.8922
163.9164,-235.5057
164.0707,-235.1181
164.2144,-234.7265
164.3528,-234.333
164.4922,-233.9398
164.6315,-233.5466
164.7629,-233.1508
164.8841,-232.7517
165.0047,-232.3524
165.1251,-231.9529
165.2518,-231.5557
165.3954,-231.164
165.542,-230.7734
165.6855,-230.3818
165.8307,-229.9906
165.9709,-229.5978
166.1101,-229.2045
166.2519,-228.8122
166.3902,-228.4187
166.5233,-228.0233
166.652,-227.6266
166.7822,-227.2302
166.9125,-226.8339
167.0327,-226.4346
167.1441,-226.0326
167.2537,-225.6301
167.3643,-225.2279
167.475,-224.8257
167.5859,-224.4236
167.6987,-224.0219
167.8098,-223.6199
167.9222,-223.2181
168.0499,-222.8213
168.1912,-222.4288
168.3317,-222.036
168.474,-221.6439
168.6103,-221.2497
168.7219,-220.8479
168.8277,-220.4443
168.9393,-220.0423
169.0464,-219.6392
169.1616,-219.2383
169.2809,-218.8385
169.3965,-218.4378
169.5175,-218.0384
169.6212,-217.6348
169.7011,-217.2255
169.7798,-216.8158
169.8565,-216.4057
169.938,-215.9966
170.0383,-215.5919
170.1458,-215.1887
170.2498,-214.7848
170.3543,-214.381
170.4523,-213.9755
170.5411,-213.568
170.6339,-213.1612
170.7246,-212.754
170.8113,-212.3461
170.898,-211.9379
170.9763,-211.5283
171.0647,-211.1203
171.1432,-210.7109
171.1786,-210.2954
171.21,-209.8794
171.2412,-209.4633
171.2762,-209.0478
171.3564,-208.639
171.4494,-208.2321
171.5362,-207.8243
171.6277,-207.4171
171.7041,-207.0072
171.7738,-206.5959
171.8434,-206.1846
171.9125,-205.7732
171.977,-205.3612
172.024,-204.9466
172.0729,-204.5325
172.1191,-204.1177
172.1715,-203.7042
172.2617,-203.2969
172.3557,-202.8904
172.4468,-202.4834
172.5391,-202.0765
172.6005,-201.6643
172.6511,-201.2502
172.706,-200.8367
172.756,-200.4225
172.8,-200.0078
172.8324,-199.5919
172.8672,-199.1762
172.9008,-198.7604
172.938,-198.345
172.9979,-197.9322
173.0573,-197.5193
173.1171,-197.1064
173.1742,-196.6933
173.2058,-196.2773
173.2363,-195.8613
173.2685,-195.4454
173.2986,-195.0293
173.3453,-194.6148
173.3959,-194.2008
173.4463,-193.7867
173.4983,-193.3727
173.542,-192.958
173.5791,-192.5425
173.6126,-192.1267
173.649,-191.7111
173.6835,-191.2954
173.7098,-190.8791
173.7359,-190.4628
173.7619,-190.0464
173.7875,-189.63
173.8041,-189.2133
173.8104,-188.7962
173.8199,-188.3792
173.826,-187.962
173.8365,-187.5451
173.8635,-187.1288
173.8915,-186.7126
173.9194,-186.2964
173.9472,-185.8801
173.9711,-185.4637
173.9933,-185.0471
174.0127,-184.6304
174.0361,-184.2139
174.0495,-183.7971
174.0385,-183.3802
174.024,-182.9633
174.0113,-182.5463
173.9985,-182.1294
173.9961,-181.7123
173.9977,-181.2951
173.9972,-180.878
173.998,-180.4608
174.0009,-180.0437
174.0057,-179.6265
174.0118,-179.2094
174.0168,-178.7923
174.0201,-178.3752
174.0201,-177.958
174.017,-177.5409
174.0186,-177.1237
174.0146,-176.7066
173.9886,-176.2904
173.9561,-175.8745
173.9271,-175.4583
173.8963,-175.0423
173.8704,-174.626
173.8474,-174.2095
173.8229,-173.793
173.7999,-173.3765
173.7792,-172.9599
173.7603,-172.5431
173.7419,-172.1264
173.7226,-171.7097
173.6911,-171.2939
173.6451,-170.8794
173.6,-170.4646
173.5541,-170.05
173.5092,-169.6353
173.4744,-169.2196
173.4407,-168.8038
173.4057,-168.3881
173.3721,-167.9723
173.3419,-167.5563
173.3151,-167.14
173.2873,-166.7238
173.2604,-166.3075
173.2191,-165.8928
173.1536,-165.4809
173.0855,-165.0692
173.0209,-164.6572
172.9518,-164.2457
172.8767,-163.8355
172.7989,-163.4256
172.722,-163.0156
172.6466,-162.6054
172.5824,-162.1932
172.5244,-161.7801
172.4607,-161.3678
172.4019,-160.9548
172.3539,-160.5406
172.3127,-160.1255
172.2729,-159.7101
172.2303,-159.2953
172.1852,-158.8805
172.1326,-158.4668
172.0798,-158.0529
172.0294,-157.6388
171.97,-157.226
171.904,-156.8141
171.8338,-156.4029
171.766,-155.9913
171.6977,-155.5797
171.6196,-155.17
171.5441,-154.7597
171.4663,-154.3499
171.3894,-153.9399
171.3279,-153.5273
171.2707,-153.1143
171.217,-152.7004
171.1607,-152.2872
171.1065,-151.8737
171.0624,-151.4584
171.0103,-151.0452
170.9692,-150.6292
170.9047,-150.2189
170.7671,-149.8257
170.6212,-149.4344
170.4792,-149.0424
170.338,-148.6498
170.2528,-148.2429
170.1883,-147.8302
170.1156,-147.4198
170.0498,-147.0077
169.9744,-146.5974
169.8979,-146.1875
169.8228,-145.7769
169.7442,-145.3674
169.6652,-144.9578
169.5793,-144.5495
169.4966,-144.1407
169.4126,-143.732
169.3398,-143.3217
169.2911,-142.9072
169.237,-142.4938
169.1901,-142.0789
169.1346,-141.6658
169.0236,-141.2647
168.8961,-140.8671
168.7767,-140.4676
168.6512,-140.0696
168.5253,-139.672
168.3968,-139.2751
168.2678,-138.8784
168.1403,-138.4812
168.0226,-138.0813
167.9221,-137.6764
167.8213,-137.2716
167.7203,-136.8669
167.6183,-136.4624
167.5024,-136.0617
167.3838,-135.6618
167.2697,-135.2604
167.1496,-134.8611
167.0111,-134.4678
166.8606,-134.0787
166.7141,-133.6881
166.566,-133.2981
166.4208,-132.9071
166.2844,-132.5128
166.1453,-132.1196
166.0083,-131.7256
165.8705,-131.3318
165.7256,-130.9407
165.5817,-130.5491
165.4366,-130.158
165.2918,-129.7668
165.147,-129.3756
164.9989,-128.9857
164.8537,-128.5945
164.7064,-128.2043
164.5576,-127.8146
164.4086,-127.4248
164.2549,-127.0372
164.1077,-126.6466
163.9511,-126.2603
163.7654,-125.8869
163.5756,-125.5153
163.3877,-125.1429
163.1998,-124.7705
163.0332,-124.3885
162.8818,-123.9998
162.73,-123.6112
162.5779,-123.2229
162.4234,-122.8353
162.264,-122.4498
162.1016,-122.0657
161.9449,-121.6789
161.78,-121.296
161.5831,-120.9285
161.3763,-120.5659
161.1769,-120.1997
160.9733,-119.8355
160.7733,-119.4695
160.5768,-119.1015
160.3766,-118.7354
160.1798,-118.3677
159.9879,-117.9974
159.8043,-117.6228
159.6243,-117.2464
159.4392,-116.8726
159.2633,-116.4945
159.0998,-116.1107
158.9376,-115.7265
158.7767,-115.3414
158.6125,-114.9581
158.4371,-114.5797
158.2547,-114.2044
158.0743,-113.8285
157.8936,-113.4523
157.706,-113.0798
157.5141,-112.7095
157.3209,-112.3397
157.1279,-111.97
156.9362,-111.5994
156.7461,-111.2281
156.5571,-110.8563
156.3681,-110.4843
156.1775,-110.1134
155.9755,-109.7484
155.7655,-109.3879
155.5602,-109.0249
155.351,-108.6638
155.1504,-108.2985
154.9725,-107.921
154.7931,-107.5446
154.6165,-107.1665
154.4365,-106.7902
154.218,-106.4362
153.9829,-106.0914
153.7497,-105.7455
153.5155,-105.4004
153.3084,-105.0392
153.1221,-104.666
152.9344,-104.2935
152.7488,-103.9198
152.5408,-103.5596
152.2995,-103.2194
152.0551,-102.8813
151.8131,-102.5416
151.57,-102.2024
151.3361,-101.8572
151.1036,-101.5107
150.8689,-101.1659
150.6364,-100.8196
150.3978,-100.4774
150.1559,-100.1376
149.9154,-99.7966
149.6727,-99.4574
149.4369,-99.1134
149.2089,-98.764
148.9808,-98.4149
148.7544,-98.0643
148.5235,-97.7171
148.2822,-97.3768
148.0388,-97.038
147.7958,-96.699
147.5543,-96.3587
147.3242,-96.011
147.1004,-95.6588
146.8734,-95.3089
146.6482,-94.9579
146.417,-94.6106
146.1764,-94.2699
145.9382,-93.9274
145.698,-93.5863
145.4585,-93.2449
145.2241,-92.8996
144.9877,-92.5561
144.7539,-92.2105
144.5183,-91.8662
144.2769,-91.5263
144.0325,-91.1879
143.7837,-90.8533
143.5407,-90.5141
143.288,-90.1825
143.0088,-89.8729
142.7265,-89.5656
142.4455,-89.2573
142.1644,-88.9491
141.8942,-88.6314
141.6303,-88.3084
141.3674,-87.9845
141.1027,-87.662
140.8526,-87.3289
140.6232,-86.9802
140.3919,-86.6335
140.1655,-86.2825
139.9315,-85.9378
139.6553,-85.6264
139.3641,-85.3269
139.0816,-85.0205
138.7927,-84.7193
138.4917,-84.4311
138.181,-84.153
137.8689,-83.8756
137.5591,-83.5968
137.2476,-83.319
136.9375,-83.0401
136.6279,-82.7608
136.3163,-82.4829
136.009,-82.2013
135.7108,-81.9095
135.4163,-81.614
135.1181,-81.3224
134.8234,-81.027
134.5419,-80.7196
134.2676,-80.4052
133.9915,-80.0924
133.7162,-79.7793
133.443,-79.4636
133.17,-79.1486
132.8985,-78.8317
132.6257,-78.516
132.3451,-78.2079
132.0541,-77.9087
131.7604,-77.6127
131.4706,-77.3125
131.1719,-77.0215
130.8594,-76.7457
130.5447,-76.4714
130.23,-76.1977
129.9194,-75.9196
129.6201,-75.6287
129.3261,-75.3331
129.0271,-75.0418
128.7319,-74.7473
128.4631,-74.4299
128.2137,-74.0954
127.9658,-73.76
127.7153,-73.4263
127.4455,-73.1091
127.1597,-72.8052
126.876,-72.4991
126.5912,-72.1947
126.3144,-71.8825
126.0466,-71.5627
125.7752,-71.2462
125.5094,-70.9239
125.2304,-70.6156
124.9113,-70.3473
124.5834,-70.0888
124.2631,-69.8221
123.9378,-69.5604
123.6257,-69.2845
123.3231,-68.9967
123.0143,-68.7168
122.7138,-68.4267
122.3975,-68.1565
122.0452,-67.9344
121.6888,-67.7169
121.3329,-67.4991
120.98,-67.2775
120.6493,-67.0233
120.3265,-66.7591
119.9971,-66.5031
119.6736,-66.2397
119.3769,-65.9483
119.0966,-65.6386
118.8111,-65.3353
118.5317,-65.0247
118.2303,-64.7404
117.8782,-64.5186
117.5186,-64.3052
117.1648,-64.0855
116.8098,-63.866
116.4714,-63.6221
116.1364,-63.3737
115.7957,-63.1326
115.4616,-62.883
115.1371,-62.6215
114.8197,-62.3504
114.5007,-62.0819
114.1809,-61.8139
113.8627,-61.544
113.5412,-61.2786
113.2219,-61.0097
112.9019,-60.7424
112.5719,-60.4877
112.2311,-60.2472
111.8853,-60.0141
111.5453,-59.7717
111.1981,-59.5415
110.8289,-59.3476
110.456,-59.1604
110.0852,-58.9696
109.7139,-58.7792
109.3564,-58.5654
109.007,-58.337
108.6551,-58.1132
108.3054,-57.8859
107.9535,-57.6615
107.6003,-57.4399
107.249,-57.2147
106.8947,-56.9946
106.5451,-56.7672
106.2049,-56.5257
105.8668,-56.2817
105.5278,-56.0381
105.1886,-55.7955
104.8549,-55.5454
104.5229,-55.2924
104.1905,-55.041
103.86,-54.7857
103.5078,-54.5678
103.1263,-54.4005
102.7414,-54.2381
102.3585,-54.0736
101.9802,-53.8987
101.6175,-53.6928
101.2585,-53.4803
100.8953,-53.2749
100.5358,-53.0636
100.1792,-52.847
99.8238,-52.6285
99.4696,-52.4084
99.1135,-52.1908
98.7533,-51.981
98.3879,-51.7797
98.0218,-51.5794
97.6574,-51.3769
97.2858,-51.1872
96.9078,-51.0111
96.5304,-50.8337
96.1505,-50.6603
95.7745,-50.4808
95.4108,-50.2763
95.0513,-50.0647
94.6897,-49.8572
94.3284,-49.6479
93.966,-49.4421
93.601,-49.2396
93.2369,-49.0361
92.8731,-48.8324
92.5032,-48.6391
92.1263,-48.4615
91.7474,-48.2862
91.3693,-48.11
90.9936,-47.9298
90.6247,-47.7339
90.2593,-47.5336
89.8908,-47.3376
89.5239,-47.1388
89.1532,-46.949
88.7764,-46.768
88.4033,-46.583
88.0269,-46.4024
87.6546,-46.214
87.2941,-46.0056
86.9318,-45.797
86.5717,-45.5879
86.2105,-45.3787
85.8472,-45.1727
85.4878,-44.9631
85.1228,-44.7585
84.7628,-44.5495
84.4079,-44.3305
84.0586,-44.1013
83.7171,-43.8638
83.3644,-43.638
83.0534,-43.3668
82.7862,-43.0469
82.4672,-42.7943
82.0962,-42.6132
81.7009,-42.4585
81.3434,-42.2614
81.1027,-41.93
80.8989,-41.5559
80.6801,-41.2089
80.5077,-40.8267
80.4298,-40.4217
80.4494,-40.0078
80.4776,-39.5862
80.5004,-39.1752
80.5737,-38.7611
80.6467,-38.3507
80.7158,-37.9417
80.7904,-37.5274
80.8184,-37.1156
80.827,-36.6966
80.8393,-36.2796
80.845,-35.8642
80.8565,-35.4446
80.863,-35.0299
80.8672,-34.6116
80.8806,-34.1941
80.8761,-33.779
80.8291,-33.3631
80.7661,-32.952
80.7144,-32.5373
80.6581,-32.1237
80.6048,-31.7111
80.5592,-31.2949
80.5055,-30.8826
80.4578,-30.4675
80.4008,-30.0541
80.3328,-29.6434
80.2731,-29.2293
80.2027,-28.819
80.1565,-28.4049
80.1587,-27.9877
80.1652,-27.5716
80.1707,-27.1531
80.1728,-26.7372
80.1658,-26.3196
80.1574,-25.9021
80.1494,-25.4862
80.1789,-25.0704
80.2507,-24.6608
80.3205,-24.249
80.3946,-23.8381
80.4967,-23.4352
80.6105,-23.0322
80.7169,-22.63
80.829,-22.228
80.962,-21.8323
81.1088,-21.4434
81.2572,-21.0518
81.403,-20.6621
81.5699,-20.2805
81.767,-19.912
81.9654,-19.5467
82.1623,-19.1772
82.3631,-18.8127
82.568,-18.4494
82.7802,-18.089
82.9834,-17.7264
83.1957,-17.3657
83.4411,-17.0298
83.6942,-16.6987
83.947,-16.3649
84.1968,-16.0334
84.4113,-15.6763
84.5877,-15.2989
84.7659,-14.9224
84.9731,-14.5598
85.2011,-14.2132
85.4399,-13.8686
85.6658,-13.5193
85.8465,-13.1458
86.004,-12.757
86.1693,-12.3765
86.3302,-11.9898
86.467,-11.5969
86.5818,-11.1972
86.696,-10.7935
86.8105,-10.3951
86.9368,-9.9961
87.0876,-9.6073
87.1837,-9.2087
87.1998,-8.7892
87.2145,-8.375
87.1982,-7.9594
87.1128,-7.5505
87.0165,-7.1471
86.9165,-6.7387
86.8096,-6.3387
86.6979,-5.9355
86.5605,-5.5404
86.4315,-5.1475
86.2965,-4.7471
86.164,-4.3577
86.1429,-3.9361
86.121,-3.5226
85.9124,-3.1972
85.5997,-2.9167
85.2872,-2.6452
84.9917,-2.3475
84.7048,-2.0468
84.3579,-1.8364
83.9655,-1.6833
83.5781,-1.5388
83.1803,-1.4071
82.7844,-1.2747
82.3908,-1.1436
81.9927,-1.0076
81.6031,-0.86871
81.2078,-0.72935
80.8154,-0.58619
80.4237,-0.45268
80.0179,-0.33747
79.6161,-0.24555
79.2101,-0.13495
78.8046,-0.038059
