65.5923,-319.97
65.9609,-319.8152
66.3299,-319.6572
66.6996,-319.5028
67.0674,-319.3448
67.4399,-319.1951
67.8151,-319.0562
68.1915,-318.9183
68.5682,-318.7804
68.9435,-318.642
69.3204,-318.5039
69.6965,-318.3661
70.0722,-318.2274
70.4492,-318.0899
70.8246,-317.9514
71.2011,-317.8132
71.5777,-317.6757
71.953,-317.5367
72.3301,-317.3994
72.7058,-317.2609
73.0822,-317.1233
73.4601,-316.9889
73.8357,-316.8508
74.2147,-316.7188
74.5895,-316.5782
74.9423,-316.3908
75.285,-316.1817
75.6341,-315.9856
75.9766,-315.7775
76.3012,-315.543
76.6187,-315.2991
76.9376,-315.0556
77.2585,-314.8159
77.5707,-314.5653
77.8586,-314.2867
78.139,-314.0005
78.4265,-313.7211
78.7076,-313.4352
79.0084,-313.1746
79.3533,-312.9711
79.7051,-312.7786
80.0496,-312.5743
80.4008,-312.3803
80.7536,-312.1916
81.1117,-312.011
81.4716,-311.8345
81.8272,-311.6506
82.196,-311.4947
82.5764,-311.3702
82.957,-311.246
83.3406,-311.1261
83.7195,-310.9996
84.0923,-310.8524
84.4597,-310.6915
84.8224,-310.524
85.1951,-310.3706
85.5482,-310.189
85.8444,-309.9222
86.126,-309.6337
86.4198,-309.3637
86.7042,-309.0794
87.0033,-308.815
87.3362,-308.5927
87.6739,-308.3756
88.0074,-308.1547
88.3441,-307.9365
88.687,-307.7299
89.0391,-307.5393
89.3921,-307.3485
89.7443,-307.1581
90.0964,-306.9665
90.4396,-306.7597
90.7781,-306.5457
91.1179,-306.3327
91.458,-306.1209
91.7932,-305.9019
92.1134,-305.6607
92.4284,-305.4133
92.7474,-305.1704
93.0651,-304.9262
93.3951,-304.6998
93.7347,-304.4861
94.0691,-304.266
94.4079,-304.0515
94.7383,-303.8253
95.0489,-303.5725
95.3599,-303.3194
95.6709,-303.0669
95.9806,-302.8125
96.2995,-302.5699
96.6228,-302.3334
96.9483,-302.0995
97.2734,-301.865
97.597,-301.629
97.9263,-301.4002
98.2545,-301.1704
98.5822,-300.9399
98.9129,-300.7131
99.239,-300.4807
99.5649,-300.2471
99.8882,-300.0103
100.2106,-299.7726
100.5366,-299.5391
100.8409,-299.2799
101.1267,-298.999
101.4141,-298.7203
101.6952,-298.4335
101.995,-298.1707
102.3337,-297.9582
102.6814,-297.7576
103.0242,-297.5503
103.3674,-297.3438
103.7192,-297.1519
104.0787,-296.9749
104.4372,-296.7976
104.8016,-296.6269
105.1352,-296.417
105.4029,-296.1218
105.6574,-295.8091
105.9222,-295.5104
106.1811,-295.2035
106.4584,-294.9151
106.7537,-294.6447
107.0484,-294.3726
107.3417,-294.0997
107.6393,-293.8316
107.9601,-293.5919
108.2894,-293.3633
108.6129,-293.1267
108.9391,-292.894
109.2237,-292.6182
109.4656,-292.2971
109.7154,-291.9855
109.9558,-291.6633
110.2056,-291.3508
110.5133,-291.0987
110.8394,-290.8642
111.162,-290.6273
111.4855,-290.3906
111.7775,-290.1183
112.0491,-289.8237
112.3255,-289.5335
112.5967,-289.2383
112.8806,-288.9566
113.1909,-288.7029
113.5038,-288.4527
113.8151,-288.2003
114.1273,-287.9489
114.4201,-287.6769
114.6955,-287.3854
114.9713,-287.0949
115.2458,-286.8028
115.5318,-286.5231
115.845,-286.2738
116.163,-286.0293
116.4761,-285.7796
116.7933,-285.5345
117.1022,-285.2792
117.4018,-285.0134
117.7024,-284.7483
118.0014,-284.4813
118.3037,-284.2184
118.6112,-283.9612
118.9178,-283.7034
119.2264,-283.4477
119.5326,-283.189
119.8295,-282.9202
120.124,-282.6482
120.4194,-282.3774
120.7143,-282.1061
121.0096,-281.8351
121.3069,-281.5665
121.6058,-281.2996
121.903,-281.0305
122.202,-280.764
122.5111,-280.509
122.8251,-280.26
123.1378,-280.0094
123.4519,-279.7604
123.7588,-279.5033
124.0503,-279.2283
124.3386,-278.9499
124.6302,-278.6751
124.9191,-278.3973
125.207,-278.1186
125.4933,-277.8382
125.7778,-277.5559
126.0652,-277.2767
126.3456,-276.9905
126.6116,-276.6908
126.875,-276.3889
127.1399,-276.088
127.4043,-275.787
127.6739,-275.4905
127.9474,-275.1975
128.22,-274.904
128.4934,-274.6108
128.7661,-274.3172
129.0356,-274.0207
129.3044,-273.7233
129.5741,-273.427
129.8427,-273.1296
130.1069,-272.8282
130.3664,-272.523
130.6257,-272.2173
130.8861,-271.9128
131.144,-271.6061
131.3963,-271.2946
131.6458,-270.9812
131.8978,-270.6694
132.148,-270.3565
132.3904,-270.0375
132.629,-269.7154
132.8675,-269.3934
133.106,-269.0713
133.3481,-268.7519
133.5944,-268.436
133.8416,-268.1204
134.0879,-267.8044
134.3349,-267.4888
134.5837,-267.1746
134.8325,-266.8606
135.0815,-266.5465
135.3302,-266.2322
135.5743,-265.9145
135.8158,-265.5946
136.058,-265.2754
136.2994,-264.9555
136.5427,-264.637
136.7881,-264.3203
137.0328,-264.0029
137.2791,-263.6867
137.5232,-263.3689
137.7612,-263.0465
137.9974,-262.7228
138.2346,-262.3998
138.4716,-262.0766
138.7047,-261.7507
138.9344,-261.4223
139.1646,-261.0943
139.3933,-260.7652
139.6245,-260.4378
139.8651,-260.1175
140.109,-259.7994
140.3515,-259.4803
140.5941,-259.1615
140.8342,-258.8405
141.0707,-258.5171
141.3073,-258.1936
141.545,-257.8709
141.7805,-257.5468
142.0114,-257.2192
142.2387,-256.8892
142.4668,-256.5597
142.696,-256.2308
142.9177,-255.8973
143.1287,-255.5566
143.3372,-255.2143
143.5467,-254.8727
143.7568,-254.5314
143.971,-254.1928
144.1882,-253.856
144.4046,-253.5186
144.6204,-253.1811
144.8398,-252.8457
145.0646,-252.5139
145.2908,-252.1832
145.5169,-251.8522
145.7416,-251.5205
145.959,-251.1839
146.1714,-250.844
146.3855,-250.5053
146.5992,-250.1662
146.8039,-249.8219
146.9993,-249.4721
147.1939,-249.1217
147.3883,-248.7713
147.5841,-248.4216
147.7903,-248.0781
148.0036,-247.7389
148.2159,-247.3989
148.4278,-247.0588
148.6437,-246.7212
148.8671,-246.3885
149.0916,-246.0567
149.3167,-245.725
149.539,-245.3917
149.7371,-245.0438
149.923,-244.6884
150.1155,-244.3373
150.3018,-243.9821
150.5056,-243.6382
150.7452,-243.3172
150.9865,-242.9971
151.2281,-242.6774
151.4675,-242.3561
151.6732,-242.0131
151.8641,-241.6605
152.0605,-241.3113
152.2519,-240.9591
152.4484,-240.6099
152.6521,-240.2648
152.855,-239.9193
153.0601,-239.5749
153.2629,-239.2293
153.4681,-238.8851
153.6763,-238.5426
153.88,-238.1977
154.0909,-237.8565
154.2919,-237.5103
154.4549,-237.1445
154.6098,-236.7746
154.7709,-236.4078
154.928,-236.0391
155.1133,-235.6852
155.3294,-235.3477
155.5436,-235.0091
155.7612,-234.6724
155.9743,-234.3331
156.1607,-233.9787
156.34,-233.62
156.5243,-233.2643
156.7049,-232.9065
156.8853,-232.5487
157.0644,-232.1903
157.2417,-231.8308
157.4215,-231.4727
157.5982,-231.113
157.7718,-230.7517
157.9464,-230.3911
158.1185,-230.0291
158.2942,-229.669
158.4823,-229.3152
158.6738,-228.9631
158.8623,-228.6096
159.0538,-228.2574
159.2353,-227.9005
159.3938,-227.5326
159.5479,-227.1624
159.7064,-226.7945
159.8614,-226.4249
160.0181,-226.056
160.175,-225.6873
160.3297,-225.3176
160.4877,-224.9493
160.6425,-224.5797
160.7923,-224.2079
160.9423,-223.8364
161.0905,-223.464
161.2411,-223.0926
161.4,-222.7249
161.5661,-222.3602
161.7335,-221.996
161.8985,-221.6309
162.0658,-221.2667
162.2335,-220.9027
162.4004,-220.5384
162.5699,-220.1752
162.7362,-219.8107
162.9055,-219.4474
163.0779,-219.0855
163.2446,-218.7214
163.4214,-218.3611
163.5842,-217.9957
163.6954,-217.6112
163.7933,-217.222
163.9015,-216.8366
164.0032,-216.4487
164.1144,-216.0639
164.2406,-215.6835
164.367,-215.3032
164.4928,-214.9228
164.6201,-214.5427
164.7616,-214.1682
164.9165,-213.7985
165.0696,-213.4281
165.2239,-213.0584
165.3701,-212.6854
165.496,-212.305
165.6183,-211.9234
165.746,-211.5434
165.867,-211.1615
165.9695,-210.7744
166.0601,-210.3839
166.1534,-209.9942
166.2472,-209.6046
166.3373,-209.2141
166.4249,-208.8231
166.5083,-208.4311
166.5944,-208.0397
166.6797,-207.6482
166.7534,-207.2542
166.8243,-206.8599
166.8953,-206.4655
166.9647,-206.0707
167.0412,-205.6775
167.1262,-205.2858
167.2138,-204.8948
167.3006,-204.5035
167.3863,-204.112
167.4699,-203.7202
167.5494,-203.3273
167.6299,-202.9348
167.711,-202.5424
167.7912,-202.1497
167.877,-201.7582
167.9615,-201.3665
168.046,-200.9747
168.1314,-200.5833
168.1939,-200.1877
168.2436,-199.7899
168.2987,-199.3932
168.3446,-198.9947
168.4084,-198.5999
168.5151,-198.2139
168.6311,-197.8301
168.7419,-197.445
168.8536,-197.0602
168.9632,-196.6747
169.0687,-196.288
169.1717,-195.9011
169.2824,-195.5152
169.3659,-195.1254
169.3826,-194.726
169.3841,-194.3242
169.3974,-193.9243
169.4041,-193.5234
169.4546,-193.1285
169.5573,-192.741
169.6559,-192.3527
169.7583,-191.9651
169.8581,-191.5771
169.9097,-191.1811
169.9366,-190.7811
169.968,-190.3819
169.9925,-189.9815
170.0353,-189.5838
170.1148,-189.1913
170.199,-188.7994
170.2829,-188.4074
170.3628,-188.015
170.3986,-187.6174
170.4045,-187.2164
170.4162,-186.816
170.4249,-186.4153
170.444,-186.0152
170.486,-185.6167
170.5288,-185.2183
170.5685,-184.8194
170.6139,-184.4213
170.6824,-184.0272
170.7724,-183.6365
170.8571,-183.2449
170.9449,-182.8539
171.0137,-182.4601
171.0332,-182.0599
171.052,-181.6597
171.0716,-181.2592
171.0915,-180.8593
171.1797,-180.4704
171.2977,-180.0866
171.4015,-179.7009
171.5242,-179.3173
171.5973,-178.9285
171.5781,-178.5296
171.5442,-178.1292
171.5187,-177.7298
171.4906,-177.3298
171.4744,-176.9296
171.4682,-176.5289
171.4633,-176.1282
171.4536,-175.7275
171.4513,-175.3268
171.4706,-174.9269
171.4991,-174.527
171.5257,-174.1272
171.5505,-173.7272
171.59,-173.3287
171.6529,-172.9331
171.7181,-172.5377
171.7835,-172.1421
171.847,-171.7467
171.8823,-171.3484
171.8902,-170.9478
171.8943,-170.5472
171.9058,-170.1463
171.9043,-169.7459
171.87,-169.3469
171.8282,-168.9482
171.7906,-168.5493
171.7521,-168.1504
171.7323,-167.7504
171.726,-167.3497
171.7183,-166.949
171.7103,-166.5483
171.7046,-166.1477
171.7194,-165.7474
171.7434,-165.3472
171.7618,-164.9471
171.7858,-164.5468
171.7753,-164.1483
171.7133,-163.7526
171.6484,-163.357
171.5842,-162.9615
171.5222,-162.5656
171.484,-162.1668
171.4511,-161.7672
171.4128,-161.3685
171.3787,-160.969
171.3498,-160.5694
171.3249,-160.1696
171.3012,-159.7693
171.2755,-159.3696
171.24,-158.9704
171.1997,-158.5716
171.1616,-158.1728
171.1214,-157.7739
171.1115,-157.3748
171.1408,-156.9751
171.1695,-156.5754
171.2009,-156.1759
171.2277,-155.7761
171.22,-155.3761
171.197,-154.9758
171.1742,-154.576
171.1567,-154.1752
171.1283,-153.776
171.0471,-153.3847
170.9444,-152.9966
170.8541,-152.6065
170.757,-152.2176
170.6688,-151.8267
170.591,-151.4336
170.507,-151.0417
170.4276,-150.6489
170.3476,-150.2563
170.2782,-149.8618
170.2256,-149.4643
170.1652,-149.0683
170.1103,-148.6712
170.0536,-148.2745
169.9656,-147.884
169.8683,-147.4953
169.7696,-147.1069
169.669,-146.7189
169.5924,-146.3262
169.5395,-145.9294
169.4937,-145.5309
169.4438,-145.1334
169.3887,-144.7367
169.3302,-144.3398
169.2627,-143.9454
169.2054,-143.548
169.1388,-143.1535
168.9959,-142.7853
168.7993,-142.4358
168.6064,-142.0846
168.4104,-141.735
168.2173,-141.3839
168.0511,-141.0202
167.9032,-140.6477
167.7557,-140.2751
167.6059,-139.9034
167.4625,-139.5292
167.3276,-139.1519
167.1972,-138.773
167.0623,-138.3954
166.9324,-138.0166
166.8399,-137.6272
166.7632,-137.2335
166.6761,-136.8429
166.6004,-136.4485
166.4887,-136.067
166.3069,-135.7102
166.1208,-135.3553
165.935,-135
165.752,-134.6438
165.6407,-134.2635
165.5746,-133.8677
165.5033,-133.4738
165.4378,-133.0779
165.3332,-132.6949
165.1587,-132.3351
164.9724,-131.9792
164.7979,-131.6192
164.6145,-131.2625
164.4313,-130.9059
164.252,-130.5482
164.0612,-130.1946
163.8861,-129.8352
163.7635,-129.4558
163.6678,-129.0659
163.566,-128.6786
163.4643,-128.291
163.366,-127.9022
163.2642,-127.5149
163.1623,-127.1273
163.0658,-126.738
162.9591,-126.3522
162.8212,-125.9762
162.6689,-125.6053
162.5246,-125.2316
162.3772,-124.8588
162.2188,-124.4909
162.0554,-124.125
161.8897,-123.76
161.7234,-123.3955
161.5653,-123.0274
161.4246,-122.6523
161.2902,-122.2747
161.1517,-121.8986
161.0138,-121.5224
160.8679,-121.1491
160.7167,-120.778
160.571,-120.4047
160.4216,-120.0328
160.2748,-119.66
160.1329,-119.2851
159.9848,-118.9128
159.8448,-118.5371
159.6963,-118.1651
159.5082,-117.812
159.3069,-117.4653
159.1107,-117.1159
158.9104,-116.7689
158.7225,-116.4153
158.5581,-116.0498
158.3991,-115.6821
158.2338,-115.3168
158.075,-114.949
157.9331,-114.5745
157.7976,-114.1971
157.66,-113.8209
157.5227,-113.4443
157.3939,-113.0648
157.271,-112.6835
157.1451,-112.303
157.0261,-111.9201
156.8962,-111.5415
156.7212,-111.1814
156.5324,-110.8275
156.355,-110.4683
156.1706,-110.1124
155.9888,-109.7554
155.8105,-109.3964
155.6264,-109.0405
155.4487,-108.6812
155.2643,-108.3254
155.0632,-107.9789
154.8616,-107.6326
154.6592,-107.2866
154.4576,-106.9404
154.2622,-106.5904
154.0688,-106.2395
153.8764,-105.8879
153.6835,-105.5366
153.495,-105.1832
153.313,-104.8259
153.1285,-104.4703
152.9467,-104.1131
152.7628,-103.7571
152.5575,-103.4135
152.3382,-103.0781
152.1191,-102.7425
151.8996,-102.4073
151.6748,-102.0755
151.4442,-101.7478
151.2139,-101.4199
150.9841,-101.0915
150.7534,-100.7639
150.5258,-100.434
150.2978,-100.1045
150.0691,-99.7754
149.8419,-99.4452
149.6103,-99.1183
149.376,-98.7931
149.1424,-98.4675
148.9066,-98.1435
148.6739,-97.8172
148.4452,-97.4881
148.216,-97.1595
147.9904,-96.828
147.7585,-96.5015
147.5035,-96.1927
147.2394,-95.891
146.9795,-95.5862
146.7184,-95.2821
146.464,-94.9726
146.2182,-94.6561
145.9704,-94.341
145.7231,-94.0258
145.4769,-93.7096
145.2327,-93.3918
144.9913,-93.072
144.7492,-92.7526
144.5072,-92.4331
144.2395,-92.1386
143.9307,-91.8835
143.618,-91.6322
143.3106,-91.3759
142.9985,-91.1237
142.697,-90.8601
142.3963,-90.5951
142.0912,-90.335
141.7924,-90.0683
141.4867,-89.8088
141.1767,-89.5548
140.8695,-89.2981
140.5552,-89.0483
140.2499,-88.7897
139.9704,-88.5041
139.707,-88.2019
139.4438,-87.8996
139.1771,-87.6006
138.9154,-87.297
138.6536,-86.9936
138.39,-86.6919
138.1318,-86.3851
137.8661,-86.0854
137.5888,-85.7961
137.3091,-85.5091
137.0281,-85.2234
136.7505,-84.9343
136.4762,-84.6423
136.2073,-84.3452
135.9427,-84.0441
135.6705,-83.75
135.4073,-83.4479
135.1628,-83.1303
134.9202,-82.8119
134.68,-82.4902
134.4352,-82.1737
134.1647,-81.8804
133.8687,-81.61
133.5676,-81.3457
133.2752,-81.0714
132.9715,-80.8101
132.6476,-80.5745
132.323,-80.3402
131.993,-80.1111
131.6727,-79.8721
131.3963,-79.5855
131.1426,-79.2743
130.8846,-78.9681
130.6269,-78.6612
130.3712,-78.3524
130.1146,-78.0447
129.857,-77.7379
129.6033,-77.4272
129.3439,-77.1222
129.0578,-76.8437
128.7511,-76.5856
128.444,-76.3281
128.1401,-76.0671
127.8265,-75.8178
127.4986,-75.5876
127.1696,-75.3591
126.8393,-75.1315
126.5117,-74.9013
126.2034,-74.6466
125.9089,-74.3745
125.6159,-74.1016
125.3195,-73.8315
125.0325,-73.5524
124.7685,-73.2511
124.5062,-72.948
124.2442,-72.6449
123.9802,-72.3434
123.6824,-72.0768
123.3719,-71.8235
123.0632,-71.5675
122.7542,-71.313
122.497,-71.0108
122.2783,-70.6744
122.0526,-70.3446
121.8366,-70.005
121.5981,-69.6865
121.3096,-69.4089
121.0112,-69.1401
120.7189,-68.8676
120.4255,-68.5927
120.1033,-68.3649
119.7362,-68.2079
119.362,-68.06
118.9927,-67.9072
118.6223,-67.7533
118.2659,-67.5705
117.9162,-67.3752
117.56,-67.1905
117.2093,-66.9974
116.8862,-66.7644
116.5849,-66.5002
116.2824,-66.2373
115.9815,-65.9725
115.6632,-65.7325
115.3122,-65.5395
114.9596,-65.3492
114.606,-65.1597
114.2656,-64.9525
113.9723,-64.6808
113.6877,-64.3969
113.395,-64.1246
113.1079,-63.8441
112.7911,-63.603
112.4464,-63.3983
112.1047,-63.1892
111.7595,-62.9854
111.4171,-62.7771
111.0879,-62.5491
110.7613,-62.3167
110.434,-62.0854
110.1077,-61.8529
109.7784,-61.6243
109.4476,-61.3982
109.1183,-61.17
108.7855,-60.9464
108.4586,-60.7151
108.149,-60.4607
107.8418,-60.2037
107.5358,-59.9441
107.2246,-59.6927
106.8783,-59.4954
106.5147,-59.3243
106.1582,-59.1426
105.7981,-58.9664
105.449,-58.7706
105.1142,-58.5504
104.7753,-58.3365
104.4396,-58.1176
104.1027,-57.9007
103.7533,-57.7046
103.4009,-57.5142
103.0475,-57.3251
102.6935,-57.1371
102.3418,-56.9454
101.9911,-56.7511
101.6433,-56.5521
101.2949,-56.3543
100.9447,-56.159
100.6027,-55.951
100.2724,-55.7245
99.9453,-55.4926
99.6168,-55.2631
99.2878,-55.0344
98.9491,-54.8212
98.5979,-54.6282
98.2474,-54.4337
97.8975,-54.2385
97.5466,-54.0449
97.2002,-53.8434
96.8532,-53.643
96.5055,-53.4435
96.1595,-53.2414
95.8105,-53.0445
95.4616,-52.8473
95.1127,-52.6502
94.7626,-52.4551
94.4143,-52.2569
94.0642,-52.062
93.7141,-51.8668
93.3656,-51.6692
93.0143,-51.4762
92.6661,-51.2778
92.3239,-51.0696
91.9837,-50.8576
91.6438,-50.6453
91.3028,-50.4349
90.9645,-50.2198
90.6286,-50.0014
90.2919,-49.7843
89.9568,-49.5641
89.6198,-49.3476
89.2777,-49.1386
88.9348,-48.9314
88.5914,-48.7249
88.2489,-48.5165
87.9085,-48.3054
87.5711,-48.0891
87.2354,-47.8701
86.8969,-47.656
86.5616,-47.4361
86.2344,-47.2051
85.91,-46.9699
85.5856,-46.734
85.2599,-46.5013
84.9402,-46.2592
84.624,-46.0131
84.2914,-45.7919
83.944,-45.5925
83.5886,-45.4061
83.2462,-45.2
82.9519,-44.93
82.6712,-44.6428
82.3775,-44.3696
82.0952,-44.0868
81.7804,-43.8372
81.4573,-43.6031
81.2643,-43.2823
81.1837,-42.8907
81.1063,-42.4969
81.0288,-42.104
80.9592,-41.7092
80.8839,-41.3158
80.8123,-40.9211
80.7512,-40.5258
80.7067,-40.1273
80.669,-39.7283
80.622,-39.3305
80.5852,-38.9311
80.5765,-38.5312
80.5793,-38.1302
80.5774,-37.7293
80.5781,-37.329
80.5897,-36.928
80.6058,-36.5279
80.6216,-36.1275
80.6372,-35.7267
80.6662,-35.3279
80.7218,-34.9309
80.7832,-34.5346
80.8369,-34.138
80.8988,-33.7415
80.9738,-33.3483
81.0562,-32.9562
81.1378,-32.5633
81.217,-32.1712
81.3092,-31.7809
81.4159,-31.3947
81.5251,-31.0096
81.6348,-30.6233
81.7409,-30.2376
81.8316,-29.8473
81.9132,-29.4543
81.9999,-29.0641
82.0837,-28.6713
82.1838,-28.2843
82.325,-27.9099
82.4635,-27.5325
82.5872,-27.1528
82.7189,-26.7735
82.8356,-26.3894
82.9406,-26.0062
83.0133,-25.6064
83.0774,-25.221
83.2964,-24.9431
83.6487,-24.7395
83.9846,-24.5267
84.336,-24.3359
84.7045,-24.1685
85.0573,-23.9921
85.4305,-23.8271
85.7835,-23.6505
86.1166,-23.4304
86.4115,-23.1587
86.5533,-22.8063
86.6239,-22.4103
86.739,-22.0269
86.8636,-21.6475
87.0201,-21.2756
87.1611,-20.9043
87.1802,-20.5096
87.1475,-20.1091
87.1298,-19.7103
87.0904,-19.3099
87.0311,-18.9151
86.9702,-18.5185
86.9078,-18.122
86.8487,-17.7271
86.7986,-17.328
86.7555,-16.9306
86.7094,-16.5325
86.6653,-16.1332
86.6439,-15.7352
86.6463,-15.3333
86.6501,-14.9328
86.6526,-14.5329
86.6552,-14.1307
86.6329,-13.7324
86.5937,-13.3329
86.5603,-12.9331
86.521,-12.5356
86.4884,-12.1347
86.4728,-11.7352
86.4561,-11.3351
86.4421,-10.9332
86.4256,-10.5345
86.3978,-10.1337
86.363,-9.7344
86.3242,-9.3369
86.2898,-8.9357
86.2308,-8.5418
86.1326,-8.1532
86.035,-7.7633
85.9371,-7.3767
85.8304,-6.9888
85.7178,-6.6045
85.5913,-6.2258
85.4804,-5.8374
85.3399,-5.4657
85.0992,-5.1467
84.8429,-4.8357
84.5992,-4.5215
84.2741,-4.2884
83.9363,-4.0814
83.713,-3.7605
83.5353,-3.3944
83.3406,-3.0533
83.2198,-2.6664
83.1449,-2.2758
82.9711,-1.9385
82.6993,-1.6368
82.3706,-1.4336
81.9955,-1.3121
81.6357,-1.1489
81.2891,-0.95111
80.9269,-0.77243
80.5696,-0.59968
80.1996,-0.44408
79.8129,-0.33632
79.4282,-0.2385
79.0408,-0.10972
78.6565,-0.027464
