95.9801,-307.27
96.3073,-307.0874
96.6328,-306.903
96.9599,-306.7197
97.2858,-306.5359
97.612,-306.3519
97.9393,-306.1691
98.2639,-305.9835
98.5927,-305.8027
98.9163,-305.6153
99.2118,-305.3885
99.49,-305.1367
99.7708,-304.8898
100.0512,-304.6411
100.3301,-304.391
100.6092,-304.1419
100.8853,-303.8881
101.1626,-303.6368
101.4403,-303.3856
101.7162,-303.1318
101.9944,-302.8818
102.271,-302.6287
102.5476,-302.3763
102.8262,-302.1265
103.1009,-301.8711
103.3891,-301.6341
103.7014,-301.4276
104.0177,-301.2265
104.3315,-301.0226
104.6463,-300.8193
104.9608,-300.6163
105.2759,-300.4137
105.5892,-300.2087
105.9061,-300.0087
106.2178,-299.8014
106.5011,-299.5585
106.7707,-299.2981
107.0452,-299.0433
107.3168,-298.7857
107.589,-298.5282
107.8626,-298.2726
108.1337,-298.0143
108.4073,-297.7582
108.6793,-297.5011
108.9481,-297.2402
109.2153,-296.9778
109.4803,-296.7133
109.7476,-296.4507
110.0131,-296.1868
110.2731,-295.9172
110.5323,-295.6468
110.7908,-295.376
111.0499,-295.1054
111.3108,-294.8369
111.5732,-294.5696
111.8378,-294.3045
112.0995,-294.0367
112.3641,-293.7716
112.6453,-293.5251
112.9376,-293.2912
113.2298,-293.0565
113.5216,-292.8221
113.8135,-292.5874
114.101,-292.3471
114.3855,-292.104
114.6722,-291.8626
114.957,-291.6197
115.2412,-291.3759
115.5257,-291.1317
115.8055,-290.8837
116.0925,-290.6419
116.3707,-290.3922
116.6038,-290.102
116.8156,-289.7922
117.0335,-289.4881
117.2479,-289.1809
117.4631,-288.8742
117.6766,-288.5669
117.8864,-288.2562
118.101,-287.9496
118.3102,-287.6387
118.5273,-287.3338
118.7705,-287.0495
119.0187,-286.7685
119.2632,-286.4852
119.5092,-286.2025
119.7707,-285.9368
120.0677,-285.7095
120.3717,-285.4894
120.6665,-285.2599
120.9717,-285.0409
121.2501,-284.7951
121.4772,-284.4984
121.6975,-284.1947
121.9223,-283.8955
122.1446,-283.594
122.3933,-283.3162
122.6698,-283.0638
122.9468,-282.8117
123.223,-282.5587
123.5004,-282.3071
123.7621,-282.0401
124.0078,-281.7574
124.2534,-281.4749
124.4977,-281.1907
124.7451,-280.9098
125.016,-280.6521
125.2985,-280.4056
125.5739,-280.1525
125.8568,-279.9061
126.1326,-279.6535
126.3662,-279.3635
126.5784,-279.0545
126.7942,-278.7486
127.0073,-278.4405
127.2312,-278.1408
127.4755,-277.8571
127.7227,-277.5756
127.9664,-277.2914
128.2138,-277.0102
128.4721,-276.7393
128.7387,-276.4763
129.0037,-276.2116
129.2695,-275.9478
129.5349,-275.6836
129.792,-275.4112
130.0473,-275.1373
130.3043,-274.8648
130.5591,-274.5903
130.8203,-274.3221
131.0906,-274.0628
131.3608,-273.8037
131.6325,-273.5457
131.9016,-273.2854
132.1493,-273.0057
132.3808,-272.7111
132.6139,-272.4181
132.8468,-272.1247
133.0786,-271.8306
133.3071,-271.5341
133.5277,-271.2312
133.7507,-270.9305
133.9713,-270.6277
134.1944,-270.327
134.4481,-270.0532
134.7198,-269.7952
134.9886,-269.5346
135.2597,-269.276
135.5297,-269.0166
135.8027,-268.7603
136.0789,-268.5071
136.3509,-268.2501
136.6278,-267.9975
136.9003,-267.7408
137.1555,-267.4673
137.4037,-267.1866
137.65,-266.9048
137.9001,-266.6257
138.1408,-266.3394
138.3541,-266.0318
138.563,-265.7207
138.7754,-265.4123
138.9851,-265.102
139.2186,-264.8108
139.4774,-264.5402
139.7372,-264.2704
139.9964,-264.0001
140.2557,-263.7299
140.511,-263.4558
140.7652,-263.1808
141.02,-262.9063
141.2743,-262.6314
141.5287,-262.3566
141.7827,-262.0813
142.036,-261.8055
142.29,-261.5303
142.5435,-261.2546
142.7984,-260.9803
143.0585,-260.7107
143.3182,-260.4409
143.5778,-260.1711
143.8383,-259.9018
144.0945,-259.6289
144.3486,-259.3536
144.5998,-259.076
144.8542,-258.8009
145.1051,-258.5232
145.3084,-258.2128
145.473,-257.8761
145.6429,-257.5427
145.8065,-257.2054
145.9772,-256.8724
146.1897,-256.5653
146.4173,-256.2674
146.6397,-255.9663
146.8653,-255.6673
147.0896,-255.3673
147.3135,-255.0672
147.5384,-254.7677
147.7624,-254.4675
147.9867,-254.1677
148.2048,-253.8633
148.4179,-253.5553
148.633,-253.2487
148.8457,-252.9403
149.0684,-252.64
149.3177,-252.3606
149.571,-252.0845
149.8192,-251.8045
150.0737,-251.529
150.2925,-251.2296
150.4553,-250.893
150.6112,-250.5519
150.7727,-250.2144
150.9301,-249.8743
151.09,-249.5358
151.2472,-249.1957
151.4073,-248.8574
151.563,-248.5163
151.7254,-248.1795
151.9431,-247.8771
152.1844,-247.5893
152.4121,-247.2932
152.6539,-247.0056
152.867,-246.7009
153.0165,-246.3585
153.1566,-246.0104
153.3035,-245.6664
153.4462,-245.3198
153.5857,-244.9725
153.7154,-244.6211
153.8447,-244.2696
153.9751,-243.9186
154.1037,-243.5667
154.2468,-243.2212
154.4057,-242.8819
154.5685,-242.5448
154.7265,-242.205
154.8901,-241.8684
155.0892,-241.5529
155.3114,-241.2509
155.5274,-240.9453
155.7491,-240.6432
155.9656,-240.3379
156.1397,-240.0083
156.2884,-239.6643
156.4422,-239.3231
156.5905,-238.9789
156.7449,-238.6379
156.9336,-238.315
157.1334,-237.9979
157.3262,-237.6771
157.5255,-237.3597
157.7141,-237.0366
157.8815,-236.7017
158.0466,-236.3654
158.2118,-236.0294
158.3793,-235.6943
158.5396,-235.3562
158.6699,-235.0053
158.7923,-234.651
158.9235,-234.3005
159.0456,-233.946
159.1835,-233.5987
159.3599,-233.2686
159.543,-232.9416
159.7207,-232.6121
159.9024,-232.2845
160.0872,-231.959
160.2792,-231.6373
160.4718,-231.3161
160.6624,-230.9939
160.856,-230.6731
161.0281,-230.3416
161.1705,-229.9954
161.3106,-229.6479
161.452,-229.3012
161.5932,-228.9543
161.746,-228.6125
161.904,-228.2729
162.0605,-227.9326
162.2184,-227.5931
162.3735,-227.2522
162.5223,-226.9085
162.6691,-226.564
162.8182,-226.2204
162.9648,-225.8759
163.0981,-225.526
163.2217,-225.1725
163.3466,-224.8195
163.4705,-224.4659
163.5974,-224.1137
163.7408,-223.7678
163.8881,-223.4233
164.0299,-223.0769
164.1785,-222.7328
164.3124,-222.3837
164.4143,-222.0235
164.5123,-221.6619
164.6113,-221.3007
164.7121,-220.9401
164.8417,-220.5894
164.9876,-220.2443
165.1292,-219.8977
165.2738,-219.5522
165.4132,-219.2046
165.5434,-218.8535
165.674,-218.5025
165.8043,-218.1514
165.9344,-217.8002
166.0652,-217.4492
166.1952,-217.0981
166.3255,-216.747
166.4565,-216.3961
166.5857,-216.0446
166.7043,-215.6894
166.8168,-215.3321
166.9329,-214.9762
167.0454,-214.6188
167.1698,-214.2661
167.3233,-213.9246
167.4801,-213.5843
167.6335,-213.2428
167.7903,-212.9026
167.9157,-212.5515
168.0025,-212.1874
168.0867,-211.8223
168.173,-211.458
168.2577,-211.0931
168.3602,-210.7334
168.4806,-210.3788
168.6022,-210.0245
168.7228,-209.67
168.844,-209.3156
168.9634,-208.9606
169.0821,-208.6055
169.2011,-208.2503
169.3201,-207.8952
169.4387,-207.54
169.5565,-207.1845
169.6736,-206.8288
169.7909,-206.4731
169.9089,-206.1176
170.0223,-205.7608
170.1274,-205.4013
170.2296,-205.041
170.334,-204.6814
170.4378,-204.3215
170.5269,-203.9583
170.5922,-203.5896
170.6525,-203.2198
170.7185,-202.8514
170.7789,-202.4815
170.853,-202.115
170.959,-201.7559
171.0695,-201.3979
171.1752,-201.0388
171.2862,-200.6809
171.3726,-200.3177
171.4209,-199.9466
171.4644,-199.5744
171.5112,-199.203
171.5564,-198.8311
171.6147,-198.4613
171.6821,-198.0929
171.748,-197.7242
171.8151,-197.3558
171.8818,-196.9873
171.9535,-196.6197
172.0312,-196.2534
172.1063,-195.8865
172.1845,-195.5202
172.2594,-195.1533
172.3184,-194.7835
172.3737,-194.4131
172.431,-194.043
172.4874,-193.6727
172.543,-193.3024
172.5915,-192.931
172.6376,-192.5593
172.6863,-192.188
172.733,-191.8164
172.7796,-191.4448
172.8242,-191.073
172.8669,-190.7009
172.912,-190.3291
172.9551,-189.9571
172.996,-189.5848
173.0357,-189.2124
173.0736,-188.8398
173.1139,-188.4675
173.152,-188.0949
173.1862,-187.722
173.22,-187.349
173.2521,-186.9759
173.287,-186.603
173.3173,-186.2297
173.333,-185.8556
173.346,-185.4813
173.3609,-185.107
173.3745,-184.7328
173.3921,-184.3587
173.4126,-183.9848
173.4335,-183.6108
173.4543,-183.2369
173.4748,-182.863
173.495,-182.489
173.514,-182.1149
173.5335,-181.741
173.5528,-181.3669
173.572,-180.9929
173.5958,-180.6191
173.6201,-180.2454
173.6439,-179.8717
173.6688,-179.4979
173.6925,-179.1243
173.7199,-178.7507
173.7469,-178.3771
173.773,-178.0036
173.8013,-177.6301
173.8062,-177.2565
173.7814,-176.8829
173.7538,-176.5093
173.7278,-176.1358
173.7014,-175.7622
173.6789,-175.3884
173.6585,-175.0144
173.6392,-174.6404
173.6173,-174.2665
173.6031,-173.8924
173.6085,-173.518
173.6184,-173.1436
173.6248,-172.7691
173.6333,-172.3947
173.6397,-172.0203
173.6427,-171.6458
173.6454,-171.2713
173.6488,-170.8967
173.6511,-170.5223
173.6495,-170.1478
173.6453,-169.7732
173.6398,-169.3988
173.6374,-169.0242
173.6304,-168.6499
173.6035,-168.2766
173.5677,-167.9036
173.5348,-167.5307
173.5015,-167.1576
173.4632,-166.7851
173.4075,-166.4149
173.3452,-166.0454
173.2905,-165.6751
173.2278,-165.3056
173.182,-164.9347
173.1812,-164.5605
173.1881,-164.1858
173.1879,-163.8115
173.1939,-163.4368
173.1834,-163.063
173.1473,-162.6903
173.1086,-162.3177
173.0714,-161.9451
173.0336,-161.5725
173.0134,-161.199
173.013,-160.8244
173.0119,-160.45
173.012,-160.0754
173.0103,-159.701
172.978,-159.3288
172.9227,-158.9583
172.8699,-158.5876
172.8153,-158.217
172.7615,-157.8464
172.7149,-157.4748
172.6701,-157.103
172.6272,-156.731
172.582,-156.3591
172.5396,-155.9871
172.5178,-155.6133
172.5027,-155.239
172.4807,-154.8653
172.4675,-154.4907
172.4433,-154.1173
172.3826,-153.7481
172.3124,-153.3799
172.2493,-153.0109
172.1824,-152.6423
172.1132,-152.2743
172.0375,-151.9076
171.9577,-151.5415
171.8828,-151.1747
171.8029,-150.8087
171.7374,-150.4406
171.7107,-150.0672
171.6902,-149.693
171.6624,-149.3198
171.643,-148.9455
171.607,-148.5733
171.5404,-148.2049
171.4681,-147.8373
171.3986,-147.4694
171.3294,-147.1012
171.2539,-146.7346
171.1598,-146.3722
171.0601,-146.0111
170.9661,-145.6487
170.8663,-145.2875
170.787,-144.9228
170.7574,-144.5498
170.7368,-144.1753
170.7052,-143.8027
170.6861,-143.4279
170.6396,-143.0582
170.535,-142.6992
170.4201,-142.3422
170.3125,-141.9838
170.2008,-141.6261
170.1008,-141.2654
170.0101,-140.902
169.9178,-140.5391
169.827,-140.1757
169.7356,-139.8125
169.6482,-139.4484
169.564,-139.0834
169.477,-138.7192
169.3935,-138.3541
169.3064,-137.9898
169.2069,-137.6289
169.104,-137.2687
169.0022,-136.9083
168.9003,-136.548
168.7904,-136.1901
168.667,-135.8365
168.5425,-135.4833
168.4184,-135.1299
168.2948,-134.7765
168.1902,-134.4172
168.1009,-134.0535
168.0097,-133.6903
167.9199,-133.3266
167.8294,-132.9633
167.7268,-132.6032
167.6162,-132.2454
167.5052,-131.8878
167.3941,-131.53
167.2837,-131.1722
167.1749,-130.8139
167.0671,-130.4552
166.9591,-130.0966
166.8504,-129.7382
166.7527,-129.3769
166.6725,-129.0112
166.594,-128.6449
166.5144,-128.279
166.435,-127.913
166.3345,-127.5528
166.213,-127.1986
166.0918,-126.8442
165.9712,-126.4897
165.8492,-126.1356
165.7276,-125.7814
165.604,-125.4278
165.4809,-125.0741
165.3591,-124.72
165.2332,-124.3673
165.0964,-124.0187
164.9547,-123.672
164.8178,-123.3234
164.6766,-122.9765
164.5392,-122.6282
164.4258,-122.2714
164.3186,-121.9125
164.2069,-121.5551
164.1002,-121.1959
163.9887,-120.8386
163.8685,-120.4838
163.7459,-120.1299
163.6224,-119.7764
163.5021,-119.4217
163.3774,-119.0686
163.2425,-118.7193
163.1041,-118.3712
162.9653,-118.0235
162.8298,-117.6741
162.686,-117.3287
162.5174,-116.9945
162.3421,-116.6633
162.172,-116.3298
161.9988,-115.9976
161.8335,-115.6617
161.68,-115.3201
161.5255,-114.979
161.3719,-114.6374
161.2177,-114.2961
161.0551,-113.9588
160.8902,-113.6225
160.7263,-113.2857
160.5611,-112.9496
160.3972,-112.6129
160.2335,-112.2761
160.0698,-111.9392
159.9072,-111.6018
159.7428,-111.2654
159.5806,-110.9278
159.4253,-110.587
159.2715,-110.2455
159.1169,-109.9044
158.9627,-109.5631
158.8051,-109.2234
158.6415,-108.8865
158.4763,-108.5504
158.3133,-108.2132
158.1481,-107.8771
157.9777,-107.5437
157.8024,-107.2127
157.6255,-106.8827
157.4518,-106.5508
157.2738,-106.2213
157.0809,-105.9005
156.8825,-105.5827
156.6872,-105.2632
156.4899,-104.9449
156.2968,-104.624
156.1154,-104.2964
155.9352,-103.9681
155.7533,-103.6408
155.5737,-103.3121
155.3796,-102.9924
155.1631,-102.687
154.9435,-102.3835
154.7267,-102.0781
154.5075,-101.7745
154.2864,-101.4722
154.0624,-101.1721
153.8395,-100.8712
153.6156,-100.5708
153.3928,-100.2699
153.1894,-99.9559
152.9982,-99.6338
152.8043,-99.3136
152.6138,-98.9909
152.4136,-98.6749
152.1937,-98.3718
151.971,-98.0705
151.7499,-97.7684
151.5284,-97.4663
151.3139,-97.1595
151.1096,-96.8457
150.9067,-96.5307
150.7002,-96.2186
150.4999,-95.9016
150.2858,-95.5955
150.0309,-95.322
149.7659,-95.0564
149.5097,-94.7838
149.247,-94.5165
148.9948,-94.2401
148.7618,-93.947
148.5297,-93.653
148.2971,-93.3596
148.0653,-93.0654
147.8306,-92.7736
147.5929,-92.4842
147.3535,-92.1961
147.1152,-91.9072
146.8767,-91.6185
146.6423,-91.3264
146.4144,-91.0292
146.1844,-90.7338
145.9567,-90.4362
145.7265,-90.1411
145.468,-89.8717
145.1909,-89.6194
144.9184,-89.3629
144.6404,-89.1113
144.3685,-88.8543
144.1311,-88.566
143.9075,-88.2651
143.6784,-87.9692
143.4542,-87.6689
143.2173,-87.3798
142.9546,-87.113
142.6885,-86.8492
142.4252,-86.5831
142.16,-86.3184
141.8927,-86.0563
141.6168,-85.8031
141.3389,-85.5519
141.064,-85.2978
140.7857,-85.047
140.5148,-84.7887
140.2586,-84.5157
140.0047,-84.2402
139.749,-83.9667
139.4948,-83.6916
139.2393,-83.4178
138.9807,-83.147
138.721,-82.877
138.4618,-82.6068
138.203,-82.336
137.9387,-82.0708
137.6634,-81.8172
137.3852,-81.5662
137.1096,-81.3127
136.8322,-81.0611
136.5614,-80.8025
136.3011,-80.5333
136.0402,-80.2647
135.7801,-79.9952
135.5193,-79.7265
135.2443,-79.4728
134.9584,-79.2309
134.6729,-78.9886
134.3867,-78.7469
134.1015,-78.5044
133.8311,-78.2461
133.5767,-77.9713
133.3221,-77.6967
133.0674,-77.422
132.8124,-77.1478
132.5395,-76.8917
132.259,-76.6432
131.9846,-76.3889
131.7016,-76.1426
131.4302,-75.8856
131.199,-75.5917
130.9782,-75.2885
130.7489,-74.9929
130.5257,-74.6918
130.2965,-74.3958
130.0522,-74.1121
129.8068,-73.829
129.562,-73.5457
129.3169,-73.2625
129.0698,-72.9811
128.8147,-72.707
128.5582,-72.434
128.3034,-72.1596
128.0472,-71.8863
127.7876,-71.6166
127.5151,-71.3599
127.2387,-71.1069
126.9682,-70.8482
126.6903,-70.5965
126.4204,-70.3374
126.18,-70.0506
125.9461,-69.7578
125.7068,-69.4699
125.4719,-69.178
125.2299,-68.8925
124.9735,-68.6196
124.714,-68.3494
124.4568,-68.0772
124.1985,-67.806
123.9332,-67.542
123.6587,-67.2873
123.3822,-67.0346
123.1076,-66.78
122.8319,-66.5265
122.558,-66.2711
122.2886,-66.011
122.0183,-65.7517
121.7483,-65.4922
121.4792,-65.2317
121.2009,-64.9815
120.9114,-64.7442
120.619,-64.51
120.3285,-64.2736
120.0375,-64.0379
119.7404,-63.8101
119.4369,-63.5908
119.1318,-63.3735
118.8277,-63.1549
118.5235,-62.9366
118.2153,-62.7238
117.9028,-62.5174
117.5901,-62.3113
117.2768,-62.1059
116.965,-61.8988
116.662,-61.679
116.3661,-61.4493
116.0695,-61.2208
115.7727,-60.9922
115.4768,-60.7628
115.1768,-60.5387
114.8743,-60.3177
114.5723,-60.0965
114.2692,-59.8763
113.9672,-59.6549
113.6648,-59.4341
113.3614,-59.2142
113.0605,-58.9916
112.7556,-58.7736
112.4557,-58.5497
112.1799,-58.2971
111.9127,-58.0342
111.6402,-57.7778
111.3729,-57.515
111.1004,-57.2584
110.8083,-57.0246
110.5087,-56.7996
110.2124,-56.5706
109.9145,-56.3437
109.602,-56.1395
109.2723,-55.9623
108.9399,-55.7891
108.6105,-55.6114
108.2786,-55.4379
107.9416,-55.2744
107.6018,-55.1171
107.2634,-54.9569
106.9227,-54.8007
106.5855,-54.6387
106.2721,-54.4363
105.9733,-54.2098
105.6695,-53.9915
105.3694,-53.7667
105.0672,-53.5461
104.7401,-53.3681
104.3965,-53.2195
104.053,-53.0702
103.7085,-52.9229
103.3686,-52.7668
103.0423,-52.5832
102.7197,-52.3925
102.3936,-52.2089
102.0703,-52.0192
101.7433,-51.8373
101.4054,-51.6759
101.0663,-51.5166
100.7284,-51.3557
100.3893,-51.1961
100.0504,-51.0372
99.7068,-50.8881
99.362,-50.7413
99.0197,-50.5904
98.6742,-50.4449
98.3337,-50.2897
98.004,-50.1126
97.6757,-49.9315
97.347,-49.7528
97.0183,-49.5729
96.6874,-49.3975
96.3543,-49.2269
96.0196,-49.0581
95.6868,-48.8867
95.3523,-48.7184
95.0068,-48.5751
94.6545,-48.4487
94.303,-48.3187
93.9502,-48.1931
93.6008,-48.0595
93.2619,-47.8995
92.9266,-47.7333
92.5883,-47.5723
92.2515,-47.4082
91.9242,-47.2285
91.6092,-47.0253
91.2963,-46.8198
90.9821,-46.6159
90.6677,-46.4123
90.3339,-46.2487
89.9808,-46.1217
89.63,-45.9916
89.2786,-45.8626
88.9256,-45.7355
88.576,-45.6038
88.2231,-45.4761
87.8725,-45.345
87.5224,-45.2135
87.1687,-45.0868
86.828,-44.9364
86.5032,-44.7503
86.1824,-44.5558
85.8603,-44.3665
85.5371,-44.1756
85.2083,-43.9987
84.8659,-43.8472
84.5219,-43.6969
84.1822,-43.5426
83.8369,-43.3943
83.492,-43.2497
83.1437,-43.1142
82.7925,-42.9787
82.4469,-42.8402
82.0962,-42.7051
81.7598,-42.5412
81.4384,-42.3531
81.1041,-42.1767
80.7862,-41.9848
80.4963,-41.7519
80.2293,-41.4866
79.9723,-41.2186
79.669,-40.9891
79.4185,-40.734
79.3403,-40.3789
79.3054,-39.9957
79.2373,-39.6331
79.1949,-39.2592
79.1531,-38.8854
79.104,-38.5172
79.0668,-38.1418
79.0194,-37.7713
78.9623,-37.4023
78.8933,-37.0324
78.8177,-36.6672
78.7495,-36.2984
78.6765,-35.9303
78.6036,-35.5644
78.5336,-35.1951
78.4592,-34.8287
78.3879,-34.4615
78.3164,-34.0926
78.2488,-33.7257
78.1884,-33.3552
78.1258,-32.9858
78.062,-32.6178
78.0033,-32.2466
77.9789,-31.8757
77.991,-31.5011
77.9982,-31.1256
78.0062,-30.753
78.0169,-30.377
78.005,-30.0032
77.992,-29.6297
77.9823,-29.2537
77.9638,-28.8811
77.9641,-28.5063
77.9929,-28.1327
78.0319,-27.7618
78.0666,-27.3867
78.0993,-27.0152
78.1381,-26.6427
78.1709,-26.2678
78.2049,-25.8975
78.2462,-25.5233
78.2701,-25.1489
78.3204,-24.7814
78.468,-24.4386
78.6618,-24.12
78.825,-23.779
79.0134,-23.4583
79.2939,-23.2245
79.6127,-23.0228
79.9238,-22.818
80.2391,-22.6141
80.5626,-22.429
80.9176,-22.3128
81.2657,-22.1763
81.5388,-21.9259
81.8062,-21.6597
82.0828,-21.4075
82.2772,-21.0983
82.4211,-20.7515
82.5269,-20.3956
82.5338,-20.0272
82.5009,-19.6561
82.4987,-19.2826
82.5097,-18.9066
82.4909,-18.5351
82.4122,-18.1699
82.3153,-17.8069
82.2319,-17.4426
82.1405,-17.079
82.0608,-16.7133
82.0036,-16.3434
81.9477,-15.9729
81.889,-15.603
81.835,-15.2327
81.8178,-14.8602
81.8364,-14.4861
81.852,-14.112
81.868,-13.7376
81.886,-13.3638
81.8997,-12.9894
81.9171,-12.6151
81.9308,-12.2414
81.9483,-11.8665
81.9575,-11.493
81.929,-11.1196
81.893,-10.7461
81.8652,-10.3738
81.8301,-9.9998
81.7979,-9.6272
81.7642,-9.2546
81.7264,-8.8808
81.696,-8.5089
81.6568,-8.1355
81.5956,-7.7663
81.5254,-7.3995
81.4577,-7.0295
81.3837,-6.6639
81.2829,-6.3031
81.1314,-5.9634
80.9325,-5.6491
80.7307,-5.3303
80.5303,-5.0161
80.3091,-4.714
80.0894,-4.4081
79.8708,-4.1078
79.6483,-3.8036
79.4323,-3.4978
79.2075,-3.2015
78.9938,-2.8879
78.7666,-2.5967
78.4625,-2.3791
78.1417,-2.1803
77.8366,-1.9705
77.5068,-1.7848
77.1736,-1.6203
76.8386,-1.4536
76.4999,-1.2855
76.1679,-1.1241
75.8165,-0.98406
75.462,-0.86753
75.1106,-0.74538
74.7514,-0.621
74.4014,-0.50689
74.0423,-0.387
73.6828,-0.27923
73.332,-0.16628
72.9666,-0.049628
72.6086,-0.031192
