96.9023,-333.9964
97.2473,-333.791
97.593,-333.586
97.9365,-333.3788
98.2827,-333.1745
98.6125,-332.9475
98.9211,-332.6909
99.2297,-332.4335
99.5377,-332.176
99.8584,-331.9362
100.2038,-331.731
100.5496,-331.5273
100.8947,-331.3217
101.2413,-331.1186
101.5659,-330.8852
101.8702,-330.623
102.1717,-330.3579
102.475,-330.0947
102.7783,-329.8312
103.0795,-329.5659
103.3848,-329.3045
103.6846,-329.0376
103.9599,-328.7461
104.2258,-328.4447
104.4959,-328.1477
104.7635,-327.8482
105.0318,-327.5493
105.3009,-327.2514
105.5682,-326.9516
105.8375,-326.6536
106.1055,-326.3546
106.3735,-326.0554
106.6432,-325.7579
106.9092,-325.4569
107.1834,-325.164
107.482,-324.8957
107.7894,-324.6372
108.0873,-324.3673
108.3945,-324.1094
108.7312,-323.8925
109.0798,-323.6925
109.4243,-323.4862
109.7711,-323.2837
110.1111,-323.0708
110.4325,-322.8301
110.75,-322.5842
111.0736,-322.3462
111.3894,-322.0982
111.6864,-321.8287
111.9756,-321.5497
112.2687,-321.275
112.5608,-320.9998
112.8534,-320.7244
113.1533,-320.4574
113.4534,-320.1907
113.7511,-319.9208
114.0528,-319.656
114.3602,-319.3978
114.6744,-319.1475
114.9894,-318.8985
115.3011,-318.6453
115.6192,-318.4
115.9404,-318.159
116.2591,-317.9151
116.5848,-317.679
116.9005,-317.432
117.1798,-317.1458
117.4407,-316.8401
117.7049,-316.5376
117.9696,-316.2358
118.2422,-315.9413
118.5313,-315.6623
118.8232,-315.3868
119.1084,-315.1037
119.4031,-314.8311
119.7218,-314.5877
120.0484,-314.3534
120.3697,-314.1126
120.6943,-313.8761
121.0086,-313.6271
121.298,-313.349
121.5828,-313.0657
121.8727,-312.7877
122.1586,-312.5057
122.4415,-312.2208
122.7203,-311.9317
122.9967,-311.6404
123.2751,-311.3509
123.5536,-311.0616
123.838,-310.7781
124.1265,-310.4986
124.411,-310.2153
124.6977,-309.934
124.9837,-309.652
125.2655,-309.366
125.5503,-309.0828
125.8333,-308.7978
126.116,-308.5127
126.4043,-308.2329
126.6903,-307.9512
126.9772,-307.6701
127.2654,-307.3903
127.5508,-307.1079
127.841,-306.8301
128.1302,-306.5515
128.4177,-306.2713
128.709,-305.9946
128.9831,-305.7018
129.2413,-305.3943
129.5018,-305.0887
129.7563,-304.7778
130.0217,-304.477
130.3153,-304.2033
130.6133,-303.9341
130.9107,-303.6638
131.2057,-303.3917
131.4716,-303.0929
131.7147,-302.773
131.959,-302.4543
132.2036,-302.1359
132.4478,-301.8169
132.6966,-301.5018
132.9465,-301.1874
133.1942,-300.8713
133.4442,-300.557
133.7023,-300.2494
133.9684,-299.9488
134.2364,-299.6497
134.5022,-299.3485
134.7695,-299.049
135.0405,-298.7524
135.3112,-298.4559
135.5828,-298.1601
135.854,-297.8637
136.1167,-297.5603
136.3735,-297.2515
136.6296,-296.9421
136.8857,-296.6329
137.1418,-296.3234
137.3951,-296.0118
137.6481,-295.7
137.9026,-295.3892
138.1541,-295.0762
138.4034,-294.7613
138.6514,-294.4454
138.8986,-294.1291
139.1484,-293.8145
139.3985,-293.5003
139.6507,-293.1878
139.9029,-292.8751
140.1531,-292.5612
140.4133,-292.2552
140.6776,-291.9529
140.9411,-291.6501
141.2084,-291.3499
141.4451,-291.0281
141.6426,-290.6788
141.8387,-290.3282
142.0313,-289.9755
142.2322,-289.6283
142.4761,-289.3101
142.7338,-289.0014
142.9816,-288.6858
143.2358,-288.3746
143.487,-288.0613
143.7296,-287.7413
143.9729,-287.4218
144.2159,-287.1021
144.4583,-286.7819
144.695,-286.4575
144.9242,-286.1278
145.1547,-285.7989
145.3846,-285.4696
145.6072,-285.1354
145.8231,-284.7968
146.0382,-284.4577
146.2542,-284.1191
146.4694,-283.7801
146.6953,-283.4483
146.9327,-283.1243
147.169,-282.7997
147.4076,-282.4765
147.6361,-282.1468
147.8389,-281.8004
148.0372,-281.4509
148.2393,-281.104
148.4387,-280.7554
148.6468,-280.412
148.863,-280.0736
149.0789,-279.735
149.2952,-279.3966
149.5121,-279.0586
149.7334,-278.7234
149.9559,-278.3891
150.1762,-278.0534
150.3997,-277.7196
150.6131,-277.3798
150.8074,-277.0284
150.9981,-276.6749
151.1907,-276.3225
151.3882,-275.973
151.6003,-275.6321
151.8167,-275.2937
152.0288,-274.9527
152.2435,-274.6133
152.4578,-274.2736
152.6695,-273.9324
152.8853,-273.5937
153.0965,-273.2522
153.2947,-272.9029
153.4914,-272.5527
153.6887,-272.203
153.885,-271.8525
154.0996,-271.5141
154.3385,-271.1916
154.5825,-270.8722
154.8229,-270.5508
155.0566,-270.2245
155.2692,-269.8839
155.4708,-269.5367
155.6872,-269.1977
155.8877,-268.8504
156.0387,-268.4788
156.1785,-268.1023
156.3234,-267.7275
156.4675,-267.3529
156.6597,-267.0042
156.896,-266.6788
157.1282,-266.3517
157.3642,-266.0264
157.5786,-265.6886
157.7449,-265.3236
157.9085,-264.9563
158.0735,-264.5904
158.239,-264.2247
158.4412,-263.8782
158.6569,-263.5394
158.8671,-263.1974
159.0821,-262.8578
159.2785,-262.5083
159.4598,-262.1497
159.643,-261.7924
159.8234,-261.4337
160.0063,-261.0759
160.1667,-260.7093
160.2894,-260.3267
160.4119,-259.9442
160.5357,-259.5624
160.6561,-259.1789
160.8135,-258.8119
161.0103,-258.4622
161.2117,-258.1144
161.411,-257.766
161.6094,-257.4168
161.7971,-257.0617
161.9785,-256.7036
162.1625,-256.3464
162.3462,-255.9894
162.5493,-255.6442
162.7794,-255.3144
163.0052,-254.9828
163.2348,-254.653
163.461,-254.3213
163.6273,-253.9592
163.7598,-253.5794
163.9007,-253.2039
164.0317,-252.8238
164.1855,-252.4539
164.3806,-252.1033
164.5765,-251.7527
164.7773,-251.4044
164.9689,-251.0522
165.1103,-250.6777
165.2299,-250.294
165.3549,-249.9126
165.4785,-249.5304
165.6116,-249.1517
165.7559,-248.7769
165.8998,-248.4019
166.0414,-248.0262
166.1891,-247.6526
166.3514,-247.2855
166.5191,-246.9205
166.6831,-246.5539
166.8487,-246.1881
167.0177,-245.8238
167.1913,-245.4616
167.3672,-245.1007
167.5407,-244.7384
167.7161,-244.3772
167.8945,-244.0174
168.0727,-243.6575
168.2551,-243.2996
168.4312,-242.9389
168.5754,-242.5653
168.6942,-242.1816
168.8159,-241.7988
168.9386,-241.4166
169.0596,-241.0335
169.1887,-240.6532
169.3141,-240.2719
169.44,-239.8903
169.5687,-239.5101
169.6694,-239.1216
169.7554,-238.7294
169.8424,-238.3377
169.9243,-237.9439
170.0594,-237.5706
170.2578,-237.2218
170.456,-236.8728
170.6618,-236.5268
170.8539,-236.1756
170.9716,-235.795
171.0568,-235.4016
171.1479,-235.0109
171.2408,-234.6202
171.363,-234.2383
171.5048,-233.8625
171.6417,-233.4849
171.7782,-233.1074
171.8991,-232.7247
172.0037,-232.3368
172.1125,-231.9504
172.2211,-231.5636
172.3202,-231.1745
172.4123,-230.7837
172.5031,-230.3925
172.5905,-230.0004
172.6859,-229.6106
172.8196,-229.2331
172.9757,-228.8627
173.1257,-228.4902
173.2783,-228.1188
173.4082,-227.7403
173.4938,-227.3479
173.5745,-226.9544
173.6636,-226.563
173.7426,-226.169
173.8095,-225.7733
173.8692,-225.3761
173.931,-224.9791
173.9934,-224.5827
174.0549,-224.1856
174.1284,-223.7909
174.2059,-223.3969
174.2788,-223.0018
174.3557,-222.6078
174.4328,-222.2136
174.5107,-221.8196
174.5924,-221.4265
174.6703,-221.0324
174.7501,-220.6389
174.8338,-220.2461
174.9153,-219.8528
174.9993,-219.4602
175.0826,-219.0673
175.1585,-218.673
175.2271,-218.2774
175.2907,-217.8807
175.3585,-217.4849
175.4239,-217.0888
175.4721,-216.6901
175.5146,-216.2909
175.556,-215.8913
175.5986,-215.492
175.6685,-215.0974
175.7589,-214.7058
175.8443,-214.3137
175.9366,-213.9225
176.0212,-213.5301
176.063,-213.1319
176.0844,-212.7307
176.1089,-212.3299
176.132,-211.929
176.1769,-211.5306
176.2506,-211.1359
176.3255,-210.7413
176.3996,-210.3466
176.4733,-209.9519
176.5314,-209.5547
176.5791,-209.1559
176.6305,-208.7576
176.6788,-208.3589
176.7073,-207.9586
176.7232,-207.5574
176.7423,-207.1562
176.7558,-206.7547
176.7774,-206.3539
176.8324,-205.9564
176.897,-205.5599
176.9574,-205.1628
177.0167,-204.7658
177.0487,-204.366
177.0614,-203.9643
177.0811,-203.5634
177.0971,-203.1621
177.1133,-202.7607
177.1363,-202.3599
177.1554,-201.9587
177.177,-201.5577
177.1985,-201.1567
177.2197,-200.7556
177.2522,-200.3554
177.2841,-199.955
177.3148,-199.5546
177.3478,-199.1544
177.3641,-198.7532
177.3699,-198.3517
177.3782,-197.9502
177.3827,-197.5485
177.3912,-197.1471
177.4045,-196.7458
177.4164,-196.3443
177.4315,-195.943
177.4427,-195.5415
177.4471,-195.1399
177.4522,-194.7385
177.4546,-194.3368
177.4603,-193.9353
177.4827,-193.5346
177.5169,-193.1344
177.5514,-192.7343
177.5854,-192.3342
177.6183,-191.9339
177.6456,-191.5333
177.671,-191.1325
177.6975,-190.7317
177.7246,-190.3311
177.7595,-189.931
177.7975,-189.5312
177.8339,-189.1312
177.8698,-188.7313
177.868,-188.3321
177.8183,-187.9334
177.7695,-187.5348
177.7228,-187.1361
177.6711,-186.7374
177.6508,-186.3375
177.6548,-185.9359
177.6602,-185.5343
177.6681,-185.1328
177.6622,-184.7314
177.6397,-184.3306
177.614,-183.9298
177.5884,-183.5289
177.5649,-183.1282
177.535,-182.7276
177.5037,-182.3272
177.4765,-181.9267
177.4423,-181.5262
177.4321,-181.1257
177.458,-180.725
177.483,-180.3244
177.5151,-179.9235
177.535,-179.5231
177.4893,-179.1257
177.4197,-178.7294
177.362,-178.3324
177.2958,-177.936
177.2485,-177.5378
177.2303,-177.1367
177.2115,-176.7355
177.1953,-176.3342
177.1751,-175.9332
177.1331,-175.534
177.0818,-175.1357
177.0322,-174.7371
176.983,-174.3386
176.9361,-173.9398
176.897,-173.5401
176.8604,-173.1402
176.8177,-172.7407
176.7884,-172.3405
176.7824,-171.9391
176.7796,-171.5376
176.7811,-171.1356
176.7704,-170.7347
176.7117,-170.3382
176.6333,-169.9436
176.5685,-169.5476
176.4975,-169.1522
176.4171,-168.7586
176.3363,-168.3656
176.2501,-167.9731
176.1659,-167.5805
176.0843,-167.1874
176.002,-166.7941
175.9258,-166.3999
175.8473,-166.0061
175.7668,-165.6125
175.7034,-165.2163
175.6518,-164.818
175.6008,-164.4197
175.5547,-164.0206
175.499,-163.6231
175.4176,-163.2301
175.3261,-162.8388
175.2399,-162.4466
175.1534,-162.0545
175.0652,-161.6627
174.9805,-161.2702
174.8945,-160.8779
174.8069,-160.4859
174.7289,-160.0921
174.6585,-159.6967
174.5884,-159.3013
174.5217,-158.9052
174.4454,-158.5111
174.3452,-158.1224
174.238,-157.7352
174.1353,-157.347
174.0309,-156.9592
173.9284,-156.5709
173.8292,-156.1818
173.7292,-155.7928
173.6293,-155.4038
173.5243,-155.0163
173.4119,-154.6308
173.2989,-154.2453
173.1868,-153.8598
173.0756,-153.4738
172.9689,-153.0867
172.8634,-152.6992
172.7561,-152.3122
172.6504,-151.9248
172.5465,-151.5368
172.4431,-151.1488
172.3403,-150.7606
172.237,-150.3725
172.1341,-149.9843
172.0322,-149.5958
171.9297,-149.2075
171.8269,-148.8194
171.7185,-148.4326
171.6037,-148.0478
171.4943,-147.6614
171.3792,-147.2767
171.2373,-146.9014
171.0847,-146.5299
170.9348,-146.1573
170.7829,-145.7855
170.6482,-145.4078
170.5367,-145.022
170.4269,-144.6357
170.3163,-144.2496
170.2035,-143.8642
170.08,-143.4821
169.9538,-143.1008
169.8302,-142.7188
169.7048,-142.3372
169.5708,-141.9588
169.4263,-141.5842
169.2811,-141.2097
169.136,-140.8352
168.9918,-140.4604
168.8617,-140.0806
168.7385,-139.6983
168.6126,-139.317
168.4891,-138.9348
168.3544,-138.5568
168.2015,-138.1854
168.047,-137.8147
167.8943,-137.4434
167.7399,-137.0726
167.5866,-136.7014
167.4328,-136.3304
167.2784,-135.9597
167.1255,-135.5884
166.9695,-135.2183
166.8068,-134.8511
166.6427,-134.4846
166.4792,-134.1178
166.3161,-133.7509
166.1633,-133.3795
166.0177,-133.0052
165.8685,-132.6325
165.7239,-132.2576
165.5714,-131.8863
165.3927,-131.5269
165.2094,-131.1694
165.0288,-130.8108
164.8482,-130.4521
164.6898,-130.0832
164.5409,-129.7102
164.3844,-129.3404
164.2355,-128.9673
164.0748,-128.5996
163.89,-128.243
163.7056,-127.8864
163.5174,-127.5314
163.3364,-127.1731
163.1893,-126.7998
163.05,-126.4228
162.9037,-126.049
162.763,-125.6727
162.6036,-125.3048
162.4163,-124.9497
162.2272,-124.5953
162.0393,-124.2404
161.8508,-123.8859
161.6715,-123.5265
161.4942,-123.1661
161.3152,-122.8067
161.1385,-122.4459
160.9495,-122.092
160.7441,-121.747
160.5376,-121.4025
160.3308,-121.0582
160.1256,-120.713
159.9326,-120.3609
159.7436,-120.0066
159.5516,-119.6538
159.3623,-119.2996
159.1679,-118.9483
158.9623,-118.6033
158.7548,-118.2595
158.5487,-117.9148
158.3418,-117.5706
158.1359,-117.2258
157.9311,-116.8803
157.7258,-116.5352
157.5206,-116.19
157.3174,-115.8436
157.1184,-115.4948
156.9224,-115.1443
156.723,-114.7956
156.5265,-114.4455
156.346,-114.0868
156.1725,-113.7248
155.9991,-113.3625
155.8255,-113.0002
155.6189,-112.659
155.369,-112.3448
155.1157,-112.0328
154.8664,-111.7184
154.6136,-111.4059
154.3805,-111.0797
154.1637,-110.7417
153.9451,-110.4047
153.7296,-110.066
153.5096,-109.7299
153.2759,-109.4034
153.0397,-109.0786
152.8052,-108.7525
152.5696,-108.4274
152.3358,-108.1009
152.1037,-107.773
151.8717,-107.4453
151.64,-107.1172
151.4077,-106.7896
151.1745,-106.4628
150.941,-106.1359
150.707,-105.8096
150.4743,-105.4823
150.249,-105.1499
150.0291,-104.814
149.8084,-104.4784
149.5872,-104.1432
149.3623,-103.8106
149.1335,-103.4804
148.907,-103.1489
148.6791,-102.8182
148.447,-102.4904
148.2116,-102.1652
147.9734,-101.8417
147.7385,-101.5159
147.4983,-101.1944
147.2421,-100.885
146.9838,-100.5776
146.7266,-100.2691
146.4695,-99.9605
146.2262,-99.6413
145.9873,-99.3182
145.7434,-98.9993
145.5058,-98.6754
145.2604,-98.3577
144.9925,-98.0588
144.7201,-97.7636
144.4503,-97.466
144.1796,-97.1696
143.9146,-96.8678
143.6557,-96.5607
143.3966,-96.2541
143.1372,-95.9473
142.8784,-95.6403
142.6189,-95.3338
142.3594,-95.0272
142.1006,-94.7203
141.8407,-94.414
141.5787,-94.1097
141.314,-93.8078
141.0478,-93.5069
140.7843,-93.204
140.5175,-92.9039
140.2405,-92.6129
139.9616,-92.3242
139.683,-92.0348
139.4056,-91.7444
139.1432,-91.441
138.8906,-91.1284
138.6347,-90.8191
138.3819,-90.5071
138.1264,-90.197
137.8592,-89.8976
137.5904,-89.5989
137.3221,-89.3003
137.0547,-89.0006
136.7845,-88.7035
136.4895,-88.4322
136.1809,-88.1745
135.8808,-87.9081
135.571,-87.6517
135.2718,-87.3848
135.0238,-87.0699
134.7887,-86.7435
134.5413,-86.4278
134.3064,-86.101
134.0553,-85.7892
133.7611,-85.5164
133.4584,-85.252
133.1614,-84.982
132.8614,-84.7146
132.5629,-84.4463
132.2664,-84.1753
131.9704,-83.9039
131.6725,-83.6347
131.3782,-83.3612
131.1035,-83.0691
130.8375,-82.7679
130.5666,-82.4713
130.3,-82.1712
130.0243,-81.8795
129.7241,-81.6131
129.4193,-81.3515
129.1194,-81.0842
128.8108,-80.8276
128.496,-80.5781
128.1826,-80.3271
127.8644,-80.0817
127.5534,-79.8281
127.2735,-79.5423
127.011,-79.2381
126.7469,-78.9351
126.4806,-78.6353
126.1909,-78.3591
125.8769,-78.108
125.5668,-77.8534
125.2552,-77.5998
124.9446,-77.3452
124.6524,-77.0701
124.3603,-76.7939
124.0664,-76.5207
123.7753,-76.2439
123.4664,-75.9873
123.1514,-75.7387
122.8398,-75.4851
122.5227,-75.2384
122.2226,-74.9726
121.9361,-74.6904
121.6458,-74.4141
121.3646,-74.126
121.0685,-73.856
120.7377,-73.6299
120.4007,-73.4106
120.0636,-73.1919
119.7369,-72.9605
119.4392,-72.6911
119.1483,-72.414
118.855,-72.1398
118.5589,-71.8684
118.2421,-71.6232
117.9136,-71.3913
117.5886,-71.1556
117.2645,-70.9186
116.9357,-70.6876
116.5929,-70.4795
116.2445,-70.2794
115.8981,-70.0755
115.5534,-69.8708
115.2349,-69.6295
114.9409,-69.3551
114.6436,-69.086
114.3474,-68.8142
114.0521,-68.5421
113.749,-68.2793
113.4429,-68.0183
113.1349,-67.7616
112.8286,-67.5013
112.5069,-67.2636
112.1557,-67.0696
111.8039,-66.8755
111.4507,-66.6836
111.1019,-66.4867
110.804,-66.2214
110.5296,-65.927
110.2449,-65.6454
109.9695,-65.3508
109.6646,-65.098
109.3078,-64.914
108.948,-64.735
108.5902,-64.554
108.2308,-64.3729
107.8914,-64.1614
107.5626,-63.9304
107.233,-63.7003
106.9053,-63.4695
106.5751,-63.2397
106.2414,-63.0167
105.9055,-62.7971
105.57,-62.5752
105.2347,-62.3553
104.9015,-62.1309
104.5748,-61.8966
104.2484,-61.6641
103.9224,-61.428
103.5945,-61.197
103.2484,-60.9948
102.8944,-60.803
102.5454,-60.6061
102.1931,-60.4127
101.8415,-60.2178
101.4916,-60.0226
101.1389,-59.8287
100.7883,-59.6335
100.4377,-59.4386
100.0929,-59.2313
99.7563,-59.0137
99.4169,-58.7985
99.0782,-58.5817
98.7413,-58.3649
98.4041,-58.1453
98.0703,-57.9223
97.7347,-57.7029
97.399,-57.4806
97.0545,-57.2777
96.691,-57.1061
96.3283,-56.9328
95.9657,-56.7623
95.603,-56.588
95.2651,-56.3727
94.935,-56.1445
94.5987,-55.9236
94.2693,-55.6949
93.9287,-55.4827
93.574,-55.2932
93.2198,-55.1063
92.8632,-54.9195
92.5089,-54.7308
92.1532,-54.546
91.7924,-54.3666
91.4351,-54.1859
91.0746,-54.0082
90.7154,-53.8269
90.3627,-53.6378
90.0075,-53.4477
89.6544,-53.2573
89.3014,-53.0674
88.9512,-52.868
88.6083,-52.6613
88.2607,-52.4597
87.9159,-52.2516
87.5631,-52.067
87.1819,-51.9358
86.8011,-51.8098
86.4227,-51.6787
86.0385,-51.5534
85.6818,-51.3819
85.3482,-51.1577
85.0181,-50.927
84.6894,-50.7002
84.3555,-50.4731
84.0276,-50.2431
83.7044,-50.0061
83.3812,-49.7638
83.0641,-49.5218
82.7396,-49.2825
82.4197,-49.0387
82.1028,-48.7966
81.7775,-48.5545
81.4794,-48.2901
81.1861,-48.0164
80.8877,-47.7414
80.6019,-47.4717
80.2551,-47.244
79.9585,-46.9921
79.9023,-46.625
79.9346,-46.2107
79.9432,-45.818
80.0419,-45.4312
80.1965,-45.0567
80.3398,-44.688
80.4905,-44.3107
80.6357,-43.9374
80.7589,-43.5579
80.8137,-43.1625
80.8054,-42.7619
80.8152,-42.3596
80.8369,-41.9588
80.8605,-41.5589
80.8986,-41.1577
80.9235,-40.7577
80.9661,-40.3587
81.0354,-39.962
81.0944,-39.5662
81.1628,-39.1694
81.2289,-38.7735
81.2809,-38.3758
81.3426,-37.978
81.3943,-37.5806
81.4454,-37.1816
81.5251,-36.7889
81.6382,-36.4059
81.7789,-36.0272
81.8965,-35.6443
82.0118,-35.2596
82.149,-34.881
82.1788,-34.4868
82.1406,-34.0925
82.2757,-33.7768
82.5959,-33.5412
82.9382,-33.3159
83.2391,-33.0625
83.5077,-32.764
83.7626,-32.4484
84.0492,-32.1837
84.4006,-31.9821
84.7582,-31.7937
85.0901,-31.5868
85.447,-31.3704
85.7302,-31.1084
85.831,-30.745
85.8889,-30.3394
85.9918,-29.9549
86.0795,-29.563
86.1855,-29.1737
86.3296,-28.8019
86.4637,-28.4212
86.6032,-28.0446
86.7391,-27.669
86.8353,-27.2759
86.9398,-26.8908
87.079,-26.514
87.2097,-26.1317
87.3504,-25.7595
87.546,-25.407
87.7574,-25.0656
87.9359,-24.7094
88.0894,-24.335
88.2367,-23.9642
88.3803,-23.5888
88.5013,-23.2039
88.6071,-22.8199
88.732,-22.4349
88.8394,-22.049
88.886,-21.6531
88.9182,-21.2496
88.9547,-20.8524
88.9807,-20.4504
89.0654,-20.06
89.2059,-19.6918
89.2406,-19.3075
89.1557,-18.9098
89.089,-18.5172
89.0042,-18.1256
88.8567,-17.7468
88.736,-17.3701
88.6018,-16.9874
88.4553,-16.6116
88.4546,-16.2308
88.5448,-15.8443
88.5722,-15.4507
88.5493,-15.0413
88.5489,-14.6448
88.6553,-14.2724
88.8537,-13.9194
89.0568,-13.5817
89.2616,-13.2271
89.4161,-12.8603
89.533,-12.4866
89.6808,-12.0883
89.6628,-11.7238
89.4779,-11.3955
89.4543,-11.0132
89.5241,-10.6004
89.4737,-10.2106
89.3889,-9.8183
89.257,-9.4453
89.015,-9.1231
88.7701,-8.8059
88.5569,-8.4663
88.3344,-8.1293
88.1146,-7.7958
87.9373,-7.4386
87.8286,-7.0547
87.7441,-6.6612
87.6419,-6.2714
87.5444,-5.8842
87.4523,-5.4915
87.3504,-5.103
87.2484,-4.7162
87.1641,-4.3211
87.1404,-3.9306
87.1958,-3.527
87.2231,-3.126
87.0844,-2.7999
86.7982,-2.5275
86.4776,-2.2672
86.2117,-1.9867
86.0453,-1.6109
85.855,-1.2725
85.4917,-1.1497
85.0764,-1.0745
84.7386,-0.88073
84.3994,-0.669
84.0245,-0.53221
83.6383,-0.46275
83.2348,-0.40347
82.8393,-0.3314
82.4474,-0.27729
82.0428,-0.21766
81.6497,-0.15585
81.2542,-0.10397
80.8501,-0.035489
