82.5323,-346.1421
82.9187,-345.9709
83.3013,-345.7922
83.6873,-345.62
84.0709,-345.4433
84.4555,-345.2685
84.8407,-345.0945
85.224,-344.9174
85.6098,-344.7447
85.9932,-344.5677
86.3782,-344.3935
86.7631,-344.219
87.1464,-344.0421
87.5323,-343.8692
87.9147,-343.6904
88.2998,-343.5161
88.6838,-343.3399
89.0666,-343.162
89.4529,-342.9893
89.8342,-342.8091
90.2205,-342.6366
90.6037,-342.459
90.9863,-342.2811
91.3743,-342.1107
91.7521,-341.9254
92.1439,-341.7609
92.514,-341.5644
92.8168,-341.2733
93.1075,-340.9642
93.4052,-340.6653
93.7018,-340.3653
94.0157,-340.0814
94.3449,-339.8185
94.6649,-339.5404
94.9926,-339.2755
95.3902,-339.1404
95.7932,-339.0167
96.1168,-338.7531
96.4206,-338.4573
96.7345,-338.1769
97.0541,-337.8991
97.3855,-337.6381
97.7122,-337.3697
98.0405,-337.1038
98.3599,-336.8282
98.666,-336.5362
98.9742,-336.2481
99.2811,-335.9571
99.5907,-335.67
99.9028,-335.3853
100.2151,-335.1005
100.526,-334.8147
100.8489,-334.5438
101.2037,-334.3152
101.5641,-334.0939
101.9188,-333.865
102.278,-333.6423
102.6347,-333.4157
102.9907,-333.1887
103.35,-332.9657
103.704,-332.7359
104.0221,-332.4629
104.3109,-332.1536
104.6042,-331.8501
104.8947,-331.5432
105.205,-331.2588
105.548,-331.0124
105.8905,-330.7646
106.2331,-330.5178
106.5759,-330.2706
106.9145,-330.0181
107.2549,-329.7679
107.5938,-329.5155
107.9334,-329.2643
108.27,-329.0089
108.6049,-328.7514
108.9421,-328.4969
109.2769,-328.2391
109.6102,-327.9797
109.9405,-327.7162
110.2706,-327.4526
110.6019,-327.1904
110.9312,-326.9257
111.2615,-326.6624
111.5911,-326.398
111.9204,-326.1335
112.2508,-325.8702
112.5805,-325.6059
112.9106,-325.3424
113.2414,-325.0794
113.564,-324.8073
113.869,-324.5152
114.1701,-324.2184
114.4749,-323.9262
114.7771,-323.6307
115.0828,-323.3393
115.39,-323.0493
115.6941,-322.7558
116.0022,-322.4671
116.3209,-322.1899
116.6472,-321.9216
116.9722,-321.6516
117.2967,-321.3811
117.6139,-321.1024
117.9219,-320.813
118.2325,-320.5267
118.5413,-320.2385
118.8556,-319.9562
119.178,-319.6832
119.4982,-319.4076
119.8211,-319.1351
120.1357,-318.8535
120.4376,-318.5579
120.7387,-318.2617
121.0398,-317.9652
121.3412,-317.6693
121.6379,-317.3685
121.933,-317.0661
122.2291,-316.7649
122.5237,-316.4619
122.8326,-316.1744
123.1546,-315.9009
123.4763,-315.6272
123.7998,-315.3554
124.118,-315.0776
124.423,-314.7855
124.7237,-314.4886
125.0279,-314.1954
125.3302,-313.9004
125.6342,-313.607
125.9421,-313.3176
126.2459,-313.0241
126.5546,-312.7354
126.8552,-312.4392
127.131,-312.1191
127.4052,-311.7978
127.6788,-311.4758
127.9549,-311.1561
128.2545,-310.8586
128.5593,-310.5657
128.8602,-310.2695
129.164,-309.9756
129.4614,-309.6757
129.7564,-309.3733
130.0522,-309.0715
130.3466,-308.7687
130.6411,-308.4657
130.9333,-308.1606
131.226,-307.856
131.5187,-307.5512
131.8124,-307.2477
132.112,-306.9497
132.4111,-306.6514
132.7105,-306.3533
133.0097,-306.055
133.2967,-305.7454
133.5747,-305.4271
133.8526,-305.1091
134.1306,-304.7909
134.4092,-304.4733
134.6895,-304.1574
134.9696,-303.8409
135.2503,-303.5253
135.5299,-303.2086
135.8021,-302.8854
136.0723,-302.5607
136.3441,-302.2372
136.6146,-301.9128
136.891,-301.5933
137.1705,-301.2764
137.4492,-300.959
137.7292,-300.6424
138.0037,-300.3215
138.2747,-299.9974
138.5449,-299.6726
138.8154,-299.3482
139.0831,-299.0212
139.3412,-298.6869
139.6002,-298.3531
139.8585,-298.0187
140.1207,-297.6877
140.4003,-297.3708
140.6791,-297.0536
140.9592,-296.7371
141.2378,-296.4196
141.4932,-296.0836
141.7415,-295.7416
141.9905,-295.4005
142.2393,-295.0589
142.4979,-294.7249
142.759,-294.3928
143.0195,-294.0601
143.2804,-293.728
143.542,-293.3961
143.804,-293.0648
144.0661,-292.7334
144.328,-292.4018
144.5739,-292.059
144.8056,-291.7055
145.0375,-291.3525
145.2689,-290.999
145.5044,-290.6482
145.7448,-290.3009
145.987,-289.9547
146.2269,-289.6069
146.4694,-289.2611
146.7318,-288.9301
147.0005,-288.6043
147.2667,-288.2761
147.5353,-287.95
147.79,-287.6133
148.0324,-287.2672
148.2724,-286.9198
148.5152,-286.5737
148.7547,-286.226
148.971,-285.8632
149.1804,-285.4962
149.393,-285.1313
149.6033,-284.7646
149.8326,-284.4104
150.0724,-284.0624
150.3101,-283.7131
150.551,-283.3662
150.7839,-283.0136
151.0107,-282.6574
151.2351,-282.2992
151.4602,-281.9418
151.6861,-281.585
151.9057,-281.2236
152.1304,-280.8664
152.3491,-280.5043
152.5778,-280.15
152.8515,-279.8283
153.1286,-279.5093
153.4045,-279.1894
153.6792,-278.8685
153.8958,-278.509
154.0841,-278.1303
154.2776,-277.7551
154.466,-277.3768
154.6682,-277.006
154.8776,-276.6391
155.088,-276.2727
155.2991,-275.9068
155.5087,-275.5401
155.7272,-275.1783
155.9416,-274.8144
156.1604,-274.4528
156.3749,-274.089
156.5558,-273.7075
156.7318,-273.3233
156.9097,-272.9402
157.0869,-272.5566
157.2835,-272.1829
157.4868,-271.8125
157.6881,-271.4411
157.8916,-271.0709
158.1006,-270.7038
158.3161,-270.3404
158.531,-269.9767
158.7457,-269.6128
158.9522,-269.2444
159.1507,-268.8714
159.3497,-268.4987
159.5492,-268.1264
159.7452,-267.7521
159.9258,-267.3704
160.1026,-266.9865
160.2835,-266.6048
160.4607,-266.2213
160.6456,-265.8413
160.8326,-265.4626
161.0182,-265.083
161.2069,-264.705
161.3871,-264.323
161.5598,-263.9374
161.7292,-263.5505
161.9004,-263.1642
162.0716,-262.778
162.2357,-262.3887
162.4028,-262.0006
162.5666,-261.6112
162.7331,-261.2229
162.9174,-260.8429
163.1052,-260.4645
163.2933,-260.0861
163.4809,-259.7077
163.6659,-259.3278
163.8503,-258.9477
164.0313,-258.5661
164.2175,-258.1865
164.3831,-257.7992
164.5046,-257.3947
164.6201,-256.9882
164.7398,-256.5832
164.8575,-256.1773
164.9905,-255.7765
165.1296,-255.3774
165.2665,-254.9779
165.4053,-254.5788
165.5531,-254.1833
165.7197,-253.7952
165.8877,-253.4073
166.0537,-253.0191
166.2159,-252.629
166.3558,-252.2304
166.4956,-251.8318
166.6366,-251.4334
166.7758,-251.0347
166.9406,-250.6457
167.1127,-250.26
167.2834,-249.8736
167.4573,-249.4883
167.6191,-249.0986
167.7721,-248.7045
167.9202,-248.309
168.0717,-247.9146
168.195,-247.512
168.2712,-247.0965
168.3509,-246.6817
168.4254,-246.2657
168.5093,-245.8521
168.6449,-245.4521
168.7866,-245.054
168.9228,-244.6542
169.0639,-244.2558
169.2021,-243.8568
169.3447,-243.4589
169.4844,-243.0603
169.6257,-242.6621
169.7422,-242.2572
169.8224,-241.8422
169.907,-241.4284
169.9853,-241.0132
170.0719,-240.5998
170.1982,-240.197
170.3307,-239.7955
170.4592,-239.3932
170.5889,-238.9912
170.7047,-238.5848
170.8129,-238.1766
170.9245,-237.769
171.034,-237.361
171.1552,-236.9566
171.2898,-236.5557
171.4175,-236.1535
171.5545,-235.7532
171.6689,-235.3481
171.7191,-234.9291
171.762,-234.5084
171.8091,-234.0888
171.8553,-233.6688
171.9417,-233.2561
172.0461,-232.8466
172.1462,-232.4362
172.25,-232.0267
172.3527,-231.6168
172.4578,-231.2077
172.5627,-230.7984
172.6675,-230.3891
172.7706,-229.9795
172.8642,-229.5675
172.9563,-229.1552
173.0505,-228.7434
173.1424,-228.331
173.2325,-227.9183
173.3198,-227.5049
173.408,-227.0917
173.4955,-226.6784
173.5583,-226.2612
173.6,-225.8408
173.6444,-225.4207
173.6851,-225.0001
173.7464,-224.583
173.8471,-224.1728
173.9509,-223.7633
174.0531,-223.3533
174.155,-222.9434
174.2411,-222.5299
174.3199,-222.1148
174.4031,-221.7006
174.4819,-221.2855
174.5296,-220.8665
174.5598,-220.445
174.5927,-220.0238
174.6232,-219.6025
174.6737,-219.1834
174.7457,-218.7673
174.8205,-218.3514
174.8929,-217.9351
174.971,-217.5202
175.0664,-217.1083
175.1585,-216.6965
175.2563,-216.2849
175.3464,-215.8726
175.3729,-215.4526
175.3767,-215.0295
175.3875,-214.6077
175.394,-214.1849
175.4239,-213.7639
175.4641,-213.3433
175.501,-212.9223
175.542,-212.502
175.5806,-212.0812
175.6229,-211.6609
175.6649,-211.2405
175.7055,-210.8199
175.7507,-210.4
175.7987,-209.9802
175.8493,-209.5608
175.8984,-209.1412
175.9475,-208.7215
175.9954,-208.3019
176.0404,-207.8817
176.0878,-207.462
176.1333,-207.0419
176.1727,-206.6213
176.2051,-206.2002
176.2363,-205.7787
176.2694,-205.3577
176.3002,-204.9363
176.329,-204.5147
176.356,-204.0933
176.3845,-203.6716
176.4116,-203.2502
176.4288,-202.828
176.4381,-202.4056
176.4497,-201.9834
176.4587,-201.5609
176.4447,-201.1391
176.4212,-200.7171
176.3986,-200.2952
176.3765,-199.8735
176.3853,-199.4514
176.4088,-199.0297
176.429,-198.6077
176.4525,-198.1858
176.435,-197.7654
176.3828,-197.346
176.3311,-196.927
176.2773,-196.5076
176.2622,-196.0877
176.2945,-195.6666
176.3296,-195.2453
176.3633,-194.8245
176.3915,-194.4029
176.4012,-193.9807
176.4063,-193.5582
176.4172,-193.1357
176.4221,-192.7135
176.4092,-192.2913
176.3857,-191.8696
176.3632,-191.4476
176.3418,-191.0257
176.3304,-190.6036
176.329,-190.1809
176.3248,-189.7586
176.3217,-189.3361
176.2981,-188.9149
176.2477,-188.4953
176.2031,-188.0753
176.1519,-187.6558
176.1215,-187.2355
176.1428,-186.8136
176.1647,-186.3918
176.1897,-185.9698
176.2064,-185.5482
176.1697,-185.1275
176.123,-184.7072
176.0857,-184.2868
176.041,-183.8663
175.9975,-183.4464
175.9501,-183.0265
175.9021,-182.6067
175.8561,-182.1869
175.8102,-181.7667
175.769,-181.3465
175.7275,-180.9259
175.6848,-180.5056
175.6463,-180.085
175.617,-179.6634
175.5895,-179.242
175.5616,-178.8203
175.5323,-178.3989
175.4805,-177.98
175.416,-177.5622
175.3559,-177.1443
175.2919,-176.7265
175.2401,-176.3075
175.2051,-175.8865
175.1698,-175.4654
175.1361,-175.0444
175.0919,-174.6243
175.0266,-174.2071
174.9591,-173.79
174.8932,-173.3726
174.8271,-172.9556
174.7687,-172.5369
174.7101,-172.1187
174.6519,-171.7002
174.5928,-171.2818
174.5193,-170.866
174.4424,-170.4503
174.3677,-170.0347
174.2907,-169.6192
174.2134,-169.2039
174.1319,-168.7895
174.0513,-168.3745
173.9706,-167.9601
173.8937,-167.5446
173.8268,-167.1274
173.7575,-166.7108
173.6913,-166.2933
173.6209,-165.877
173.529,-165.4645
173.4333,-165.053
173.3411,-164.6409
173.246,-164.229
173.1461,-163.8188
173.0436,-163.4088
172.9413,-162.9989
172.8398,-162.5889
172.7553,-162.175
172.6827,-161.759
172.6072,-161.3432
172.5349,-160.927
172.448,-160.514
172.3387,-160.1058
172.2277,-159.6983
172.1173,-159.2903
172.0117,-158.8815
171.9208,-158.4689
171.8329,-158.0556
171.7414,-157.6434
171.6533,-157.2299
171.5671,-156.8165
171.4827,-156.4025
171.3992,-155.9882
171.3132,-155.5749
171.2253,-155.1613
171.1298,-154.7501
171.037,-154.3378
170.9431,-153.9259
170.8223,-153.5219
170.6835,-153.1227
170.5413,-152.725
170.4024,-152.3259
170.2531,-151.931
170.0829,-151.5442
169.9161,-151.1563
169.7432,-150.7705
169.5922,-150.3775
169.5045,-149.9648
169.4236,-149.5497
169.3387,-149.136
169.2525,-148.7226
169.1302,-148.3182
169.0012,-147.9158
168.8805,-147.5111
168.7516,-147.1085
168.5984,-146.7163
168.4186,-146.3336
168.239,-145.9512
168.0623,-145.5678
167.912,-145.1739
167.7944,-144.7682
167.6708,-144.3641
167.5521,-143.9587
167.4275,-143.5552
167.2773,-143.1602
167.1264,-142.7658
166.976,-142.3708
166.8247,-141.9764
166.6704,-141.5832
166.5123,-141.1912
166.3573,-140.7985
166.1989,-140.4065
166.0555,-140.0097
165.9362,-139.6045
165.8183,-139.1987
165.7001,-138.7933
165.5787,-138.3884
165.4451,-137.9879
165.3095,-137.5876
165.176,-137.1867
165.0406,-136.7867
164.9098,-136.3848
164.7798,-135.9831
164.649,-135.5812
164.5205,-135.1787
164.3642,-134.7878
164.1721,-134.4115
163.9749,-134.0379
163.7821,-133.6619
163.5839,-133.2889
163.3789,-132.9195
163.1778,-132.5481
162.9689,-132.1805
162.771,-131.8077
162.6342,-131.409
162.5128,-131.0037
162.3805,-130.6028
162.2556,-130.1991
162.0827,-129.8156
161.876,-129.4471
161.6745,-129.0761
161.466,-128.708
161.3059,-128.3208
161.1976,-127.9125
161.0911,-127.5039
160.9863,-127.0942
160.8404,-126.7013
160.6365,-126.3319
160.4267,-125.9645
160.221,-125.596
160.0195,-125.2247
159.8351,-124.8446
159.6545,-124.4628
159.4691,-124.0829
159.2885,-123.7013
159.1133,-123.3166
158.9388,-122.932
158.7658,-122.5466
158.5898,-122.1623
158.3948,-121.7885
158.1817,-121.4234
157.9697,-121.058
157.7584,-120.6924
157.5475,-120.326
157.3421,-119.9571
157.1345,-119.5889
156.9281,-119.2204
156.7177,-118.8542
156.497,-118.4937
156.2781,-118.1327
156.0579,-117.7718
155.8377,-117.4115
155.6187,-117.0502
155.3968,-116.6905
155.1779,-116.3295
154.9572,-115.9689
154.7637,-115.595
154.6032,-115.2036
154.4336,-114.8173
154.2767,-114.4241
154.1049,-114.039
153.8568,-113.6992
153.5915,-113.3691
153.3356,-113.0336
153.075,-112.701
152.8467,-112.346
152.6334,-111.9814
152.4142,-111.6203
152.2011,-111.2553
151.9741,-110.8995
151.7353,-110.5506
151.498,-110.2015
151.2565,-109.8545
151.0208,-109.504
150.7999,-109.1443
150.5866,-108.7792
150.3705,-108.4166
150.1549,-108.0531
149.9467,-107.6854
149.7406,-107.317
149.5367,-106.9465
149.3314,-106.5777
149.1144,-106.2151
148.8903,-105.857
148.6643,-105.5003
148.4399,-105.142
148.2142,-104.7853
147.9846,-104.4302
147.7588,-104.0734
147.5275,-103.7198
147.3037,-103.3614
147.1122,-102.9854
146.9247,-102.6064
146.736,-102.2284
146.5452,-101.8519
146.3035,-101.5078
146.0327,-101.1832
145.77,-100.8526
145.5001,-100.5273
145.2594,-100.1823
145.0582,-99.8105
144.8547,-99.4409
144.6567,-99.0668
144.4396,-98.7064
144.1704,-98.3815
143.8937,-98.0613
143.6225,-97.7382
143.3484,-97.4161
143.0959,-97.0782
142.8525,-96.7327
142.6069,-96.3888
142.3632,-96.0441
142.1001,-95.7135
141.8245,-95.3937
141.551,-95.0716
141.2746,-94.7519
141.0072,-94.4253
140.7476,-94.0916
140.4879,-93.7588
140.2301,-93.4238
139.9687,-93.0919
139.7038,-92.7631
139.4352,-92.4366
139.1692,-92.1088
138.9021,-91.7812
138.6088,-91.4784
138.2993,-91.1914
137.9884,-90.9047
137.6782,-90.6185
137.3883,-90.3121
137.118,-89.9875
136.851,-89.6603
136.5804,-89.3354
136.319,-89.0044
136.0755,-88.6586
135.8299,-88.3153
135.5893,-87.9676
135.3412,-87.6259
135.0488,-87.3224
134.7449,-87.0276
134.4494,-86.7265
134.1476,-86.4305
133.8478,-86.1327
133.5461,-85.8376
133.2435,-85.5419
132.9428,-85.2458
132.6408,-84.9501
132.3447,-84.6486
132.0487,-84.3477
131.7512,-84.047
131.4564,-83.7451
131.1719,-83.4329
130.8992,-83.1099
130.6227,-82.7911
130.3498,-82.4677
130.0697,-82.1526
129.762,-81.8629
129.4509,-81.5769
129.1432,-81.2879
128.8321,-81.0013
128.5198,-80.7177
128.2042,-80.4361
127.8911,-80.1526
127.5762,-79.8714
127.2634,-79.5867
126.9625,-79.2911
126.6624,-78.9929
126.3613,-78.6969
126.0615,-78.3994
125.7626,-78.1003
125.4653,-77.8009
125.1672,-77.5008
124.8692,-77.2017
124.5686,-76.905
124.266,-76.6096
123.9645,-76.3145
123.6623,-76.0184
123.3597,-75.7243
123.0528,-75.4338
122.7433,-75.1458
122.4372,-74.8553
122.1275,-74.5671
121.8039,-74.2969
121.4712,-74.0362
121.1396,-73.774
120.8081,-73.5131
120.4864,-73.2388
120.1793,-72.9495
119.8715,-72.6598
119.5636,-72.3702
119.2564,-72.0809
118.9466,-71.7926
118.6385,-71.5045
118.3292,-71.2162
118.0199,-70.9284
117.7091,-70.6429
117.3961,-70.3581
117.0861,-70.0721
116.773,-69.7878
116.4525,-69.5128
116.126,-69.2453
115.7999,-68.9756
115.4745,-68.7074
115.1423,-68.4455
114.8074,-68.1884
114.4711,-67.933
114.1356,-67.6753
113.7971,-67.424
113.4487,-67.1837
113.1019,-66.9432
112.7531,-66.7048
112.4074,-66.4613
112.081,-66.1946
111.757,-65.9219
111.4306,-65.6547
111.1065,-65.3835
110.7842,-65.1097
110.4661,-64.8331
110.1477,-64.5537
109.8281,-64.2789
109.4861,-64.0333
109.121,-63.8194
108.7609,-63.6005
108.3959,-63.3854
108.0382,-63.1629
107.7056,-62.902
107.3728,-62.6413
107.0424,-62.3791
106.7079,-62.1197
106.3469,-61.9027
105.9796,-61.6923
105.6165,-61.4767
105.2506,-61.2664
104.8878,-61.0482
104.5265,-60.8312
104.1646,-60.6117
103.8033,-60.3931
103.4426,-60.1742
103.087,-59.9443
102.7326,-59.7164
102.3768,-59.4868
102.022,-59.2582
101.6597,-59.0417
101.2932,-58.8298
100.9286,-58.6188
100.5616,-58.4072
100.2004,-58.1894
99.8466,-57.9588
99.4928,-57.7264
99.1403,-57.4959
98.7799,-57.2739
98.4058,-57.0794
98.0295,-56.8869
97.6547,-56.6908
97.2794,-56.4992
96.9073,-56.2964
96.5363,-56.0965
96.1646,-55.895
95.7929,-55.6932
95.4139,-55.5093
95.0308,-55.3279
94.6495,-55.1487
94.2667,-54.9686
93.8864,-54.7841
93.5075,-54.5996
93.1275,-54.4117
92.7491,-54.2269
92.3714,-54.0358
91.9958,-53.8424
91.62,-53.6513
91.2435,-53.4563
90.8683,-53.2656
90.4921,-53.071
90.1163,-52.8784
89.7411,-52.6858
89.3638,-52.4926
88.9804,-52.3192
88.5946,-52.1436
88.2107,-51.9688
87.8261,-51.7951
87.4494,-51.6007
87.0764,-51.4066
86.7006,-51.2097
86.3274,-51.0138
85.9457,-50.8336
85.5596,-50.6588
85.175,-50.4889
84.7879,-50.3146
84.4024,-50.1453
84.0129,-49.981
83.6247,-49.8118
83.2363,-49.6503
82.8472,-49.4801
82.4698,-49.2947
82.092,-49.104
81.7137,-48.9141
81.3371,-48.7272
80.9566,-48.5376
80.5779,-48.3556
80.1974,-48.1694
79.8169,-47.9846
79.4387,-47.8011
79.0717,-47.5857
78.711,-47.3717
78.3437,-47.1591
77.9825,-46.94
77.6018,-46.7606
77.2253,-46.5656
76.9041,-46.2984
76.5848,-46.0167
76.2524,-45.7568
75.9213,-45.4986
75.5912,-45.2281
75.3305,-44.9046
75.1646,-44.5112
75.0018,-44.1275
74.7829,-43.7652
74.6271,-43.3748
74.5947,-42.96
74.5744,-42.5326
74.5589,-42.114
74.575,-41.6917
74.5958,-41.2665
74.6168,-40.8503
74.6368,-40.422
74.689,-40.0078
74.7591,-39.5905
74.8238,-39.1692
74.897,-38.7606
74.9736,-38.3366
75.0725,-37.9327
75.167,-37.5187
75.2592,-37.1021
75.3779,-36.7077
75.5073,-36.2918
75.6811,-35.9202
75.8758,-35.5396
76.0781,-35.1643
76.2198,-34.7929
76.2552,-34.3335
76.4681,-34.1772
76.8421,-34.2229
77.1355,-33.9693
77.4883,-33.7298
77.8963,-33.6
78.266,-33.4004
78.6781,-33.2902
79.0844,-33.1764
79.4554,-32.9839
79.8099,-32.7604
80.1453,-32.4979
80.4947,-32.2629
80.8337,-32.0104
81.123,-31.7068
81.3778,-31.376
81.6151,-31.02
81.8007,-30.6502
81.9397,-30.2482
82.071,-29.8456
82.185,-29.4436
82.3006,-29.031
82.401,-28.6268
82.464,-28.206
82.5315,-27.7887
82.5947,-27.3741
82.6706,-26.9545
82.7886,-26.5532
82.9151,-26.1476
83.0296,-25.7405
83.1622,-25.3426
83.3584,-24.966
83.5722,-24.604
83.7711,-24.2296
83.9794,-23.8621
84.1694,-23.4863
84.3548,-23.1039
84.5508,-22.7325
84.7288,-22.3474
84.8954,-21.9599
85.0488,-21.5674
85.1611,-21.1604
85.2308,-20.747
85.2993,-20.3268
85.3662,-19.9119
85.4176,-19.4923
85.4441,-19.0709
85.4146,-18.6525
85.3859,-18.2272
85.3357,-17.8132
85.2096,-17.4075
85.0905,-17.0028
84.9638,-16.6009
84.8445,-16.1933
84.7981,-15.777
84.7612,-15.3539
84.7127,-14.935
84.6683,-14.5156
84.6699,-14.095
84.7342,-13.6793
84.8194,-13.2649
84.9365,-12.8597
85.0546,-12.4543
85.1715,-12.0474
85.2997,-11.646
85.4344,-11.2449
85.594,-10.8541
85.6326,-10.4578
85.5268,-10.0475
85.4233,-9.6394
85.3046,-9.2332
85.1681,-8.8334
85.0309,-8.4352
84.8925,-8.0335
84.7572,-7.6364
84.5869,-7.2467
84.4203,-6.8606
84.2495,-6.4736
84.0811,-6.085
83.9905,-5.6775
83.9271,-5.2576
83.8665,-4.8411
83.8035,-4.4228
83.6955,-4.0159
83.5561,-3.6186
83.409,-3.2209
83.2741,-2.8211
83.0621,-2.4765
82.7151,-2.2423
82.3502,-2.0244
82.001,-1.7873
81.6401,-1.5692
81.2792,-1.3473
80.9087,-1.1466
80.5359,-0.94762
80.1682,-0.73597
79.791,-0.55429
79.3924,-0.40672
78.988,-0.29416
78.5883,-0.14636
78.1847,-0.030191
