88.1767,-333.5201
88.5224,-333.3137
88.8671,-333.1048
89.2146,-332.9007
89.571,-332.7142
89.9356,-332.5413
90.2967,-332.3632
90.6491,-332.169
90.9939,-331.96
91.3369,-331.749
91.6813,-331.5397
92.0158,-331.3152
92.3437,-331.0814
92.6748,-330.8512
93.0031,-330.618
93.3348,-330.3893
93.6703,-330.1656
94.0014,-329.9366
94.3369,-329.7129
94.6726,-329.4902
95.0069,-329.2659
95.3496,-329.0521
95.6799,-328.8231
95.9811,-328.557
96.269,-328.2743
96.5599,-327.9957
96.8612,-327.7289
97.1779,-327.4808
97.5088,-327.2491
97.8267,-327.0025
98.1108,-326.72
98.3756,-326.4168
98.6347,-326.1069
98.9162,-325.8222
99.2416,-325.5864
99.578,-325.3627
99.9063,-325.1301
100.2292,-324.8893
100.5411,-324.634
100.8535,-324.3799
101.1663,-324.1256
101.474,-323.8655
101.7834,-323.6076
102.0885,-323.3439
102.4062,-323.098
102.7518,-322.8917
103.1039,-322.6949
103.4512,-322.491
103.7884,-322.2718
104.1114,-322.031
104.4323,-321.787
104.7556,-321.5469
105.0795,-321.3069
105.4042,-321.0685
105.7311,-320.8329
106.0546,-320.5926
106.3645,-320.3357
106.67,-320.0726
106.9778,-319.8126
107.2859,-319.5531
107.5992,-319.2995
107.9129,-319.0468
108.2252,-318.7922
108.529,-318.5279
108.8183,-318.2475
109.112,-317.9715
109.4022,-317.6922
109.6783,-317.3985
109.9539,-317.1055
110.2211,-316.8023
110.5058,-316.52
110.8405,-316.2983
111.1889,-316.093
111.5275,-315.8759
111.8561,-315.6446
112.1636,-315.3843
112.4656,-315.1173
112.7741,-314.8584
113.0818,-314.5979
113.3916,-314.3407
113.7055,-314.0876
114.0122,-313.8264
114.3017,-313.547
114.5844,-313.2593
114.8702,-312.9754
115.1594,-312.6952
115.4594,-312.426
115.7638,-312.1621
116.0642,-311.8935
116.362,-311.6222
116.6519,-311.3426
116.9417,-311.0623
117.2323,-310.7834
117.5141,-310.4953
117.7955,-310.207
118.0739,-309.9157
118.3585,-309.6307
118.6688,-309.3742
118.9851,-309.1241
119.2962,-308.8682
119.6033,-308.6079
119.8951,-308.3299
120.1849,-308.0499
120.4781,-307.7737
120.7639,-307.4894
121.0491,-307.205
121.3339,-306.9199
121.6176,-306.6336
121.905,-306.3516
122.1917,-306.0681
122.4784,-305.7851
122.7665,-305.5034
123.0545,-305.2215
123.3444,-304.942
123.6336,-304.6611
123.9204,-304.3781
124.2041,-304.0922
124.4865,-303.8045
124.7693,-303.5178
125.0439,-303.2229
125.3118,-302.9218
125.5824,-302.6235
125.8506,-302.3225
126.1147,-302.0184
126.3785,-301.7139
126.6413,-301.4082
126.9068,-301.1054
127.1761,-300.8054
127.445,-300.5055
127.7151,-300.2066
127.9904,-299.9123
128.2711,-299.6234
128.5522,-299.3345
128.8319,-299.0445
129.1107,-298.7538
129.3875,-298.4607
129.6653,-298.1691
129.9408,-297.875
130.208,-297.5733
130.4752,-297.272
130.7429,-296.9706
131.0028,-296.6629
131.2595,-296.3523
131.5148,-296.0404
131.7709,-295.7296
132.0347,-295.4248
132.2999,-295.1215
132.5642,-294.8175
132.8311,-294.5154
133.0986,-294.2144
133.3698,-293.9162
133.6382,-293.6156
133.8925,-293.3038
134.1366,-292.983
134.3763,-292.6591
134.6213,-292.3394
134.8794,-292.0301
135.1441,-291.7266
135.4113,-291.4246
135.6713,-291.1171
135.9124,-290.7947
136.1461,-290.4659
136.3847,-290.1416
136.6268,-289.8195
136.8739,-289.5011
137.1247,-289.186
137.372,-288.8676
137.6162,-288.5472
137.8599,-288.2264
138.1002,-287.9027
138.3453,-287.5833
138.6024,-287.2728
138.8622,-286.9649
139.1214,-286.6565
139.3708,-286.3403
139.6004,-286.0095
139.827,-285.6761
140.0566,-285.345
140.2847,-285.013
140.5169,-284.6835
140.7465,-284.3525
140.9784,-284.023
141.223,-283.7027
141.4704,-283.3851
141.7211,-283.0692
141.9641,-282.7482
142.1837,-282.4107
142.3967,-282.0682
142.6141,-281.7293
142.8423,-281.3977
143.0894,-281.0795
143.342,-280.7655
143.588,-280.4464
143.8182,-280.1165
144.0322,-279.775
144.2467,-279.4338
144.463,-279.0941
144.6772,-278.7525
144.8935,-278.4127
145.1095,-278.0726
145.3234,-277.731
145.5331,-277.3872
145.7396,-277.041
145.9485,-276.6964
146.1606,-276.354
146.3779,-276.0145
146.597,-275.6766
146.8139,-275.3369
147.0286,-274.9958
147.239,-274.6525
147.4514,-274.3097
147.6619,-273.9664
147.8611,-273.6162
148.0577,-273.2643
148.2546,-272.913
148.4562,-272.5641
148.6727,-272.2244
148.8928,-271.8869
149.1092,-271.5468
149.3205,-271.2041
149.5219,-270.855
149.7233,-270.5059
149.9258,-270.1577
150.1218,-269.8055
150.3168,-269.4531
150.513,-269.1011
150.7065,-268.7475
150.8955,-268.3919
151.0817,-268.0343
151.2695,-267.6779
151.4596,-267.3228
151.654,-266.9697
151.8507,-266.6182
152.0454,-266.2653
152.2415,-265.9133
152.438,-265.5617
152.6336,-265.2092
152.8303,-264.8577
153.0245,-264.5046
153.218,-264.151
153.4128,-263.7985
153.6052,-263.4443
153.7942,-263.0886
153.9815,-262.7319
154.1699,-262.3755
154.3535,-262.0171
154.5269,-261.6533
154.6995,-261.2892
154.8732,-260.9258
155.0437,-260.5605
155.2138,-260.1954
155.3834,-259.8298
155.5529,-259.4642
155.7236,-259.0994
155.8939,-258.734
156.0644,-258.369
156.236,-258.0045
156.4096,-257.6407
156.5845,-257.2779
156.7584,-256.9143
156.9343,-256.5518
157.1121,-256.1904
157.2897,-255.8285
157.467,-255.4668
157.6365,-255.1013
157.7999,-254.7329
157.9676,-254.3666
158.1291,-253.9974
158.2764,-253.6225
158.4205,-253.2462
158.5657,-252.8702
158.7208,-252.4988
158.894,-252.1349
159.071,-251.7729
159.2443,-251.4093
159.4149,-251.0441
159.5783,-250.676
159.7421,-250.3077
159.9062,-249.9397
160.0617,-249.5682
160.2153,-249.1955
160.3693,-248.8233
160.5228,-248.4507
160.6814,-248.0802
160.8398,-247.7099
160.9974,-247.3389
161.1588,-246.9697
161.3208,-246.6009
161.4861,-246.2332
161.6483,-245.8646
161.7927,-245.4887
161.9261,-245.1084
162.0594,-244.7283
162.1939,-244.3483
162.3314,-243.9697
162.4708,-243.5916
162.609,-243.213
162.7486,-242.8352
162.8909,-242.4581
163.0329,-242.0811
163.1748,-241.704
163.3145,-241.3259
163.45,-240.9466
163.5879,-240.5679
163.7233,-240.1884
163.8471,-239.8051
163.9676,-239.4205
164.0873,-239.0359
164.2101,-238.6521
164.3474,-238.2732
164.4885,-237.8959
164.626,-237.5171
164.7672,-237.1398
164.909,-236.7626
165.0515,-236.3856
165.1941,-236.0089
165.3279,-235.6288
165.4561,-235.2468
165.5835,-234.8646
165.7116,-234.4825
165.844,-234.1021
165.9773,-233.7218
166.1115,-233.3418
166.2436,-232.9613
166.3645,-232.5768
166.4822,-232.1915
166.6033,-231.8072
166.7172,-231.4206
166.8232,-231.0321
166.9276,-230.6428
167.0328,-230.2538
167.1468,-229.8675
167.2687,-229.4833
167.3909,-229.0995
167.5124,-228.7153
167.628,-228.3293
167.7397,-227.9422
167.8547,-227.5559
167.9649,-227.1685
168.066,-226.7784
168.1642,-226.3875
168.2632,-225.9971
168.3695,-225.6084
168.4856,-225.2227
168.607,-224.8384
168.7233,-224.4526
168.8213,-224.0623
168.9058,-223.6683
168.9879,-223.2737
169.0748,-222.8805
169.1752,-222.4902
169.2822,-222.1017
169.3864,-221.7125
169.4882,-221.3226
169.5828,-220.9311
169.6736,-220.5384
169.768,-220.1467
169.8632,-219.7552
169.9603,-219.3641
170.0605,-218.9739
170.1559,-218.5824
170.2376,-218.188
170.3102,-217.7917
170.3854,-217.3957
170.4599,-216.9999
170.5315,-216.6033
170.605,-216.2071
170.6766,-215.8107
170.7534,-215.415
170.8413,-215.0219
170.9291,-214.6286
171.0169,-214.2353
171.1059,-213.8424
171.1928,-213.4489
171.2834,-213.0562
171.3694,-212.6627
171.4389,-212.2658
171.5018,-211.8679
171.5667,-211.4702
171.6315,-211.0725
171.6962,-210.6749
171.7624,-210.2773
171.8275,-209.8798
171.8922,-209.482
171.9581,-209.0845
172.0212,-208.6866
172.0875,-208.2891
172.1658,-207.894
172.2506,-207.5001
172.3361,-207.1062
172.4185,-206.712
172.4931,-206.3159
172.5647,-205.9194
172.6383,-205.5234
172.71,-205.1267
172.7777,-204.7296
172.8467,-204.3326
172.9144,-203.9353
172.9676,-203.5363
173.0083,-203.1353
173.0473,-202.7343
173.089,-202.3336
173.1393,-201.9338
173.1957,-201.5349
173.2494,-201.1355
173.3062,-200.7366
173.3695,-200.3388
173.4335,-199.9408
173.4971,-199.543
173.5563,-199.1445
173.6078,-198.7448
173.6595,-198.3453
173.7107,-197.9455
173.7497,-197.5447
173.7808,-197.143
173.8123,-196.7412
173.8439,-196.3396
173.8809,-195.9383
173.9206,-195.5373
173.9574,-195.1362
173.9988,-194.7352
174.0442,-194.335
174.0915,-193.9348
174.1387,-193.5345
174.1696,-193.1333
174.1835,-192.7306
174.1929,-192.3277
174.2065,-191.9251
174.2328,-191.5231
174.2673,-191.1218
174.3036,-190.7203
174.3362,-190.3188
174.3528,-189.9163
174.3634,-189.5134
174.3785,-189.1108
174.3883,-188.708
174.3935,-188.305
174.3977,-187.9023
174.4017,-187.4992
174.4096,-187.0964
174.419,-186.6936
174.4304,-186.2907
174.44,-185.8881
174.4409,-185.4851
174.4383,-185.0822
174.4344,-184.6793
174.4334,-184.2763
174.4409,-183.8736
174.451,-183.4707
174.4595,-183.0678
174.4595,-182.6652
174.4455,-182.2624
174.4294,-181.8598
174.4154,-181.4572
174.3955,-181.0546
174.3722,-180.6525
174.3518,-180.2499
174.3269,-179.8478
174.2875,-179.447
174.2427,-179.0464
174.2011,-178.6457
174.1587,-178.245
174.1185,-177.844
174.0794,-177.4431
174.0387,-177.0421
174.0045,-176.6407
173.9764,-176.2388
173.9494,-175.8367
173.9215,-175.4348
173.8885,-175.0332
173.8527,-174.6319
173.8166,-174.2306
173.7818,-173.8291
173.7528,-173.4273
173.7256,-173.0252
173.697,-172.6233
173.6626,-172.222
173.6165,-171.8216
173.5683,-171.4217
173.5225,-171.0213
173.4718,-170.6215
173.4191,-170.2222
173.3676,-169.8224
173.3136,-169.4232
173.2548,-169.0246
173.1925,-168.6264
173.1311,-168.2283
173.0723,-167.8296
173.0173,-167.4305
172.9651,-167.031
172.9107,-166.6317
172.8531,-166.233
172.7923,-165.8346
172.7293,-165.4366
172.6689,-165.0383
172.611,-164.6395
172.5541,-164.2407
172.4987,-163.8415
172.4372,-163.4433
172.3644,-163.0472
172.2884,-162.6514
172.2144,-162.2553
172.1407,-161.8592
172.0679,-161.4628
171.9959,-161.0665
171.9231,-160.6701
171.851,-160.2737
171.7792,-159.8773
171.7072,-159.4807
171.6349,-159.0844
171.5571,-158.689
171.4762,-158.2942
171.3989,-157.8989
171.3122,-157.5054
171.2081,-157.1163
171.1004,-156.728
170.9953,-156.339
170.8931,-155.9493
170.7965,-155.5581
170.7001,-155.1668
170.6031,-154.7759
170.5091,-154.3839
170.4154,-153.9921
170.3219,-153.6002
170.2284,-153.2082
170.1322,-152.817
170.0358,-152.4257
169.9399,-152.0343
169.8399,-151.6441
169.7345,-151.2551
169.6276,-150.8667
169.5222,-150.4777
169.4194,-150.0881
169.3198,-149.6978
169.2208,-149.3071
169.1203,-148.917
169.0168,-148.5276
168.9105,-148.1388
168.806,-147.7498
168.6974,-147.3617
168.5782,-146.9769
168.4589,-146.5921
168.3398,-146.207
168.2132,-145.8247
168.0829,-145.4433
167.9494,-145.0631
167.8199,-144.6817
167.7097,-144.2943
167.6099,-143.9039
167.5081,-143.5141
167.4067,-143.124
167.302,-142.7351
167.1959,-142.3462
167.0913,-141.9572
166.9694,-141.5736
166.8274,-141.1964
166.685,-140.8196
166.5434,-140.4423
166.4021,-140.065
166.265,-139.6862
166.1231,-139.3088
165.9872,-138.9297
165.8707,-138.544
165.7591,-138.1568
165.6448,-137.7705
165.5191,-137.388
165.3719,-137.0131
165.2204,-136.6396
165.0736,-136.2643
164.9312,-135.8876
164.7977,-135.5073
164.6645,-135.127
164.5291,-134.7476
164.3919,-134.3686
164.2505,-133.9915
164.1116,-133.6132
163.969,-133.2363
163.8176,-132.863
163.6665,-132.4893
163.5151,-132.116
163.3619,-131.7433
163.2071,-131.3713
163.0523,-130.9994
162.8969,-130.6275
162.7282,-130.2618
162.5515,-129.8997
162.3772,-129.5363
162.2014,-129.1738
162.0321,-128.8081
161.8656,-128.4412
161.6941,-128.0766
161.5329,-127.7074
161.3833,-127.3334
161.2381,-126.9575
161.0912,-126.5822
160.9287,-126.214
160.7526,-125.8515
160.5735,-125.4906
160.3964,-125.1288
160.2203,-124.7662
160.0425,-124.4048
159.8685,-124.0412
159.688,-123.6811
159.4906,-123.3299
159.2905,-122.9801
159.0918,-122.6296
158.9005,-122.2752
158.724,-121.913
158.5484,-121.5504
158.3714,-121.1883
158.1928,-120.8272
158.0089,-120.4687
157.8293,-120.1078
157.6448,-119.7498
157.445,-119.3999
157.2411,-119.0523
157.0385,-118.7041
156.8394,-118.3538
156.6475,-117.9996
156.4585,-117.6437
156.2674,-117.2889
156.0764,-116.9342
155.8872,-116.5784
155.6945,-116.2246
155.5056,-115.8686
155.3275,-115.5072
155.1517,-115.1448
154.9774,-114.7813
154.7886,-114.4262
154.5708,-114.0874
154.3481,-113.7513
154.1298,-113.4129
153.9143,-113.0723
153.7087,-112.7258
153.5012,-112.3805
153.2946,-112.0344
153.0976,-111.6831
152.9013,-111.3313
152.7091,-110.9769
152.5101,-110.6268
152.2871,-110.2913
152.0579,-109.9598
151.8332,-109.6254
151.6065,-109.2922
151.3801,-108.959
151.1553,-108.6246
150.9287,-108.2914
150.6994,-107.9601
150.4673,-107.6307
150.233,-107.3029
150.0013,-106.9733
149.774,-106.6406
149.549,-106.3064
149.3266,-105.9703
149.1005,-105.6369
148.8678,-105.3079
148.6338,-104.9799
148.3976,-104.6534
148.1724,-104.3196
147.9674,-103.973
147.7678,-103.6228
147.5658,-103.2741
147.3438,-102.9397
147.0879,-102.6288
146.8236,-102.324
146.5681,-102.013
146.3231,-101.6933
146.0901,-101.3646
145.8575,-101.0356
145.6218,-100.7087
145.3836,-100.3838
145.1412,-100.0619
144.9011,-99.7383
144.6592,-99.4161
144.4133,-99.0968
144.1682,-98.7771
143.9227,-98.4575
143.6837,-98.1332
143.4517,-97.8039
143.2198,-97.4743
142.9867,-97.1457
142.744,-96.8242
142.4948,-96.5074
142.2492,-96.1881
142.0003,-95.8712
141.7469,-95.5579
141.4929,-95.2452
141.2384,-94.9327
140.9864,-94.6183
140.7355,-94.3031
140.4859,-93.9867
140.2351,-93.6714
139.9727,-93.3659
139.7025,-93.067
139.4325,-92.7679
139.163,-92.4683
138.8986,-92.1644
138.6365,-91.8582
138.372,-91.5542
138.115,-91.2441
137.8678,-90.9259
137.6216,-90.607
137.3746,-90.2886
137.1211,-89.9754
136.8608,-89.668
136.6047,-89.3566
136.343,-89.0506
136.0602,-88.7639
135.7696,-88.4845
135.4825,-88.202
135.1976,-87.9171
134.9194,-87.6257
134.6445,-87.3311
134.3663,-87.0395
134.0891,-86.7471
133.8115,-86.455
133.5319,-86.165
133.2547,-85.8725
132.9769,-85.5806
132.6984,-85.2895
132.4235,-84.9947
132.1426,-84.706
131.8492,-84.4301
131.5513,-84.1585
131.2549,-83.8856
130.9677,-83.6036
130.6963,-83.306
130.4308,-83.0026
130.16,-82.7044
129.8778,-82.4174
129.5833,-82.1424
129.2877,-81.8685
128.9941,-81.5926
128.6968,-81.3206
128.3993,-81.0489
128.1029,-80.7759
127.8038,-80.5059
127.5021,-80.2389
127.1989,-79.9735
126.8961,-79.7076
126.5978,-79.4369
126.3042,-79.1609
126.0118,-78.8837
125.7185,-78.6074
125.4247,-78.3316
125.1298,-78.0571
124.8357,-77.7816
124.5403,-77.5077
124.2373,-77.2421
123.9311,-76.9802
123.6259,-76.7171
123.3217,-76.4529
123.0223,-76.1833
122.7247,-75.9116
122.4251,-75.6421
122.1239,-75.3746
121.8184,-75.1118
121.513,-74.849
121.208,-74.5857
120.8968,-74.3298
120.5839,-74.076
120.2717,-73.8212
119.9583,-73.5679
119.6469,-73.3122
119.3348,-73.0574
119.0224,-72.8029
118.7166,-72.5407
118.4164,-72.272
118.1195,-71.9995
117.8191,-71.731
117.5037,-71.4811
117.1771,-71.2451
116.8524,-71.0064
116.5263,-70.77
116.1908,-70.5467
115.8538,-70.3259
115.5185,-70.1025
115.1789,-69.8855
114.8368,-69.6729
114.4928,-69.4629
114.1502,-69.2509
113.8176,-69.024
113.4917,-68.787
113.1672,-68.5482
112.8405,-68.3124
112.5039,-68.0912
112.1619,-67.8781
111.8214,-67.6626
111.4808,-67.4474
111.1422,-67.2289
110.8051,-67.0082
110.4664,-66.79
110.1273,-66.5724
109.7858,-66.3586
109.4432,-66.1465
109.1022,-65.9316
108.763,-65.7144
108.4265,-65.4926
108.0905,-65.2703
107.7528,-65.0506
107.4124,-64.8348
107.0693,-64.6238
106.7279,-64.4096
106.3827,-64.2021
106.0276,-64.0118
105.6725,-63.8211
105.318,-63.6299
104.9607,-63.4433
104.6049,-63.2544
104.2459,-63.0713
103.8897,-62.8829
103.5474,-62.6714
103.211,-62.4499
102.8774,-62.2233
102.5393,-62.0048
102.1845,-61.8144
101.8241,-61.6336
101.4666,-61.4482
101.1105,-61.2596
100.7611,-61.0592
100.4137,-60.8548
100.064,-60.6546
99.7127,-60.4577
99.3564,-60.2692
99.0009,-60.0796
98.6447,-59.8915
98.2781,-59.7242
97.9083,-59.5645
97.5405,-59.3999
97.1698,-59.2419
96.7969,-59.0896
96.423,-58.9391
96.0493,-58.7885
95.6796,-58.6286
95.3132,-58.4607
94.947,-58.293
94.581,-58.1242
94.2168,-57.952
93.8536,-57.7775
93.4906,-57.6024
93.1268,-57.4296
92.7604,-57.2617
92.3927,-57.0969
92.0258,-56.9305
91.6617,-56.7578
91.3025,-56.5759
90.945,-56.3894
90.5855,-56.2075
90.2211,-56.0366
89.8514,-55.8759
89.4812,-55.7169
89.1124,-55.5549
88.7445,-55.3901
88.3785,-55.222
88.012,-55.0542
87.6452,-54.8876
87.2792,-54.7193
86.9123,-54.5522
86.5459,-54.3851
86.1802,-54.2156
85.8152,-54.0448
85.4513,-53.8723
85.0866,-53.7005
84.722,-53.5292
84.3581,-53.3563
83.993,-53.1853
83.6292,-53.0128
83.2683,-52.8332
82.9082,-52.6525
82.5477,-52.4729
82.1919,-52.2836
81.8475,-52.0753
81.5056,-51.8617
81.1605,-51.6533
80.83,-51.4248
80.5158,-51.1719
80.199,-50.9229
79.8894,-50.6663
79.6235,-50.3667
79.4264,-50.0193
79.2898,-49.6417
79.168,-49.257
79.0356,-48.8762
78.908,-48.4944
78.7813,-48.1117
78.6497,-47.7307
78.5242,-47.3482
78.3945,-46.9663
78.2647,-46.5849
78.1404,-46.2021
78.0057,-45.8213
77.9031,-45.4345
77.8661,-45.0337
77.8395,-44.6311
77.8076,-44.23
77.8223,-43.8276
77.9063,-43.4368
78.0359,-43.0569
78.1789,-42.6787
78.3378,-42.3097
78.5081,-41.9441
78.6696,-41.5743
78.8613,-41.2234
79.1026,-40.8998
79.347,-40.5801
79.5877,-40.2572
79.8244,-39.9302
80.0449,-39.5944
80.2764,-39.2628
80.4948,-38.9256
80.6521,-38.5566
80.7874,-38.1756
80.9334,-37.8013
81.0692,-37.4213
81.1958,-37.0387
81.3229,-36.6571
81.4478,-36.2729
81.57,-35.8898
81.6887,-35.5046
81.8029,-35.1175
81.9255,-34.735
82.0843,-34.3651
82.2711,-34.0082
82.4473,-33.646
82.6314,-33.2871
82.8482,-32.9481
83.068,-32.6103
83.2853,-32.2707
83.508,-31.9352
83.7289,-31.5982
83.9624,-31.2691
84.1803,-30.9314
84.3345,-30.5607
84.4655,-30.1794
84.6062,-29.8018
84.7204,-29.416
84.8111,-29.0235
84.9058,-28.6316
84.996,-28.2392
85.0803,-27.845
85.1641,-27.4509
85.244,-27.0562
85.333,-26.6628
85.4354,-26.2736
85.542,-25.885
85.6476,-25.4957
85.7263,-25.1024
85.7716,-24.7017
85.8121,-24.3008
85.8497,-23.9
85.8853,-23.4979
85.9196,-23.0972
85.9342,-22.6944
85.9391,-22.2915
85.9415,-21.8888
85.9601,-21.4866
86.0345,-21.092
86.122,-20.6973
86.1973,-20.3024
86.3226,-19.9219
86.5037,-19.5625
86.73,-19.2304
86.97,-18.9045
87.0949,-18.541
87.0967,-18.1414
87.1393,-17.7456
87.2833,-17.3697
87.4299,-16.9941
87.4875,-16.6037
87.466,-16.2039
87.4323,-15.8006
87.4071,-15.3988
87.3598,-14.9996
87.3008,-14.5996
87.2832,-14.1994
87.2946,-13.7974
87.2657,-13.3976
87.1804,-13.0051
87.0705,-12.6165
86.957,-12.2305
86.8288,-11.8491
86.6651,-11.4804
86.4881,-11.1193
86.3207,-10.752
86.1481,-10.3879
85.9731,-10.0259
85.8021,-9.6595
85.6267,-9.2981
85.4551,-8.9331
85.2877,-8.5658
85.1125,-8.2045
84.9487,-7.8348
84.8198,-7.4548
84.705,-7.0688
84.5885,-6.6811
84.4648,-6.3005
84.2917,-5.936
84.0924,-5.5848
83.9181,-5.2233
83.6942,-4.8882
83.427,-4.591
83.2485,-4.2356
83.1002,-3.857
82.8584,-3.5487
82.5709,-3.2621
82.2862,-2.979
81.9932,-2.7035
81.711,-2.4118
81.4636,-2.1024
81.2455,-1.7546
80.9906,-1.4491
80.6459,-1.2566
80.2726,-1.0846
79.9185,-0.9032
79.5583,-0.72108
79.2017,-0.52555
78.8555,-0.3332
78.4985,-0.13077
78.1316,-0.01731
