93.604,-57.9671
93.3076,-57.8168
93.0103,-57.6671
92.712,-57.5176
92.4128,-57.3684
92.113,-57.2191
91.8124,-57.0698
91.5113,-56.9203
91.2097,-56.7704
90.9078,-56.6199
90.6058,-56.469
90.3036,-56.3173
90.0015,-56.1648
89.6996,-56.0116
89.398,-55.8574
89.0969,-55.7024
88.7963,-55.5464
88.4964,-55.3896
88.1973,-55.2319
87.899,-55.0733
87.6016,-54.914
87.3052,-54.754
87.0099,-54.5935
86.7155,-54.4324
86.4223,-54.271
86.1301,-54.1093
85.8389,-53.9475
85.5487,-53.7857
85.2593,-53.6241
84.9709,-53.4628
84.6831,-53.3019
84.396,-53.1415
84.1093,-52.9818
83.8231,-52.8228
83.5371,-52.6646
83.2511,-52.5073
82.9651,-52.3509
82.6789,-52.1954
82.3924,-52.0408
82.1054,-51.8871
81.8178,-51.7341
81.5295,-51.5819
81.2404,-51.4302
80.9505,-51.2788
80.6596,-51.1277
80.3679,-50.9764
80.0753,-50.8249
79.7818,-50.6729
79.4875,-50.5199
79.1927,-50.3657
78.8973,-50.2099
78.6017,-50.0523
78.3061,-49.8923
78.0107,-49.7296
77.7159,-49.5639
77.4222,-49.3947
77.1298,-49.2217
76.8393,-49.0444
76.5511,-48.8626
76.2658,-48.6759
75.984,-48.4839
75.7062,-48.2863
75.433,-48.083
75.1652,-47.8736
74.9033,-47.658
74.648,-47.4361
74.4001,-47.2077
74.1601,-46.9727
73.9288,-46.7312
73.7068,-46.4832
73.4948,-46.2287
73.2935,-45.968
73.1033,-45.7011
72.925,-45.4283
72.7591,-45.15
72.606,-44.8663
72.4663,-44.5777
72.3403,-44.2846
72.2284,-43.9873
72.131,-43.6864
72.0482,-43.3823
71.9802,-43.0755
71.9272,-42.7666
71.8893,-42.456
71.8664,-42.1443
71.8585,-41.832
71.8654,-41.5197
71.8869,-41.2078
71.9228,-40.8968
71.9728,-40.5872
72.0365,-40.2794
72.1135,-39.9738
72.2033,-39.6708
72.3053,-39.3707
72.4191,-39.0738
72.544,-38.7802
72.6794,-38.4903
72.8246,-38.2041
72.979,-37.9217
73.1418,-37.6432
73.3124,-37.3685
73.4901,-37.0975
73.674,-36.8302
73.8636,-36.5663
74.058,-36.3057
74.2567,-36.0481
74.4589,-35.7933
74.664,-35.5409
74.8714,-35.2906
75.0804,-35.0419
75.2905,-34.7946
75.5011,-34.5483
75.7118,-34.3024
75.9221,-34.0567
76.1315,-33.8107
76.3396,-33.564
76.5461,-33.3163
76.7507,-33.0671
76.9531,-32.8161
77.153,-32.563
77.3502,-32.3075
77.5446,-32.0494
77.736,-31.7884
77.9242,-31.5243
78.1091,-31.257
78.2908,-30.9864
78.4691,-30.7123
78.6439,-30.4348
78.8154,-30.1539
78.9834,-29.8695
79.1481,-29.5819
79.3093,-29.291
79.4672,-28.9971
79.6217,-28.7002
79.7729,-28.4007
79.9208,-28.0986
80.0655,-27.7943
80.2071,-27.488
80.3454,-27.1798
80.4806,-26.8702
80.6127,-26.5593
80.7418,-26.2474
80.8678,-25.9348
80.9909,-25.6216
81.1109,-25.3081
81.228,-24.9945
81.3422,-24.681
81.4536,-24.3678
81.562,-24.055
81.6677,-23.7426
81.7706,-23.4309
81.8707,-23.1199
81.9682,-22.8096
82.0631,-22.4999
82.1555,-22.1911
82.2454,-21.8829
82.3329,-21.5753
82.4181,-21.2683
82.5012,-20.9618
82.5822,-20.6557
82.6613,-20.3498
82.7386,-20.0441
82.8142,-19.7384
82.8882,-19.4327
82.9609,-19.1267
83.0322,-18.8205
83.1025,-18.5138
83.1717,-18.2066
83.2401,-17.8988
83.3077,-17.5904
83.3747,-17.2813
83.4412,-16.9715
83.5072,-16.661
83.5729,-16.3499
83.6381,-16.0381
83.7031,-15.7257
83.7678,-15.413
83.8321,-15.0998
83.896,-14.7865
83.9594,-14.4731
84.0222,-14.1599
84.0843,-13.8469
84.1454,-13.5345
84.2054,-13.2227
84.264,-12.9118
84.3209,-12.6021
84.3759,-12.2937
84.4286,-11.9867
84.4787,-11.6815
84.5258,-11.3781
84.5694,-11.0767
84.6092,-10.7775
84.6447,-10.4805
84.6755,-10.186
84.7012,-9.8938
84.7212,-9.6041
84.7352,-9.3168
84.7427,-9.032
84.7432,-8.7496
84.7363,-8.4695
84.7217,-8.1916
84.6989,-7.9157
84.6676,-7.6418
84.6275,-7.3697
84.5782,-7.099
84.5196,-6.8298
84.4514,-6.5617
84.3733,-6.2945
84.2855,-6.0281
84.1876,-5.7621
84.0797,-5.4966
83.9619,-5.2311
83.8341,-4.9657
83.6966,-4.7002
83.5495,-4.4345
83.3929,-4.1686
83.2272,-3.9025
83.0527,-3.6362
82.8698,-3.3698
82.6787,-3.1035
82.48,-2.8375
82.2741,-2.5721
82.0615,-2.3076
81.8428,-2.0445
81.6184,-1.7831
81.389,-1.5241
81.1551,-1.2679
80.9172,-1.0154
80.6761,-0.76704
80.4322,-0.5237
80.1862,-0.28615
79.9385,-0.055204
79.6899,0.16827
79.4408,0.38338
79.1917,0.58922
78.9432,0.78489
78.6958,0.96947
78.4498,1.142
78.2057,1.3017
77.964,1.4476
77.7248,1.5789
77.4886,1.6947
77.2557,1.7944
77.0263,1.8773
76.8005,1.9426
76.5786,1.9899
76.3607,2.0187
76.147,2.0285
-46.7312,-34.3024