96.0372,-58.5128
95.7439,-58.3512
95.4501,-58.1902
95.1559,-58.0299
94.8613,-57.8701
94.5666,-57.7106
94.2718,-57.5513
93.9771,-57.3922
93.6824,-57.2332
93.3879,-57.074
93.0937,-56.9147
92.7999,-56.7551
92.5065,-56.5952
92.2137,-56.4349
91.9214,-56.2741
91.6298,-56.1128
91.3388,-55.951
91.0485,-55.7886
90.7589,-55.6258
90.47,-55.4624
90.1817,-55.2985
89.894,-55.1343
89.6069,-54.9697
89.3202,-54.805
89.034,-54.6401
88.748,-54.4752
88.4621,-54.3104
88.1763,-54.1459
87.8904,-53.9818
87.6043,-53.8183
87.3178,-53.6556
87.0307,-53.4937
86.743,-53.3329
86.4544,-53.1733
86.1648,-53.015
85.874,-52.8582
85.5819,-52.7029
85.2885,-52.5494
84.9935,-52.3976
84.6969,-52.2475
84.3987,-52.0993
84.0987,-51.953
83.797,-51.8084
83.4935,-51.6655
83.1882,-51.5243
82.8813,-51.3846
82.5729,-51.2462
82.263,-51.109
81.9518,-50.9727
81.6395,-50.837
81.3263,-50.7017
81.0126,-50.5665
80.6985,-50.431
80.3845,-50.2948
80.0709,-50.1575
79.758,-50.0188
79.4464,-49.8782
79.1365,-49.7353
78.8287,-49.5896
78.5236,-49.4407
78.2216,-49.2882
77.9234,-49.1316
77.6295,-48.9705
77.3404,-48.8045
77.0567,-48.6333
76.779,-48.4564
76.5079,-48.2735
76.244,-48.0844
75.9878,-47.8888
75.7399,-47.6864
75.5009,-47.4771
75.2712,-47.2608
75.0513,-47.0373
74.8419,-46.8067
74.6432,-46.5689
74.4558,-46.324
74.2801,-46.0721
74.1164,-45.8134
73.965,-45.5481
73.8263,-45.2763
73.7004,-44.9984
73.5877,-44.7148
73.4882,-44.4258
73.4021,-44.1317
73.3294,-43.8331
73.2703,-43.5303
73.2247,-43.2239
73.1925,-42.9142
73.1738,-42.6019
73.1682,-42.2874
73.1758,-41.9712
73.1962,-41.6538
73.2292,-41.3356
73.2746,-41.0173
73.3319,-40.6991
73.4009,-40.3816
73.4812,-40.0651
73.5723,-39.75
73.6739,-39.4367
73.7854,-39.1254
73.9063,-38.8164
74.0362,-38.51
74.1746,-38.2063
74.3208,-37.9054
74.4744,-37.6075
74.6347,-37.3127
74.8012,-37.0209
74.9734,-36.7321
75.1506,-36.4463
75.3323,-36.1634
75.5178,-35.8832
75.7066,-35.6056
75.8982,-35.3304
76.0919,-35.0574
76.2872,-34.7864
76.4837,-34.5171
76.6806,-34.2493
76.8776,-33.9828
77.0742,-33.7171
77.2698,-33.4521
77.4641,-33.1875
77.6565,-32.923
77.8468,-32.6583
78.0344,-32.3933
78.2192,-32.1276
78.4007,-31.8611
78.5786,-31.5935
78.7528,-31.3246
78.9229,-31.0544
79.0888,-30.7825
79.2502,-30.509
79.4072,-30.2337
79.5595,-29.9565
79.707,-29.6774
79.8498,-29.3963
79.9878,-29.1132
80.1211,-28.8281
80.2496,-28.541
80.3734,-28.2519
80.4927,-27.9609
80.6076,-27.6681
80.7181,-27.3734
80.8244,-27.077
80.9268,-26.7789
81.0253,-26.4792
81.1203,-26.1781
81.2119,-25.8755
81.3003,-25.5716
81.3858,-25.2664
81.4685,-24.9601
81.5488,-24.6527
81.6268,-24.3442
81.7027,-24.0349
81.7768,-23.7246
81.8492,-23.4136
81.9202,-23.1018
81.9899,-22.7893
82.0585,-22.4762
82.1261,-22.1624
82.1927,-21.8482
82.2586,-21.5334
82.3238,-21.2182
82.3882,-20.9026
82.4521,-20.5867
82.5152,-20.2704
82.5777,-19.954
82.6394,-19.6373
82.7003,-19.3205
82.7603,-19.0037
82.8193,-18.6868
82.877,-18.3701
82.9335,-18.0536
82.9883,-17.7372
83.0415,-17.4213
83.0927,-17.1057
83.1417,-16.7907
83.1883,-16.4763
83.2322,-16.1625
83.2732,-15.8496
83.311,-15.5374
83.3454,-15.2262
83.3761,-14.9159
83.4029,-14.6067
83.4254,-14.2985
83.4434,-13.9915
83.4568,-13.6855
83.4653,-13.3806
83.4686,-13.0768
83.4666,-12.774
83.459,-12.4721
83.4458,-12.1712
83.4266,-11.8711
83.4015,-11.5717
83.3703,-11.2728
83.3328,-10.9744
83.289,-10.6762
83.2388,-10.3781
83.1821,-10.08
83.119,-9.7816
83.0493,-9.4827
82.9731,-9.1833
82.8903,-8.883
82.801,-8.5818
82.7053,-8.2795
82.6031,-7.976
82.4945,-7.6711
82.3795,-7.3649
82.2583,-7.0572
82.1308,-6.748
81.9973,-6.4375
81.8577,-6.1256
81.7122,-5.8125
81.5608,-5.4984
81.4037,-5.1836
81.241,-4.8683
81.0728,-4.5529
80.8991,-4.2379
80.7203,-3.9237
80.5363,-3.6108
80.3473,-3.2999
80.1536,-2.9916
79.9551,-2.6867
79.7521,-2.3859
79.5448,-2.0901
79.3334,-1.8001
79.118,-1.5168
78.8989,-1.2412
78.6762,-0.97414
78.4503,-0.7167
78.2214,-0.46983
77.9897,-0.23453
77.7555,-0.011782
77.5191,0.19745
77.2809,0.39222
77.0411,0.57161
76.8001,0.73475
76.5583,0.88081
76.316,1.009
76.0736,1.1187
75.8314,1.2092
75.5899,1.2799
75.3495,1.3304
75.1106,1.3604
74.8736,1.3694
-47.4771,-33.9828