89.3578,-55.2774
88.6894,-54.8614
88.0326,-54.4261
87.3826,-53.9784
86.731,-53.5311
86.0717,-53.0942
85.4032,-52.6703
84.7294,-52.2539
84.0578,-51.8335
83.3951,-51.3989
82.7468,-50.9462
82.1118,-50.476
81.4873,-49.9906
80.8738,-49.493
80.2748,-48.9808
79.6949,-48.4477
79.1414,-47.8883
78.6192,-47.3006
78.1347,-46.6842
77.6972,-46.0391
77.3126,-45.3679
76.9877,-44.6741
76.7284,-43.9606
76.5383,-43.2279
76.4237,-42.478
76.3825,-41.7127
76.4087,-40.9371
76.4909,-40.1593
76.6199,-39.3878
76.8041,-38.6328
77.0577,-37.9037
77.3856,-37.2037
77.7697,-36.526
78.177,-35.8571
78.5753,-35.1843
78.937,-34.4972
79.244,-33.7874
79.4968,-33.0535
79.7177,-32.3029
79.9319,-31.5454
80.1595,-30.7895
80.4122,-30.0406
80.6884,-29.2996
80.9822,-28.5648
81.286,-27.8336
81.592,-27.1032
81.8946,-26.3712
82.1903,-25.6366
82.4768,-24.8987
82.7501,-24.1564
83.0021,-23.408
83.2232,-22.6516
83.4031,-21.8865
83.5322,-21.1131
83.6069,-20.3334
83.6318,-19.5491
83.624,-18.7621
83.6135,-17.9756
83.6329,-17.1946
83.7116,-16.4253
83.8626,-15.6713
84.0696,-14.9286
84.2873,-14.1867
84.4654,-13.4353
84.5708,-12.6721
84.5898,-11.9031
84.5141,-11.1374
84.3434,-10.3852
84.088,-9.6531
83.7651,-8.942
83.3972,-8.2471
83.0103,-7.5593
82.626,-6.8691
82.2577,-6.17
81.9051,-5.4637
81.5528,-4.7623
81.1723,-4.0878
80.7304,-3.4671
80.2076,-2.9183
79.6103,-2.4409
