91.0138,-56.3079
90.3173,-55.8935
89.6205,-55.4823
88.9261,-55.0735
88.2337,-54.6656
87.5436,-54.2532
86.8602,-53.8287
86.1849,-53.389
85.5147,-52.9386
84.8455,-52.4839
84.1765,-52.0268
83.5104,-51.5641
82.8536,-51.0928
82.2094,-50.6091
81.5785,-50.1099
80.9607,-49.5936
80.3578,-49.0588
79.7725,-48.5042
79.2059,-47.9298
78.657,-47.3377
78.1243,-46.7315
77.6125,-46.112
77.1467,-45.4729
76.7591,-44.7995
76.4738,-44.0833
76.2899,-43.3298
76.1845,-42.5519
76.1313,-41.7606
76.118,-40.9628
76.1461,-40.1624
76.2174,-39.3624
76.3321,-38.5673
76.494,-37.7845
76.7062,-37.02
76.9759,-36.2804
77.3084,-35.5674
77.6918,-34.8731
78.0982,-34.1835
78.501,-33.4871
78.8854,-32.7785
79.2446,-32.0564
79.5789,-31.3227
79.8925,-30.5801
80.1914,-29.8306
80.4832,-29.0781
80.7771,-28.3264
81.0744,-27.5757
81.3684,-26.8237
81.6547,-26.0685
81.9367,-25.3121
82.2226,-24.5582
82.5207,-23.8112
82.8261,-23.0696
83.1155,-22.3255
83.3593,-21.5707
83.5371,-20.8017
83.6415,-20.0193
83.6854,-19.2266
83.7042,-18.4286
83.7436,-17.6325
83.8413,-16.8467
84.0191,-16.0786
84.2644,-15.3275
84.5273,-14.5843
84.7403,-13.8372
84.8491,-13.079
84.8363,-12.3092
84.7236,-11.5321
84.5452,-10.7542
84.3205,-9.9833
84.0515,-9.2276
83.7412,-8.4923
83.401,-7.7729
83.059,-7.0558
82.7392,-6.3332
82.4361,-5.6137
82.1102,-4.9253
81.716,-4.2983
81.2351,-3.7397
80.6765,-3.2376
