91.4676,-56.3567
90.802,-55.8933
90.1347,-55.4326
89.4654,-54.975
88.7953,-54.5189
88.1257,-54.0627
87.4555,-53.608
86.7816,-53.1596
86.1034,-52.7181
85.4256,-52.2759
84.755,-51.8227
84.0965,-51.3518
83.4514,-50.8619
82.8206,-50.3539
82.2046,-49.8284
81.6033,-49.286
81.0162,-48.7281
80.4442,-48.1549
79.89,-47.5651
79.3595,-46.9557
78.8616,-46.3232
78.4053,-45.6653
78.0019,-44.9807
77.6574,-44.2711
77.3719,-43.5405
77.1485,-42.7917
76.9927,-42.0253
76.9047,-41.2424
76.8764,-40.4471
76.8988,-39.6469
76.9705,-38.8496
77.099,-38.0656
77.3016,-37.3054
77.5893,-36.5742
77.9489,-35.8678
78.3469,-35.173
78.7468,-34.4743
79.1258,-33.7621
79.4782,-33.0348
79.8105,-32.2963
80.1308,-31.5516
80.4449,-30.804
80.7587,-30.0562
81.0767,-29.3102
81.4011,-28.567
81.7303,-27.8258
82.0611,-27.0852
82.3904,-26.3439
82.7142,-25.6007
83.0253,-24.8536
83.3121,-24.099
83.5614,-23.3334
83.7644,-22.5549
83.9202,-21.7648
84.0305,-20.9665
84.0962,-20.163
84.1219,-19.3565
84.122,-18.549
84.1216,-17.7428
84.1521,-16.9411
84.2362,-16.1472
84.3771,-15.3626
84.5485,-14.5845
84.7049,-13.8069
84.8014,-13.0247
84.8097,-12.2385
84.7216,-11.4547
84.5447,-10.681
84.2975,-9.9216
84.0054,-9.1762
83.698,-8.4383
83.4032,-7.6981
83.1304,-6.9522
82.8572,-6.211
82.5404,-5.4956
82.1451,-4.8246
81.6649,-4.2034
81.1187,-3.6228
80.534,-3.0685
79.9289,-2.5328
