74.1111,-336.2375
74.4008,-335.9332
74.6929,-335.6317
74.981,-335.3256
75.2741,-335.0253
75.598,-334.7593
75.9352,-334.5086
76.269,-334.2539
76.6048,-334.0013
76.9401,-333.7484
77.2747,-333.4945
77.6105,-333.2422
77.9452,-332.9885
78.2805,-332.7355
78.6159,-332.4827
78.9506,-332.2289
79.2863,-331.9765
79.6211,-331.7228
79.9564,-331.4698
80.2918,-331.217
80.6264,-330.9631
80.9622,-330.7108
81.2969,-330.457
81.6323,-330.2041
81.9676,-329.9512
82.3023,-329.6974
82.6381,-329.4452
82.9727,-329.1912
83.3082,-328.9385
83.6435,-328.6855
83.9781,-328.4316
84.3141,-328.1795
84.6485,-327.9254
84.9841,-327.6728
85.3194,-327.4198
85.6537,-327.1656
85.9904,-326.9144
86.3236,-326.6588
86.6432,-326.3871
86.9498,-326.0998
87.2591,-325.8157
87.5673,-325.5304
87.8845,-325.2559
88.2257,-325.0106
88.5633,-324.7611
88.9048,-324.5161
89.2428,-324.2673
89.5431,-323.9741
89.8378,-323.6752
90.1323,-323.3753
90.428,-323.0774
90.7654,-322.8326
91.1278,-322.62
91.4892,-322.4062
91.8509,-322.1925
92.2128,-321.9794
92.5744,-321.7657
92.936,-321.552
93.2983,-321.3394
93.6588,-321.124
94.0203,-320.9097
94.3781,-320.6903
94.7401,-320.4765
95.0978,-320.2572
95.4083,-319.979
95.6959,-319.6725
95.9863,-319.3694
96.2743,-319.0633
96.5893,-318.7882
96.9262,-318.5372
97.2655,-318.2898
97.6023,-318.0385
97.9437,-317.7944
98.3075,-317.5846
98.6723,-317.3765
99.0374,-317.1686
99.4009,-316.9584
99.7304,-316.7002
100.0471,-316.4237
100.3683,-316.1536
100.685,-315.8772
100.9952,-315.5945
101.2983,-315.3037
101.6043,-315.0158
101.9083,-314.7261
102.2162,-314.4404
102.5406,-314.1738
102.8657,-313.9078
103.19,-313.6409
103.5154,-313.3753
103.832,-313.0994
104.1419,-312.816
104.4506,-312.5312
104.7604,-312.2475
105.0661,-311.9596
105.3649,-311.6643
105.663,-311.3685
105.9617,-311.0731
106.2738,-310.7934
106.6089,-310.5403
106.9444,-310.2873
107.279,-310.0337
107.613,-309.7789
107.9293,-309.5024
108.2476,-309.2287
108.564,-308.9521
108.8824,-308.6787
109.2335,-308.4477
109.5838,-308.2164
109.9362,-307.9873
110.2852,-307.7541
110.58,-307.4558
110.8691,-307.1502
111.1635,-306.8514
111.453,-306.5465
111.783,-306.2884
112.1221,-306.0411
112.4635,-305.7957
112.8035,-305.5497
113.0864,-305.244
113.3423,-304.9112
113.599,-304.5787
113.8543,-304.2449
114.1384,-303.9381
114.4469,-303.6527
114.7592,-303.3721
115.067,-303.0861
115.3796,-302.8056
115.7117,-302.5491
116.0495,-302.2991
116.3848,-302.0464
116.7212,-301.7948
117.0512,-301.5351
117.3748,-301.2674
117.7008,-301.0023
118.0243,-300.7347
118.3494,-300.4686
118.6855,-300.2164
119.0194,-299.9624
119.359,-299.714
119.6904,-299.4573
119.9699,-299.1455
120.2337,-298.8175
120.5082,-298.5005
120.7737,-298.1742
121.0585,-297.8669
121.3658,-297.5804
121.6727,-297.2938
121.9824,-297.01
122.2881,-296.7218
122.5861,-296.4262
122.8809,-296.1267
123.1763,-295.8283
123.4733,-295.5312
123.7787,-295.2432
124.0961,-294.968
124.4104,-294.6893
124.7259,-294.4123
125.0247,-294.1185
125.2942,-293.7958
125.5699,-293.4797
125.8387,-293.1559
126.1236,-292.8501
126.4614,-292.6002
126.7986,-292.3506
127.1409,-292.1055
127.4691,-291.8468
127.7195,-291.5115
127.9557,-291.1618
128.2057,-290.8262
128.4439,-290.4788
128.7008,-290.1475
128.9725,-289.8273
129.2457,-289.5079
129.5196,-289.19
129.7921,-288.8698
130.0778,-288.5623
130.3663,-288.257
130.6522,-287.9491
130.9422,-287.6455
131.2325,-287.3417
131.528,-287.0434
131.8219,-286.7432
132.1144,-286.4418
132.402,-286.136
132.679,-285.8197
132.9638,-285.5115
133.2418,-285.1961
133.5315,-284.8935
133.8617,-284.6329
134.1862,-284.368
134.5215,-284.1121
134.8393,-283.8412
135.0606,-283.4866
135.2648,-283.1171
135.4841,-282.7606
135.6919,-282.3943
135.9407,-282.0584
136.2163,-281.7414
136.4911,-281.4239
136.7687,-281.1084
137.0467,-280.794
137.3376,-280.4907
137.6286,-280.1879
137.9175,-279.8831
138.2097,-279.5812
138.5059,-279.2836
138.8038,-278.9877
139.1034,-278.6924
139.3968,-278.3934
139.6014,-278.037
139.7401,-277.638
139.8979,-277.2513
140.035,-276.8514
140.2099,-276.4749
140.4828,-276.1578
140.7698,-275.8492
141.0474,-275.5351
141.3298,-275.2236
141.6135,-274.914
141.8967,-274.604
142.183,-274.2963
142.4661,-273.9863
142.715,-273.6497
142.944,-273.2974
143.1725,-272.9451
143.4021,-272.5933
143.6193,-272.2345
143.8068,-271.8585
143.9964,-271.484
144.1817,-271.1066
144.3794,-270.7372
144.6355,-270.4048
144.8996,-270.0776
145.1563,-269.7457
145.4189,-269.4174
145.664,-269.0768
145.9021,-268.7306
146.1408,-268.3851
146.3775,-268.038
146.6195,-267.6948
146.8678,-267.3561
147.1167,-267.0178
147.3667,-266.6802
147.602,-266.3332
147.8027,-265.9645
147.999,-265.5929
148.1995,-265.224
148.3988,-264.8542
148.6168,-264.4951
148.8346,-264.1361
149.0514,-263.7762
149.2698,-263.4175
149.461,-263.0441
149.6391,-262.6636
149.8183,-262.2839
149.9948,-261.9025
150.2034,-261.5408
150.4599,-261.2087
150.7211,-260.8792
150.9787,-260.5479
151.2381,-260.2172
151.4681,-259.8664
151.6882,-259.5085
151.9126,-259.1535
152.1317,-258.7952
152.3523,-258.4377
152.5633,-258.0746
152.7772,-257.7131
152.9902,-257.3511
153.2113,-256.9946
153.4641,-256.6587
153.7125,-256.3205
153.9662,-255.9852
154.2113,-255.6448
154.4084,-255.2742
154.5992,-254.8996
154.7965,-254.5292
154.9871,-254.1546
155.1533,-253.7698
155.3028,-253.3769
155.4574,-252.9865
155.6087,-252.5948
155.8077,-252.2278
156.05,-251.8848
156.2861,-251.5377
156.5316,-251.1961
156.7629,-250.8466
156.9636,-250.4774
157.1517,-250.1021
157.3506,-249.7317
157.5417,-249.358
157.6745,-248.9608
157.7929,-248.5581
157.9085,-248.1538
158.0291,-247.752
158.2279,-247.3869
158.4653,-247.0398
158.698,-246.6905
158.9341,-246.3429
159.1473,-245.9818
159.3416,-245.6095
159.5347,-245.2364
159.7295,-244.8643
159.9219,-244.491
160.1053,-244.113
160.285,-243.7335
160.4672,-243.355
160.6485,-242.976
160.8359,-242.6005
161.0347,-242.23
161.2279,-241.8576
161.4277,-241.4875
161.5941,-241.1054
161.683,-240.6952
161.7705,-240.2842
161.8557,-239.8728
161.9471,-239.4632
162.1191,-239.0809
162.3038,-238.7027
162.4757,-238.3202
162.6598,-237.9419
162.8281,-237.5575
162.9968,-237.1727
163.1607,-236.786
163.3268,-236.4003
163.4927,-236.0143
163.6232,-235.6155
163.7465,-235.2141
163.869,-234.8122
163.9915,-234.4105
164.1344,-234.0157
164.2849,-233.6236
164.4373,-233.2323
164.5878,-232.84
164.7543,-232.4551
164.9471,-232.0819
165.1409,-231.7093
165.3343,-231.3364
165.5244,-230.9619
165.7073,-230.5838
165.8883,-230.2047
166.0722,-229.8271
166.2522,-229.4477
166.3991,-229.0551
166.5266,-228.6547
166.659,-228.2562
166.7874,-227.8562
166.9313,-227.462
167.0954,-227.0754
167.258,-226.6882
167.4241,-226.3022
167.584,-225.914
167.7215,-225.5172
167.8539,-225.1185
167.9904,-224.7214
168.1242,-224.3231
168.2506,-223.9228
168.3661,-223.5189
168.4799,-223.1146
168.5961,-222.711
168.7096,-222.3065
168.8226,-221.902
168.9338,-221.497
169.0462,-221.0922
169.1578,-220.6874
169.2595,-220.2798
169.3567,-219.8713
169.4543,-219.4627
169.5514,-219.0541
169.6496,-218.6457
169.7488,-218.2375
169.8487,-217.8296
169.9481,-217.4214
170.0477,-217.0134
170.1465,-216.6052
170.2447,-216.1968
170.3434,-215.7886
170.4414,-215.3801
170.5357,-214.9709
170.6235,-214.5601
170.7121,-214.1495
170.8,-213.7388
170.8905,-213.3286
170.9948,-212.9218
171.0979,-212.5146
171.2033,-212.108
171.3054,-211.7007
171.3743,-211.2865
171.4351,-210.8709
171.5002,-210.456
171.5619,-210.0404
171.6413,-209.6282
171.7274,-209.2169
171.8118,-208.8056
171.8992,-208.3946
171.9725,-207.9813
172.0345,-207.5659
172.094,-207.1501
172.1545,-206.7345
172.2157,-206.3189
172.2742,-205.903
172.3357,-205.4875
172.3942,-205.0715
172.4549,-204.656
172.5294,-204.2426
172.6077,-203.83
172.6869,-203.4175
172.765,-203.0048
172.8496,-202.5935
172.9449,-202.1842
173.0369,-201.7747
173.1343,-201.3657
173.2081,-200.9537
173.2293,-200.5346
173.2438,-200.1144
173.2632,-199.6951
173.2829,-199.2754
173.3236,-198.8575
173.3672,-198.4397
173.4064,-198.0215
173.4503,-197.6038
173.494,-197.186
173.5406,-196.7686
173.5873,-196.3511
173.6319,-195.9335
173.6663,-195.5151
173.6872,-195.0955
173.711,-194.6763
173.7335,-194.2567
173.7553,-193.8373
173.782,-193.4182
173.8049,-192.9987
173.832,-192.5796
173.8556,-192.1602
173.8626,-191.7403
173.868,-191.3204
173.8711,-190.9002
173.8781,-190.4804
173.9148,-190.0625
173.9683,-189.6459
174.019,-189.2289
174.0704,-188.812
174.0939,-188.3938
174.0828,-187.9737
174.0774,-187.554
174.0656,-187.1338
174.0599,-186.714
174.0991,-186.2961
174.1428,-185.8781
174.1857,-185.4605
174.227,-185.0424
174.2252,-184.6229
174.2121,-184.2029
174.205,-183.783
174.1919,-183.3632
174.1864,-182.9431
174.1805,-182.5232
174.1768,-182.1032
174.1727,-181.6831
174.1677,-181.2632
174.1735,-180.8431
174.1753,-180.4232
174.1819,-180.0031
174.1835,-179.5832
174.1521,-179.1646
174.1133,-178.7462
174.0777,-178.3279
174.0404,-177.9094
174.008,-177.4907
173.9753,-177.0719
173.9422,-176.6531
173.91,-176.2344
173.8796,-175.8154
173.8506,-175.3964
173.8205,-174.9775
173.7912,-174.5584
173.7632,-174.1394
173.7364,-173.7202
173.7095,-173.3011
173.6825,-172.8819
173.6552,-172.4627
173.6257,-172.0438
173.5964,-171.6247
173.5669,-171.2058
173.5374,-170.7868
173.5077,-170.3678
173.4774,-169.9489
173.4477,-169.5299
173.4174,-169.111
173.3823,-168.6924
173.3394,-168.2747
173.2961,-167.8569
173.2539,-167.4389
173.2096,-167.0213
173.1657,-166.6035
173.1189,-166.1862
173.0753,-165.7683
173.027,-165.3512
172.9602,-164.9366
172.8898,-164.5224
172.8233,-164.1077
172.7526,-163.6937
172.6645,-163.2831
172.5687,-162.8741
172.4774,-162.4642
172.382,-162.0551
172.3172,-161.6414
172.2905,-161.2223
172.2638,-160.8032
172.239,-160.3837
172.1977,-159.9665
172.1236,-159.553
172.0443,-159.1405
171.9698,-158.7272
171.8916,-158.3144
171.8057,-157.9035
171.7171,-157.4927
171.6269,-157.0826
171.5396,-156.6717
171.4464,-156.2622
171.3286,-155.8592
171.2083,-155.4566
171.0893,-155.0539
170.9702,-154.6511
170.8758,-154.242
170.7894,-153.831
170.702,-153.4201
170.615,-153.0093
170.5038,-152.6047
170.3773,-152.2041
170.2526,-151.8031
170.1263,-151.4024
170.0109,-150.9989
169.9098,-150.591
169.8066,-150.184
169.707,-149.7758
169.5946,-149.3717
169.442,-148.9806
169.2854,-148.5907
169.131,-148.2001
168.9768,-147.8095
168.8738,-147.4037
168.795,-146.9909
168.7083,-146.5802
168.6307,-146.167
168.5236,-145.7624
168.3733,-145.3705
168.2169,-144.9805
168.0639,-144.5893
167.9106,-144.1983
167.7595,-143.8063
167.6127,-143.4129
167.4603,-143.0214
167.3138,-142.6278
167.1948,-142.2252
167.0802,-141.821
166.9632,-141.4176
166.8468,-141.0141
166.6953,-140.6235
166.5182,-140.2426
166.3428,-139.861
166.1665,-139.4797
166.0123,-139.0895
165.8734,-138.693
165.7302,-138.2983
165.5929,-137.9011
165.443,-137.5091
165.2738,-137.1248
165.0989,-136.7428
164.9279,-136.3592
164.7552,-135.9764
164.5608,-135.6038
164.3688,-135.2306
164.1734,-134.8584
163.9813,-134.4852
163.851,-134.0878
163.7426,-133.6822
163.6368,-133.2754
163.5257,-132.8708
163.3372,-132.4992
163.1151,-132.1417
162.9021,-131.7805
162.6809,-131.4227
162.4787,-131.0553
162.2886,-130.6807
162.1001,-130.3052
161.9123,-129.9298
161.7222,-129.555
161.5429,-129.1752
161.3603,-128.797
161.1806,-128.4173
160.9987,-128.0388
160.7886,-127.6751
160.5741,-127.3142
160.3595,-126.953
160.1451,-126.5919
159.9552,-126.2177
159.7748,-125.8383
159.5948,-125.4589
159.4142,-125.0795
159.2137,-124.711
159.0005,-124.3491
158.7876,-123.9869
158.5746,-123.625
158.3713,-123.2575
158.1764,-122.8856
157.9815,-122.5134
157.7866,-122.1414
157.5915,-121.7695
157.3962,-121.3975
157.2004,-121.026
157.0056,-120.6538
156.7983,-120.289
156.5681,-119.9378
156.3358,-119.5877
156.1056,-119.2366
155.8736,-118.8862
155.6477,-118.5322
155.4223,-118.1778
155.1967,-117.8235
154.9718,-117.4688
154.7421,-117.117
154.5098,-116.7673
154.2767,-116.4177
154.044,-116.068
153.8108,-115.7188
153.5762,-115.3703
153.3419,-115.0218
153.1075,-114.6732
152.8713,-114.3259
152.6319,-113.9808
152.3919,-113.636
152.1524,-113.2911
151.9135,-112.9455
151.676,-112.5991
151.439,-112.2524
151.2015,-111.9059
150.965,-111.5589
150.7319,-111.2093
150.497,-110.8613
150.2651,-110.5109
150.0283,-110.1642
149.765,-109.8372
149.4968,-109.5136
149.2328,-109.1871
148.966,-108.8626
148.7148,-108.5262
148.4685,-108.1859
148.2196,-107.8475
147.9743,-107.5066
147.7181,-107.1739
147.4509,-106.85
147.1817,-106.5275
146.9129,-106.2047
146.6453,-105.8811
146.3842,-105.552
146.1281,-105.2191
145.8695,-104.8881
145.6124,-104.556
145.3512,-104.2271
145.0872,-103.9003
144.8256,-103.5718
144.5613,-103.2453
144.3005,-102.916
144.0391,-102.5873
143.7773,-102.2588
143.5174,-101.9289
143.2533,-101.6022
142.9912,-101.274
142.7267,-100.9478
142.4631,-100.6206
142.2006,-100.2929
141.9341,-99.9682
141.6718,-99.64
141.4047,-99.316
141.1418,-98.9882
140.8623,-98.6767
140.5416,-98.4049
140.2243,-98.1308
139.9005,-97.8616
139.5856,-97.5852
139.3428,-97.2456
139.1207,-96.8878
138.8896,-96.5382
138.6653,-96.1822
138.4066,-95.8539
138.1167,-95.55
137.8281,-95.2448
137.5361,-94.9429
137.2489,-94.6363
136.9827,-94.3118
136.7219,-93.9823
136.4563,-93.6571
136.1945,-93.3285
135.9259,-93.0057
135.6424,-92.696
135.3574,-92.3873
135.0736,-92.0777
134.7868,-91.7709
134.4976,-91.4662
134.2066,-91.1635
133.9179,-90.8582
133.6247,-90.5577
133.3145,-90.2746
133.0019,-89.994
132.6906,-89.7119
132.3797,-89.4297
132.1017,-89.1166
131.8446,-88.784
131.5806,-88.4579
131.325,-88.1238
131.0541,-87.8043
130.7443,-87.5212
130.4285,-87.2439
130.1154,-86.9639
129.8037,-86.6827
129.5321,-86.3651
129.2869,-86.0224
129.0298,-85.6922
128.7856,-85.3482
128.5061,-85.0439
128.1423,-84.8366
127.7725,-84.636
127.4045,-84.4335
127.0387,-84.2282
126.7388,-83.9399
126.4623,-83.6223
126.1784,-83.3143
125.9007,-82.9977
125.5967,-82.7102
125.2741,-82.4409
124.9518,-82.1716
124.6277,-81.9047
124.306,-81.6341
123.9849,-81.364
123.6667,-81.0894
123.3477,-80.8164
123.0286,-80.5432
122.7009,-80.2812
122.3525,-80.047
122.0038,-79.8123
121.6564,-79.5769
121.3067,-79.3436
120.9627,-79.1028
120.6165,-78.8651
120.2722,-78.6241
119.9273,-78.3849
119.5956,-78.1286
119.2909,-77.8393
118.9831,-77.554
118.6787,-77.2638
118.3674,-76.9832
118.0212,-76.7451
117.6741,-76.5088
117.3266,-76.2728
116.9804,-76.0348
116.6652,-75.7588
116.3582,-75.4715
116.0501,-75.1864
115.7424,-74.9005
115.4161,-74.6367
115.0787,-74.387
114.742,-74.1353
114.4051,-73.8849
114.0649,-73.6385
113.7185,-73.4008
113.3692,-73.168
113.0235,-72.9287
112.6738,-72.6968
112.3077,-72.4908
111.9388,-72.29
111.5717,-72.0861
111.2036,-71.8831
110.8463,-71.6636
110.4932,-71.4352
110.1406,-71.2078
109.7866,-70.9811
109.438,-70.7474
109.1147,-70.4801
108.796,-70.2053
108.4722,-69.9389
108.1535,-69.6645
107.8111,-69.4251
107.4414,-69.2268
107.0697,-69.0301
106.6987,-68.834
106.3281,-68.6358
105.9616,-68.4308
105.5983,-68.2204
105.2341,-68.0104
104.8701,-67.8017
104.5125,-67.581
104.1617,-67.3505
103.8133,-67.1159
103.4621,-66.8849
103.1137,-66.6512
102.7775,-66.3989
102.4452,-66.1427
102.1123,-65.8862
101.7792,-65.6302
101.4413,-65.3813
101.1017,-65.1333
100.7632,-64.8855
100.4236,-64.6377
100.0573,-64.4442
99.6555,-64.3221
99.2545,-64.1964
98.8525,-64.0754
98.4517,-63.949
98.0822,-63.7556
97.7241,-63.5352
97.3652,-63.3173
97.0068,-63.0984
96.6676,-62.8548
96.3703,-62.5581
96.0724,-62.2626
95.7762,-61.9634
95.4767,-61.6712
95.1083,-61.4858
94.7085,-61.3529
94.3173,-61.2038
93.9169,-61.0712
93.5319,-60.9099
93.1728,-60.6919
92.8182,-60.467
92.4621,-60.244
92.1045,-60.0236
91.7335,-59.828
91.3567,-59.6405
90.9849,-59.4469
90.6096,-59.2571
90.2449,-59.0495
89.887,-58.83
89.5255,-58.6153
89.1686,-58.3947
88.8073,-58.1794
88.449,-57.961
88.0901,-57.7426
87.7291,-57.5275
87.3726,-57.3061
86.9958,-57.122
86.6075,-56.965
86.2142,-56.8153
85.8237,-56.661
85.4633,-56.4491
85.1095,-56.2221
84.7602,-55.989
84.4057,-55.7642
84.0096,-55.6365
83.6009,-55.5381
83.1938,-55.4333
82.7868,-55.3323
82.4026,-55.1653
82.0271,-54.9773
81.6504,-54.7925
81.2741,-54.6038
80.8816,-54.4603
80.4807,-54.3314
80.0814,-54.2033
79.681,-54.0765
79.2808,-53.9465
78.8813,-53.8212
78.5507,-53.5976
78.3189,-53.2503
78.0837,-52.9003
77.8207,-52.5737
77.5644,-52.2413
77.3105,-51.9055
77.0634,-51.5675
76.8091,-51.2316
76.5614,-50.8933
76.3086,-50.5577
76.059,-50.2193
75.9184,-49.8373
75.8534,-49.4212
75.788,-49.0069
75.7564,-48.5892
75.7511,-48.1687
75.7462,-47.7496
75.7351,-47.3287
75.7263,-46.9097
75.7071,-46.4899
75.6608,-46.072
75.6233,-45.6549
75.5726,-45.2359
75.5384,-44.8195
75.6015,-44.4057
75.6907,-43.9945
75.7656,-43.582
75.8503,-43.1696
75.9111,-42.7552
75.9608,-42.3371
76.0153,-41.9214
76.0627,-41.5037
76.1234,-41.088
76.2002,-40.6759
76.2807,-40.2626
76.3602,-39.8512
76.4385,-39.4378
76.5185,-39.0257
76.5959,-38.6132
76.6749,-38.1998
76.7539,-37.7885
76.8338,-37.3748
76.9183,-36.9644
76.9988,-36.5518
77.083,-36.1398
77.1421,-35.7263
77.1649,-35.3047
77.1901,-34.8881
77.2104,-34.4659
77.2595,-34.0521
77.3551,-33.643
77.5062,-33.2558
77.8136,-33.0149
78.2237,-32.9049
78.6275,-32.8035
79.0252,-32.6665
79.3982,-32.4779
79.7686,-32.2786
80.1441,-32.0884
80.513,-31.8917
80.8835,-31.6894
81.2333,-31.461
81.5856,-31.2294
81.9393,-31.0035
82.2875,-30.7705
82.6444,-30.5447
82.9858,-30.3051
83.3253,-30.0536
83.6592,-29.8014
83.9928,-29.5462
84.3341,-29.2978
84.6382,-29.018
84.8944,-28.6828
85.1232,-28.3328
85.3812,-27.998
85.5899,-27.6405
85.6518,-27.2292
85.6964,-26.8084
85.7515,-26.3938
85.8025,-25.9762
85.9121,-25.5712
86.0309,-25.1686
86.144,-24.7636
86.263,-24.3612
86.382,-23.9582
86.5093,-23.5577
86.6304,-23.1561
86.7592,-22.7553
86.8625,-22.3506
86.9093,-21.9331
86.9425,-21.5142
86.9898,-21.097
87.0239,-20.6781
87.0061,-20.2595
86.9783,-19.8398
86.9545,-19.4206
86.9301,-19.0015
86.9547,-18.5827
86.9964,-18.165
87.0329,-17.7464
87.0755,-17.3285
87.1109,-16.9101
87.1551,-16.4922
87.1884,-16.0735
87.235,-15.6563
87.3557,-15.2552
87.4949,-14.8581
87.6171,-14.4562
87.7546,-14.0598
87.889,-13.6609
88.0335,-13.2678
88.2149,-12.8884
88.4057,-12.5151
88.5976,-12.1414
88.7162,-11.7463
88.7408,-11.3289
88.7728,-10.9078
88.8006,-10.491
88.839,-10.0708
88.8289,-9.6605
88.6366,-9.2893
88.4396,-8.9164
88.3535,-8.5112
88.3003,-8.0923
88.2376,-7.6792
88.0463,-7.3282
87.75,-7.0283
87.4808,-6.7081
87.2364,-6.3667
86.99,-6.0259
86.7653,-5.6733
86.599,-5.2883
86.4535,-4.8934
86.3081,-4.5002
86.1572,-4.1076
85.9285,-3.7594
85.6213,-3.481
85.2658,-3.2661
84.8957,-3.06
84.5362,-2.8464
84.1563,-2.6666
83.7746,-2.4889
83.3978,-2.3072
83.0137,-2.133
82.625,-1.983
82.2158,-1.8849
81.8079,-1.7818
81.4026,-1.6781
80.9918,-1.5814
80.5877,-1.4721
80.1778,-1.3784
79.7709,-1.2703
79.3649,-1.1704
78.9538,-1.0733
78.5517,-0.95874
78.1376,-0.87785
77.7375,-0.74779
77.4142,-0.50333
77.1063,-0.19246
76.7542,-0.044491
