86.2339,-313.6365
86.5859,-313.4688
86.9394,-313.3036
87.2919,-313.1367
87.6444,-312.9701
87.9976,-312.8043
88.3501,-312.6375
88.7028,-312.4711
89.0559,-312.3051
89.4083,-312.1383
89.7611,-311.972
90.1142,-311.8059
90.4666,-311.639
90.8195,-311.4729
91.1725,-311.3068
91.5248,-311.1398
91.8779,-310.9738
92.2308,-310.8076
92.583,-310.6406
92.9363,-310.4748
93.289,-310.3084
93.6413,-310.1413
93.9947,-309.9758
94.3472,-309.8091
94.6995,-309.642
95.0529,-309.4763
95.4036,-309.3062
95.7542,-309.1353
96.1081,-308.9701
96.4555,-308.7945
96.7886,-308.5924
97.112,-308.3739
97.4364,-308.158
97.7657,-307.9481
98.0831,-307.7225
98.375,-307.465
98.6577,-307.1955
98.9457,-306.9324
99.2325,-306.6685
99.5178,-306.4022
99.8052,-306.1386
100.0915,-305.8739
100.3775,-305.6084
100.6645,-305.3445
100.9507,-305.0795
101.2371,-304.8145
101.5239,-304.5504
101.8101,-304.2853
102.0966,-304.0206
102.3831,-303.7561
102.6695,-303.4912
102.9561,-303.2266
103.2424,-302.9619
103.529,-302.6973
103.8154,-302.4324
104.1017,-302.1677
104.3888,-301.9036
104.674,-301.6375
104.9621,-301.3748
105.2638,-301.1281
105.5751,-300.8931
105.8858,-300.6574
106.1955,-300.4202
106.5071,-300.1857
106.8255,-299.9608
107.1518,-299.7472
107.4789,-299.5346
107.8047,-299.3203
108.1314,-299.1071
108.455,-298.8895
108.7764,-298.6686
109.0991,-298.4494
109.4211,-298.2294
109.7428,-298.0089
110.0655,-297.7896
110.3872,-297.5693
110.7093,-297.3492
111.0317,-297.1298
111.3535,-296.9093
111.6757,-296.6895
111.9979,-296.4697
112.3199,-296.2497
112.6418,-296.0293
112.9589,-295.8024
113.2716,-295.5693
113.5857,-295.3379
113.8997,-295.1067
114.2055,-294.865
114.4981,-294.6075
114.7854,-294.3435
115.078,-294.0854
115.3665,-293.8232
115.6373,-293.5428
115.9002,-293.2548
116.164,-292.9676
116.4263,-292.6787
116.6972,-292.3987
116.9832,-292.1336
117.272,-291.8711
117.5588,-291.607
117.8463,-291.3435
118.1289,-291.0746
118.4069,-290.8012
118.6864,-290.5291
118.9644,-290.2554
119.2439,-289.9835
119.5341,-289.723
119.8291,-289.4678
120.1223,-289.2108
120.4179,-288.9561
120.7081,-288.6958
120.9821,-288.4184
121.2512,-288.1358
121.525,-287.8582
121.7953,-287.577
122.0575,-287.2882
122.3147,-286.9953
122.57,-286.7003
122.8271,-286.4069
123.0834,-286.1132
123.3364,-285.816
123.591,-285.5207
123.8453,-285.2251
124.0972,-284.9269
124.3626,-284.6422
124.65,-284.379
124.9439,-284.122
125.2339,-283.8616
125.5244,-283.6013
125.8169,-283.343
126.1077,-283.0833
126.3983,-282.8231
126.6921,-282.5663
126.9806,-282.3042
127.2523,-282.025
127.5133,-281.7351
127.7748,-281.4458
128.0378,-281.1576
128.2988,-280.8679
128.5545,-280.5734
128.808,-280.2768
129.0629,-279.982
129.3139,-279.6829
129.5722,-279.3911
129.8579,-279.1266
130.1554,-278.8735
130.4459,-278.6136
130.7395,-278.357
131.0295,-278.096
131.3032,-277.8183
131.5758,-277.5393
131.8525,-277.2643
132.1218,-276.9824
132.384,-276.6937
132.6421,-276.4011
132.9008,-276.1094
133.1616,-275.8193
133.415,-275.5228
133.6644,-275.223
133.9159,-274.9249
134.1628,-274.6227
134.4153,-274.3257
134.6851,-274.0441
134.9594,-273.7668
135.2319,-273.4878
135.5052,-273.2095
135.7757,-272.9286
136.044,-272.6455
136.312,-272.362
136.5802,-272.0789
136.8479,-271.7952
137.1085,-271.505
137.3656,-271.2118
137.6257,-270.9211
137.8829,-270.6278
138.144,-270.3383
138.416,-270.0585
138.6875,-269.7787
138.9599,-269.4996
139.2317,-269.2197
139.4825,-268.922
139.7184,-268.6114
139.9549,-268.3011
140.1899,-267.9899
140.4354,-267.6873
140.6985,-267.3994
140.9632,-267.113
141.2273,-266.8259
141.4913,-266.5388
141.743,-266.2413
141.9845,-265.9348
142.2255,-265.6282
142.467,-265.3221
142.708,-265.0152
142.9474,-264.7075
143.1866,-264.3994
143.4267,-264.0918
143.6652,-263.7835
143.9029,-263.4741
144.1386,-263.1632
144.3728,-262.8516
144.6108,-262.5423
144.8424,-262.2287
145.0561,-261.9027
145.2647,-261.5728
145.4766,-261.2455
145.6869,-260.9171
145.9033,-260.5926
146.1306,-260.2757
146.3582,-259.959
146.5855,-259.6419
146.8128,-259.3251
147.0274,-258.9996
147.2311,-258.6669
147.4369,-258.3358
147.6404,-258.0028
147.8462,-257.6716
148.0735,-257.3553
148.3125,-257.0468
148.5486,-256.7366
148.7881,-256.4286
149.0171,-256.1133
149.2219,-255.7816
149.4221,-255.4467
149.6264,-255.1144
149.828,-254.7807
150.0332,-254.4488
150.2409,-254.1187
150.4456,-253.7868
150.6531,-253.4564
150.8703,-253.1328
151.1005,-252.8183
151.3344,-252.5058
151.5648,-252.1913
151.7966,-251.8777
152.0144,-251.5545
152.2118,-251.2181
152.4124,-250.8837
152.6118,-250.5483
152.8102,-250.2128
153.0369,-249.8956
153.2735,-249.5852
153.5027,-249.2705
153.7452,-248.9635
153.9696,-248.6458
154.1454,-248.2986
154.3097,-247.9441
154.4791,-247.593
154.6486,-247.2418
154.8338,-246.8988
155.0336,-246.564
155.2349,-246.2299
155.4322,-245.8932
155.6347,-245.5603
155.8613,-245.2429
156.0949,-244.9302
156.3208,-244.6129
156.5571,-244.3014
156.7687,-243.9764
156.9204,-243.618
157.0601,-243.2529
157.208,-242.8926
157.3516,-242.5296
157.5265,-242.1831
157.7393,-241.8565
157.9541,-241.5306
158.1666,-241.2038
158.3784,-240.8763
158.5809,-240.5428
158.7801,-240.2076
158.9835,-239.8747
159.1839,-239.5401
159.3568,-239.1922
159.4978,-238.8288
159.6353,-238.4635
159.7752,-238.0996
159.915,-237.7355
160.0749,-237.3803
160.2529,-237.0332
160.4304,-236.686
160.6057,-236.3374
160.7856,-235.9915
160.9842,-235.6562
161.1936,-235.3268
161.3966,-234.9941
161.6072,-234.6653
161.8083,-234.3317
161.9653,-233.9754
162.1088,-233.6121
162.26,-233.2529
162.4087,-232.8923
162.5821,-232.5436
162.7775,-232.2058
162.964,-231.8636
163.1583,-231.5249
163.3474,-231.1841
163.4914,-230.8231
163.6144,-230.4529
163.7398,-230.0838
163.8615,-229.7129
163.9986,-229.3484
164.1582,-228.9927
164.3208,-228.6379
164.4823,-228.2831
164.6434,-227.9278
164.8017,-227.5712
164.9586,-227.2143
165.1155,-226.8571
165.2734,-226.5004
165.4237,-226.1409
165.5599,-225.7753
165.6932,-225.4087
165.829,-225.0432
165.9632,-224.6768
166.0976,-224.3108
166.2319,-223.9446
166.3651,-223.5779
166.4992,-223.2118
166.6332,-222.8454
166.7684,-222.4795
166.9052,-222.1144
167.0408,-221.7486
167.1771,-221.3831
167.3085,-221.0161
167.4305,-220.6455
167.5521,-220.2749
167.6746,-219.9047
167.7959,-219.5338
167.9266,-219.1666
168.0668,-218.8026
168.2067,-218.4384
168.3477,-218.0749
168.4871,-217.7106
168.6156,-217.3424
168.7382,-216.9723
168.8624,-216.6024
168.9855,-216.2323
169.1091,-215.8625
169.2352,-215.4932
169.36,-215.1238
169.4868,-214.7549
169.6111,-214.3852
169.7156,-214.0099
169.8065,-213.6305
169.9004,-213.2519
169.9907,-212.8725
170.0862,-212.4944
170.2037,-212.1225
170.3259,-211.7522
170.4441,-211.3805
170.5651,-211.0096
170.6686,-210.6341
170.7509,-210.2528
170.8342,-209.8718
170.916,-209.4905
170.9996,-209.1094
171.1012,-208.733
171.2071,-208.3576
171.3098,-207.9812
171.4157,-207.6059
171.5076,-207.2272
171.5798,-206.8439
171.6507,-206.4604
171.7222,-206.0769
171.7936,-205.6935
171.8731,-205.3118
171.9569,-204.9307
172.04,-204.5497
172.1239,-204.1688
172.206,-203.7874
172.2848,-203.4055
172.3632,-203.0235
172.4418,-202.6413
172.5203,-202.2594
172.5999,-201.8775
172.6798,-201.4957
172.7594,-201.114
172.8399,-200.7322
172.9174,-200.35
172.9877,-199.9665
173.0559,-199.5823
173.1257,-199.1987
173.1948,-198.8148
173.2659,-198.4312
173.3395,-198.0483
173.4118,-197.665
173.4857,-197.2819
173.5576,-196.8987
173.6194,-196.5136
173.6781,-196.1279
173.7393,-195.7429
173.7988,-195.3572
173.8593,-194.972
173.9221,-194.5871
173.983,-194.2017
174.0459,-193.8169
174.1074,-193.4318
174.1544,-193.0446
174.1914,-192.6565
174.2289,-192.2682
174.265,-191.8797
174.3037,-191.4918
174.3532,-191.1049
174.4062,-190.7184
174.457,-190.3318
174.5089,-189.9451
174.5545,-189.5579
174.589,-189.1695
174.6228,-188.7808
174.6581,-188.3924
174.6916,-188.0038
174.7284,-187.6154
174.7673,-187.2275
174.8049,-186.8392
174.8449,-186.4511
174.882,-186.063
174.9102,-185.674
174.9355,-185.2847
174.9616,-184.8957
174.9877,-184.5064
175.0133,-184.1172
175.0357,-183.7279
175.0568,-183.3383
175.0791,-182.949
175.1003,-182.5596
175.1215,-182.17
175.142,-181.7806
175.1606,-181.391
175.1823,-181.0015
175.2002,-180.612
175.2039,-180.222
175.203,-179.8319
175.2047,-179.442
175.2048,-179.0518
175.2066,-178.6618
175.212,-178.2719
175.2173,-177.8818
175.2229,-177.4919
175.2281,-177.1019
175.2293,-176.7118
175.2266,-176.3219
175.223,-175.9318
175.2211,-175.5417
175.2169,-175.1518
175.2051,-174.7619
175.1903,-174.3721
175.1769,-173.9824
175.163,-173.5925
175.148,-173.2028
175.1322,-172.8132
175.1156,-172.4234
175.0994,-172.0338
175.0833,-171.644
175.0681,-171.2542
175.054,-170.8646
175.0393,-170.4747
175.0247,-170.0849
175.0103,-169.6953
174.9945,-169.3055
174.9789,-168.9158
174.9636,-168.5261
174.9475,-168.1363
174.9286,-167.7468
174.9043,-167.3576
174.879,-166.9682
174.8559,-166.579
174.8301,-166.1898
174.8012,-165.8008
174.7691,-165.4122
174.7345,-165.0236
174.7048,-164.6346
174.6689,-164.2464
174.6115,-163.8606
174.5484,-163.4757
174.4897,-163.0902
174.4275,-162.705
174.3722,-162.3191
174.3285,-161.9315
174.2849,-161.5439
174.2434,-161.1561
174.1978,-160.7688
174.1313,-160.3847
174.052,-160.0029
173.9733,-159.6208
173.897,-159.2384
173.8282,-158.8546
173.7679,-158.4691
173.7075,-158.0839
173.6437,-157.6991
173.5858,-157.3133
173.5439,-156.9258
173.5083,-156.5373
173.469,-156.1491
173.4328,-155.7609
173.3866,-155.3739
173.3134,-154.9908
173.233,-154.6091
173.1593,-154.2261
173.0815,-153.8439
173.0034,-153.4619
172.9265,-153.0793
172.8456,-152.6979
172.7686,-152.3155
172.6886,-151.9337
172.59,-151.5565
172.485,-151.1809
172.3834,-150.8043
172.2782,-150.4287
172.1757,-150.0524
172.0828,-149.6736
171.9924,-149.2943
171.9025,-148.9146
171.813,-148.535
171.7216,-148.1559
171.6313,-147.7764
171.5415,-147.3969
171.4479,-147.0182
171.361,-146.6379
171.2893,-146.2548
171.2224,-145.8705
171.1549,-145.4861
171.0841,-145.1029
170.9918,-144.7245
170.8782,-144.3512
170.7657,-143.9779
170.6545,-143.604
170.5417,-143.2306
170.4385,-142.8546
170.3384,-142.4775
170.2341,-142.1017
170.1329,-141.7251
170.0291,-141.349
169.9202,-140.9745
169.8145,-140.5991
169.7075,-140.2239
169.5984,-139.8496
169.4911,-139.4745
169.3807,-139.1004
169.2708,-138.7263
169.1634,-138.3512
169.0512,-137.9777
168.9404,-137.6038
168.8311,-137.2293
168.7169,-136.8564
168.61,-136.4814
168.5138,-136.1033
168.418,-135.7254
168.3249,-135.3465
168.2283,-134.9686
168.1141,-134.5962
167.9875,-134.2271
167.859,-133.8588
167.732,-133.4902
167.6059,-133.121
167.4797,-132.752
167.3557,-132.3823
167.2314,-132.0124
167.105,-131.6436
166.9815,-131.2736
166.8564,-130.904
166.7293,-130.5355
166.6079,-130.1646
166.479,-129.7965
166.3286,-129.4373
166.1668,-129.0822
166.0049,-128.7273
165.845,-128.3718
165.6818,-128.0173
165.5139,-127.6653
165.3485,-127.3123
165.1797,-126.9603
165.014,-126.6075
164.875,-126.2435
164.7471,-125.8748
164.6153,-125.508
164.489,-125.1386
164.3358,-124.7817
164.1405,-124.4444
163.9425,-124.1082
163.7444,-123.7721
163.5484,-123.4351
163.3884,-123.0807
163.2497,-122.7161
163.111,-122.3516
162.9704,-121.9879
162.7995,-121.6382
162.6075,-121.2986
162.4224,-120.9554
162.2293,-120.6161
162.0544,-120.2689
161.9282,-119.8998
161.8076,-119.529
161.683,-119.1594
161.5618,-118.7883
161.3911,-118.4427
161.1672,-118.1236
160.9392,-117.8068
160.7127,-117.4895
160.4998,-117.1635
160.322,-116.8169
160.1534,-116.4647
159.9767,-116.1171
159.8043,-115.7674
159.6313,-115.4176
159.4527,-115.071
159.2766,-114.723
159.1004,-114.3749
158.9219,-114.0283
158.7458,-113.6802
158.5684,-113.3327
158.3885,-112.9868
158.2138,-112.638
158.0336,-112.2921
157.8318,-111.959
157.6179,-111.6329
157.4026,-111.3075
157.1885,-110.9816
156.9924,-110.6452
156.817,-110.2969
156.6434,-109.9476
156.4699,-109.5982
156.294,-109.2502
156.0985,-108.9135
155.8848,-108.5872
155.6694,-108.2619
155.4587,-107.9338
155.2423,-107.6092
155.0133,-107.2935
154.7824,-106.9794
154.5515,-106.6649
154.3199,-106.351
154.1164,-106.0204
153.9474,-105.6691
153.7825,-105.3154
153.6173,-104.9621
153.4469,-104.6114
153.249,-104.2759
153.0385,-103.947
152.8357,-103.614
152.6303,-103.2825
152.4228,-102.952
152.2182,-102.6202
152.0108,-102.2898
151.8038,-101.9591
151.5981,-101.6279
151.3901,-101.2979
151.1811,-100.9685
150.9718,-100.6396
150.7647,-100.3088
150.5522,-99.982
150.3179,-99.6709
150.0713,-99.3681
149.8299,-99.062
149.5881,-98.7561
149.3458,-98.4501
149.111,-98.1389
148.8763,-97.8275
148.6359,-97.5198
148.4056,-97.2056
148.1974,-96.876
147.9979,-96.5406
147.7955,-96.2073
147.5923,-95.8744
147.3717,-95.5541
147.1229,-95.2539
146.8705,-94.956
146.6233,-94.6548
146.3721,-94.3563
146.1276,-94.0523
145.89,-93.7432
145.6488,-93.4365
145.4104,-93.1277
145.1711,-92.82
144.9234,-92.5185
144.6759,-92.2171
144.4292,-91.9151
144.1809,-91.6141
143.9295,-91.3162
143.6672,-91.0276
143.4016,-90.7417
143.1404,-90.4523
142.8758,-90.1656
142.6143,-89.8761
142.3605,-89.5802
142.1038,-89.2865
141.849,-88.991
141.594,-88.6961
141.3239,-88.4148
141.0484,-88.1386
140.7758,-87.86
140.4977,-87.586
140.2262,-87.3063
139.9716,-87.0111
139.7201,-86.7127
139.4676,-86.4156
139.2156,-86.1179
138.9524,-85.8305
138.6727,-85.5591
138.3882,-85.2919
138.1076,-85.021
137.8255,-84.7519
137.5361,-84.4903
137.2424,-84.2339
136.9474,-83.9789
136.6519,-83.7239
136.3582,-83.4675
136.0673,-83.2078
135.7798,-82.944
135.494,-82.6788
135.2056,-82.4161
134.9191,-82.1513
134.6384,-81.8808
134.3573,-81.6103
134.0772,-81.3387
133.7978,-81.0668
133.5037,-80.8114
133.1936,-80.5752
132.8812,-80.3418
132.5679,-80.1089
132.2589,-79.8715
131.9674,-79.6132
131.6861,-79.3424
131.4021,-79.0754
131.1175,-78.8087
130.829,-78.5461
130.5326,-78.293
130.2368,-78.0385
129.9427,-77.7822
129.6456,-77.5299
129.3481,-77.2773
129.0493,-77.0267
128.7496,-76.7773
128.4524,-76.5242
128.1505,-76.2778
127.8392,-76.0429
127.5256,-75.8107
127.2134,-75.5772
126.9008,-75.3438
126.5816,-75.1199
126.2534,-74.9097
125.924,-74.7003
125.595,-74.4909
125.2673,-74.2798
124.9533,-74.0486
124.6475,-73.8064
124.3375,-73.57
124.0303,-73.3292
123.7206,-73.0925
123.3987,-72.8723
123.0768,-72.6516
122.7565,-72.4296
122.4327,-72.2118
122.1184,-71.981
121.8145,-71.7372
121.5115,-71.4914
121.2105,-71.243
120.9057,-71.0004
120.5887,-70.7735
120.2624,-70.5598
119.9346,-70.3488
119.6107,-70.1309
119.2821,-69.9212
118.9415,-69.7313
118.599,-69.5445
118.2563,-69.3585
117.9149,-69.1699
117.5926,-68.9521
117.2836,-68.7142
116.9721,-68.4794
116.6644,-68.2393
116.3514,-68.0073
116.0172,-67.807
115.6752,-67.6191
115.3367,-67.4256
114.997,-67.2337
114.6577,-67.0416
114.3221,-66.8427
113.9873,-66.6424
113.6499,-66.4469
113.3165,-66.2447
112.9983,-66.0199
112.6892,-65.7824
112.3793,-65.5451
112.069,-65.3089
111.7465,-65.0919
111.4045,-64.9043
111.0596,-64.7218
110.7183,-64.5337
110.3742,-64.3493
110.0299,-64.1663
109.6866,-63.9816
109.3416,-63.799
108.997,-63.6167
108.6594,-63.4221
108.3344,-63.2067
108.0141,-62.9842
107.6903,-62.7664
107.3675,-62.5476
107.0428,-62.3319
106.7129,-62.1233
106.3847,-61.9127
106.0565,-61.7022
105.7271,-61.4928
105.4037,-61.2753
105.0807,-61.0565
104.7556,-60.8407
104.4335,-60.6212
104.1075,-60.4069
103.7762,-60.2008
103.4468,-59.9926
103.1147,-59.7873
102.7846,-59.5799
102.4687,-59.3521
102.1597,-59.1137
101.8506,-58.8762
101.544,-58.6347
101.2253,-58.4115
100.8831,-58.2261
100.5338,-58.0511
100.1892,-57.8686
99.8433,-57.689
99.4995,-57.5042
99.1616,-57.3095
98.822,-57.1182
98.4824,-56.9257
98.144,-56.7321
97.7995,-56.5494
97.4533,-56.369
97.1091,-56.1862
96.7616,-56.0089
96.418,-55.824
96.0839,-55.6236
95.7518,-55.4187
95.419,-55.215
95.0857,-55.013
94.759,-54.8002
94.4459,-54.5675
94.1349,-54.3327
93.8227,-54.0982
93.5102,-53.8652
93.1756,-53.6696
92.8201,-53.5074
92.4674,-53.342
92.1131,-53.1789
91.7589,-53.0144
91.4177,-52.8268
91.0777,-52.6352
90.7356,-52.4475
90.3974,-52.2539
90.0489,-52.079
89.6888,-51.9297
89.3282,-51.7825
88.965,-51.6377
88.6061,-51.4869
88.2626,-51.3052
87.9296,-51.1005
87.5976,-50.8969
87.2633,-50.696
86.9308,-50.491
86.6006,-50.2848
86.269,-50.0788
85.9402,-49.8683
85.609,-49.664
85.2652,-49.4784
84.9198,-49.2976
84.5759,-49.1147
84.2287,-48.9348
83.8969,-48.7336
83.5894,-48.4948
83.2876,-48.2458
82.9823,-48.0047
82.6778,-47.7605
82.3773,-47.5108
82.0771,-47.2635
81.7765,-47.0141
81.4786,-46.7615
81.1671,-46.5305
80.8304,-46.3328
80.4891,-46.1439
80.1499,-45.9525
79.8117,-45.7566
79.4944,-45.5334
79.1942,-45.2842
78.8909,-45.0374
78.5867,-44.7953
78.2893,-44.5422
78.0105,-44.2694
77.744,-43.9861
77.4668,-43.7096
77.2053,-43.4219
76.9817,-43.1034
76.7593,-42.781
76.5329,-42.4649
76.321,-42.1378
76.1133,-41.806
75.9254,-41.4666
75.7747,-41.1068
75.6395,-40.7403
75.5045,-40.3761
75.3547,-40.0138
75.205,-39.655
75.1339,-39.2832
75.1596,-38.8941
75.2114,-38.5067
75.259,-38.121
75.3122,-37.7331
75.3692,-37.3483
75.4407,-36.965
75.5269,-36.5837
75.6029,-36.2022
75.6815,-35.8195
75.8046,-35.4518
75.9681,-35.0994
76.1376,-34.7467
76.3064,-34.3954
76.47,-34.0421
76.614,-33.6787
76.7509,-33.3141
76.8924,-32.9507
77.0319,-32.5857
77.1762,-32.2245
77.3286,-31.8648
77.4809,-31.5054
77.6341,-31.1478
77.7853,-30.7871
77.9308,-30.4259
78.0693,-30.0619
78.1991,-29.6921
78.3494,-29.335
78.5409,-28.9952
78.7553,-28.6683
79.0063,-28.3792
79.3064,-28.1295
79.6119,-27.8841
79.9055,-27.6311
80.1958,-27.3689
80.4724,-27.0938
80.7474,-26.8189
81.0291,-26.547
81.3036,-26.2709
81.5792,-25.9956
81.8561,-25.7191
82.128,-25.4411
82.4054,-25.1665
82.6714,-24.8808
82.9143,-24.5772
83.1569,-24.2708
83.4001,-23.9657
83.6419,-23.6609
83.8958,-23.3635
84.1546,-23.0722
84.4119,-22.7798
84.6713,-22.4872
84.9291,-22.1955
85.1835,-21.8999
85.4372,-21.6028
85.6956,-21.3113
85.9368,-21.006
86.1244,-20.665
86.2905,-20.3118
86.4739,-19.9671
86.6504,-19.6195
86.8311,-19.2745
87.0296,-18.9372
87.2008,-18.5881
87.3536,-18.2294
87.5169,-17.874
87.6589,-17.5124
87.7734,-17.1396
87.8599,-16.7596
87.8942,-16.3728
87.902,-15.9832
87.9137,-15.5931
87.9314,-15.2035
87.9672,-14.8155
87.9997,-14.4264
87.9969,-14.0378
87.9661,-13.6505
87.9198,-13.2614
87.883,-12.8737
87.894,-12.489
87.9667,-12.1074
88.0742,-11.7297
88.1455,-11.3477
88.1583,-10.9589
88.1606,-10.5691
88.1569,-10.1776
88.1838,-9.7922
88.2927,-9.4178
88.3599,-9.0407
88.3122,-8.6551
88.2731,-8.2634
88.2201,-7.8815
88.0481,-7.5323
87.8523,-7.1933
87.7112,-6.832
87.579,-6.463
87.4434,-6.0993
87.2796,-5.7476
87.0662,-5.4201
86.8508,-5.0962
86.6427,-4.7653
86.4266,-4.4407
86.2244,-4.1082
86.0269,-3.7698
85.8253,-3.4381
85.6395,-3.0939
85.4386,-2.7587
85.1911,-2.4611
84.9333,-2.1658
84.6785,-1.8708
84.3914,-1.6127
84.0757,-1.3797
83.7633,-1.1482
83.449,-0.91934
83.1162,-0.7133
82.7669,-0.54763
82.4103,-0.38691
82.0603,-0.20632
81.7071,-0.059059
81.3269,0.0022856
