89.7936,-55.5269
89.1336,-54.9951
88.4729,-54.4659
87.8036,-53.9475
87.1201,-53.4479
86.4217,-52.9675
85.7149,-52.4964
85.0073,-52.0231
84.3011,-51.545
83.5958,-51.0705
82.885,-50.6089
82.1637,-50.1666
81.4285,-49.7455
80.682,-49.3422
79.93,-48.9463
79.1818,-48.543
78.4482,-48.1151
77.7416,-47.6479
77.0779,-47.1324
76.4707,-46.5617
75.9363,-45.9323
75.488,-45.2452
75.1411,-44.5076
74.9068,-43.7282
74.7846,-42.9167
74.7549,-42.0844
74.7861,-41.2415
74.8522,-40.3955
74.9352,-39.5502
75.0342,-38.7088
75.1564,-37.8718
75.3114,-37.0412
75.4995,-36.2171
75.7138,-35.3995
75.9545,-34.5911
76.23,-33.7959
76.546,-33.0158
76.893,-32.2477
77.2632,-31.491
77.6569,-30.7477
78.0747,-30.0186
78.499,-29.294
78.9033,-28.5609
79.2788,-27.8214
79.6556,-27.1056
80.0956,-26.4676
80.6503,-25.9606
81.3296,-25.6046
82.0991,-25.3708
82.9155,-25.2053
83.7421,-25.0522
84.5438,-24.8588
85.28,-24.5735
85.9009,-24.1543
86.366,-23.5865
86.6667,-22.8904
86.8311,-22.1094
86.8969,-21.2844
86.895,-20.444
86.8488,-19.6002
86.7869,-18.7562
86.7425,-17.9124
86.7456,-17.0705
86.8151,-16.2336
86.9523,-15.4035
87.1359,-14.5791
87.3314,-13.7553
87.5079,-12.9274
87.6457,-12.093
87.7368,-11.2524
87.7789,-10.4078
87.7688,-9.563
87.6965,-8.7256
87.5495,-7.9083
87.3073,-7.1288
86.9535,-6.4022
86.4914,-5.7333
85.9437,-5.1187
85.3317,-4.5602
84.6641,-4.0668
