89.607,-55.6313
88.8531,-55.2106
88.1115,-54.7752
87.3827,-54.3191
86.664,-53.8463
85.9473,-53.3711
85.2245,-52.9119
84.4863,-52.4763
83.7342,-52.0617
82.9749,-51.657
82.2168,-51.2481
81.4668,-50.824
80.7277,-50.3795
79.9999,-49.9179
79.2805,-49.4443
78.5666,-48.9616
77.8588,-48.4691
77.1631,-47.9654
76.4854,-47.4435
75.8394,-46.893
75.25,-46.2977
74.7454,-45.6413
74.3432,-44.9194
74.0501,-44.1424
73.8674,-43.3278
73.7955,-42.4934
73.8224,-41.651
73.9296,-40.8088
74.0956,-39.9708
74.3043,-39.1406
74.552,-38.3217
74.8458,-37.5188
75.1872,-36.7342
75.5672,-35.9651
75.968,-35.2047
76.3694,-34.4443
76.757,-33.6769
77.1262,-32.901
77.4884,-32.1237
77.8709,-31.3613
78.307,-30.6377
78.8172,-29.9778
79.4098,-29.4091
80.0821,-28.9617
80.8222,-28.6507
81.6071,-28.4511
82.4006,-28.2897
83.1608,-28.0705
83.855,-27.7211
84.4656,-27.2221
84.9985,-26.602
85.4679,-25.9055
85.8773,-25.1623
86.2184,-24.3861
86.481,-23.5824
86.6614,-22.7559
86.7673,-21.9135
86.8149,-21.0627
86.8191,-20.2106
86.7945,-19.3613
86.7641,-18.5166
86.768,-17.6755
86.8405,-16.8377
86.9926,-16.0058
87.209,-15.1812
87.4694,-14.3644
87.7496,-13.5521
88.0228,-12.7394
88.2583,-11.9251
88.4202,-11.1141
88.4661,-10.3167
88.3631,-9.5407
88.1136,-8.7854
87.7555,-8.0448
87.3328,-7.3161
86.8692,-6.6001
86.3749,-5.8998
85.8527,-5.2188
85.3008,-4.5605
84.7218,-3.9243
