89.1271,-54.8417
88.4845,-54.3741
87.7862,-53.9222
87.0521,-53.4968
86.3041,-53.0926
85.5492,-52.7003
84.7926,-52.3107
84.0351,-51.9203
83.2834,-51.5242
82.5454,-51.1126
81.8288,-50.6677
81.1394,-50.1802
80.4751,-49.6547
79.8247,-49.1108
79.171,-48.5734
78.4961,-48.0629
77.7941,-47.5888
77.0763,-47.1459
76.3579,-46.7127
75.6655,-46.2562
75.0312,-45.7407
74.48,-45.1456
74.0376,-44.4732
73.7205,-43.7364
73.5422,-42.9539
73.4993,-42.1462
73.5688,-41.3316
73.7194,-40.518
73.9345,-39.7132
74.2052,-38.9199
74.5174,-38.1356
74.8496,-37.3547
75.1828,-36.572
75.5039,-35.785
75.8074,-34.9953
76.0863,-34.2032
76.3432,-33.413
76.6093,-32.6411
76.9342,-31.916
77.369,-31.2799
77.9367,-30.7721
78.6283,-30.4094
79.409,-30.1744
80.2244,-30.0208
81.0162,-29.8763
81.7486,-29.6633
82.4171,-29.3367
83.0291,-28.9019
83.586,-28.3952
84.0821,-27.8442
84.5157,-27.2452
84.8887,-26.5826
85.2068,-25.8542
85.478,-25.0814
85.7024,-24.289
85.8562,-23.4877
85.92,-22.678
85.8944,-21.8557
85.8116,-21.0227
85.7153,-20.1834
85.647,-19.3428
85.6335,-18.5026
85.6871,-17.6651
85.8064,-16.833
85.9842,-16.009
86.2121,-15.1942
86.4679,-14.3864
86.7262,-13.5806
86.9588,-12.7706
87.144,-11.9514
87.2743,-11.1217
87.3601,-10.2879
87.4135,-9.4593
87.426,-8.6427
87.3708,-7.8386
87.2276,-7.0442
86.9948,-6.2619
86.6778,-5.5045
86.2709,-4.7855
85.7794,-4.1134
