87.5014,-54.6478
86.7321,-54.3297
85.9638,-54.0123
85.1973,-53.6959
84.432,-53.3803
83.6666,-53.0645
82.9011,-52.7481
82.1367,-52.429
81.3759,-52.1021
80.6226,-51.7604
79.8809,-51.396
79.1527,-51.0056
78.4363,-50.5929
77.7311,-50.1619
77.0475,-49.7083
76.4118,-49.2173
75.8654,-48.6684
75.453,-48.0458
75.1998,-47.3477
75.0959,-46.5885
75.1045,-45.7917
75.1861,-44.9783
75.3165,-44.163
75.4833,-43.3525
75.679,-42.5484
75.8978,-41.75
76.1283,-40.9549
76.3546,-40.1592
76.5628,-39.3589
76.7488,-38.5529
76.9205,-37.7427
77.093,-36.9322
77.2804,-36.1253
77.493,-35.325
77.7349,-34.5331
78.005,-33.7502
78.2989,-32.9757
78.6067,-32.2066
78.9153,-31.4387
79.2152,-30.6697
79.5105,-29.9035
79.824,-29.1531
80.191,-28.4398
80.639,-27.7845
81.1766,-27.205
81.7973,-26.7109
82.4826,-26.2942
83.2016,-25.9239
83.9155,-25.5528
84.5839,-25.1333
85.1729,-24.6328
85.6663,-24.0427
86.0641,-23.3737
86.3737,-22.6451
86.6021,-21.8742
86.7572,-21.0754
86.8492,-20.2603
86.8852,-19.4378
86.8686,-18.6131
86.8055,-17.7903
86.7064,-16.9704
86.5938,-16.153
86.496,-15.3355
86.4361,-14.5155
86.4242,-13.6925
86.457,-12.8679
86.5235,-12.0431
86.6082,-11.2187
86.6948,-10.3945
86.7697,-9.5703
86.8206,-8.7475
86.8375,-7.9303
86.8071,-7.1251
86.707,-6.3397
86.5174,-5.5784
86.2395,-4.8386
85.8923,-4.1157
85.4965,-3.4082
85.0587,-2.7232
84.574,-2.0762
