88.0877,-56.0293
87.4281,-55.5338
86.7669,-55.04
86.1036,-54.5484
85.4377,-54.0601
84.7689,-53.5762
84.0982,-53.0984
83.4246,-52.6246
82.7506,-52.1511
82.0794,-51.6736
81.4125,-51.1895
80.7497,-50.6996
80.09,-50.2053
79.4346,-49.7069
78.7867,-49.2009
78.1515,-48.6803
77.5371,-48.1372
76.9534,-47.5646
76.4132,-46.9561
75.9338,-46.3062
75.5348,-45.6124
75.2333,-44.8779
75.0411,-44.1114
74.9609,-43.3236
74.9816,-42.5242
75.0806,-41.7202
75.2322,-40.9163
75.418,-40.1155
75.6298,-39.32
75.8666,-38.5322
76.132,-37.7552
76.4351,-36.9961
76.7893,-36.2693
77.2123,-35.5972
77.7191,-35.0032
78.312,-34.5007
78.9745,-34.078
79.6712,-33.6948
80.3619,-33.299
81.0115,-32.8478
81.5941,-32.3186
82.0929,-31.7087
82.4997,-31.0272
82.8177,-30.2908
83.0597,-29.5173
83.2469,-28.7217
83.405,-27.9168
83.5615,-27.1124
83.7436,-26.3165
83.9709,-25.5348
84.2492,-24.7695
84.569,-24.0196
84.9072,-23.28
85.2271,-22.5404
85.4891,-21.7888
85.6659,-21.0162
85.7562,-20.2222
85.775,-19.4132
85.7417,-18.5978
85.6764,-17.7824
85.6042,-16.9708
85.5613,-16.1648
85.5847,-15.3656
85.6926,-14.5738
85.87,-13.7879
86.0757,-13.005
86.2598,-12.2212
86.378,-11.4344
86.4043,-10.644
86.3411,-9.8505
86.2099,-9.0553
86.0307,-8.2616
85.8113,-7.4744
85.5493,-6.7008
85.2367,-5.9512
84.8597,-5.2383
84.4074,-4.5752
83.8795,-3.9708
83.2849,-3.4248
82.6407,-2.9272
-46.8997,-33.7413