86.9925,-55.7783
86.3057,-55.2962
85.6112,-54.8243
84.9115,-54.3588
84.2163,-53.8934
83.527,-53.4182
82.8444,-52.9314
82.1651,-52.4378
81.4872,-51.9453
80.8056,-51.458
80.1193,-50.9762
79.4307,-50.4965
78.744,-50.013
78.0639,-49.52
77.3962,-49.0128
76.7457,-48.4876
76.1136,-47.9395
75.504,-47.3666
74.9254,-46.7658
74.3928,-46.1327
73.9203,-45.4598
73.5222,-44.7435
73.2059,-43.9878
72.9715,-43.2039
72.8205,-42.405
72.7563,-41.6067
72.7714,-40.8232
72.8673,-40.0772
73.0746,-39.3978
73.4357,-38.8071
73.9555,-38.3015
74.5952,-37.8581
75.3048,-37.4558
76.0462,-37.0824
76.7935,-36.7227
77.5209,-36.346
78.1993,-35.9112
78.7992,-35.3855
79.3109,-34.7658
79.7428,-34.0719
80.1143,-33.3306
80.4353,-32.5608
80.7109,-31.7725
80.9404,-30.9696
81.1212,-30.1554
81.2424,-29.3352
81.2894,-28.5174
81.2481,-27.7093
81.1289,-26.9156
80.9804,-26.1313
80.8753,-25.3453
80.8694,-24.5518
80.983,-23.7575
81.2093,-22.9762
81.5293,-22.2172
81.9161,-21.4819
82.3446,-20.7649
82.7971,-20.0595
83.2593,-19.3597
83.7256,-18.6628
84.1931,-17.967
84.6598,-17.2694
85.1149,-16.5649
85.55,-15.849
85.9565,-15.1182
86.3235,-14.3692
86.6396,-13.5997
86.8959,-12.8104
87.0818,-12.0042
87.1883,-11.1865
87.207,-10.3652
87.1332,-9.5489
86.9678,-8.7451
86.717,-7.9606
86.3921,-7.2002
86.0055,-6.4646
85.5718,-5.7528
85.1003,-5.0663
84.5905,-4.4149
84.0317,-3.8087
