100.2857,-52.7624
99.5808,-52.3021
98.8676,-51.848
98.1482,-51.4116
97.4256,-50.9921
96.6982,-50.5748
95.9717,-50.1488
95.2475,-49.7118
94.5278,-49.2716
93.8121,-48.8348
93.0952,-48.3995
92.3753,-47.9626
91.6525,-47.5241
90.9279,-47.0903
90.2008,-46.6709
89.4664,-46.2703
88.72,-45.8841
87.9651,-45.5061
87.2058,-45.1334
86.4475,-44.7673
85.6936,-44.4051
84.9434,-44.0325
84.2105,-43.63
83.514,-43.1741
82.8775,-42.6505
82.3119,-42.0577
81.8093,-41.4025
81.3561,-40.7015
80.9368,-39.9722
80.5486,-39.2266
80.194,-38.4701
79.8759,-37.7014
79.6039,-36.918
79.3915,-36.1221
79.2645,-35.3196
79.2553,-34.5181
79.3736,-33.722
79.5924,-32.9319
79.8725,-32.1478
80.1806,-31.368
80.5047,-30.5934
80.8478,-29.8298
81.2133,-29.0798
81.6132,-28.3519
82.0615,-27.657
82.5721,-27.0027
83.1358,-26.3857
83.7265,-25.7894
84.3192,-25.1949
84.893,-24.5851
85.4404,-23.9504
85.961,-23.291
86.4566,-22.6114
86.9326,-21.9179
87.3959,-21.2164
87.8485,-20.5082
88.2874,-19.7905
88.7004,-19.0592
89.0702,-18.3082
89.3851,-17.5366
89.6303,-16.7453
89.7968,-15.936
89.8818,-15.1136
89.8987,-14.2809
89.881,-13.4426
89.8616,-12.6023
89.87,-11.763
89.9133,-10.9297
89.9718,-10.1066
90.0035,-9.2973
89.9594,-8.5021
89.8198,-7.7179
89.6055,-6.9407
89.3365,-6.1739
89.0062,-5.4296
88.6011,-4.7256
88.1165,-4.0756
87.566,-3.4791
86.9793,-2.9125
86.3834,-2.3496
86.1316,-2.0746
85.5854,-1.5346
85.0411,-1.0026
84.6173,-0.48602
84.1316,-0.48602
84.6173,-0.48602
82.3659,-0.29901
81.6374,-0.063695
-43.7259,-25.7683