84.1665,-53.4419
83.4797,-53.0033
82.7768,-52.5868
82.0622,-52.1968
81.3435,-51.8242
80.6208,-51.4535
79.8955,-51.0837
79.1622,-50.7284
78.4173,-50.4076
77.6606,-50.126
76.8943,-49.8644
76.1282,-49.5944
75.3774,-49.2874
74.6607,-48.9202
73.9946,-48.4807
73.3917,-47.9676
72.8675,-47.385
72.4531,-46.7373
72.1749,-46.0286
72.0313,-45.2713
71.9922,-44.4862
72.0318,-43.693
72.1589,-42.9127
72.3882,-42.1594
72.7197,-41.4375
73.1237,-40.7407
73.562,-40.0562
74.0135,-39.3778
74.468,-38.7023
74.9197,-38.0253
75.3568,-37.3398
75.7669,-36.6383
76.1501,-35.9206
76.5145,-35.1919
76.8657,-34.456
77.2009,-33.7133
77.5058,-32.9603
77.7653,-32.1918
77.9759,-31.408
78.146,-30.6126
78.2971,-29.8116
78.4474,-29.0116
78.6059,-28.2135
78.785,-27.4221
79.0029,-26.6445
79.2819,-25.8881
79.6233,-25.1561
80.0066,-24.4407
80.4046,-23.7308
80.7933,-23.016
81.1612,-22.2898
81.5092,-21.5543
81.8485,-20.8183
82.2043,-20.0974
82.6051,-19.4071
83.0592,-18.7483
83.5498,-18.1063
84.0449,-17.4618
84.5185,-16.8007
84.9621,-16.1196
85.3765,-15.4208
85.7714,-14.7089
86.1429,-13.987
86.4686,-13.2493
86.7276,-12.4901
86.9114,-11.7088
87.0325,-10.9125
87.1021,-10.1129
87.1101,-9.3201
87.0319,-8.5401
86.8575,-7.7725
86.6101,-7.0123
86.3229,-6.258
86.0059,-5.5173
85.6431,-4.8078
85.2079,-4.1529
84.6864,-3.5648
84.0942,-3.0354
83.4569,-2.5477
82.7884,-2.0899
82.52,-1.8267
81.8577,-1.4806
81.1949,-1.1368
80.5437,-0.77909
79.8927,-0.41399
79.2009,-0.16821
78.4564,-0.11625
77.7187,-0.073391
-48.5043,-38.7887