90.6191,-332.1159
90.9864,-331.9547
91.3511,-331.7911
91.7177,-331.6299
92.0837,-331.4672
92.4487,-331.3045
92.8159,-331.143
93.1803,-330.9793
93.5471,-330.818
93.904,-330.6375
94.2509,-330.4389
94.5998,-330.2412
94.9459,-330.0416
95.2943,-329.8435
95.639,-329.6403
95.9834,-329.4367
96.3302,-329.2356
96.6727,-329.03
97.0178,-328.8257
97.3569,-328.6138
97.7001,-328.4077
98.0411,-328.1973
98.3607,-327.9576
98.6817,-327.7172
99.0007,-327.4764
99.321,-327.2359
99.6421,-326.9965
99.9547,-326.7477
100.2741,-326.5042
100.5825,-326.2515
100.9043,-326.0101
101.2118,-325.7566
101.4342,-325.4266
101.6402,-325.0821
101.8531,-324.7439
102.0909,-324.4276
102.405,-324.1805
102.7235,-323.9365
103.036,-323.688
103.3512,-323.4402
103.6329,-323.1564
103.9164,-322.8736
104.2015,-322.5925
104.4816,-322.3067
104.758,-322.0175
105.0212,-321.7151
105.2954,-321.4245
105.5581,-321.1208
105.833,-320.8321
106.1727,-320.6221
106.5233,-320.4267
106.8631,-320.2168
107.2136,-320.0212
107.5414,-319.7962
107.8267,-319.5165
108.1028,-319.2259
108.3867,-318.944
108.6648,-318.656
108.955,-318.381
109.2648,-318.1274
109.5729,-317.8722
109.8844,-317.6204
110.1917,-317.3643
110.4794,-317.0862
110.7622,-316.8027
111.0468,-316.5214
111.3312,-316.2396
111.6281,-315.9718
111.9354,-315.7149
112.2399,-315.4554
112.5468,-315.1984
112.849,-314.9359
113.139,-314.6602
113.4299,-314.385
113.7191,-314.1083
114.0101,-313.8336
114.3175,-313.5781
114.6381,-313.3388
114.9598,-313.1001
115.2791,-312.8593
115.6018,-312.6218
115.8983,-312.3569
116.1521,-312.048
116.4042,-311.7367
116.656,-311.4256
116.9105,-311.117
117.2108,-310.8556
117.5332,-310.6174
117.8474,-310.3702
118.17,-310.1323
118.4754,-309.8756
118.7453,-309.5804
119.012,-309.2817
119.2792,-308.9836
119.5501,-308.6893
119.8443,-308.418
120.143,-308.1513
120.4372,-307.8802
120.7351,-307.6124
121.0302,-307.3422
121.3259,-307.0723
121.6218,-306.8027
121.9169,-306.5324
122.2128,-306.2626
122.5034,-305.9876
122.7921,-305.7102
123.0826,-305.4347
123.3706,-305.1569
123.6439,-304.8651
123.9021,-304.5593
124.1616,-304.2543
124.4207,-303.9494
124.6795,-303.644
124.9426,-303.3422
125.206,-303.0411
125.4675,-302.7376
125.733,-302.4385
126.0268,-302.1679
126.3352,-301.9117
126.6348,-301.6473
126.9431,-301.3907
127.2201,-301.1066
127.4414,-300.7735
127.6599,-300.4379
127.879,-300.103
128.099,-299.7685
128.3481,-299.4567
128.6145,-299.1577
128.8817,-298.8599
129.1464,-298.5594
129.4189,-298.2665
129.7111,-297.9934
130.0082,-297.7247
130.3016,-297.4527
130.5831,-297.1691
130.8435,-296.865
131.1016,-296.5591
131.3633,-296.2562
131.6209,-295.9498
131.8772,-295.6424
132.1294,-295.3314
132.3829,-295.0218
132.6362,-294.7117
132.8903,-294.4026
133.1588,-294.1057
133.4278,-293.8092
133.6952,-293.5115
133.9656,-293.2161
134.2316,-292.9173
134.5002,-292.6201
134.7631,-292.3186
135.0317,-292.0215
135.2949,-291.7202
135.512,-291.3842
135.724,-291.0445
135.9398,-290.7074
136.1528,-290.3686
136.4147,-290.0685
136.6992,-289.787
136.9811,-289.503
137.268,-289.2232
137.5343,-288.9262
137.7801,-288.61
138.0164,-288.2872
138.2613,-287.9701
138.4791,-287.6371
138.6373,-287.269
138.7984,-286.9036
138.9518,-286.5322
139.1171,-286.1696
139.3815,-285.8755
139.6789,-285.6047
139.9611,-285.323
140.2563,-285.0508
140.532,-284.7624
140.7811,-284.4492
141.0265,-284.1326
141.2736,-283.8181
141.5198,-283.5021
141.7607,-283.1827
142.001,-282.8625
142.2421,-282.5429
142.4825,-282.223
142.7161,-281.8979
142.941,-281.5669
143.1643,-281.2346
143.3897,-280.9039
143.6117,-280.5709
143.8235,-280.2311
144.0362,-279.8923
144.2458,-279.5509
144.4607,-279.2136
144.7147,-278.9048
144.9785,-278.6032
145.2361,-278.2972
145.4974,-277.9938
145.7137,-277.6602
145.8939,-277.3023
146.0819,-276.9496
146.259,-276.5896
146.4491,-276.2383
146.698,-275.927
146.9675,-275.6296
147.2248,-275.324
147.4925,-275.0256
147.7406,-274.7132
147.9395,-274.3664
148.1327,-274.0153
148.3306,-273.6677
148.5247,-273.3174
148.7272,-272.9723
148.931,-272.6278
149.1355,-272.2836
149.3403,-271.9398
149.5452,-271.5958
149.7553,-271.2551
149.9646,-270.9139
150.1736,-270.5725
150.3844,-270.2323
150.6063,-269.8993
150.8382,-269.5729
151.0644,-269.2429
151.2966,-268.9165
151.5216,-268.5858
151.719,-268.2377
151.9131,-267.8875
152.1094,-267.5387
152.3042,-267.189
152.4942,-266.8369
152.6727,-266.4784
152.8543,-266.1219
153.0316,-265.7628
153.2142,-265.4067
153.431,-265.0706
153.6545,-264.7382
153.8733,-264.4033
154.0952,-264.07
154.2885,-263.7206
154.4589,-263.3584
154.6316,-262.9973
154.8009,-262.6346
154.9753,-262.2743
155.1635,-261.9211
155.3541,-261.5691
155.5436,-261.2165
155.7329,-260.8638
155.9104,-260.5053
156.0758,-260.1407
156.2442,-259.7776
156.4095,-259.413
156.5775,-259.0498
156.7634,-258.6952
156.9515,-258.3419
157.138,-257.9878
157.3264,-257.6345
157.5254,-257.2878
157.7405,-256.9497
157.9503,-256.6094
158.1669,-256.272
158.3524,-255.9213
158.4551,-255.5352
158.5495,-255.1454
158.6508,-254.7587
158.7476,-254.37
158.912,-254.0092
159.1174,-253.6654
159.3179,-253.3194
159.5253,-252.9764
159.7082,-252.6218
159.8587,-252.251
160.0049,-251.8783
160.1521,-251.5061
160.3027,-251.1353
160.4721,-250.7728
160.649,-250.4134
160.8182,-250.0509
160.9935,-249.6909
161.1318,-249.3179
161.2165,-248.9265
161.3058,-248.5367
161.3874,-248.1443
161.4797,-247.7553
161.6271,-247.3836
161.783,-247.0144
161.9324,-246.6435
162.0861,-246.2736
162.2424,-245.9053
162.4109,-245.5422
162.5779,-245.1784
162.7476,-244.8159
162.9092,-244.45
163.0328,-244.0695
163.1488,-243.6861
163.2726,-243.3056
163.3893,-242.9226
163.5205,-242.5448
163.6746,-242.1755
163.8304,-241.8067
163.9856,-241.4377
164.1413,-241.069
164.2869,-240.6963
164.4217,-240.3194
164.5515,-239.9408
164.6878,-239.5643
164.8172,-239.1856
164.9156,-238.7977
165.0093,-238.4086
165.1038,-238.0195
165.2011,-237.6315
165.3451,-237.2592
165.5102,-236.894
165.6656,-236.5256
165.8306,-236.1604
165.9737,-235.7876
166.0791,-235.4017
166.1804,-235.0143
166.2839,-234.6278
166.3867,-234.2408
166.5027,-233.8581
166.6348,-233.4802
166.7665,-233.1021
166.8984,-232.7243
167.0294,-232.346
167.1471,-231.9635
167.2638,-231.5805
167.3819,-231.198
167.4983,-230.8151
167.6221,-230.4344
167.7457,-230.0537
167.8692,-229.673
167.9938,-229.2925
168.1083,-228.9091
168.2138,-228.523
168.3171,-228.1363
168.4217,-227.7499
168.5264,-227.3635
168.6357,-226.9785
168.7498,-226.5948
168.8603,-226.2101
168.9747,-225.8265
169.0843,-225.4415
169.1758,-225.0519
169.2656,-224.6618
169.356,-224.2719
169.4468,-223.882
169.5509,-223.4956
169.6604,-223.1106
169.7677,-222.7249
169.8775,-222.34
169.98,-221.9532
170.0664,-221.5624
170.1497,-221.1708
170.236,-220.78
170.3198,-220.3886
170.4135,-219.9995
170.5171,-219.6128
170.6186,-219.2257
170.7241,-218.8394
170.8204,-218.4512
170.8897,-218.057
170.9531,-217.6617
171.0209,-217.2673
171.0869,-216.8725
171.1731,-216.482
171.275,-216.0946
171.3686,-215.7058
171.4731,-215.3188
171.5639,-214.9296
171.5975,-214.5312
171.6197,-214.131
171.6514,-213.7323
171.6759,-213.3326
171.7246,-212.936
171.7996,-212.5429
171.8754,-212.1498
171.9515,-211.7568
172.0263,-211.3636
172.0999,-210.9701
172.173,-210.5766
172.2461,-210.183
172.3197,-209.7896
172.3936,-209.3962
172.4691,-209.003
172.543,-208.6097
172.6187,-208.2166
172.6846,-207.822
172.7284,-207.4242
172.7707,-207.0261
172.8141,-206.6282
172.8569,-206.2302
172.9107,-205.8336
172.9659,-205.4371
173.02,-205.0405
173.0753,-204.6441
173.1237,-204.2467
173.1688,-203.849
173.2138,-203.4513
173.2584,-203.0535
173.305,-202.6559
173.3537,-202.2586
173.4017,-201.8612
173.4518,-201.464
173.4981,-201.0665
173.5217,-200.6671
173.5382,-200.2669
173.5616,-199.8675
173.5787,-199.4674
173.619,-199.07
173.6935,-198.6768
173.7675,-198.2835
173.8448,-197.8905
173.9166,-197.497
173.948,-197.0987
173.9607,-196.6984
173.9802,-196.2988
173.9941,-195.8986
174.0121,-195.4988
174.0484,-195.1002
174.0878,-194.7019
174.1263,-194.3035
174.1657,-193.9051
174.1968,-193.5061
174.2192,-193.1065
174.2389,-192.7067
174.2617,-192.307
174.2815,-191.9073
174.2908,-191.5071
174.2982,-191.1069
174.3061,-190.7067
174.3144,-190.3065
174.3199,-189.9063
174.3152,-189.506
174.3092,-189.1058
174.3041,-188.7055
174.2986,-188.3053
174.2996,-187.905
174.3027,-187.5047
174.3059,-187.1045
174.3087,-186.7042
174.3135,-186.304
174.3256,-185.9039
174.3393,-185.5038
174.3515,-185.1037
174.3651,-184.7037
174.3859,-184.304
174.4132,-183.9046
174.4386,-183.5051
174.4664,-183.1058
174.4893,-182.7063
174.4946,-182.3061
174.4956,-181.9058
174.5008,-181.5055
174.5023,-181.1052
174.4947,-180.7051
174.4794,-180.3051
174.4634,-179.9052
174.4495,-179.5051
174.4272,-179.1056
174.3881,-178.7073
174.3464,-178.3091
174.3062,-177.9109
174.2658,-177.5127
174.2473,-177.1132
174.2446,-176.7129
174.2394,-176.3127
174.2365,-175.9124
174.2207,-175.5126
174.1879,-175.1137
174.155,-174.7148
174.1216,-174.3159
174.089,-173.9169
174.0617,-173.5176
174.0366,-173.1181
174.011,-172.7186
173.9857,-172.3192
173.9577,-171.9199
173.9223,-171.5212
173.8864,-171.1225
173.8511,-170.7238
173.8153,-170.3251
173.7883,-169.9257
173.7636,-169.5262
173.7375,-169.1268
173.7134,-168.7272
173.6737,-168.3293
173.6155,-167.9333
173.5561,-167.5374
173.4964,-167.1416
173.4411,-166.7452
173.4041,-166.3467
173.3721,-165.9476
173.3342,-165.5492
173.3025,-165.1501
173.261,-164.7522
173.1932,-164.3578
173.1215,-163.9639
173.0524,-163.5697
172.9819,-163.1756
172.9212,-162.7801
172.8675,-162.3834
172.8124,-161.9869
172.7595,-161.5901
172.7036,-161.1938
172.6322,-160.8
172.5552,-160.4071
172.4821,-160.0136
172.4056,-159.6207
172.3391,-159.2262
172.2894,-158.829
172.24,-158.4318
172.1913,-158.0344
172.1413,-157.6373
172.0809,-157.2417
172.0154,-156.8468
171.9503,-156.4519
171.8856,-156.0568
171.8061,-155.6649
171.7059,-155.2774
171.6046,-154.8901
171.5037,-154.5028
171.4033,-154.1153
171.315,-153.7249
171.2306,-153.3336
171.1438,-152.9429
171.0592,-152.5516
170.9776,-152.1597
170.8985,-151.7674
170.8189,-151.375
170.7397,-150.9827
170.6558,-150.5914
170.5599,-150.2028
170.4617,-149.8147
170.3667,-149.4258
170.2678,-149.038
170.1561,-148.6538
170.0357,-148.272
169.918,-147.8894
169.7987,-147.5073
169.688,-147.1229
169.5957,-146.7333
169.5027,-146.344
169.4104,-145.9545
169.3178,-145.5651
169.2082,-145.1803
169.0914,-144.7974
168.9743,-144.4146
168.8571,-144.0319
168.7407,-143.649
168.6207,-143.267
168.5034,-142.8844
168.3831,-142.5025
168.2655,-142.12
168.1754,-141.7305
168.0999,-141.3375
168.0251,-140.9441
167.9485,-140.5514
167.8394,-140.1677
167.6986,-139.7929
167.5592,-139.4177
167.4195,-139.0426
167.2802,-138.6673
167.1506,-138.2886
167.0186,-137.9107
166.8889,-137.532
166.7575,-137.1539
166.6088,-136.7823
166.4602,-136.4107
166.3097,-136.0396
166.1621,-135.6677
166.046,-135.285
165.9398,-134.899
165.8304,-134.514
165.7237,-134.1281
165.5984,-133.7484
165.4578,-133.3736
165.3161,-132.9993
165.1753,-132.6246
165.0337,-132.2501
164.8842,-131.8789
164.7319,-131.5086
164.5802,-131.1383
164.4279,-130.7681
164.2706,-130.4001
164.1032,-130.0365
163.9366,-129.6725
163.7691,-129.309
163.6048,-128.944
163.4569,-128.5721
163.3097,-128.1999
163.1622,-127.8277
163.0145,-127.4557
162.847,-127.0924
162.6697,-126.7335
162.4934,-126.3742
162.3163,-126.0152
162.1465,-125.6528
161.9808,-125.2884
161.8146,-124.9243
161.6493,-124.5597
161.4795,-124.1972
161.3037,-123.8377
161.1265,-123.4787
160.9506,-123.1191
160.7735,-122.7602
160.5867,-122.4063
160.3922,-122.0564
160.1986,-121.7061
160.0044,-121.3561
159.8104,-121.006
159.6185,-120.6546
159.4267,-120.3033
159.2353,-119.9518
159.0437,-119.6003
158.8556,-119.247
158.6716,-118.8915
158.485,-118.5374
158.302,-118.1813
158.1147,-117.8277
157.907,-117.4855
157.6961,-117.1453
157.4868,-116.8041
157.2779,-116.4627
157.0986,-116.1055
156.9352,-115.7398
156.7656,-115.3776
156.6027,-115.0115
156.41,-114.6632
156.1688,-114.3442
155.9243,-114.027
155.681,-113.7092
155.4383,-113.3909
155.214,-113.0596
154.9937,-112.7252
154.771,-112.3927
154.5504,-112.0587
154.3292,-111.7251
154.1099,-111.3902
153.8902,-111.0555
153.6708,-110.7208
153.4509,-110.3863
153.2255,-110.0556
152.9993,-109.7253
152.7739,-109.3945
152.548,-109.0641
152.3294,-108.7288
152.1176,-108.3892
151.9043,-108.0505
151.6929,-107.7105
151.4794,-107.372
151.2549,-107.0406
151.0282,-106.7107
150.8031,-106.3797
150.5767,-106.0495
150.3419,-105.7257
150.0936,-105.4116
149.846,-105.0972
149.5978,-104.7831
149.3589,-104.4625
149.1449,-104.1243
148.9312,-103.7857
148.7172,-103.4475
148.5036,-103.1089
148.2756,-102.78
148.0474,-102.4511
147.8176,-102.1234
147.5899,-101.794
147.3597,-101.4667
147.103,-101.1598
146.8413,-100.8569
146.5823,-100.5517
146.3206,-100.2487
146.0551,-99.9497
145.7752,-99.663
145.5005,-99.3726
145.2186,-99.0873
144.9462,-98.7952
144.7425,-98.4521
144.5554,-98.0968
144.3538,-97.7523
144.1663,-97.3972
143.9427,-97.0693
143.6663,-96.7805
143.3839,-96.4963
143.1039,-96.2105
142.8247,-95.9236
142.559,-95.6245
142.3007,-95.3186
142.0392,-95.0156
141.7792,-94.7112
141.5057,-94.4195
141.2177,-94.1413
140.9347,-93.8585
140.6456,-93.5813
140.3675,-93.2941
140.1222,-92.9781
139.881,-92.6585
139.6371,-92.3411
139.3949,-92.0225
139.1477,-91.7077
138.8985,-91.3943
138.6468,-91.0833
138.3992,-90.7684
138.1455,-90.4593
137.8656,-90.1733
137.5788,-89.8937
137.2983,-89.6084
137.0131,-89.3273
136.7356,-89.0392
136.4712,-88.7385
136.2049,-88.4398
135.9421,-88.1378
135.6726,-87.842
135.3787,-87.5707
135.0812,-87.3025
134.7862,-87.0322
134.4899,-86.763
134.2034,-86.4834
133.9196,-86.2012
133.6352,-85.9195
133.3512,-85.6374
133.0771,-85.3465
132.8236,-85.0366
132.5709,-84.7263
132.3172,-84.4165
132.0645,-84.1061
131.8006,-83.8053
131.5348,-83.5058
131.2678,-83.2079
131.0026,-82.9077
130.7323,-82.613
130.438,-82.3418
130.1402,-82.0741
129.8459,-81.803
129.5485,-81.5347
129.2558,-81.262
128.9625,-80.9894
128.669,-80.7172
128.3767,-80.4439
128.0888,-80.1657
127.8093,-79.8794
127.5293,-79.5933
127.2485,-79.308
126.9698,-79.0207
126.6982,-78.7266
126.4302,-78.4294
126.1589,-78.135
125.8898,-77.8387
125.5957,-77.5701
125.2713,-77.3349
124.9509,-77.096
124.6246,-76.8629
124.3056,-76.6221
124.0286,-76.3344
123.7623,-76.0345
123.4881,-75.7439
123.221,-75.4447
122.9396,-75.1616
122.6307,-74.9074
122.3182,-74.6567
122.008,-74.4043
121.6978,-74.1508
121.3949,-73.8895
121.093,-73.6266
120.7896,-73.3653
120.4877,-73.1028
120.1832,-72.8425
119.8778,-72.5842
119.5728,-72.3247
119.2666,-72.0668
118.9627,-71.8066
118.6651,-71.5386
118.369,-71.2696
118.072,-71.0009
117.7753,-70.7324
117.4728,-70.4706
117.1655,-70.2135
116.8583,-69.9575
116.5518,-69.6996
116.2417,-69.4468
115.9193,-69.2098
115.5939,-68.9762
115.2714,-68.7397
114.9465,-68.5053
114.6219,-68.2714
114.2942,-68.0416
113.9671,-67.8106
113.6388,-67.5819
113.3133,-67.3488
113.0196,-67.0782
112.7364,-66.7941
112.4428,-66.5229
112.1615,-66.237
111.8652,-65.9692
111.5259,-65.7592
111.1766,-65.5618
110.8345,-65.3545
110.4883,-65.154
110.1476,-64.9434
109.8193,-64.7152
109.4899,-64.4872
109.1615,-64.2583
108.8328,-64.0304
108.4949,-63.815
108.1562,-63.6027
107.8169,-63.3897
107.4774,-63.1777
107.1496,-62.9495
106.834,-62.7025
106.5211,-62.4536
106.2058,-62.2065
105.892,-61.9581
105.5776,-61.7107
105.2619,-61.4639
104.9483,-61.2161
104.6324,-60.9694
104.3186,-60.7213
104.0073,-60.4697
103.6941,-60.22
103.3845,-59.9668
103.0703,-59.7184
102.7315,-59.5094
102.3745,-59.3278
102.0203,-59.1407
101.6646,-58.9585
101.3095,-58.7722
100.9688,-58.5632
100.6291,-58.3512
100.2879,-58.1413
99.9487,-57.93
99.5979,-57.7362
99.2409,-57.5566
98.8843,-57.3744
98.5252,-57.1966
98.1741,-57.0069
97.8425,-56.7817
97.517,-56.5496
97.1864,-56.3235
96.8589,-56.0931
96.5281,-55.8687
96.1946,-55.6458
95.8635,-55.4223
95.5304,-55.1994
95.1977,-54.977
94.8524,-54.7758
94.5004,-54.5833
94.1537,-54.3854
93.8017,-54.1929
93.4523,-53.9985
93.1005,-53.808
92.7458,-53.6207
92.3968,-53.4269
92.0333,-53.2591
91.6552,-53.1316
91.274,-53.0096
90.8912,-52.8874
90.5151,-52.7587
90.1785,-52.5528
89.8813,-52.2825
89.556,-52.0563
89.1944,-51.8858
88.8242,-51.7341
88.4585,-51.569
88.1198,-51.3603
87.7873,-51.1367
87.4573,-50.909
87.1253,-50.6881
86.7685,-50.5039
86.4098,-50.3295
86.0507,-50.1507
85.6909,-49.9748
85.3303,-49.8043
84.9621,-49.6416
84.6013,-49.4742
84.2324,-49.3136
83.8705,-49.1444
83.5332,-48.9323
83.2001,-48.706
82.8689,-48.486
82.5342,-48.2624
82.1993,-48.0453
81.855,-47.8424
81.5078,-47.6386
81.1671,-47.4349
80.8179,-47.2325
80.4989,-46.9969
80.1987,-46.7323
79.8873,-46.4784
79.5661,-46.2469
79.2261,-46.025
78.918,-45.7786
78.6418,-45.4891
78.3906,-45.1732
78.1517,-44.8598
77.9072,-44.5334
77.6828,-44.2113
77.3343,-43.9922
77.02,-43.7653
77.031,-43.3799
77.0402,-42.9735
76.9213,-42.5988
76.877,-42.1948
76.8247,-41.8007
76.7704,-41.4046
76.7583,-41.0016
76.7479,-40.6061
76.7467,-40.2017
76.7402,-39.8037
76.7329,-39.4036
76.7097,-39.002
76.6803,-38.6059
76.6577,-38.2031
76.6294,-37.8059
76.6186,-37.4055
76.6126,-37.0038
76.6064,-36.6064
76.6012,-36.2029
76.6799,-35.8255
76.8663,-35.4696
76.9734,-35.0928
77.0004,-34.6962
77.0165,-34.2922
77.0485,-33.8974
77.1981,-33.5267
77.3728,-33.1639
77.5225,-32.7962
77.6951,-32.4306
77.8394,-32.0609
77.9791,-31.6837
78.1164,-31.308
78.2487,-30.9316
78.3909,-30.5548
78.5197,-30.1786
78.6597,-29.8014
78.7923,-29.4246
78.938,-29.0531
79.1247,-28.6966
79.3042,-28.3421
79.4931,-27.986
79.6727,-27.6302
79.8147,-27.2562
79.9522,-26.8785
80.0907,-26.5057
80.2304,-26.1277
80.3693,-25.7544
80.5122,-25.3798
80.6555,-25.0051
80.7962,-24.6326
80.9411,-24.2566
81.0808,-23.884
81.2242,-23.5089
81.3662,-23.1345
81.5062,-22.7612
81.6519,-22.3856
81.8064,-22.0195
81.973,-21.6529
82.1272,-21.2848
82.2939,-20.921
82.4246,-20.5448
82.4499,-20.1491
82.4648,-19.7459
82.479,-19.3479
82.4684,-18.9474
82.4683,-18.5458
82.4576,-18.1479
82.4415,-17.7457
82.4143,-17.3478
82.3962,-16.9478
82.3693,-16.5468
82.3005,-16.1565
82.3514,-15.7795
82.54,-15.4269
82.7184,-15.0691
82.9158,-14.7202
83.1713,-14.4151
83.3841,-14.0833
83.4844,-13.6995
83.5586,-13.3027
83.6723,-12.9198
83.8613,-12.5791
84.1178,-12.2536
84.2181,-11.9057
84.1151,-11.5308
83.9641,-11.1491
83.8568,-10.7728
83.9166,-10.3745
83.9754,-9.9822
83.8088,-9.6342
83.5809,-9.2992
83.3763,-8.9609
83.1447,-8.6292
82.9168,-8.3032
82.6858,-7.9759
82.4502,-7.6503
82.2454,-7.3113
82.0818,-6.944
81.927,-6.5762
81.7674,-6.2087
81.6082,-5.8407
81.4295,-5.4847
81.2426,-5.128
81.0599,-4.7743
80.8743,-4.4182
80.6906,-4.0624
80.5028,-3.711
80.3008,-3.3617
80.0956,-3.0233
79.9142,-2.6599
79.6829,-2.3509
79.3314,-2.1751
78.9716,-1.9897
78.6504,-1.7557
78.3119,-1.5392
77.9699,-1.3321
77.6141,-1.1544
77.2473,-0.98496
76.8955,-0.80044
76.5294,-0.63541
76.1482,-0.51717
75.7601,-0.43246
75.3666,-0.33166
74.9836,-0.24123
74.5892,-0.14738
74.2021,-0.049561
