104.5996,-318.8986
104.9113,-318.6789
105.2257,-318.4624
105.5377,-318.243
105.8513,-318.0256
106.1505,-317.7899
106.4344,-317.5351
106.7187,-317.2806
107.0027,-317.0258
107.2866,-316.7709
107.5694,-316.5148
107.8497,-316.2559
108.1308,-315.998
108.4113,-315.7393
108.6921,-315.481
108.9651,-315.2148
109.2259,-314.9363
109.4868,-314.658
109.7481,-314.3799
110.0085,-314.101
110.2702,-313.8234
110.5304,-313.5443
110.7919,-313.2666
111.0527,-312.9881
111.3134,-312.7094
111.5751,-312.4318
111.8349,-312.1523
112.0973,-311.8755
112.3566,-311.5953
112.6195,-311.3191
112.9056,-311.067
113.1972,-310.8206
113.4835,-310.5687
113.7752,-310.3224
114.0609,-310.0698
114.3348,-309.8042
114.6062,-309.536
114.8785,-309.2688
115.1514,-309.0021
115.416,-308.7275
115.6694,-308.4423
115.9222,-308.1565
116.1743,-307.8701
116.4285,-307.5857
116.7013,-307.3198
116.9865,-307.0661
117.2686,-306.8094
117.5527,-306.5546
117.8362,-306.2992
118.1153,-306.0392
118.3956,-305.7802
118.6749,-305.5203
118.9542,-305.2604
119.2355,-305.0026
119.518,-304.7462
119.8026,-304.4919
120.0858,-304.2364
120.3689,-303.9807
120.6486,-303.721
120.9236,-303.4567
121.2018,-303.1955
121.4779,-302.9321
121.7541,-302.6691
122.0318,-302.4072
122.3063,-302.1425
122.5841,-301.8806
122.8604,-301.6177
123.1498,-301.3698
123.4528,-301.1366
123.745,-300.893
124.0508,-300.6623
124.3402,-300.4161
124.5658,-300.1096
124.7838,-299.7958
125.0036,-299.4838
125.2276,-299.1757
125.5102,-298.9227
125.8134,-298.689
126.1044,-298.4437
126.406,-298.2087
126.6952,-297.9608
126.9653,-297.6916
127.2339,-297.4202
127.5021,-297.1492
127.7714,-296.8787
128.0389,-296.6066
128.3055,-296.3338
128.5721,-296.0608
128.8387,-295.7879
129.105,-295.5146
129.3641,-295.2346
129.6211,-294.9526
129.8798,-294.6721
130.1368,-294.3902
130.3954,-294.1095
130.6549,-293.8299
130.9147,-293.5505
131.1743,-293.2709
131.4343,-292.9916
131.6897,-292.7083
131.9326,-292.4141
132.1747,-292.1193
132.4171,-291.8245
132.6602,-291.5306
132.9244,-291.2558
133.1967,-290.9883
133.4656,-290.7178
133.7376,-290.4501
133.9875,-290.1632
134.2146,-289.8566
134.4423,-289.5505
134.6682,-289.243
134.8972,-288.9378
135.1341,-288.6388
135.372,-288.3405
135.6101,-288.0424
135.8469,-287.7432
136.0891,-287.4485
136.3423,-287.1632
136.5973,-286.8793
136.8512,-286.5946
137.1056,-286.3102
137.3589,-286.0248
137.6119,-285.7393
137.8642,-285.4531
138.1179,-285.1681
138.3696,-284.8814
138.6077,-284.5835
138.8379,-284.2792
139.0705,-283.9768
139.3013,-283.6729
139.5357,-283.372
139.781,-283.0798
140.0276,-282.7886
140.2724,-282.496
140.5198,-282.2055
140.7618,-281.9106
140.9887,-281.604
141.211,-281.2938
141.4378,-280.9871
141.6607,-280.6773
141.8866,-280.3699
142.1268,-280.0735
142.3686,-279.7784
142.6101,-279.483
142.8514,-279.1874
143.0732,-278.8779
143.2773,-278.5554
143.4818,-278.2334
143.6861,-277.9111
143.8904,-277.5889
144.1109,-277.2782
144.3488,-276.98
144.5879,-276.6826
144.8254,-276.384
145.0648,-276.0869
145.2944,-275.7825
145.5103,-275.4679
145.7246,-275.1523
145.9398,-274.8372
146.155,-274.5222
146.3834,-274.2169
146.623,-273.9199
146.8602,-273.6211
147.1002,-273.3244
147.3374,-273.0256
147.5554,-272.713
147.7639,-272.3934
147.974,-272.075
148.1831,-271.7558
148.3928,-271.437
148.6051,-271.12
148.8179,-270.8033
149.0303,-270.4864
149.2432,-270.1697
149.4556,-269.8528
149.6676,-269.5356
149.8796,-269.2184
150.0911,-268.9008
150.3036,-268.5839
150.5138,-268.2655
150.7171,-267.9427
150.9188,-267.6188
151.1217,-267.2957
151.324,-266.9722
151.523,-266.6467
151.7161,-266.3177
151.9082,-265.9879
152.1014,-265.659
152.2935,-265.3293
152.4846,-264.9991
152.6742,-264.668
152.8644,-264.3372
153.054,-264.0061
153.2444,-263.6755
153.4414,-263.3488
153.6397,-263.0228
153.8367,-262.696
154.0349,-262.37
154.2303,-262.0424
154.424,-261.7136
154.6173,-261.3847
154.8108,-261.0558
155.0042,-260.7269
155.191,-260.3943
155.3736,-260.0593
155.5567,-259.7246
155.7393,-259.3896
155.9222,-259.0547
156.0997,-258.717
156.2726,-258.3769
156.4465,-258.0373
156.6194,-257.6972
156.7952,-257.3586
156.9754,-257.0223
157.1549,-256.6856
157.3359,-256.3497
157.5146,-256.0126
157.6849,-255.6712
157.8528,-255.3286
158.0227,-254.987
158.1913,-254.6447
158.3542,-254.2997
158.512,-253.9524
158.6696,-253.6049
158.8276,-253.2576
158.9852,-252.9101
159.1454,-252.5639
159.3083,-252.2188
159.471,-251.8737
159.6338,-251.5287
159.7967,-251.1837
159.9574,-250.8376
160.1157,-250.4904
160.2733,-250.143
160.4316,-249.7958
160.5893,-249.4484
160.743,-249.0992
160.8942,-248.7489
161.0464,-248.3991
161.1972,-248.0485
161.3556,-247.7017
161.5317,-247.3633
161.7106,-247.0262
161.8865,-246.6877
162.0654,-246.3506
162.2318,-246.0077
162.3808,-245.6564
162.5277,-245.3043
162.6763,-244.9529
162.8236,-244.6009
162.9683,-244.2479
163.1104,-243.8938
163.2527,-243.5398
163.3952,-243.1859
163.5369,-242.8316
163.6757,-242.4762
163.8132,-242.1203
163.9521,-241.765
164.0897,-241.4091
164.2294,-241.0541
164.3742,-240.7011
164.519,-240.3481
164.6643,-239.9953
164.8088,-239.6422
164.949,-239.2873
165.0874,-238.9318
165.2259,-238.5763
165.3648,-238.2209
165.5014,-237.8647
165.6344,-237.507
165.7655,-237.1488
165.8989,-236.7912
166.0296,-236.4329
166.1364,-236.0673
166.2234,-235.6957
166.3133,-235.325
166.4005,-234.9535
166.4902,-234.5827
166.6033,-234.2187
166.729,-233.8584
166.8535,-233.4978
166.9785,-233.1373
167.1037,-232.7769
167.233,-232.418
167.3656,-232.0602
167.496,-231.7017
167.6292,-231.344
167.7593,-230.9854
167.8706,-230.6208
167.9709,-230.2526
168.0729,-229.885
168.1742,-229.5172
168.2741,-229.1489
168.3702,-228.7797
168.4641,-228.4098
168.5605,-228.0407
168.6546,-227.6709
168.7554,-227.303
168.8683,-226.9386
168.9803,-226.5739
169.0946,-226.2098
169.2056,-225.8449
169.2977,-225.4747
169.384,-225.103
169.4733,-224.7321
169.5606,-224.3607
169.6489,-223.9895
169.7373,-223.6183
169.8251,-223.247
169.9137,-222.8759
170.0018,-222.5047
170.0881,-222.133
170.1708,-221.7606
170.2525,-221.3879
170.3354,-221.0155
170.4172,-220.6428
170.4975,-220.2698
170.5766,-219.8965
170.656,-219.5234
170.7354,-219.1502
170.8147,-218.777
170.8957,-218.4041
170.9766,-218.0313
171.0575,-217.6584
171.1386,-217.2856
171.2164,-216.9121
171.2906,-216.5378
171.3644,-216.1635
171.4383,-215.7892
171.5125,-215.4149
171.5917,-215.0417
171.6746,-214.6693
171.7557,-214.2965
171.8391,-213.9241
171.9191,-213.5511
171.9874,-213.1757
172.0534,-212.7999
172.1213,-212.4245
172.1878,-212.0488
172.2556,-211.6733
172.3239,-211.2979
172.3915,-210.9225
172.4604,-210.5472
172.5274,-210.1716
172.5828,-209.7942
172.6301,-209.4155
172.6813,-209.0375
172.7278,-208.6587
172.7797,-208.2808
172.8632,-207.9088
172.9561,-207.5386
173.0427,-207.1672
173.1353,-206.7969
173.209,-206.4232
173.2514,-206.0442
173.2904,-205.6645
173.3317,-205.2853
173.3716,-204.9058
173.418,-204.5272
173.4693,-204.1491
173.5208,-203.771
173.5721,-203.393
173.6239,-203.015
173.6794,-202.6375
173.7364,-202.2602
173.7921,-201.8828
173.8493,-201.5055
173.9049,-201.1281
173.9552,-200.7499
174.0038,-200.3714
174.0528,-199.9931
174.1025,-199.6148
174.1437,-199.2357
174.1668,-198.8549
174.186,-198.4737
174.2097,-198.093
174.2288,-197.7118
174.2556,-197.3314
174.3012,-196.9527
174.3503,-196.5742
174.3967,-196.1956
174.4449,-195.8171
174.4923,-195.4385
174.5416,-195.0601
174.5916,-194.6819
174.6398,-194.3034
174.6909,-193.9252
174.7265,-193.546
174.7322,-193.1646
174.7332,-192.7829
174.7386,-192.4015
174.7404,-192.0199
174.7494,-191.6385
174.7661,-191.2574
174.783,-190.8762
174.8001,-190.4951
174.8172,-190.1139
174.8418,-189.7332
174.8704,-189.3527
174.8958,-188.972
174.9254,-188.5916
174.9495,-188.2109
174.9572,-187.8295
174.9616,-187.4479
174.9678,-187.0664
174.9738,-186.6849
174.9741,-186.3035
174.9626,-185.9221
174.9498,-185.5408
174.9376,-185.1594
174.9259,-184.7781
174.939,-184.3975
174.9746,-184.0175
175.0076,-183.6375
175.0431,-183.2575
175.0766,-182.8775
175.0846,-182.4967
175.0755,-182.1152
175.0668,-181.7338
175.0577,-181.3523
175.049,-180.9709
175.0434,-180.5894
175.0384,-180.2079
175.0329,-179.8264
175.0278,-179.4449
175.0215,-179.0634
175.0135,-178.682
175.0054,-178.3005
174.9976,-177.919
174.9891,-177.5376
174.9791,-177.1562
174.9676,-176.7748
174.9569,-176.3934
174.9458,-176.0121
174.9346,-175.6307
174.9246,-175.2493
174.9129,-174.8679
174.9034,-174.4864
174.8915,-174.1051
174.8619,-173.725
174.8219,-173.3455
174.783,-172.966
174.7435,-172.5865
174.7042,-172.207
174.6641,-171.8275
174.6238,-171.4482
174.5837,-171.0687
174.5434,-170.6893
174.508,-170.3095
174.4775,-169.9291
174.448,-169.5488
174.4171,-169.1684
174.3879,-168.788
174.3689,-168.407
174.3533,-168.0258
174.3359,-167.6446
174.3202,-167.2634
174.2893,-166.8835
174.2383,-166.5054
174.1868,-166.1273
174.1352,-165.7493
174.0845,-165.3712
174.0483,-164.9914
174.0178,-164.6111
173.9832,-164.2311
173.9535,-163.8507
173.9186,-163.4708
173.8625,-163.0936
173.7989,-162.7173
173.7383,-162.3407
173.676,-161.9642
173.6141,-161.5877
173.5528,-161.2112
173.4903,-160.8348
173.4292,-160.4582
173.3667,-160.0818
173.2957,-159.707
173.2191,-159.3332
173.1436,-158.9592
173.0668,-158.5855
172.9915,-158.2114
172.925,-157.8358
172.8604,-157.4597
172.7943,-157.0839
172.7295,-156.7079
172.6626,-156.3323
172.5938,-155.957
172.5246,-155.5818
172.4556,-155.2066
172.3866,-154.8313
172.3132,-154.4569
172.2351,-154.0835
172.1555,-153.7103
172.0782,-153.3367
171.996,-152.9642
171.899,-152.5952
171.7984,-152.2272
171.7009,-151.8583
171.6012,-151.49
171.5026,-151.1214
171.404,-150.7528
171.3044,-150.3845
171.2062,-150.0158
171.1068,-149.6475
171.0106,-149.2783
170.9177,-148.9082
170.8238,-148.5384
170.7315,-148.1682
170.6374,-147.7985
170.5383,-147.43
170.4378,-147.0619
170.3373,-146.6939
170.2374,-146.3256
170.1342,-145.9584
170.0256,-145.5926
169.916,-145.2271
169.8071,-144.8615
169.6978,-144.4959
169.5893,-144.1301
169.4821,-143.764
169.3746,-143.3979
169.2673,-143.0318
169.16,-142.6656
169.0537,-142.2992
168.9492,-141.9322
168.8429,-141.5658
168.7393,-141.1985
168.6317,-140.8326
168.5033,-140.4733
168.37,-140.1157
168.2416,-139.7565
168.1092,-139.3987
167.9905,-139.0363
167.8863,-138.6692
167.7798,-138.3029
167.6777,-137.9352
167.5699,-137.5693
167.4412,-137.2102
167.307,-136.853
167.1767,-136.4945
167.0442,-136.1366
166.9035,-135.7821
166.7542,-135.431
166.6034,-135.0805
166.4542,-134.7294
166.3037,-134.3787
166.1516,-134.0288
165.9986,-133.6793
165.8454,-133.3299
165.6926,-132.9803
165.5389,-132.6311
165.3818,-132.2834
165.2237,-131.9362
165.067,-131.5883
164.9083,-131.2413
164.7563,-130.8915
164.6197,-130.5353
164.4854,-130.1781
164.3494,-129.8216
164.2143,-129.4648
164.0631,-129.1149
163.8954,-128.7722
163.7285,-128.4292
163.5607,-128.0864
163.3938,-127.7434
163.2393,-127.3946
163.092,-127.0426
162.9422,-126.6919
162.796,-126.3392
162.645,-125.9891
162.4647,-125.6535
162.2705,-125.3248
162.0811,-124.9938
161.8886,-124.6642
161.7172,-124.3243
161.5717,-123.9715
161.4228,-123.6203
161.2785,-123.267
161.1293,-122.9159
160.9525,-122.5782
160.7674,-122.2445
160.5849,-121.9095
160.4004,-121.5755
160.2097,-121.2451
160.0114,-120.9192
159.8146,-120.5923
159.6166,-120.2661
159.4192,-119.9396
159.2283,-119.6093
159.0393,-119.2779
158.8532,-118.9449
158.6634,-118.6137
158.4812,-118.2788
158.3228,-117.9317
158.1662,-117.5839
158.009,-117.2361
157.8513,-116.8888
157.6632,-116.5581
157.4528,-116.2397
157.2434,-115.9209
157.0335,-115.6023
156.8237,-115.2835
156.6187,-114.9618
156.415,-114.6391
156.2095,-114.3177
156.0068,-113.9944
155.8003,-113.6736
155.5799,-113.3623
155.3562,-113.0531
155.135,-112.7423
154.9121,-112.4326
154.683,-112.1276
154.4478,-111.8272
154.2143,-111.5255
153.9782,-111.2257
153.7469,-110.9224
153.5366,-110.6041
153.3304,-110.2831
153.1209,-109.9642
152.9134,-109.644
152.6988,-109.3286
152.4817,-109.0148
152.266,-108.7001
152.0489,-108.3864
151.8323,-108.0723
151.6127,-107.7603
151.3924,-107.4487
151.1732,-107.1364
150.953,-106.8248
150.7326,-106.5134
150.5087,-106.2045
150.2835,-105.8965
150.06,-105.5873
149.8349,-105.2792
149.6129,-104.9689
149.3947,-104.6559
149.1757,-104.3435
148.9581,-104.0301
148.739,-103.7177
148.5112,-103.4119
148.2766,-103.111
148.041,-102.8109
147.8074,-102.5092
147.5711,-102.2097
147.3235,-101.9195
147.0719,-101.6326
146.8231,-101.3433
146.572,-101.056
146.3317,-100.7601
146.1082,-100.4509
145.8855,-100.1412
145.6622,-99.8317
145.4393,-99.522
145.2129,-99.215
144.9859,-98.9082
144.758,-98.6024
144.5315,-98.2952
144.2963,-97.9953
144.0392,-97.7136
143.7779,-97.4352
143.5217,-97.1529
143.2597,-96.8751
143.0069,-96.5899
142.7828,-96.2815
142.5663,-95.9667
142.3416,-95.659
142.1256,-95.3438
141.8977,-95.0387
141.6292,-94.7684
141.3524,-94.505
141.0825,-94.2358
140.8076,-93.9708
140.5372,-93.7019
140.2687,-93.4308
139.9999,-93.1599
139.732,-92.8884
139.4634,-92.6173
139.2115,-92.3313
138.9717,-92.0346
138.7285,-91.7406
138.4898,-91.4428
138.2459,-91.1495
137.986,-90.8703
137.7224,-90.5945
137.461,-90.3165
137.1989,-90.0393
136.9278,-89.7712
136.644,-89.5163
136.3587,-89.2629
136.0747,-89.0081
135.7899,-88.7542
135.5122,-88.4928
135.2398,-88.2255
134.967,-87.9589
134.6944,-87.6918
134.4222,-87.4246
134.1602,-87.1475
133.908,-86.861
133.6519,-86.5786
133.4011,-86.2904
133.1437,-86.0094
132.8514,-85.7651
132.5497,-85.5305
132.2558,-85.288
131.9549,-85.0526
131.6686,-84.8018
131.4082,-84.5232
131.1501,-84.242
130.8911,-83.962
130.6319,-83.6819
130.3568,-83.4185
130.0676,-83.1696
129.7789,-82.92
129.4901,-82.6709
129.2011,-82.4216
128.916,-82.1681
128.6308,-81.9147
128.346,-81.6607
128.0607,-81.4076
127.778,-81.1513
127.5092,-80.8806
127.2428,-80.6075
126.9733,-80.3374
126.7073,-80.0639
126.4253,-79.8081
126.1225,-79.5762
125.8181,-79.3461
125.514,-79.1155
125.2109,-78.884
124.9203,-78.6371
124.6383,-78.3799
124.3537,-78.1262
124.0715,-77.869
123.7872,-77.6149
123.4829,-77.3857
123.1683,-77.1697
122.8552,-76.952
122.5406,-76.7357
122.2349,-76.5083
121.9403,-76.2658
121.6468,-76.0219
121.3525,-75.7793
121.0587,-75.5355
120.7694,-75.2871
120.4831,-75.0349
120.1963,-74.7831
119.91,-74.5312
119.6233,-74.2791
119.3383,-74.0256
119.0539,-73.7712
118.7687,-73.5176
118.4848,-73.2631
118.1935,-73.0166
117.8928,-72.782
117.5909,-72.5487
117.2897,-72.3143
116.9884,-72.0806
116.6799,-71.8562
116.3615,-71.6461
116.0427,-71.4366
115.724,-71.2265
115.4057,-71.0166
115.101,-70.7874
114.8064,-70.5449
114.5093,-70.3059
114.2155,-70.0618
113.9126,-69.8316
113.5816,-69.6424
113.2453,-69.4613
112.9143,-69.2725
112.5785,-69.0901
112.2693,-68.8722
111.9942,-68.6077
111.7185,-68.3443
111.4456,-68.0773
111.1681,-67.8157
110.8536,-67.6043
110.5202,-67.4173
110.192,-67.2236
109.8597,-67.0357
109.5312,-66.8415
109.2149,-66.6289
108.8997,-66.4132
108.5834,-66.2002
108.2685,-65.9848
107.9499,-65.7746
107.6245,-65.576
107.2975,-65.379
106.9714,-65.1809
106.6453,-64.9832
106.3252,-64.7754
106.0103,-64.5604
105.6941,-64.3465
105.3788,-64.1317
105.0633,-63.9174
104.7476,-63.7027
104.4329,-63.4874
104.117,-63.2733
103.8023,-63.0573
103.4814,-62.8523
103.1454,-62.6709
102.8078,-62.4936
102.4723,-62.3119
102.1341,-62.1346
101.8085,-61.9382
101.5014,-61.7115
101.1959,-61.4831
100.8902,-61.2548
100.5832,-61.028
100.2624,-60.8226
99.9358,-60.6244
99.6122,-60.4229
99.2865,-60.224
98.9606,-60.0252
98.6337,-59.8292
98.3058,-59.6332
97.979,-59.437
97.6517,-59.2408
97.3302,-59.0351
97.0111,-58.8266
96.6906,-58.6188
96.371,-58.4108
96.0517,-58.2021
95.7417,-57.9793
95.4348,-57.7533
95.1248,-57.5301
94.8172,-57.3048
94.491,-57.1097
94.1477,-56.9418
93.8078,-56.7703
93.4634,-56.6041
93.1237,-56.4316
92.8002,-56.2304
92.4819,-56.0188
92.1625,-55.8115
91.8433,-55.6013
91.524,-55.3929
91.1964,-55.1982
90.8639,-55.0095
90.5342,-54.8193
90.2016,-54.631
89.8717,-54.4398
89.5451,-54.2432
89.2178,-54.0456
88.8924,-53.8481
88.5647,-53.6514
88.2411,-53.4497
87.9244,-53.2377
87.6068,-53.0248
87.2912,-52.812
86.9733,-52.6
86.639,-52.4197
86.2878,-52.2721
85.9363,-52.121
85.5853,-51.9742
85.2347,-51.8223
84.9044,-51.6319
84.5801,-51.4321
84.25,-51.2386
83.9257,-51.0396
83.5979,-50.8432
83.2738,-50.6414
82.952,-50.4384
82.6251,-50.2388
82.3043,-50.0346
81.9734,-49.8438
81.6344,-49.668
81.2969,-49.4935
80.9547,-49.3197
80.6183,-49.1438
80.2893,-48.9511
79.9776,-48.7298
79.6703,-48.5067
79.3545,-48.2885
79.0491,-48.0628
78.7387,-47.84
78.4344,-47.608
78.1293,-47.3829
77.8271,-47.1471
77.5944,-46.8471
77.3648,-46.5422
77.1222,-46.2451
76.905,-45.9354
76.6394,-45.6528
76.4451,-45.3366
76.3826,-44.9694
76.3087,-44.5911
76.1704,-44.24
75.8588,-44.0406
75.528,-43.8764
75.49,-43.5447
75.5668,-43.1575
75.6015,-42.7891
75.6768,-42.4059
75.7543,-42.037
75.8344,-41.6643
75.9239,-41.2892
75.9975,-40.9205
76.0569,-40.5397
76.0875,-40.1617
76.1234,-39.782
76.16,-39.3999
76.1926,-39.0232
76.2689,-38.6469
76.3615,-38.2786
76.4519,-37.9083
76.5489,-37.537
76.6426,-37.1703
76.7365,-36.7976
76.8462,-36.4347
77.0038,-36.0886
77.1767,-35.7452
77.3332,-35.4008
77.5037,-35.0565
77.6579,-34.7089
77.7862,-34.3505
77.9165,-33.9897
78.0421,-33.632
78.1721,-33.2713
78.2936,-32.9104
78.4028,-32.5455
78.5176,-32.1799
78.6254,-31.8159
78.7395,-31.4503
78.8747,-31.0943
79.0186,-30.7418
79.1634,-30.387
79.3073,-30.0356
79.4428,-29.678
79.5485,-29.3119
79.6459,-28.9435
79.7542,-28.5763
79.8511,-28.2086
79.9724,-27.8471
80.1371,-27.5031
80.3037,-27.161
80.4714,-26.8164
80.6368,-26.4743
80.7757,-26.1189
80.8974,-25.757
81.0169,-25.3959
81.1393,-25.033
81.26,-24.6722
81.3731,-24.3076
81.4847,-23.942
81.5922,-23.5773
81.7015,-23.2106
81.8136,-22.8458
81.9118,-22.479
82.0345,-22.1131
82.1223,-21.7477
82.0243,-21.384
81.8875,-21.0222
81.8899,-20.6473
81.9201,-20.2677
81.9606,-19.8887
82.0009,-19.5082
81.9333,-19.1386
81.8296,-18.7714
81.7269,-18.4046
81.6142,-18.0383
81.5209,-17.671
81.3663,-17.3165
81.2368,-16.9637
81.2994,-16.6098
81.454,-16.2598
81.5975,-15.9055
81.7308,-15.55
81.8388,-15.1835
81.9413,-14.8151
82.0514,-14.452
82.1514,-14.0808
82.2214,-13.7108
82.2462,-13.3265
82.2992,-12.9501
82.4677,-12.6163
82.622,-12.2659
82.6233,-11.8898
82.5715,-11.5148
82.5115,-11.1349
82.4757,-10.7649
82.588,-10.3878
82.6547,-10.0255
82.458,-9.7295
82.1746,-9.458
81.9285,-9.1752
81.6849,-8.8797
81.4665,-8.5662
81.2545,-8.2514
81.0302,-7.9398
80.8176,-7.6249
80.6024,-7.3095
80.3878,-6.9928
80.1803,-6.6747
79.963,-6.3587
79.786,-6.0258
79.6685,-5.6624
79.5521,-5.2991
79.4361,-4.9362
79.3222,-4.5705
79.2428,-4.2036
79.2245,-3.8151
79.1187,-3.4707
78.8866,-3.1694
78.6235,-2.8907
78.2869,-2.7532
77.9235,-2.6433
77.6274,-2.4033
77.3413,-2.1499
77.0385,-1.9197
76.7146,-1.7226
76.3627,-1.5762
76.0172,-1.4091
75.6725,-1.251
75.322,-1.098
74.9761,-0.93285
74.6268,-0.78941
74.2764,-0.62589
73.9309,-0.47254
73.574,-0.34264
73.2019,-0.2385
72.8346,-0.18212
72.4532,-0.061929
72.1018,-0.034436
