103.4539,-320.8719
103.7709,-320.6597
104.0862,-320.4458
104.4022,-320.2326
104.7186,-320.0197
105.0339,-319.8059
105.3503,-319.5929
105.6662,-319.3797
105.9818,-319.1661
106.2981,-318.9531
106.6141,-318.7401
106.9292,-318.5256
107.2469,-318.3147
107.5603,-318.0982
107.8516,-317.8533
108.1311,-317.5939
108.4151,-317.3397
108.697,-317.083
108.9764,-316.8238
109.2503,-316.5588
109.5192,-316.2885
109.7934,-316.0237
110.0636,-315.7548
110.3177,-315.4718
110.5519,-315.1715
110.7811,-314.8662
111.0179,-314.5683
111.2456,-314.2617
111.4856,-313.9665
111.7644,-313.7074
112.0499,-313.454
112.3306,-313.1966
112.6144,-312.9419
112.8945,-312.6834
113.1737,-312.4239
113.451,-312.1623
113.7308,-311.9034
114.0075,-311.6413
114.2653,-311.3607
114.5186,-311.0758
114.7748,-310.7935
115.0289,-310.5094
115.2826,-310.225
115.5341,-309.9383
115.7869,-309.6532
116.0373,-309.3655
116.2972,-309.0877
116.5878,-308.8415
116.8845,-308.6015
117.1751,-308.3554
117.4706,-308.1142
117.7563,-307.8622
118.0339,-307.601
118.3136,-307.3419
118.5893,-307.0787
118.8698,-306.8205
119.163,-306.5773
119.4599,-306.3382
119.7553,-306.0971
120.0507,-305.8563
120.338,-305.606
120.6157,-305.3448
120.8953,-305.0859
121.1732,-304.8248
121.4538,-304.567
121.7507,-304.3279
122.0492,-304.0908
122.3457,-303.8515
122.6446,-303.6146
122.9224,-303.3555
123.1771,-303.0721
123.4304,-302.7871
123.6845,-302.503
123.9382,-302.2185
124.2035,-301.9455
124.4839,-301.6872
124.7651,-301.4298
125.0451,-301.1712
125.3263,-300.9137
125.5932,-300.6423
125.8481,-300.3588
126.1044,-300.0766
126.3584,-299.7923
126.6152,-299.5107
126.8812,-299.2377
127.149,-298.9664
127.416,-298.6943
127.6828,-298.4221
127.9534,-298.1537
128.2312,-297.8926
128.5094,-297.6322
128.7878,-297.3716
129.0655,-297.1106
129.3281,-296.835
129.5765,-296.5458
129.8252,-296.257
130.0741,-295.9683
130.3225,-295.6792
130.5749,-295.3935
130.8277,-295.1082
131.0802,-294.8227
131.3336,-294.5378
131.5856,-294.2519
131.8362,-293.9647
132.0861,-293.6768
132.3362,-293.3891
132.5866,-293.1017
132.8401,-292.8171
133.0994,-292.5377
133.3586,-292.2581
133.6178,-291.9787
133.8768,-291.699
134.1265,-291.4111
134.3716,-291.1192
134.6182,-290.8284
134.8631,-290.5363
135.1094,-290.2454
135.358,-289.9565
135.607,-289.6678
135.8563,-289.3794
136.1054,-289.0909
136.3426,-288.7934
136.5547,-288.4768
136.7624,-288.1569
136.9762,-287.8416
137.1831,-287.521
137.4118,-287.2178
137.6756,-286.9431
137.9421,-286.6703
138.2084,-286.3976
138.4728,-286.1232
138.715,-285.8295
138.9454,-285.5256
139.1784,-285.2241
139.4099,-284.9211
139.6419,-284.6188
139.8803,-284.3213
140.12,-284.0249
140.3587,-283.7277
140.5992,-283.4319
140.8297,-283.1287
141.043,-282.8129
141.2542,-282.4955
141.4666,-282.179
141.679,-281.8624
141.9018,-281.5533
142.1305,-281.2483
142.3566,-280.9414
142.5855,-280.6366
142.8074,-280.3269
143.0104,-280.0043
143.2109,-279.6801
143.4134,-279.3571
143.6147,-279.0334
143.8359,-278.7237
144.074,-278.426
144.3099,-278.1267
144.5488,-277.8294
144.7846,-277.5301
145.0105,-277.2231
145.2339,-276.9141
145.4561,-276.6045
145.681,-276.2966
145.9001,-275.9849
146.1048,-275.6634
146.3071,-275.3403
146.5106,-275.018
146.7139,-274.6955
146.9104,-274.369
147.0975,-274.0368
147.2872,-273.7063
147.472,-273.3727
147.6648,-273.0442
147.8922,-272.7386
148.1272,-272.4381
148.3561,-272.1335
148.5887,-271.8314
148.8053,-271.5183
149.0074,-271.195
149.2114,-270.8731
149.4135,-270.5498
149.6168,-270.2274
149.8273,-269.9097
150.042,-269.5946
150.2571,-269.28
150.4722,-268.9652
150.6867,-268.6502
150.8982,-268.3331
151.1082,-268.0149
151.318,-267.6967
151.5293,-267.3793
151.7379,-267.0604
151.9359,-266.7347
152.1299,-266.4065
152.3257,-266.0796
152.522,-265.7526
152.7107,-265.4218
152.8757,-265.0784
153.0334,-264.731
153.199,-264.388
153.3572,-264.0408
153.5336,-263.704
153.7471,-263.3884
153.9633,-263.0743
154.178,-262.7595
154.3934,-262.445
154.5828,-262.1152
154.7508,-261.7731
154.9187,-261.4308
155.0866,-261.0886
155.2546,-260.7465
155.4278,-260.4069
155.6045,-260.0692
155.781,-259.7313
155.9574,-259.3934
156.1342,-259.0557
156.3116,-258.7183
156.4896,-258.3812
156.6672,-258.0439
156.8449,-257.7067
157.0229,-257.3697
157.2015,-257.0329
157.3804,-256.6963
157.5591,-256.3596
157.7379,-256.0229
157.9084,-255.6822
158.067,-255.3355
158.2247,-254.9885
158.3836,-254.642
158.5412,-254.2949
158.7023,-253.9495
158.8641,-253.6043
159.0255,-253.259
159.1878,-252.9141
159.3491,-252.5687
159.5137,-252.2249
159.6809,-251.8823
159.8465,-251.539
160.0149,-251.197
160.1798,-250.8533
160.3317,-250.5038
160.4795,-250.1524
160.6296,-249.802
160.7786,-249.4511
160.9289,-249.1008
161.083,-248.7522
161.2368,-248.4034
161.3902,-248.0545
161.5448,-247.706
161.6942,-247.3554
161.835,-247.0012
161.9739,-246.6461
162.1142,-246.2917
162.2538,-245.937
162.3953,-245.5831
162.539,-245.23
162.6814,-244.8764
162.8253,-244.5234
162.9675,-244.1698
163.1008,-243.8126
163.2319,-243.4547
163.3652,-243.0976
163.4964,-242.7397
163.6314,-242.3833
163.7741,-242.0298
163.9176,-241.6766
164.0609,-241.3234
164.2039,-240.9701
164.3396,-240.614
164.4673,-240.2548
164.5949,-239.8956
164.723,-239.5365
164.8505,-239.1773
164.9847,-238.8206
165.123,-238.4653
165.2598,-238.1096
165.3993,-237.7548
165.5312,-237.3973
165.6452,-237.0336
165.7554,-236.6687
165.8687,-236.3047
165.98,-235.9401
166.0926,-235.576
166.2066,-235.2122
166.3198,-234.8482
166.4339,-234.4845
166.5473,-234.1206
166.6605,-233.7566
166.774,-233.3927
166.8861,-233.0284
167.0004,-232.6647
167.1115,-232.3001
167.2083,-231.9314
167.3016,-231.5618
167.3984,-231.1931
167.4922,-230.8236
167.5957,-230.457
167.7144,-230.0947
167.833,-229.7325
167.9525,-229.3705
168.0707,-229.0081
168.1735,-228.6413
168.2662,-228.2715
168.3588,-227.9018
168.4524,-227.5322
168.5409,-227.1615
168.6173,-226.7881
168.6916,-226.4142
168.7677,-226.0407
168.8426,-225.6669
168.9313,-225.2965
169.0342,-224.9294
169.1373,-224.5624
169.2399,-224.1953
169.3435,-223.8285
169.4519,-223.4631
169.5635,-223.0985
169.6725,-222.7333
169.7843,-222.3689
169.892,-222.0032
169.9887,-221.6346
170.0843,-221.2655
170.1798,-220.8965
170.2769,-220.5278
170.3667,-220.1576
170.4337,-219.7824
170.4957,-219.4062
170.5624,-219.031
170.6255,-218.655
170.6909,-218.2795
170.7566,-217.904
170.8213,-217.5283
170.8877,-217.153
170.9526,-216.7773
171.0237,-216.4029
171.0991,-216.0292
171.1722,-215.6551
171.2483,-215.2816
171.3216,-214.9075
171.3914,-214.5328
171.461,-214.158
171.5292,-213.783
171.5999,-213.4083
171.6612,-213.0323
171.7087,-212.6541
171.7547,-212.2757
171.8016,-211.8973
171.8476,-211.519
171.8771,-211.1392
171.8935,-210.7582
171.9166,-210.378
171.9305,-209.9966
171.9583,-209.6171
172.0371,-209.2446
172.1261,-208.8735
172.2072,-208.5013
172.2934,-208.1298
172.3645,-207.7556
172.4214,-207.3787
172.4784,-207.0018
172.5352,-206.6249
172.5918,-206.2479
172.645,-205.8705
172.6953,-205.4926
172.7444,-205.1146
172.7965,-204.7369
172.8437,-204.3587
172.8657,-203.9784
172.8786,-203.5973
172.8974,-203.2167
172.912,-202.8357
172.9318,-202.455
172.9577,-202.0748
172.9823,-201.6943
173.0085,-201.3141
173.0338,-200.9337
173.0668,-200.554
173.1082,-200.1751
173.1473,-199.7959
173.189,-199.417
173.2287,-199.0379
173.2628,-198.6582
173.2967,-198.2786
173.3282,-197.8987
173.3631,-197.519
173.3909,-197.1391
173.3959,-196.7579
173.3969,-196.3767
173.4016,-195.9956
173.403,-195.6143
173.4192,-195.2339
173.4564,-194.8545
173.495,-194.4753
173.5333,-194.096
173.5704,-193.7167
173.5812,-193.3362
173.5745,-192.9549
173.5735,-192.5739
173.566,-192.1926
173.5708,-191.8119
173.6133,-191.4333
173.6616,-191.055
173.7052,-190.6764
173.7523,-190.298
173.7795,-189.9183
173.7864,-189.5373
173.7916,-189.1561
173.7985,-188.775
173.8036,-188.3938
173.8008,-188.0127
173.7941,-187.6315
173.7892,-187.2504
173.7828,-186.8692
173.7781,-186.4881
173.7763,-186.1069
173.7745,-185.7257
173.7732,-185.3445
173.7713,-184.9633
173.7696,-184.5822
173.768,-184.201
173.7658,-183.8198
173.7647,-183.4386
173.7622,-183.0574
173.7577,-182.6763
173.7522,-182.2951
173.7467,-181.914
173.7423,-181.5328
173.7211,-181.1527
173.6738,-180.7746
173.6239,-180.3966
173.5759,-180.0185
173.5273,-179.6404
173.5027,-179.2605
173.4956,-178.8793
173.4836,-178.4984
173.4781,-178.1171
173.4651,-177.7363
173.4172,-177.3584
173.3592,-176.9815
173.3079,-176.6039
173.2512,-176.2268
173.1984,-175.8494
173.1576,-175.4705
173.1208,-175.091
173.0844,-174.7116
173.047,-174.3322
173.0136,-173.9526
172.9869,-173.5723
172.9608,-173.192
172.9346,-172.8117
172.9083,-172.4314
172.8798,-172.0513
172.8505,-171.6712
172.82,-171.2913
172.7914,-170.9112
172.7603,-170.5313
172.7131,-170.1532
172.6571,-169.7761
172.6031,-169.3988
172.5479,-169.0216
172.4934,-168.6443
172.4416,-168.2667
172.3892,-167.8891
172.3373,-167.5115
172.2853,-167.1339
172.2297,-166.7567
172.1699,-166.3803
172.1091,-166.004
172.0491,-165.6275
171.9888,-165.2512
171.9322,-164.8742
171.879,-164.4968
171.8236,-164.1196
171.7709,-163.742
171.7152,-163.365
171.6463,-162.9901
171.5742,-162.6158
171.5041,-162.2411
171.4328,-161.8666
171.3596,-161.4926
171.2816,-161.1194
171.2031,-160.7464
171.1251,-160.3733
171.0472,-160.0002
170.9809,-159.6249
170.9205,-159.2484
170.8563,-158.8728
170.797,-158.4961
170.7307,-158.1209
170.6421,-157.7502
170.5484,-157.3806
170.4585,-157.0102
170.3665,-156.6403
170.2747,-156.2703
170.1822,-155.9006
170.0883,-155.5311
169.9959,-155.1613
169.9024,-154.7917
169.8074,-154.4226
169.7114,-154.0537
169.6138,-153.6852
169.5182,-153.3162
169.4207,-152.9477
169.3183,-152.5805
169.2149,-152.2136
169.111,-151.8469
169.0086,-151.4797
168.8989,-151.1148
168.7721,-150.7553
168.6427,-150.3968
168.5153,-150.0375
168.3867,-149.6786
168.2736,-149.3149
168.1737,-148.947
168.0719,-148.5797
167.9725,-148.2117
167.8705,-147.8444
167.7532,-147.4819
167.628,-147.1218
167.5042,-146.7613
167.3795,-146.4011
167.2554,-146.0407
167.1376,-145.6782
167.0229,-145.3146
166.9069,-144.9516
166.7927,-144.5879
166.6763,-144.2249
166.549,-143.8657
166.4167,-143.5081
166.2867,-143.1498
166.1547,-142.7922
166.0255,-142.4336
165.9064,-142.0715
165.7886,-141.709
165.6696,-141.3468
165.5516,-140.9843
165.4349,-140.6215
165.3245,-140.2566
165.2141,-139.8918
165.1032,-139.5271
164.9934,-139.1621
164.862,-138.8051
164.7064,-138.4571
164.5479,-138.1105
164.393,-137.7621
164.2338,-137.4158
164.0546,-137.0797
163.8649,-136.7489
163.6805,-136.4154
163.4914,-136.0843
163.3065,-135.7511
163.1319,-135.4122
162.9572,-135.0733
162.7849,-134.7336
162.608,-134.3955
162.457,-134.0478
162.3636,-133.6787
162.2782,-133.3067
162.1848,-132.9376
162.0989,-132.5657
161.9798,-132.2057
161.8201,-131.8598
161.6548,-131.5161
161.4949,-131.1701
161.3296,-130.8267
161.1425,-130.4949
160.9465,-130.1678
160.7557,-129.8379
160.5604,-129.5105
160.3684,-129.1811
160.1858,-128.8467
160.0047,-128.5112
159.8247,-128.1752
159.6427,-127.8402
159.4639,-127.5036
159.2932,-127.1628
159.1239,-126.8212
158.9542,-126.4799
158.784,-126.1388
158.6177,-125.7959
158.4599,-125.4489
158.3032,-125.1014
158.1458,-124.7542
157.9888,-124.4069
157.8267,-124.0619
157.6612,-123.7185
157.4953,-123.3754
157.3302,-123.0317
157.1638,-122.6888
156.9883,-122.3505
156.8072,-122.0151
156.6276,-121.6789
156.4467,-121.3433
156.2736,-121.0039
156.1155,-120.6571
155.9588,-120.3096
155.8005,-119.9628
155.6439,-119.6152
155.4819,-119.2703
155.3146,-118.9277
155.1464,-118.5857
154.9786,-118.2434
154.8109,-117.9011
154.6375,-117.5617
154.4588,-117.225
154.2796,-116.8885
154.1006,-116.552
153.9217,-116.2154
153.7351,-115.8831
153.5392,-115.5561
153.3434,-115.2291
153.147,-114.9024
152.9518,-114.575
152.7705,-114.2399
152.5979,-113.8999
152.4227,-113.5615
152.2506,-113.2213
152.0748,-112.8831
151.8787,-112.5564
151.6762,-112.2333
151.4788,-111.9073
151.2764,-111.5842
151.0822,-111.2564
150.9067,-110.918
150.733,-110.5788
150.559,-110.2396
150.384,-109.901
150.1877,-109.575
149.9736,-109.2595
149.762,-108.9425
149.548,-108.6269
149.3365,-108.3099
149.1499,-107.9782
148.9769,-107.6384
148.8005,-107.3006
148.6275,-106.9608
148.4517,-106.6226
148.2684,-106.2885
148.0826,-105.9556
147.8943,-105.6242
147.7103,-105.2902
147.5193,-104.9606
147.3067,-104.6443
147.0907,-104.3302
146.8759,-104.0152
146.6624,-103.6995
146.4739,-103.3689
146.3013,-103.0288
146.123,-102.6921
145.9498,-102.3523
145.7728,-102.0148
145.5688,-101.6938
145.3487,-101.3826
145.128,-101.0718
144.9087,-100.7599
144.6872,-100.4498
144.4493,-100.1522
144.2033,-99.8608
143.9642,-99.5644
143.7158,-99.2743
143.4788,-98.9767
143.2946,-98.6443
143.1283,-98.3004
142.9491,-97.9646
142.7814,-97.6216
142.6043,-97.2846
142.3803,-96.9784
142.1343,-96.6871
141.8921,-96.3928
141.6468,-96.1009
141.4044,-95.8068
141.1763,-95.5015
140.9518,-95.1934
140.7246,-94.8873
140.4996,-94.5795
140.2707,-94.2748
140.0342,-93.9759
139.7971,-93.6774
139.5603,-93.3788
139.3234,-93.08
139.0919,-92.7773
138.8645,-92.4713
138.6362,-92.1661
138.4091,-91.8599
138.1805,-91.5549
137.9433,-91.2566
137.7026,-90.961
137.4633,-90.6643
137.2231,-90.3683
136.9831,-90.0721
136.7437,-89.7755
136.5035,-89.4795
136.2641,-89.1828
136.0242,-88.8866
135.7821,-88.5922
135.5383,-88.2991
135.2932,-88.0073
135.05,-87.7136
134.8043,-87.4224
134.5352,-87.1539
134.2467,-86.9044
133.9629,-86.6506
133.6732,-86.4018
133.3907,-86.147
133.1647,-85.8436
132.9656,-85.5173
132.7548,-85.201
132.5566,-84.8737
132.3363,-84.5657
132.0551,-84.3099
131.7628,-84.0636
131.4793,-83.8098
131.1898,-83.5611
130.9034,-83.3099
130.6161,-83.0594
130.3277,-82.8098
130.0412,-82.5588
129.753,-82.3089
129.4779,-82.0458
129.2141,-81.7706
128.949,-81.4966
128.6854,-81.2213
128.4209,-80.9467
128.1635,-80.6659
127.9149,-80.3766
127.6619,-80.0918
127.4152,-79.8008
127.1611,-79.5171
126.8696,-79.2732
126.5655,-79.0426
126.2673,-78.8055
125.9647,-78.5736
125.6728,-78.3291
125.3977,-78.0653
125.1234,-77.8006
124.8489,-77.5361
124.5744,-77.2717
124.2967,-77.0104
124.0186,-76.7497
123.7402,-76.4895
123.4624,-76.2283
123.1837,-75.9684
122.8983,-75.7157
122.6099,-75.4663
122.3228,-75.2158
122.0347,-74.966
121.747,-74.716
121.4595,-74.4657
121.1713,-74.2161
120.8842,-73.9656
120.5959,-73.716
120.3087,-73.4655
120.0243,-73.2117
119.7398,-72.9578
119.4558,-72.7038
119.1713,-72.45
118.8917,-72.191
118.6209,-71.9228
118.3495,-71.6551
118.0792,-71.3863
117.8075,-71.119
117.5167,-70.8736
117.2136,-70.6424
116.9119,-70.4094
116.609,-70.178
116.307,-69.9454
116.0082,-69.7086
115.7106,-69.4706
115.4129,-69.2324
115.1151,-68.9946
114.8212,-68.7519
114.5313,-68.5042
114.2418,-68.2564
113.9521,-68.0085
113.6624,-67.7608
113.3736,-67.5122
113.0848,-67.2632
112.7959,-67.0147
112.5075,-66.7652
112.2133,-66.5232
111.9102,-66.2922
111.6052,-66.0633
111.3022,-65.8322
110.9974,-65.6032
110.6856,-65.384
110.3694,-65.1714
110.0538,-64.9573
109.7377,-64.7445
109.4222,-64.5304
109.1108,-64.3106
108.8001,-64.0899
108.4887,-63.8698
108.1779,-63.6493
107.8667,-63.4292
107.555,-63.2096
107.2434,-62.9903
106.9317,-62.7706
106.62,-62.5512
106.3091,-62.3308
105.9988,-62.1091
105.6885,-61.8881
105.3785,-61.6659
105.0678,-61.4452
104.7528,-61.2308
104.4354,-61.0193
104.1187,-60.8076
103.802,-60.5952
103.4845,-60.3843
103.1629,-60.1799
102.8395,-59.9777
102.5178,-59.7736
102.1949,-59.5708
101.8728,-59.3669
101.5529,-59.1599
101.2323,-58.9533
100.9124,-58.7463
100.5922,-58.5395
100.2697,-58.336
99.9451,-58.1366
99.619,-57.9387
99.2946,-57.7388
98.9681,-57.5421
98.6365,-57.3538
98.3045,-57.167
97.9725,-56.9794
97.6407,-56.7918
97.3071,-56.6078
96.9666,-56.4359
96.6253,-56.2667
96.2853,-56.0941
95.9433,-55.9254
95.6106,-55.7412
95.2935,-55.5294
94.9793,-55.3138
94.6626,-55.1015
94.3477,-54.8866
94.0304,-54.6757
93.7101,-54.4686
93.3899,-54.2622
93.0695,-54.0555
92.749,-53.8489
92.4203,-53.6572
92.0821,-53.4806
91.7451,-53.3031
91.4069,-53.1271
91.0697,-52.9488
90.7413,-52.7561
90.4141,-52.5599
90.0856,-52.3669
89.7585,-52.1711
89.4295,-51.9782
89.0983,-51.7903
88.7661,-51.6027
88.4342,-51.4154
88.1026,-51.2276
87.7726,-51.0362
87.4461,-50.8403
87.1191,-50.6438
86.792,-50.4482
86.4656,-50.2517
86.1363,-50.0589
85.8067,-49.8683
85.4772,-49.6762
85.1464,-49.4865
84.8179,-49.2938
84.4951,-49.0905
84.1755,-48.8833
83.854,-48.6781
83.5332,-48.4721
83.2137,-48.2649
82.8936,-48.0571
82.5759,-47.8471
82.2559,-47.6396
81.9376,-47.4297
81.6303,-47.2051
81.3272,-46.9732
81.0247,-46.7418
80.7217,-46.5104
80.4185,-46.279
80.1228,-46.0393
79.8271,-45.7978
79.5351,-45.5537
79.2756,-45.2766
79.0396,-44.9769
78.7975,-44.6829
78.5615,-44.3832
78.3353,-44.0766
78.116,-43.7651
77.9491,-43.4264
77.8282,-43.0655
77.7016,-42.7049
77.5814,-42.3444
77.457,-41.9828
77.3411,-41.6209
77.3302,-41.251
77.4002,-40.8753
77.4623,-40.4998
77.5354,-40.1258
77.6373,-39.7582
77.742,-39.3924
77.8448,-39.0245
77.9496,-38.6585
78.033,-38.2876
78.0766,-37.9088
78.114,-37.5298
78.1583,-37.1508
78.1965,-36.7717
78.2481,-36.3942
78.3099,-36.0177
78.3696,-35.6418
78.4333,-35.2655
78.5014,-34.8908
78.5855,-34.5192
78.6705,-34.147
78.7512,-33.7751
78.8746,-33.4164
79.0412,-33.0745
79.2137,-32.7345
79.383,-32.3923
79.5528,-32.0521
79.7269,-31.7119
79.8984,-31.372
80.0711,-31.0325
80.2455,-30.6924
80.3778,-30.3398
80.4529,-29.966
80.5194,-29.5901
80.5936,-29.2173
80.6624,-28.841
80.7519,-28.4723
80.8701,-28.1094
80.9872,-27.7464
81.1053,-27.3848
81.2234,-27.0212
81.3276,-26.6556
81.4272,-26.2874
81.5254,-25.9186
81.6238,-25.5514
81.7236,-25.1823
81.8212,-24.8147
81.9218,-24.4468
82.0205,-24.078
82.1196,-23.7111
82.2196,-23.342
82.3075,-22.9719
82.3927,-22.6005
82.4787,-22.2282
82.5626,-21.8577
82.6489,-21.4852
82.7303,-21.1133
82.8112,-20.7412
82.8946,-20.3681
82.9744,-19.9967
83.0671,-19.6262
83.1801,-19.2621
83.248,-18.8939
83.2142,-18.5146
83.1654,-18.1357
83.1309,-17.7572
83.0206,-17.3922
82.8893,-17.0355
82.7929,-16.667
82.7011,-16.2973
82.6369,-15.9213
82.5431,-15.5516
82.3797,-15.2096
82.2049,-14.8706
82.0295,-14.5299
81.8654,-14.1898
81.692,-13.8458
81.5464,-13.4972
81.5328,-13.1235
81.5647,-12.7406
81.5822,-12.3632
81.6434,-11.9839
81.7171,-11.6131
81.7942,-11.2383
81.8744,-10.8646
81.9423,-10.4935
81.9849,-10.1103
81.9757,-9.7347
81.9732,-9.3488
81.9188,-8.9744
81.739,-8.6467
81.6118,-8.2906
81.5295,-7.918
81.34,-7.5918
81.1242,-7.2733
80.9271,-6.951
80.7115,-6.6339
80.4971,-6.3191
80.2776,-6.0095
80.0562,-5.6958
79.8406,-5.3845
79.619,-5.073
79.398,-4.7614
79.1777,-4.4533
78.9545,-4.1406
78.7335,-3.8326
78.5327,-3.5097
78.3614,-3.1676
78.1968,-2.8268
78.0108,-2.4907
77.7701,-2.2071
77.4545,-2.0042
77.0908,-1.8731
76.7429,-1.7353
76.4624,-1.4772
76.2038,-1.1954
75.8915,-0.9938
75.5449,-0.82357
75.2006,-0.67367
74.8538,-0.50631
74.5052,-0.35088
74.139,-0.27108
73.7568,-0.19589
73.3901,-0.12284
73.0139,-0.051131
72.6317,-0.0034391
