71.571,-340.2911
71.9673,-340.1509
72.3639,-340.0112
72.7588,-339.8701
73.1559,-339.7297
73.5495,-339.5859
73.9457,-339.4431
74.3403,-339.3006
74.735,-339.1563
75.1272,-339.0047
75.5162,-338.848
75.9091,-338.6962
76.2973,-338.5384
76.687,-338.3788
77.0734,-338.2155
77.4621,-338.0554
77.8481,-337.8894
78.2107,-337.6789
78.5723,-337.4625
78.936,-337.255
79.2958,-337.035
79.6632,-336.8342
80.0544,-336.6838
80.4561,-336.5541
80.8463,-336.4042
81.2476,-336.2714
81.6236,-336.097
81.9602,-335.843
82.2969,-335.5956
82.6273,-335.3307
82.9703,-335.0939
83.3567,-335.0058
83.7893,-335.0316
84.155,-334.9381
84.3784,-334.5974
84.5776,-334.2138
84.7971,-333.8659
85.0434,-333.5228
85.3336,-333.2215
85.6211,-332.9147
85.9059,-332.6046
86.1975,-332.3043
86.5196,-332.0363
86.8688,-331.8027
87.2096,-331.5568
87.5562,-331.3193
87.901,-331.0793
88.245,-330.8379
88.5927,-330.6024
88.935,-330.3583
89.2718,-330.1083
89.5952,-329.8393
89.9218,-329.5754
90.2478,-329.3105
90.5992,-329.0903
90.996,-328.9484
91.3859,-328.7956
91.7837,-328.6556
92.1628,-328.485
92.4749,-328.2056
92.7819,-327.9172
93.0916,-327.6344
93.4011,-327.3497
93.7358,-327.0962
94.0749,-326.8479
94.4088,-326.5929
94.7485,-326.3456
95.1101,-326.1335
95.4806,-325.9342
95.8467,-325.7288
96.2162,-325.5284
96.5937,-325.3471
96.9892,-325.2046
97.3833,-325.0593
97.7785,-324.9165
98.1593,-324.7465
98.4963,-324.4961
98.8326,-324.2437
99.1693,-323.993
99.5059,-323.741
99.8672,-323.5271
100.2293,-323.3138
100.5911,-323.1002
100.9532,-322.8871
101.2936,-322.6431
101.6157,-322.3736
101.9381,-322.1039
102.2602,-321.8343
102.5916,-321.5772
102.9445,-321.3487
103.2952,-321.1182
103.6498,-320.8914
103.9985,-320.6587
104.2851,-320.3579
104.5392,-320.0215
104.8042,-319.6975
105.0576,-319.3599
105.3524,-319.0736
105.7274,-318.8883
106.1113,-318.7137
106.4887,-318.5314
106.8645,-318.3436
107.2207,-318.1211
107.5751,-317.8953
107.9333,-317.6756
108.2863,-317.4479
108.6221,-317.1963
108.9501,-316.933
109.2826,-316.6767
109.612,-316.4155
109.9375,-316.1502
110.2558,-315.8761
110.573,-315.6003
110.892,-315.3272
111.2042,-315.0457
111.5072,-314.7552
111.8097,-314.4633
112.1117,-314.1713
112.4152,-313.8809
112.7388,-313.6131
113.0688,-313.3533
113.396,-313.0895
113.7257,-312.8292
114.0559,-312.5693
114.3872,-312.311
114.7192,-312.0534
115.0491,-311.7933
115.3515,-311.5029
115.6423,-311.199
115.938,-310.9012
116.2284,-310.5969
116.5262,-310.301
116.8211,-310.0013
117.1206,-309.7069
117.4159,-309.4079
117.7149,-309.1129
118.0565,-308.8693
118.4033,-308.6317
118.7481,-308.3918
119.0942,-308.1537
119.4015,-307.8714
119.6785,-307.5558
119.9566,-307.2407
120.2328,-306.9241
120.5117,-306.6101
120.8256,-306.3322
121.1527,-306.0683
121.4753,-305.7993
121.8026,-305.5357
122.1208,-305.2614
122.4342,-304.9817
122.7432,-304.697
123.0562,-304.4166
123.3643,-304.1313
123.6456,-303.8192
123.9243,-303.5049
124.205,-303.1921
124.4842,-302.8783
124.7725,-302.5727
125.0646,-302.2706
125.3565,-301.9686
125.6489,-301.6667
125.9408,-301.3647
126.2318,-301.0614
126.523,-300.7588
126.8132,-300.4548
127.1056,-300.1531
127.4148,-299.8697
127.7376,-299.6
128.0543,-299.3247
128.378,-299.0559
128.6942,-298.78
128.9657,-298.4604
129.2268,-298.1307
129.4937,-297.8067
129.7566,-297.4785
130.044,-297.1736
130.3512,-296.8867
130.6554,-296.5973
130.9647,-296.3124
131.2657,-296.0199
131.5333,-295.6965
131.7936,-295.366
132.0605,-295.0421
132.322,-294.7128
132.5858,-294.3861
132.8469,-294.0568
133.1082,-293.7277
133.3708,-293.4
133.6281,-293.0675
133.8863,-292.7364
134.142,-292.4027
134.3992,-292.0707
134.6557,-291.7379
134.9061,-291.4003
135.1594,-291.0655
135.4084,-290.7265
135.6628,-290.3927
135.9481,-290.0846
136.2425,-289.7846
136.5308,-289.4793
136.8245,-289.1784
137.1056,-288.8669
137.3713,-288.5413
137.6352,-288.2145
137.8997,-287.8879
138.1646,-287.5618
138.4241,-287.2315
138.6809,-286.8988
138.9361,-286.5653
139.1926,-286.2323
139.4389,-285.8924
139.6683,-285.5403
139.8988,-285.1892
140.1274,-284.8365
140.3612,-284.4876
140.6095,-284.1488
140.8613,-283.8123
141.1096,-283.4735
141.3611,-283.1368
141.6276,-282.8122
141.8966,-282.4895
142.1654,-282.1664
142.4331,-281.8429
142.6704,-281.4976
142.8807,-281.1338
143.0956,-280.7729
143.3051,-280.4085
143.5205,-280.048
143.7782,-279.7164
144.0422,-279.3894
144.3007,-279.0583
144.5642,-278.731
144.8176,-278.3959
145.0726,-278.0619
145.3245,-277.7258
145.5789,-277.3912
145.8212,-277.0489
146.0307,-276.6845
146.2391,-276.3199
146.4482,-275.9554
146.6571,-275.5909
146.8859,-275.2393
147.1343,-274.9003
147.3814,-274.5607
147.6303,-274.2219
147.8728,-273.8794
148.0767,-273.5121
148.2776,-273.143
148.4815,-272.7758
148.6825,-272.4066
148.9095,-272.0537
149.1438,-271.7048
149.3797,-271.3572
149.6146,-271.0088
149.8387,-270.6536
150.0548,-270.2933
150.2701,-269.9324
150.4867,-269.5726
150.7055,-269.2138
150.9414,-268.8662
151.1748,-268.5169
151.4111,-268.1694
151.6441,-267.82
151.8382,-267.4474
152.028,-267.0725
152.2217,-266.6996
152.4115,-266.3249
152.6059,-265.9524
152.7974,-265.5784
152.9913,-265.2057
153.1837,-264.8321
153.3808,-264.4612
153.5811,-264.0917
153.7803,-263.722
153.981,-263.3527
154.181,-262.9833
154.3892,-262.6183
154.5966,-262.2529
154.8038,-261.8875
155.0123,-261.5226
155.2194,-261.1572
155.4303,-260.7936
155.6371,-260.428
155.8485,-260.0648
156.0447,-259.694
156.205,-259.3059
156.3616,-258.9158
156.5209,-258.5272
156.6785,-258.1376
156.8428,-257.751
157.0082,-257.3648
157.1728,-256.9781
157.3385,-256.5921
157.5035,-256.2056
157.6697,-255.8199
157.8352,-255.4336
158.001,-255.0476
158.1786,-254.667
158.3644,-254.2901
158.55,-253.9132
158.7361,-253.5364
158.9208,-253.1592
159.1043,-252.7811
159.2854,-252.4021
159.4695,-252.0244
159.6503,-251.6451
159.8066,-251.2556
159.9523,-250.8614
160.1008,-250.4685
160.2472,-250.0745
160.4088,-249.6872
160.5903,-249.3083
160.7717,-248.9292
160.9537,-248.5507
161.1329,-248.1706
161.2959,-247.7835
161.4576,-247.3956
161.6205,-247.0083
161.7824,-246.6207
161.9598,-246.2397
162.1375,-245.8592
162.3161,-245.4787
162.4937,-245.0981
162.63,-244.7021
162.7403,-244.2967
162.8524,-243.8918
162.9622,-243.4861
163.0877,-243.0857
163.233,-242.6914
163.3817,-242.2985
163.5268,-241.9041
163.676,-241.5115
163.8426,-241.1259
164.0125,-240.7415
164.1796,-240.3561
164.3489,-239.9714
164.4866,-239.576
164.5901,-239.1688
164.694,-238.7617
164.7964,-238.3542
164.9044,-237.9483
165.0309,-237.5477
165.1616,-237.1483
165.2876,-236.7476
165.4184,-236.3482
165.5698,-235.9565
165.7268,-235.5667
165.881,-235.1759
166.0367,-234.7857
166.1748,-234.389
166.3051,-233.9897
166.4375,-233.5908
166.5672,-233.1913
166.7001,-232.7927
166.8311,-232.3934
166.9638,-231.9949
167.0961,-231.596
167.2272,-231.1969
167.3607,-230.7984
167.4902,-230.3988
167.6247,-230.0007
167.7536,-229.6009
167.8575,-229.1941
167.9512,-228.7844
168.0488,-228.3759
168.144,-227.9665
168.2465,-227.5593
168.3681,-227.1571
168.4874,-226.7543
168.6102,-226.3524
168.7288,-225.9494
168.8045,-225.5366
168.8706,-225.1216
168.9402,-224.7073
169.0074,-224.2925
169.1144,-223.8874
169.2466,-223.4887
169.3775,-223.0894
169.5106,-222.6909
169.631,-222.2886
169.7392,-221.8826
169.844,-221.4758
169.9522,-221.0697
170.0572,-220.663
170.145,-220.2521
170.2298,-219.8406
170.3165,-219.4295
170.4016,-219.0181
170.483,-218.606
170.5533,-218.1917
170.6249,-217.7778
170.6953,-217.3635
170.7669,-216.9495
170.8564,-216.539
170.9478,-216.1289
171.0374,-215.7185
171.1288,-215.3083
171.2155,-214.8973
171.3019,-214.486
171.3864,-214.0746
171.4726,-213.6633
171.549,-213.2504
171.6049,-212.834
171.6603,-212.4175
171.7157,-212.0011
171.7718,-211.5846
171.8376,-211.1697
171.9046,-210.7549
171.9702,-210.3399
172.0372,-209.9252
172.1116,-209.5117
172.191,-209.0991
172.2696,-208.6863
172.3485,-208.2737
172.409,-207.8583
172.4533,-207.4405
172.4985,-207.0228
172.5426,-206.6049
172.5911,-206.1877
172.6444,-205.7708
172.6986,-205.3543
172.7522,-204.9375
172.8061,-204.5208
172.8692,-204.1055
172.9321,-203.69
172.9953,-203.2747
173.0582,-202.8592
173.1083,-202.4422
173.1554,-202.0246
173.2027,-201.6072
173.2498,-201.1897
173.29,-200.7715
173.3177,-200.3523
173.3458,-199.9331
173.3732,-199.5139
173.4044,-199.0949
173.4459,-198.6768
173.4889,-198.2589
173.5302,-197.8407
173.5734,-197.4229
173.6278,-197.0062
173.6843,-196.5899
173.7392,-196.1734
173.7954,-195.757
173.8227,-195.3387
173.8212,-194.9186
173.8194,-194.4985
173.8176,-194.0783
173.8177,-193.6582
173.8252,-193.2381
173.833,-192.818
173.8405,-192.3979
173.8481,-191.9778
173.8525,-191.5577
173.8558,-191.1375
173.8595,-190.7175
173.8628,-190.2973
173.8672,-189.8772
173.8721,-189.4571
173.877,-189.0369
173.8822,-188.6169
173.8828,-188.1967
173.8769,-187.7766
173.8697,-187.3565
173.8643,-186.9364
173.8567,-186.5163
173.8369,-186.0967
173.8109,-185.6774
173.7876,-185.2578
173.7619,-184.8385
173.7365,-184.4191
173.7081,-183.9999
173.6802,-183.5807
173.6528,-183.1614
173.6311,-182.7421
173.6345,-182.3218
173.6344,-181.9019
173.6385,-181.4815
173.638,-181.0616
173.5777,-180.6461
173.5106,-180.2312
173.4476,-179.8159
173.3812,-179.4009
173.3706,-178.9823
173.3809,-178.5623
173.3916,-178.1423
173.4028,-177.7222
173.384,-177.303
173.355,-176.8838
173.3236,-176.4649
173.2947,-176.0457
173.258,-175.6273
173.192,-175.2125
173.124,-174.7978
173.0577,-174.383
172.9901,-173.9683
172.9371,-173.5516
172.8901,-173.1341
172.8434,-172.7165
172.7966,-172.299
172.7446,-171.8821
172.6886,-171.4657
172.6321,-171.0494
172.576,-170.633
172.5197,-170.2166
172.4638,-169.8002
172.408,-169.3838
172.3517,-168.9674
172.2964,-168.5509
172.2522,-168.1333
172.2169,-167.7145
172.1795,-167.2961
172.1443,-166.8774
172.0949,-166.4606
172.0185,-166.0475
171.9406,-165.6346
171.8637,-165.2216
171.7864,-164.8085
171.7209,-164.3936
171.6564,-163.9784
171.5907,-163.5634
171.5265,-163.1482
171.4569,-162.7339
171.3839,-162.3201
171.3099,-161.9065
171.2365,-161.4929
171.162,-161.0793
171.0859,-160.6662
171.0103,-160.2529
170.934,-159.8397
170.8588,-159.4264
170.7836,-159.013
170.709,-158.5995
170.6342,-158.1861
170.5594,-157.7727
170.4872,-157.3587
170.4141,-156.945
170.3422,-156.5311
170.269,-156.1173
170.1892,-155.7049
170.1074,-155.2927
170.0264,-154.8805
169.9449,-154.4683
169.8564,-154.0576
169.7598,-153.6488
169.6626,-153.24
169.5661,-152.8311
169.4687,-152.4224
169.3687,-152.0143
169.2676,-151.6065
169.1676,-151.1984
169.0666,-150.7906
168.961,-150.3839
168.8512,-149.9785
168.7418,-149.5728
168.6323,-149.1672
168.523,-148.7614
168.4156,-148.3553
168.3073,-147.9494
168.2002,-147.543
168.0885,-147.1381
167.9648,-146.7365
167.8395,-146.3356
167.7156,-145.9341
167.5905,-145.533
167.4689,-145.1308
167.3478,-144.7284
167.2266,-144.3262
167.106,-143.9237
166.9804,-143.5229
166.8481,-143.1241
166.7146,-142.7257
166.5822,-142.327
166.449,-141.9285
166.3177,-141.5294
166.1866,-141.1302
166.0551,-140.7312
165.9245,-140.3318
165.7923,-139.933
165.6601,-139.5342
165.5263,-139.1359
165.3941,-138.7371
165.2603,-138.3388
165.1129,-137.9455
164.9602,-137.5541
164.8087,-137.1622
164.6561,-136.7708
164.5054,-136.3785
164.3581,-135.9851
164.2109,-135.5915
164.0639,-135.198
163.9163,-134.8046
163.7553,-134.4167
163.5845,-134.0328
163.4153,-133.6483
163.2445,-133.2644
163.0851,-132.8759
162.9448,-132.48
162.805,-132.0837
162.6654,-131.6874
162.5248,-131.2916
162.3626,-130.9043
162.1893,-130.5216
162.0183,-130.1377
161.845,-129.755
161.6719,-129.3722
161.496,-128.9906
161.3205,-128.6089
161.1458,-128.2268
160.9665,-127.8469
160.7824,-127.4691
160.5947,-127.0933
160.4112,-126.7153
160.2234,-126.3395
160.023,-125.9703
159.8194,-125.6027
159.6177,-125.2342
159.4154,-124.8659
159.2245,-124.492
159.0512,-124.1091
158.8747,-123.7279
158.7022,-123.3448
158.5236,-122.9646
158.3115,-122.6021
158.0956,-122.2415
157.8828,-121.8794
157.6677,-121.5184
157.468,-121.1488
157.2725,-120.777
157.0762,-120.4055
156.8814,-120.0332
156.6788,-119.6653
156.4697,-119.3008
156.2584,-118.9377
156.049,-118.5734
155.8271,-118.2174
155.5765,-117.88
155.3255,-117.5433
155.0744,-117.2062
154.8412,-116.8588
154.6641,-116.4777
154.4875,-116.0966
154.3108,-115.7153
154.1335,-115.3345
153.889,-114.9962
153.6186,-114.6743
153.3517,-114.3503
153.0805,-114.0289
152.8189,-113.7007
152.5618,-113.368
152.3095,-113.0323
152.0533,-112.6992
151.831,-112.3453
151.6528,-111.9649
151.4738,-111.5849
151.2975,-111.2032
151.0962,-110.8366
150.8498,-110.4965
150.5971,-110.1606
150.3507,-109.8205
150.0987,-109.4841
149.8316,-109.1602
149.5582,-108.8411
149.2852,-108.5217
149.0139,-108.2011
148.7843,-107.8521
148.5902,-107.4791
148.3901,-107.1101
148.1961,-106.737
147.9814,-106.3773
147.7275,-106.0428
147.4707,-105.71
147.2152,-105.3766
146.9597,-105.0431
146.7003,-104.7125
146.4428,-104.3806
146.1835,-104.0499
145.9305,-103.715
145.7102,-103.357
145.4885,-103.0004
145.2698,-102.6412
145.0465,-102.2858
144.7667,-101.9748
144.4676,-101.6791
144.1754,-101.3778
143.8764,-101.0819
143.6086,-100.7617
143.3902,-100.4033
143.1757,-100.0416
142.9585,-99.6822
142.7331,-99.3281
142.4727,-98.9986
142.2121,-98.6689
141.9521,-98.3389
141.6913,-98.0095
141.4575,-97.6606
141.2271,-97.3094
140.9977,-96.9572
140.7672,-96.6061
140.5062,-96.2786
140.2205,-95.9706
139.9362,-95.6612
139.6504,-95.3533
139.3661,-95.0439
139.1054,-94.7145
138.8475,-94.3828
138.5885,-94.052
138.3303,-93.7206
138.0497,-93.4085
137.7585,-93.1056
137.467,-92.8031
137.1757,-92.5003
136.8928,-92.1899
136.6158,-91.8739
136.3384,-91.5584
136.0613,-91.2425
135.7788,-90.9317
135.4867,-90.6297
135.1949,-90.3274
134.9026,-90.0257
134.6171,-89.7176
134.3421,-89.4
134.0677,-89.0818
133.7932,-88.7637
133.518,-88.4463
133.2432,-88.1284
132.9661,-87.8127
132.692,-87.494
132.4139,-87.1794
132.119,-86.8801
131.8212,-86.5837
131.5254,-86.2854
131.2289,-85.9876
130.9382,-85.6846
130.656,-85.373
130.3696,-85.0659
130.0887,-84.753
129.8009,-84.4474
129.4713,-84.1876
129.1362,-83.9335
128.8054,-83.675
128.4721,-83.4188
128.157,-83.141
127.8428,-82.862
127.5263,-82.5857
127.2131,-82.3057
126.9127,-82.0124
126.6203,-81.7104
126.3253,-81.4114
126.0318,-81.1108
125.7127,-80.8385
125.3817,-80.5798
125.0522,-80.3191
124.7209,-80.0606
124.4169,-79.7717
124.1235,-79.471
123.8295,-79.1709
123.5376,-78.8685
123.2369,-78.5755
122.9338,-78.2842
122.6252,-77.9994
122.3223,-77.7078
122.0121,-77.425
121.6706,-77.1806
121.3266,-76.9393
120.9834,-76.6969
120.641,-76.4536
120.3189,-76.1839
120.0005,-75.9096
119.6784,-75.64
119.3599,-75.3657
119.0462,-75.0866
118.7389,-74.8
118.4301,-74.5152
118.1219,-74.2296
117.8099,-73.9482
117.4882,-73.6782
117.1665,-73.4077
116.8452,-73.1372
116.5228,-72.8676
116.1962,-72.6034
115.8675,-72.3418
115.5412,-72.077
115.2124,-71.8156
114.8801,-71.5583
114.5463,-71.3034
114.2133,-71.047
113.8802,-70.791
113.5488,-70.5327
113.2203,-70.2707
112.8904,-70.0107
112.5618,-69.7487
112.2322,-69.4883
111.9033,-69.2268
111.5746,-68.9651
111.2449,-68.7047
110.9168,-68.4421
110.5739,-68.2007
110.217,-67.9791
109.8579,-67.761
109.5007,-67.5397
109.1586,-67.2969
108.8266,-67.0394
108.4936,-66.7831
108.1613,-66.5261
107.8229,-66.2773
107.4748,-66.0422
107.1261,-65.8076
106.7781,-65.5723
106.4295,-65.3378
106.0818,-65.1019
105.7335,-64.867
105.3856,-64.6313
105.0377,-64.396
104.6924,-64.1563
104.3479,-63.916
104.0025,-63.6768
103.658,-63.4361
103.3044,-63.2097
102.9451,-62.9918
102.5854,-62.7748
102.2258,-62.5575
101.8664,-62.3399
101.5011,-62.1325
101.1354,-61.9254
100.7697,-61.7187
100.4037,-61.5121
100.0389,-61.304
99.673,-61.0972
99.3087,-60.8882
98.9427,-60.6817
98.5827,-60.4651
98.2275,-60.2411
97.8723,-60.0163
97.518,-59.7907
97.1626,-59.5667
96.8144,-59.3311
96.4627,-59.102
96.1149,-58.8652
95.7625,-58.6378
95.3764,-58.4724
94.9875,-58.3132
94.6004,-58.1499
94.2127,-57.9882
93.8499,-57.7785
93.4958,-57.5517
93.139,-57.3306
92.7854,-57.1026
92.4259,-56.8866
92.0506,-56.6975
91.673,-56.5134
91.2967,-56.3265
90.9202,-56.1398
90.5657,-55.9164
90.22,-55.6765
89.8716,-55.4428
89.5264,-55.2022
89.1697,-54.9816
88.8042,-54.7746
88.4359,-54.5719
88.0697,-54.3666
87.6991,-54.1686
87.3117,-54.0066
86.9248,-53.8427
86.5366,-53.6814
86.1503,-53.5173
85.7905,-53.3028
85.4437,-53.0663
85.095,-52.8311
84.7479,-52.5951
84.4028,-52.3552
84.062,-52.1094
83.7215,-51.8637
83.3802,-51.6177
83.042,-51.3697
82.7096,-51.1116
82.3781,-50.8544
82.0461,-50.5965
81.7126,-50.3408
81.3681,-50.1011
81.0233,-49.8597
80.6786,-49.6211
80.3344,-49.3787
80.0097,-49.1137
79.6924,-48.8378
79.3708,-48.5669
79.0548,-48.2915
78.7755,-47.9792
78.5258,-47.6428
78.2699,-47.3078
78.0186,-46.9726
77.7655,-46.6363
77.5121,-46.3011
77.2999,-45.9454
77.1747,-45.5439
77.0611,-45.1404
76.88,-44.7587
76.7106,-44.3772
76.5281,-43.9957
76.3557,-43.6151
76.2016,-43.2227
76.0484,-42.832
76.2189,-42.5516
76.5751,-42.3475
76.5875,-42.0544
76.3332,-41.7104
76.1127,-41.3625
75.9773,-40.9683
75.9226,-40.5534
76.0144,-40.1503
76.1476,-39.747
76.2528,-39.3432
76.4606,-38.975
76.6577,-38.6069
76.7705,-38.203
76.8725,-37.7938
76.983,-37.3905
77.1635,-37.0116
77.3672,-36.6451
77.5636,-36.2732
77.7678,-35.9057
77.9698,-35.5382
78.1836,-35.1752
78.3907,-34.8111
78.6029,-34.4471
78.7932,-34.0747
78.9448,-33.6824
79.0973,-33.2909
79.2475,-32.8989
79.4006,-32.5069
79.5633,-32.1205
79.7284,-31.7332
79.8939,-31.3478
80.0568,-30.9602
80.1916,-30.563
80.3057,-30.1588
80.4276,-29.7562
80.5415,-29.3524
80.6711,-28.9524
80.8284,-28.5636
80.9895,-28.1751
81.1492,-27.7865
81.3082,-27.3981
81.4695,-27.0093
81.6279,-26.6211
81.7892,-26.2322
81.9486,-25.8442
82.1085,-25.4554
82.2709,-25.0677
82.4293,-24.6792
82.5935,-24.2914
82.7426,-23.9001
82.8652,-23.4974
82.9814,-23.0943
83.1028,-22.6917
83.2207,-22.2885
83.3636,-21.8937
83.5086,-21.4988
83.5653,-21.0876
83.5816,-20.6672
83.587,-20.248
83.5635,-19.8279
83.5464,-19.4087
83.5194,-18.9887
83.3938,-18.625
83.0636,-18.3541
82.7516,-18.0842
82.8055,-17.7794
83.0848,-17.4586
83.2373,-17.0826
83.2706,-16.6664
83.3832,-16.2675
83.5469,-15.8807
83.704,-15.4905
83.8724,-15.1062
84.0432,-14.7221
84.2167,-14.3391
84.3577,-13.9465
84.4466,-13.5347
84.461,-13.1226
84.4648,-12.7055
84.5145,-12.2896
84.571,-11.8724
84.5359,-11.4796
84.274,-11.1534
84.0883,-10.8032
84.1489,-10.3901
84.0938,-9.9926
83.8899,-9.626
83.6964,-9.2528
83.4906,-8.8861
83.1968,-8.5902
82.8901,-8.2987
82.6781,-7.9379
82.4557,-7.5795
82.241,-7.22
82.1004,-6.8265
81.9883,-6.4222
81.8787,-6.016
81.7633,-5.6124
81.6682,-5.2031
81.5907,-4.7911
81.5257,-4.3748
81.4473,-3.9633
81.2953,-3.5874
81.0166,-3.2704
80.75,-2.9475
80.633,-2.5454
80.4086,-2.2416
80.0163,-2.0848
79.63,-1.9244
79.226,-1.806
78.8204,-1.7014
78.4122,-1.5977
78.0085,-1.4876
77.6508,-1.2668
77.2946,-1.0432
76.9371,-0.82483
76.5806,-0.59815
76.1948,-0.45119
75.787,-0.34059
75.3801,-0.2492
74.9712,-0.13563
74.5648,-0.05046
74.1427,-0.019309
73.7258,-0.012528
