88.8981,-54.9677
88.2099,-54.5068
87.5139,-54.0583
86.812,-53.6186
86.1092,-53.1796
85.4099,-52.7345
84.7149,-52.282
84.0224,-51.8256
83.3295,-51.3694
82.6354,-50.9149
81.9421,-50.4592
81.2521,-49.9984
80.5659,-49.5315
79.8837,-49.0597
79.2065,-48.5823
78.5371,-48.0959
77.8842,-47.5927
77.2633,-47.0639
76.6917,-46.5004
76.1954,-45.8988
75.8041,-45.2638
75.5364,-44.6146
75.4072,-43.978
75.4228,-43.3624
75.5775,-42.7487
75.8493,-42.1151
76.2097,-41.4585
76.6329,-40.7893
77.0962,-40.1175
77.5794,-39.4485
78.0749,-38.7853
78.5755,-38.1249
79.0729,-37.4625
79.5583,-36.7921
80.0229,-36.1081
80.4604,-35.4071
80.8693,-34.6887
81.2525,-33.9555
81.6153,-33.2111
81.9626,-32.4587
82.2971,-31.7004
82.6192,-30.9367
82.9283,-30.1677
83.223,-29.3933
83.501,-28.6128
83.7595,-27.826
83.9962,-27.0325
84.2112,-26.2327
84.4073,-25.4276
84.5884,-24.6186
84.7587,-23.8071
84.9209,-22.9942
85.0705,-22.18
85.1963,-21.3645
85.2891,-20.5488
85.3471,-19.7353
85.3874,-18.9273
85.4419,-18.1256
85.5381,-17.328
85.6788,-16.5303
85.8402,-15.7284
85.9909,-14.92
86.1088,-14.1046
86.1803,-13.284
86.1997,-12.4612
86.1627,-11.6403
86.0647,-10.8254
85.9032,-10.0213
85.6794,-9.2322
85.4017,-8.4596
85.0856,-7.7019
84.7524,-6.9536
84.4236,-6.207
84.1048,-5.4607
83.7771,-4.7245
83.4063,-4.0186
82.9611,-3.3665
82.4277,-2.787
81.8101,-2.2891
81.1269,-1.8658
-46.6442,-38.1324