82.3333,-52.1574
81.6268,-51.791
80.9303,-51.4112
80.2491,-51.0137
79.5896,-50.5946
78.9648,-50.1509
78.4009,-49.6764
77.9363,-49.1622
77.6094,-48.6018
77.4383,-47.9912
77.4102,-47.3294
77.49,-46.6196
77.6392,-45.8759
77.8345,-45.1173
78.0669,-44.3576
78.3309,-43.605
78.6264,-42.8642
78.9552,-42.138
79.3111,-41.4243
79.681,-40.7175
80.0446,-40.0089
80.381,-39.2892
80.6759,-38.5526
80.9269,-37.7984
81.1425,-37.0309
81.3368,-36.2559
81.5246,-35.4789
81.7209,-34.7046
81.936,-33.936
82.1711,-33.1729
82.42,-32.4131
82.6725,-31.6536
82.9185,-30.8918
83.1515,-30.1262
83.368,-29.3566
83.5652,-28.5821
83.745,-27.8031
83.9131,-27.0209
84.0752,-26.2372
84.2358,-25.4533
84.3962,-24.6706
84.5575,-23.8906
84.7136,-23.1134
84.8524,-22.338
84.9626,-21.5636
85.0326,-20.7907
85.0408,-20.0232
84.9561,-19.2702
84.7604,-18.5418
84.459,-17.8453
84.0894,-17.1777
83.7138,-16.5214
83.4042,-15.8544
83.2232,-15.1685
83.2132,-14.4793
83.3922,-13.82
83.7513,-13.2205
84.2511,-12.6886
84.8312,-12.2043
85.4194,-11.725
85.9419,-11.2059
86.3408,-10.6189
86.5833,-9.961
86.6723,-9.2478
86.6448,-8.4988
86.5513,-7.7288
86.4245,-6.9503
86.2684,-6.1758
86.065,-5.4181
85.7947,-4.6886
85.4491,-3.9905
85.0454,-3.3163
84.6127,-2.6522
84.1724,-1.989
83.728,-1.3288
83.2673,-0.68442
82.7704,-0.074866
82.2221,0.48337
81.6184,0.98144
80.9648,1.4161
-50.2254,-40.6238