77.4906,-320.3169
77.845,-320.1122
78.1983,-319.9053
78.5525,-319.7002
78.9059,-319.4936
79.26,-319.2883
79.6135,-319.0819
79.9676,-318.8764
80.3211,-318.6702
80.675,-318.4643
81.0289,-318.2586
81.3823,-318.0523
81.7366,-317.847
82.0898,-317.6403
82.4441,-317.4352
82.7975,-317.2286
83.1515,-317.0231
83.5053,-316.8171
83.8421,-316.5863
84.1646,-316.3342
84.4862,-316.081
84.8086,-315.8288
85.1307,-315.5761
85.4522,-315.3227
85.7754,-315.0717
86.0958,-314.8165
86.4201,-314.5672
86.7672,-314.3514
87.1232,-314.1487
87.4741,-313.9385
87.8295,-313.7348
88.1757,-313.5174
88.5054,-313.2748
88.8351,-313.0322
89.1632,-312.7873
89.4971,-312.5512
89.8515,-312.3467
90.2094,-312.1477
90.5643,-311.9439
90.9213,-311.7435
91.2648,-311.5221
91.5962,-311.2817
91.9289,-311.0434
92.2595,-310.8019
92.5945,-310.567
92.9427,-310.3518
93.2926,-310.1393
93.6416,-309.9254
93.9906,-309.7115
94.3295,-309.4824
94.6634,-309.2453
94.9988,-309.0109
95.3328,-308.7741
95.6725,-308.546
96.0195,-308.3289
96.3663,-308.1114
96.714,-307.8954
97.0585,-307.6745
97.3947,-307.441
97.7292,-307.2051
98.0651,-306.971
98.4001,-306.7359
98.7374,-306.5039
99.0758,-306.2736
99.4132,-306.0418
99.7519,-305.812
100.0863,-305.5761
100.4121,-305.3283
100.7367,-305.0789
101.0622,-304.8307
101.3872,-304.5818
101.7142,-304.3356
102.0416,-304.0898
102.3687,-303.8437
102.6962,-303.5982
103.0195,-303.3472
103.3378,-303.0899
103.6553,-302.8315
103.9737,-302.5743
104.2911,-302.3158
104.6046,-302.0526
104.917,-301.788
105.2304,-301.5247
105.5429,-301.2603
105.8604,-301.0021
106.1855,-300.7534
106.511,-300.5053
106.8363,-300.2567
107.1618,-300.0085
107.4873,-299.7603
107.8131,-299.5125
108.1386,-299.2642
108.4644,-299.0165
108.78,-298.7564
109.0819,-298.48
109.3835,-298.2033
109.6853,-297.9267
109.9888,-297.6521
110.2996,-297.3857
110.6107,-297.1197
110.9216,-296.8534
111.2326,-296.5872
111.5398,-296.3168
111.8456,-296.0446
112.1517,-295.7728
112.4574,-295.5007
112.7632,-295.2285
113.0688,-294.9562
113.3737,-294.683
113.6799,-294.4114
113.9836,-294.137
114.2768,-293.8514
114.5674,-293.5631
114.8605,-293.2773
115.1516,-292.9895
115.4479,-292.7072
115.7506,-292.4316
116.0528,-292.1555
116.3562,-291.8807
116.6579,-291.6042
116.952,-291.3195
117.2441,-291.0327
117.5371,-290.7468
117.8301,-290.4609
118.1309,-290.1835
118.4365,-289.911
118.7395,-289.6359
119.0455,-289.3639
119.3429,-289.0831
119.6217,-288.7835
119.898,-288.4814
120.1762,-288.1812
120.4533,-287.8798
120.735,-287.5829
121.0186,-287.2877
121.3019,-286.9922
121.5857,-286.6973
121.8696,-286.4024
122.1558,-286.1097
122.4411,-285.8162
122.7274,-285.5236
123.0126,-285.23
123.2854,-284.9249
123.5555,-284.6173
123.8269,-284.3109
124.0971,-284.0034
124.3752,-283.7031
124.6566,-283.4058
124.9382,-283.1087
125.2201,-282.8119
125.5041,-282.5172
125.7962,-282.2304
126.0867,-281.9421
126.3791,-281.6555
126.6695,-281.3671
126.941,-281.0611
127.2075,-280.7502
127.4756,-280.441
127.7422,-280.1303
128.0094,-279.8202
128.2737,-279.5076
128.5391,-279.196
128.8037,-278.8837
129.0687,-278.5717
129.34,-278.2652
129.6119,-277.9592
129.8846,-277.6539
130.1562,-277.3477
130.4199,-277.0347
130.679,-276.7178
130.9391,-276.4018
131.1988,-276.0853
131.4617,-275.7716
131.7306,-275.463
131.9978,-275.1529
132.2673,-274.8448
132.534,-274.5343
132.7852,-274.2112
133.0328,-273.8851
133.283,-273.5612
133.531,-273.2355
133.7703,-272.9036
134.0005,-272.5651
134.2312,-272.227
134.4617,-271.8887
134.6945,-271.552
134.9333,-271.2196
135.1731,-270.8879
135.4115,-270.5551
135.6518,-270.2237
135.9039,-269.9014
136.1602,-269.5821
136.4142,-269.2612
136.6701,-268.9416
136.9135,-268.6128
137.1449,-268.2752
137.3763,-267.9375
137.6072,-267.5995
137.8391,-267.2622
138.0718,-266.9254
138.3051,-266.5891
138.5381,-266.2526
138.7712,-265.9161
139.0107,-265.5841
139.2542,-265.2552
139.4974,-264.9258
139.7418,-264.5974
139.9819,-264.2661
140.2095,-263.9258
140.4323,-263.5825
140.6608,-263.2427
140.8832,-262.8992
141.0807,-262.5412
141.267,-262.1765
141.4566,-261.8138
141.6449,-261.4504
141.8667,-261.109
142.1295,-260.7949
142.3876,-260.4776
142.6517,-260.1643
142.9092,-259.8466
143.1187,-259.496
143.3159,-259.1369
143.5173,-258.7808
143.7162,-258.4229
143.94,-258.0811
144.1825,-257.7512
144.4222,-257.4195
144.6658,-257.0904
144.9049,-256.7582
145.1228,-256.4119
145.3363,-256.0625
145.5533,-255.7155
145.768,-255.367
145.9925,-255.0246
146.2188,-254.6836
146.4431,-254.3412
146.6707,-254.0009
146.876,-253.6477
147.0556,-253.28
147.2308,-252.91
147.4095,-252.5417
147.5861,-252.1726
147.7537,-251.7989
147.9228,-251.4264
148.0885,-251.0518
148.259,-250.6799
148.4715,-250.3317
148.7048,-249.9949
148.9333,-249.6556
149.1652,-249.3181
149.3872,-248.9743
149.6011,-248.6254
149.8162,-248.277
150.0294,-247.9277
150.2408,-247.5771
150.4423,-247.2208
150.6443,-246.8649
150.847,-246.5091
151.0481,-246.1528
151.2638,-245.8046
151.4781,-245.456
151.6926,-245.1074
151.9086,-244.7595
152.109,-244.403
152.3061,-244.0439
152.497,-243.6822
152.6942,-243.3231
152.8777,-242.9581
153.0117,-242.5713
153.1453,-242.1845
153.2762,-241.7964
153.413,-241.411
153.61,-241.0527
153.8166,-240.6987
154.0135,-240.3403
154.219,-239.9858
154.4071,-239.6227
154.5849,-239.254
154.7616,-238.8847
154.937,-238.5149
155.1154,-238.1465
155.3023,-237.7825
155.4975,-237.4225
155.6891,-237.0609
155.8836,-236.7006
156.067,-236.3351
156.2273,-235.9585
156.386,-235.5811
156.5466,-235.2046
156.7047,-234.827
156.8487,-234.4441
156.9828,-234.0572
157.1213,-233.6721
157.2554,-233.2853
157.4065,-232.9055
157.5874,-232.5384
157.7703,-232.1721
157.952,-231.8054
158.1343,-231.4389
158.3116,-231.07
158.4875,-230.7003
158.6621,-230.3301
158.8386,-229.9607
159.0049,-229.587
159.1478,-229.2035
159.2888,-228.8192
159.4306,-228.4352
159.5732,-228.0515
159.7493,-227.6828
159.9431,-227.3221
160.1305,-226.9584
160.3255,-226.5981
160.5053,-226.2311
160.6525,-225.8493
160.7934,-225.4648
160.9386,-225.0822
161.082,-224.6987
161.2312,-224.3177
161.3882,-223.9395
161.5402,-223.5596
161.6983,-223.1818
161.8501,-222.8018
161.9682,-222.4101
162.081,-222.0165
162.1966,-221.6239
162.3111,-221.2309
162.4489,-220.8457
162.5954,-220.4634
162.7394,-220.0803
162.886,-219.698
163.0257,-219.3133
163.1624,-218.9275
163.299,-218.5416
163.4347,-218.1554
163.5721,-217.7698
163.7133,-217.3856
163.8574,-217.0024
164.0001,-216.6188
164.1433,-216.2353
164.2758,-215.8482
164.3959,-215.4569
164.5183,-215.0663
164.638,-214.6748
164.7616,-214.2846
164.9008,-213.8997
165.0414,-213.5153
165.1817,-213.1307
165.3213,-212.7459
165.4472,-212.3565
165.5659,-211.9648
165.6868,-211.5737
165.8057,-211.182
165.9301,-210.7921
166.0639,-210.4052
166.1981,-210.0185
166.3324,-209.6318
166.4662,-209.245
166.5937,-208.856
166.7176,-208.4659
166.8419,-208.0759
166.966,-207.6858
167.0915,-207.2962
167.2198,-206.9075
167.348,-206.5187
167.4763,-206.1301
167.6044,-205.7412
167.7289,-205.3513
167.8529,-204.9612
167.9776,-204.5713
168.1014,-204.1812
168.2224,-203.7901
168.3405,-203.3982
168.4595,-203.0065
168.5781,-202.6147
168.6971,-202.2231
168.8178,-201.8319
168.9372,-201.4404
169.0583,-201.0494
169.1776,-200.6578
169.2903,-200.2643
169.4009,-199.8702
169.5125,-199.4764
169.6235,-199.0824
169.7286,-198.6868
169.8282,-198.2898
169.9282,-197.8928
170.0274,-197.4957
170.13,-197.0994
170.2422,-196.7058
170.3561,-196.3126
170.4683,-195.919
170.5819,-195.5257
170.692,-195.1314
170.8008,-194.7368
170.9099,-194.3423
171.0183,-193.9476
171.1256,-193.5526
171.2252,-193.1555
171.3249,-192.7585
171.425,-192.3616
171.5242,-191.9645
171.6385,-191.5715
171.7595,-191.1805
171.8809,-190.7896
172.0031,-190.3988
172.1231,-190.0076
172.247,-189.6173
172.3658,-189.2258
172.4908,-188.8357
172.6091,-188.4441
172.6798,-188.0417
172.7371,-187.6361
172.7987,-187.2316
172.8575,-186.8264
172.9379,-186.4253
173.0277,-186.0259
173.116,-185.6262
173.2065,-185.227
173.2966,-184.8277
173.3911,-184.4294
173.4833,-184.0306
173.5776,-183.6323
173.6689,-183.2333
173.7439,-182.8309
173.8175,-182.4282
173.8923,-182.0258
173.9662,-181.6232
174.0492,-181.2224
174.1367,-180.8225
174.2232,-180.4224
174.3113,-180.0226
174.3914,-179.6213
174.4567,-179.2173
174.5193,-178.8127
174.5843,-178.4086
174.6474,-178.0041
174.7039,-177.5988
174.7567,-177.1928
174.8095,-176.7869
174.8628,-176.3811
174.9378,-175.9793
175.0352,-175.5817
175.1312,-175.1838
175.2289,-174.7862
175.315,-174.3864
175.3777,-173.9819
175.4373,-173.5769
175.5006,-173.1725
175.5597,-172.7675
175.6044,-172.3607
175.6416,-171.953
175.6823,-171.5457
175.7206,-171.1382
175.756,-170.7304
175.7879,-170.3223
175.8187,-169.9141
175.8515,-169.5061
175.8816,-169.0978
175.9105,-168.6895
175.9373,-168.2811
175.9657,-167.8727
175.9931,-167.4643
175.9964,-167.0556
175.9787,-166.6467
175.9611,-166.2377
175.9431,-165.8287
175.9284,-165.4197
175.9243,-165.0104
175.9215,-164.6011
175.9174,-164.1917
175.9142,-163.7824
175.9041,-163.3732
175.8893,-162.9641
175.8757,-162.5551
175.8603,-162.146
175.8477,-161.7369
175.8427,-161.3276
175.8395,-160.9182
175.835,-160.5089
175.8311,-160.0996
175.8246,-159.6903
175.8151,-159.2811
175.8063,-158.8718
175.7971,-158.4626
175.7878,-158.0534
175.7802,-157.6441
175.7718,-157.2349
175.7643,-156.8256
175.7561,-156.4163
175.7331,-156.008
175.6932,-155.6006
175.6513,-155.1934
175.6124,-154.7859
175.5697,-154.3788
175.5129,-153.9735
175.4494,-153.5691
175.3898,-153.1641
175.327,-152.7596
175.2735,-152.3539
175.2365,-151.9463
175.1996,-151.5386
175.1634,-151.1309
175.1259,-150.7233
175.0776,-150.3169
175.0229,-149.9112
174.9695,-149.5053
174.9152,-149.0996
174.8506,-148.6955
174.7802,-148.2923
174.7096,-147.8891
174.6395,-147.4857
174.5655,-147.0832
174.4787,-146.6832
174.3901,-146.2836
174.304,-145.8834
174.2148,-145.4839
174.1164,-145.0868
174.0054,-144.6926
173.8983,-144.2977
173.7876,-143.9035
173.683,-143.5079
173.6081,-143.1055
173.5341,-142.7029
173.4602,-142.3003
173.3853,-141.8979
173.2794,-141.5029
173.1619,-141.1107
173.047,-140.7179
172.9295,-140.3258
172.8119,-139.9337
172.6912,-139.5425
172.5718,-139.151
172.4518,-138.7597
172.3327,-138.368
172.2191,-137.9748
172.1042,-137.5819
171.991,-137.1885
171.8758,-136.7957
171.7473,-136.4072
171.6127,-136.0206
171.4802,-135.6333
171.3459,-135.2466
171.218,-134.8579
171.104,-134.4647
170.9903,-134.0715
170.8768,-133.6782
170.7628,-133.285
170.6339,-132.8967
170.4989,-132.5102
170.3644,-132.1236
170.2295,-131.7371
170.0908,-131.3521
169.9401,-130.9715
169.79,-130.5907
169.639,-130.2102
169.4894,-129.8292
169.3649,-129.4396
169.2501,-129.0466
169.1321,-128.6547
169.0174,-128.2617
168.8935,-127.8717
168.7584,-127.4853
168.6214,-127.0996
168.4852,-126.7136
168.3494,-126.3274
168.2193,-125.9394
168.0954,-125.5491
167.9683,-125.1601
167.8449,-124.7697
167.7122,-124.3828
167.5514,-124.0064
167.3882,-123.631
167.2265,-123.2549
167.0644,-122.8791
166.9291,-122.4934
166.8099,-122.1017
166.6886,-121.7108
166.5698,-121.319
166.4302,-120.9352
166.2596,-120.5631
166.087,-120.1919
165.9159,-119.8201
165.7441,-119.4485
165.5833,-119.0721
165.4243,-118.6949
165.2637,-118.3184
165.1053,-117.9409
164.9524,-117.5613
164.8076,-117.1783
164.6594,-116.7969
164.5148,-116.4138
164.3562,-116.0372
164.1582,-115.6792
163.9561,-115.323
163.7579,-114.965
163.5561,-114.6087
163.3693,-114.2447
163.1889,-113.8773
163.0103,-113.509
162.8309,-113.141
162.6523,-112.7727
162.4855,-112.3989
162.3164,-112.0262
162.1501,-111.652
161.9808,-111.2794
161.7819,-110.9221
161.5737,-110.5696
161.3668,-110.2164
161.1597,-109.8633
160.9738,-109.499
160.7977,-109.1294
160.619,-108.7612
160.4432,-108.3915
160.2536,-108.0291
160.0477,-107.6753
159.8403,-107.3224
159.6335,-106.9691
159.427,-106.6157
159.2224,-106.2611
159.0196,-105.9056
158.8152,-105.5509
158.6123,-105.1954
158.4041,-104.8431
158.1794,-104.501
157.9537,-104.1595
157.7289,-103.8174
157.5033,-103.4758
157.289,-103.1271
157.0767,-102.7771
156.8644,-102.4271
156.6527,-102.0768
156.4391,-101.7276
156.2272,-101.3773
156.0124,-101.029
155.8009,-100.6783
155.5661,-100.3453
155.2877,-100.0453
155.0085,-99.7462
154.7277,-99.4477
154.4515,-99.1466
154.2439,-98.7987
154.0759,-98.4241
153.8949,-98.0584
153.7285,-97.6826
153.5304,-97.3291
153.2476,-97.035
152.9515,-96.7505
152.6666,-96.4579
152.3732,-96.1714
152.0849,-95.8815
151.7933,-95.5938
151.5025,-95.3058
151.2127,-95.0169
150.95,-94.7064
150.736,-94.3572
150.5186,-94.0105
150.305,-93.6612
150.0872,-93.3148
149.8158,-93.0097
149.5337,-92.7125
149.2568,-92.4114
148.9746,-92.1145
148.6961,-91.8148
148.4115,-91.5204
148.1303,-91.2229
147.8471,-90.9275
147.5675,-90.6286
147.3066,-90.3131
147.0438,-89.9994
146.7835,-89.6833
146.5207,-89.3697
146.2345,-89.0777
145.9384,-88.795
145.6431,-88.5116
145.3477,-88.2281
145.0398,-87.9596
144.7113,-87.7153
144.3831,-87.471
144.0534,-87.2277
143.7266,-86.982
143.4534,-86.6832
143.2164,-86.3486
142.9731,-86.0203
142.7364,-85.6854
142.4673,-85.3823
142.1435,-85.1328
141.8151,-84.8877
141.49,-84.6395
141.1627,-84.3932
140.8387,-84.1433
140.5142,-83.8936
140.1904,-83.6433
139.8659,-83.3937
139.5512,-83.1325
139.2498,-82.8556
138.9487,-82.5782
138.6481,-82.3005
138.3459,-82.0243
138.0291,-81.7656
137.7037,-81.517
137.3832,-81.2627
137.0573,-81.0146
136.7418,-80.7548
136.4573,-80.4608
136.1762,-80.1631
135.8933,-79.8672
135.6107,-79.5713
135.2975,-79.3106
134.9609,-79.0775
134.6267,-78.8413
134.2902,-78.608
133.9583,-78.3688
133.6418,-78.1093
133.3262,-77.8486
133.0097,-77.589
132.6945,-77.3277
132.3822,-77.0635
132.0778,-76.7892
131.7691,-76.5212
131.4658,-76.2453
131.1537,-75.982
130.7997,-75.7776
130.4396,-75.5816
130.0847,-75.3786
129.726,-75.1807
129.3852,-74.9553
129.0521,-74.7172
128.7183,-74.4803
128.386,-74.2412
128.0566,-73.9984
127.7353,-73.7448
127.4127,-73.4928
127.0908,-73.24
126.7687,-72.9873
126.4411,-72.7419
126.1137,-72.4962
125.7862,-72.2506
125.4584,-72.0055
125.1252,-71.7678
124.7879,-71.5359
124.4517,-71.3023
124.1147,-71.07
123.7873,-70.8248
123.4694,-70.5669
123.1506,-70.3102
122.8332,-70.0516
122.5079,-69.8037
122.1674,-69.5766
121.8258,-69.351
121.4848,-69.1247
121.144,-68.8979
120.8132,-68.6568
120.483,-68.4149
120.1523,-68.1735
119.8217,-67.9323
119.4771,-67.7116
119.1288,-67.4966
118.7822,-67.2789
118.4336,-67.0641
118.0903,-66.8414
117.7485,-66.616
117.4073,-66.39
117.0664,-66.1633
116.7237,-65.9394
116.3794,-65.7182
116.033,-65.5
115.6884,-65.2791
115.3425,-65.0602
114.9929,-64.8474
114.6416,-64.6372
114.2899,-64.4277
113.9389,-64.2172
113.5879,-64.0066
113.2394,-63.7918
112.8907,-63.5775
112.5419,-63.3632
112.1933,-63.1487
111.8373,-62.9465
111.4803,-62.7464
111.1239,-62.5451
110.7664,-62.3456
110.4122,-62.1406
110.0582,-61.9349
109.7055,-61.7272
109.3521,-61.5205
108.9996,-61.3127
108.6501,-61.0995
108.2986,-60.8897
107.9498,-60.6755
107.5981,-60.466
107.2332,-60.2814
106.8628,-60.107
106.4935,-59.9303
106.1241,-59.7543
105.7597,-59.568
105.4022,-59.3686
105.043,-59.1723
104.6856,-58.9726
104.325,-58.7795
103.95,-58.6153
103.5742,-58.4534
103.1988,-58.2899
102.8232,-58.1274
102.4617,-57.9366
102.1086,-57.7295
101.7553,-57.523
101.4024,-57.3152
101.0474,-57.112
100.6888,-56.9143
100.3284,-56.7202
99.9702,-56.5221
99.6098,-56.3279
99.2404,-56.1525
98.8668,-55.9846
98.4937,-55.8166
98.1212,-55.6467
97.7465,-55.482
97.3624,-55.3415
96.9756,-55.2065
96.5911,-55.0667
96.2053,-54.9298
95.8402,-54.75
95.496,-54.5283
95.1484,-54.3125
94.8055,-54.0882
94.4554,-53.8776
94.0788,-53.7184
93.6972,-53.569
93.3195,-53.4116
92.9394,-53.2597
92.5598,-53.1065
92.1796,-52.9548
91.7987,-52.8049
91.4189,-52.6521
91.035,-52.5109
90.6443,-52.3885
90.2531,-52.2684
89.8621,-52.1469
89.4711,-52.0261
89.0825,-51.8976
88.695,-51.7652
88.3078,-51.6332
87.9202,-51.5008
87.5357,-51.3611
87.155,-51.2106
86.7737,-51.0615
86.3935,-50.9103
86.0114,-50.7628
85.6228,-50.6353
85.2324,-50.5116
84.8434,-50.3841
84.4536,-50.2598
84.0659,-50.1276
83.6822,-49.9862
83.2975,-49.8455
82.9139,-49.7028
82.5292,-49.5632
82.1393,-49.438
81.7484,-49.3179
81.3579,-49.1937
80.967,-49.0731
80.5728,-48.9629
80.1768,-48.8587
79.7816,-48.7533
79.3855,-48.6483
78.9907,-48.5421
78.5957,-48.4331
78.2009,-48.3253
77.8066,-48.2161
77.4113,-48.1082
77.0156,-48.0058
76.6183,-47.9046
76.222,-47.8041
75.8255,-47.702
75.4332,-47.5849
75.0458,-47.4547
74.656,-47.3267
74.2685,-47.1975
73.8818,-47.062
73.4976,-46.9207
73.116,-46.7743
72.7297,-46.6351
72.3497,-46.4873
71.985,-46.3015
71.6331,-46.0934
71.2773,-45.8908
70.9221,-45.6861
70.5704,-45.4796
70.2111,-45.2788
69.9077,-45.022
69.6812,-44.6825
69.4678,-44.3314
69.2429,-43.991
69.0264,-43.6421
68.8949,-43.2678
68.8541,-42.8602
68.8165,-42.4516
68.7733,-42.0463
68.7365,-41.6366
68.6941,-41.2313
68.6586,-40.8222
68.6454,-40.4138
68.6308,-40.0048
68.6195,-39.5949
68.6884,-39.1966
68.7961,-38.8002
68.8496,-38.397
68.8759,-37.9882
68.9035,-37.5796
68.9667,-37.178
69.0755,-36.7822
69.1809,-36.3877
69.2888,-35.9922
69.3956,-35.5971
69.4815,-35.1975
69.5647,-34.7958
69.6466,-34.3957
69.7292,-33.994
69.8151,-33.5942
69.9005,-33.1939
69.9893,-32.7939
70.074,-32.3941
70.1656,-31.9943
70.2691,-31.5991
70.3765,-31.2036
70.5001,-30.8135
70.6204,-30.4225
70.7458,-30.0324
70.9143,-29.6612
71.1012,-29.2961
71.302,-28.9403
71.5149,-28.5906
71.7239,-28.2381
71.9498,-27.8978
72.1778,-27.5566
72.4249,-27.2336
72.7207,-26.9505
73.0219,-26.6728
73.3167,-26.3897
73.6051,-26.0984
73.8862,-25.8018
74.1914,-25.5298
74.5182,-25.284
74.8443,-25.0366
75.1736,-24.7928
75.5187,-24.5742
75.8698,-24.3624
76.2156,-24.1439
76.5653,-23.9316
76.9255,-23.737
77.2946,-23.5627
77.6638,-23.3835
77.9968,-23.1472
78.2655,-22.8395
78.5265,-22.5236
78.7581,-22.194
78.8701,-21.7998
78.9785,-21.4051
79.1731,-21.0451
79.3658,-20.6837
79.5095,-20.3053
79.6001,-19.9053
79.6877,-19.5059
79.7813,-19.1074
79.8327,-18.7013
79.8746,-18.2954
79.8901,-17.8863
79.8476,-17.4807
79.7972,-17.0738
79.7526,-16.6665
79.6984,-16.262
79.6415,-15.855
79.5849,-15.4512
79.5267,-15.0448
79.4912,-14.6382
79.4849,-14.2296
79.4827,-13.8189
79.4757,-13.4113
79.4742,-13.0003
79.5017,-12.5933
79.5377,-12.1851
79.5676,-11.7763
79.6027,-11.3699
79.6081,-10.9594
79.5914,-10.5522
79.5753,-10.1421
79.5567,-9.7332
79.5386,-9.3254
79.5055,-8.9154
79.477,-8.5093
79.4441,-8.0995
79.3626,-7.7004
79.2612,-7.3042
79.1646,-6.9045
79.0617,-6.5113
78.9588,-6.1118
78.843,-5.7219
78.6689,-5.3528
78.4674,-4.9947
78.2779,-4.635
78.0558,-4.2878
77.8161,-3.9599
77.579,-3.6242
77.3322,-3.2969
77.1108,-2.9564
76.923,-2.5896
76.7601,-2.2176
76.5721,-1.8504
76.306,-1.5463
76.0173,-1.2538
75.7407,-0.9489
75.4294,-0.69654
75.0702,-0.48963
74.7036,-0.32025
74.3368,-0.12874
73.9569,-0.014703
