100.8878,-299.6122
101.1569,-299.3581
101.4253,-299.1034
101.6952,-298.8501
101.9636,-298.5953
102.2329,-298.3415
102.5085,-298.0945
102.7859,-297.8495
103.0617,-297.6029
103.3402,-297.3589
103.6155,-297.1118
103.8804,-296.8536
104.1413,-296.591
104.4025,-296.3289
104.6637,-296.0667
104.9326,-295.8127
105.2127,-295.5711
105.4953,-295.332
105.7754,-295.0901
106.057,-294.8501
106.3441,-294.6167
106.638,-294.3918
106.9343,-294.1701
107.228,-293.9449
107.5238,-293.7225
107.8266,-293.51
108.1323,-293.3014
108.4377,-293.0923
108.7439,-292.8845
109.0485,-292.6743
109.3483,-292.4575
109.6449,-292.2361
109.9417,-292.0149
110.2401,-291.796
110.5354,-291.5731
110.8225,-291.3397
111.1063,-291.1022
111.3917,-290.8666
111.6765,-290.6301
111.9632,-290.3963
112.2555,-290.1693
112.5487,-289.9434
112.841,-289.7165
113.1339,-289.4903
113.4227,-289.2589
113.7063,-289.0212
113.9898,-288.7833
114.2733,-288.5453
114.5571,-288.308
114.8464,-288.0773
115.1396,-287.8513
115.4319,-287.6245
115.7241,-287.3973
116.0174,-287.1715
116.3118,-286.9474
116.6077,-286.7251
116.9038,-286.503
117.1994,-286.2806
117.4947,-286.0574
117.7871,-285.8305
118.0764,-285.5998
118.3668,-285.3703
118.6586,-285.1426
118.9462,-284.9099
119.2249,-284.6665
119.4981,-284.4169
119.773,-284.1691
120.0496,-283.9232
120.322,-283.6728
120.5884,-283.416
120.8523,-283.1564
121.1168,-282.8976
121.3818,-282.6394
121.6457,-282.3798
121.9085,-282.1193
122.1711,-281.8585
122.4337,-281.5977
122.6964,-281.3371
122.9559,-281.0732
123.2105,-280.8046
123.4649,-280.536
123.7192,-280.267
123.9741,-279.9986
124.2412,-279.7433
124.5217,-279.5018
124.802,-279.2602
125.0825,-279.0189
125.3624,-278.7767
125.6223,-278.5148
125.8625,-278.2333
126.1028,-277.9517
126.3442,-277.6713
126.5839,-277.3893
126.8303,-277.1132
127.0802,-276.8403
127.3278,-276.5652
127.5778,-276.2923
127.827,-276.0187
128.0704,-275.7399
128.3143,-275.4615
128.5583,-275.1834
128.7985,-274.9017
129.0456,-274.6263
129.308,-274.3659
129.5776,-274.1122
129.8456,-273.8568
130.1132,-273.6014
130.3805,-273.3454
130.6418,-273.0833
130.8985,-272.8169
131.1585,-272.5534
131.4188,-272.2901
131.669,-272.0179
131.9079,-271.7355
132.1424,-271.449
132.378,-271.1637
132.6152,-270.8796
132.8512,-270.5945
133.0878,-270.31
133.3264,-270.027
133.563,-269.7425
133.7997,-269.4581
134.0413,-269.1777
134.2841,-268.8984
134.5272,-268.6195
134.7727,-268.3423
135.0146,-268.0624
135.2489,-267.7761
135.4775,-267.485
135.7031,-267.1917
135.9312,-266.9003
136.1593,-266.6088
136.3804,-266.312
136.6008,-266.0147
136.8231,-265.7189
137.0397,-265.4187
137.2634,-265.1241
137.5087,-264.8475
137.7625,-264.5784
138.0157,-264.3083
138.2717,-264.0407
138.5202,-263.7673
138.7506,-263.4779
138.9688,-263.1786
139.189,-262.8817
139.4164,-262.589
139.6286,-262.2864
139.8067,-261.9629
139.9733,-261.6319
140.1465,-261.3049
140.3154,-260.9756
140.491,-260.6501
140.6938,-260.3408
140.9064,-260.0376
141.1119,-259.7299
141.3192,-259.4233
141.5319,-259.1204
141.7468,-258.8192
141.9648,-258.5201
142.1828,-258.221
142.399,-257.9207
142.6134,-257.6191
142.8225,-257.3138
143.029,-257.0066
143.2378,-256.7011
143.4461,-256.3953
143.6542,-256.0892
143.8647,-255.7848
144.0747,-255.4801
144.2839,-255.1748
144.4942,-254.8702
144.7013,-254.5636
144.9059,-254.2551
145.1123,-253.948
145.3179,-253.6403
145.5229,-253.3322
145.7318,-253.0267
145.9408,-252.7213
146.1481,-252.4147
146.3588,-252.1104
146.5655,-251.8035
146.7589,-251.488
146.9489,-251.1704
147.1412,-250.8543
147.3304,-250.5361
147.526,-250.2222
147.7366,-249.9179
147.9503,-249.6157
148.1622,-249.3124
148.3752,-249.0096
148.577,-248.6999
148.7623,-248.3796
148.9443,-248.0573
149.1291,-247.7367
149.3127,-247.4154
149.494,-247.0927
149.6744,-246.7696
149.8545,-246.4463
150.0334,-246.1223
150.2147,-245.7998
150.407,-245.4836
150.6056,-245.1713
150.8017,-244.8576
151.0006,-244.5454
151.1961,-244.2312
151.3721,-243.906
151.5389,-243.5755
151.7096,-243.2472
151.8773,-242.9173
152.0479,-242.5889
152.2308,-242.2672
152.4155,-241.9465
152.5985,-241.6248
152.7831,-241.3041
152.9584,-240.9783
153.122,-240.6463
153.2848,-240.314
153.4478,-239.9818
153.611,-239.6496
153.7814,-239.3213
153.9598,-238.997
154.14,-238.6737
154.3176,-238.3491
154.4976,-238.0257
154.6876,-237.7082
154.8832,-237.3942
155.0787,-237.0799
155.2764,-236.7669
155.4678,-236.4505
155.6419,-236.124
155.808,-235.7931
155.9783,-235.4647
156.1504,-235.1369
156.315,-234.8055
156.4657,-234.4678
156.6094,-234.1266
156.7561,-233.7868
156.903,-233.4473
157.0501,-233.1076
157.205,-232.7715
157.3631,-232.4369
157.5177,-232.1006
157.6736,-231.765
157.8339,-231.4315
157.9988,-231.1002
158.1678,-230.7709
158.3351,-230.4409
158.5013,-230.1102
158.6708,-229.7812
158.8405,-229.4523
159.0096,-229.1231
159.1807,-228.795
159.3501,-228.466
159.5157,-228.135
159.6783,-227.8026
159.8386,-227.469
160.0003,-227.1361
160.1622,-226.8034
160.3181,-226.4677
160.4718,-226.131
160.6263,-225.7948
160.778,-225.4572
160.9336,-225.1214
161.1006,-224.7913
161.2729,-224.4638
161.4447,-224.136
161.6158,-223.8078
161.7883,-223.4804
161.9657,-223.1556
162.1449,-222.8319
162.3228,-222.5073
162.5021,-222.1835
162.6774,-221.8577
162.8428,-221.5266
163.006,-221.1945
163.1714,-220.8635
163.3351,-220.5315
163.4973,-220.1989
163.6569,-219.865
163.8138,-219.5298
163.9743,-219.1963
164.1316,-218.8614
164.2725,-218.5195
164.4008,-218.1725
164.5276,-217.8248
164.6562,-217.4777
164.7836,-217.1303
164.9046,-216.7806
165.0224,-216.4297
165.1415,-216.0795
165.2575,-215.7278
165.3784,-215.3782
165.5218,-215.0376
165.6787,-214.7022
165.8326,-214.3657
165.9878,-214.0298
166.1423,-213.6934
166.2863,-213.3526
166.4265,-213.0101
166.5697,-212.6688
166.7111,-212.3268
166.8519,-211.9846
166.9937,-211.6427
167.1323,-211.2996
167.2717,-210.9568
167.4143,-210.6151
167.5456,-210.2695
167.6572,-209.9168
167.7623,-209.5618
167.8706,-209.208
167.9786,-208.8541
168.0894,-208.5009
168.2087,-208.1507
168.3295,-207.8008
168.448,-207.4502
168.5681,-207.1002
168.6818,-206.7481
168.7857,-206.3929
168.8906,-206.038
168.996,-205.6832
169.0996,-205.3279
169.2119,-204.9754
169.3287,-204.6241
169.4417,-204.2719
169.5606,-203.9212
169.6734,-203.5689
169.7521,-203.2084
169.8082,-202.8427
169.8653,-202.4769
169.9213,-202.1111
169.9794,-201.7457
170.0498,-201.3825
170.1274,-201.0206
170.2046,-200.6587
170.2805,-200.2964
170.3586,-199.9347
170.4441,-199.5747
170.5317,-199.2151
170.6174,-198.8551
170.7063,-198.4958
170.7864,-198.1347
170.8447,-197.7694
170.8968,-197.4029
170.9536,-197.0372
171.0079,-196.6711
171.065,-196.3055
171.1301,-195.9412
171.1949,-195.5768
171.2592,-195.2124
171.3246,-194.8481
171.3864,-194.4833
171.446,-194.118
171.5055,-193.7527
171.5646,-193.3874
171.6241,-193.0221
171.6783,-192.6561
171.7278,-192.2893
171.7793,-191.9229
171.828,-191.5559
171.8801,-191.1896
171.953,-190.827
172.0361,-190.4663
172.1146,-190.1048
172.1981,-189.7441
172.2763,-189.3825
172.3295,-189.0165
172.3743,-188.6489
172.4243,-188.2824
172.4697,-187.915
172.5189,-187.5482
172.5846,-187.1842
172.6558,-186.821
172.7252,-186.4575
172.7962,-186.0943
172.8656,-185.7308
172.9318,-185.3666
172.9961,-185.0022
173.0599,-184.6377
173.126,-184.2735
173.1881,-183.9088
173.2363,-183.5419
173.2783,-183.1741
173.3235,-182.8069
173.3669,-182.4393
173.4113,-182.0719
173.4652,-181.7058
173.5213,-181.34
173.5747,-180.9738
173.6312,-180.6081
173.6848,-180.2419
173.7269,-179.8742
173.7661,-179.5062
173.8075,-179.1384
173.8463,-178.7704
173.8878,-178.4027
173.9375,-178.0359
173.9891,-177.6695
174.0398,-177.3029
174.0912,-176.9364
174.1409,-176.5697
174.1876,-176.2026
174.2334,-175.8353
174.2797,-175.4682
174.3262,-175.101
174.3683,-174.7333
174.4039,-174.365
174.4387,-173.9966
174.4742,-173.6282
174.509,-173.2598
174.5481,-172.8918
174.5918,-172.5242
174.6352,-172.1568
174.68,-171.7894
174.7227,-171.4218
174.7533,-171.0532
174.7748,-170.6837
174.7965,-170.3142
174.8187,-169.9449
174.8405,-169.5754
174.8633,-169.206
174.8869,-168.8367
174.9103,-168.4673
174.9332,-168.098
174.9573,-167.7287
174.9856,-167.3597
175.0163,-166.9909
175.0466,-166.6221
175.077,-166.2532
175.1064,-165.8843
175.1329,-165.5152
175.1581,-165.1459
175.1843,-164.7768
175.2105,-164.4077
175.2324,-164.0382
175.2474,-163.6685
175.2597,-163.2986
175.2737,-162.9288
175.2876,-162.559
175.2975,-162.1891
175.3027,-161.819
175.3061,-161.449
175.3106,-161.0789
175.3149,-160.7088
175.3181,-160.3388
175.3212,-159.9687
175.3239,-159.5986
175.3269,-159.2286
175.3294,-158.8585
175.3262,-158.4885
175.3194,-158.1185
175.3145,-157.7484
175.3079,-157.3784
175.3025,-157.0084
175.3055,-156.6382
175.3106,-156.2682
175.314,-155.8982
175.3205,-155.5281
175.3227,-155.1581
175.313,-154.7882
175.2994,-154.4183
175.2876,-154.0485
175.2757,-153.6786
175.2613,-153.3087
175.2413,-152.9393
175.2196,-152.5698
175.1996,-152.2002
175.1777,-151.8309
175.1605,-151.4612
175.1556,-151.0911
175.1529,-150.7211
175.1483,-150.351
175.1453,-149.9809
175.1316,-149.6114
175.1027,-149.2424
175.0726,-148.8735
175.0435,-148.5047
175.0134,-148.1357
174.993,-147.7664
174.9839,-147.3965
174.9762,-147.0264
174.9676,-146.6565
174.9587,-146.2865
174.9462,-145.9166
174.9295,-145.5469
174.913,-145.1773
174.899,-144.8073
174.8798,-144.4379
174.8456,-144.0696
174.8004,-143.7022
174.7564,-143.3348
174.7153,-142.967
174.6686,-142.5998
174.6102,-142.2346
174.5453,-141.8702
174.4818,-141.5055
174.4191,-141.1409
174.3543,-140.7765
174.2885,-140.4122
174.2216,-140.0484
174.1547,-139.6843
174.0891,-139.32
174.0196,-138.9567
173.9416,-138.5949
173.8599,-138.2339
173.7802,-137.8726
173.7012,-137.5109
173.6141,-137.1514
173.5136,-136.7954
173.4088,-136.4403
173.3064,-136.0847
173.2036,-135.7293
173.1074,-135.372
173.0231,-135.0117
172.9399,-134.6511
172.8551,-134.2908
172.7711,-133.9304
172.6739,-133.5736
172.5625,-133.2206
172.453,-132.8672
172.343,-132.5138
172.2318,-132.1607
172.1358,-131.8036
172.0503,-131.4435
171.9627,-131.084
171.88,-130.7231
171.7907,-130.3641
171.6726,-130.0139
171.5405,-129.6682
171.4123,-129.3211
171.2808,-128.975
171.1525,-128.6281
171.0388,-128.2759
170.9289,-127.9224
170.8167,-127.5699
170.7064,-127.2165
170.5942,-126.8639
170.4781,-126.5126
170.3605,-126.1615
170.2425,-125.8108
170.1279,-125.4589
170.0068,-125.1093
169.865,-124.7677
169.7155,-124.429
169.5713,-124.0881
169.4249,-123.7483
169.2842,-123.4062
169.1591,-123.0577
169.035,-122.7092
168.9081,-122.3616
168.7851,-122.0123
168.6512,-121.6677
168.5003,-121.3299
168.3474,-120.9927
168.1959,-120.6552
168.0431,-120.3181
167.8915,-119.9804
167.7393,-119.6432
167.5867,-119.306
167.4356,-118.9681
167.2828,-118.6312
167.131,-118.2935
166.981,-117.9552
166.8285,-117.6182
166.6789,-117.2794
166.5272,-116.942
166.3541,-116.6156
166.1664,-116.2965
165.9803,-115.9767
165.7908,-115.6588
165.6064,-115.3379
165.4457,-115.0051
165.2963,-114.6664
165.1434,-114.3293
164.9932,-113.9912
164.8393,-113.6547
164.6706,-113.3253
164.4971,-112.9984
164.3276,-112.6694
164.1567,-112.3411
163.9803,-112.0159
163.7976,-111.6941
163.6109,-111.3745
163.4261,-111.0539
163.2423,-110.7327
163.0536,-110.4143
162.8605,-110.0987
162.6653,-109.7842
162.4703,-109.4696
162.2764,-109.1545
162.0782,-108.842
161.8722,-108.5345
161.6654,-108.2277
161.4598,-107.9199
161.2521,-107.6135
161.0513,-107.303
160.8635,-106.9841
160.678,-106.6638
160.4908,-106.3446
160.3053,-106.0243
160.1108,-105.7097
159.9009,-105.4051
159.6876,-105.1025
159.4771,-104.7982
159.2652,-104.4949
159.0534,-104.1912
158.8431,-103.8868
158.6319,-103.5829
158.4209,-103.2788
158.2104,-102.9745
157.9999,-102.6701
157.7904,-102.365
157.5812,-102.0598
157.3715,-101.7548
157.1621,-101.4496
156.9515,-101.1454
156.7387,-100.8426
156.5258,-100.5398
156.3133,-100.2369
156.1003,-99.9343
155.8855,-99.6329
155.669,-99.3328
155.4526,-99.0325
155.2361,-98.7323
155.02,-98.432
154.8071,-98.1292
154.5955,-97.8256
154.3828,-97.5228
154.1715,-97.2189
153.9574,-96.9171
153.7352,-96.6212
153.5104,-96.3271
153.2877,-96.0316
153.0644,-95.7366
152.8398,-95.4423
152.6135,-95.1495
152.3846,-94.8588
152.1564,-94.5673
151.9295,-94.275
151.6982,-93.9862
151.4612,-93.7019
151.2223,-93.4194
150.9838,-93.1363
150.7459,-92.8528
150.5099,-92.5679
150.2771,-92.2802
150.0448,-91.992
149.8122,-91.7042
149.5791,-91.4167
149.3396,-91.1347
149.0931,-90.8588
148.8476,-90.5818
148.6019,-90.305
148.3561,-90.0285
148.1207,-89.7429
147.8917,-89.4521
147.6594,-89.1642
147.4308,-88.8729
147.1991,-88.5846
146.9453,-88.3162
146.6787,-88.0593
146.414,-87.8008
146.1469,-87.5446
145.8826,-87.2855
145.6319,-87.0137
145.3868,-86.7363
145.1406,-86.46
144.8955,-86.1828
144.6476,-85.908
144.393,-85.6394
144.1359,-85.3733
143.8801,-85.1057
143.6249,-84.8377
143.3674,-84.5721
143.1068,-84.3092
142.8444,-84.0482
142.5821,-83.7872
142.3214,-83.5244
142.0579,-83.2647
141.7863,-83.0134
141.5126,-82.7641
141.2408,-82.5131
140.967,-82.2641
140.6974,-82.0106
140.4384,-81.7464
140.1818,-81.4797
139.9233,-81.2148
139.6659,-80.9489
139.4086,-80.683
139.1521,-80.4161
138.8963,-80.1487
138.6396,-79.8822
138.384,-79.6145
138.1238,-79.3515
137.8533,-79.0989
137.5819,-78.8474
137.3115,-78.5947
137.0398,-78.3434
136.7804,-78.08
136.5353,-77.8028
136.2903,-77.5254
136.0467,-77.2467
135.8003,-76.9708
135.5341,-76.7145
135.2558,-76.4704
134.9799,-76.2238
134.7029,-75.9784
134.426,-75.7329
134.1542,-75.4818
133.8832,-75.2297
133.6121,-74.9777
133.3415,-74.7254
133.0705,-74.4733
132.8042,-74.2163
132.5403,-73.9569
132.274,-73.7
132.0111,-73.4393
131.7441,-73.1833
131.4587,-72.9483
131.1652,-72.7226
130.875,-72.4931
130.5822,-72.2666
130.2914,-72.0378
130.0107,-71.7968
129.7322,-71.5529
129.4522,-71.311
129.1743,-71.0666
128.8914,-70.8281
128.598,-70.6028
128.3011,-70.3817
128.0068,-70.1573
127.7115,-69.9343
127.4105,-69.719
127.1055,-69.5096
126.7995,-69.3016
126.4929,-69.094
126.1884,-68.8838
125.8906,-68.6645
125.598,-68.4377
125.3052,-68.2114
125.0113,-67.9867
124.7189,-67.7596
124.4288,-67.5299
124.1394,-67.2993
123.8502,-67.0682
123.5616,-66.8367
123.271,-66.6077
122.9749,-66.3855
122.6755,-66.1682
122.3774,-65.9487
122.0802,-65.7281
121.7776,-65.5154
121.4674,-65.3137
121.1544,-65.1161
120.8428,-64.9165
120.5312,-64.7169
120.2159,-64.5232
119.897,-64.3356
119.5774,-64.1488
119.2579,-63.962
118.9389,-63.7747
118.6241,-63.5801
118.3142,-63.3777
118.0046,-63.1751
117.6942,-62.9735
117.3848,-62.7705
117.0752,-62.5679
116.7657,-62.3648
116.457,-62.1608
116.1476,-61.9578
115.8381,-61.7546
115.5281,-61.5527
115.2159,-61.354
114.9045,-61.1539
114.5934,-60.9534
114.2811,-60.7552
113.971,-60.5527
113.6614,-60.3501
113.3496,-60.1511
113.042,-59.9444
112.7291,-59.7479
112.3944,-59.5922
112.051,-59.4528
111.7123,-59.3051
111.3684,-59.1663
111.0306,-59.0166
110.7181,-58.8203
110.4137,-58.6082
110.1035,-58.4074
109.7979,-58.1984
109.4887,-57.9947
109.1622,-57.8221
108.8294,-57.6599
108.4989,-57.4931
108.1666,-57.3306
107.8354,-57.1652
107.5084,-56.9917
107.1818,-56.8182
106.8549,-56.6445
106.5285,-56.4698
106.2011,-56.2978
105.8726,-56.127
105.5435,-55.9576
105.2146,-55.7885
104.8862,-55.6175
104.5548,-55.4529
104.2187,-55.2985
103.8815,-55.1455
103.5448,-54.992
103.2081,-54.8386
102.8742,-54.6788
102.5438,-54.5123
102.2139,-54.3448
101.8832,-54.1782
101.5531,-54.0111
101.2254,-53.8395
100.8998,-53.6631
100.5747,-53.4867
100.2499,-53.3094
99.9237,-53.1342
99.5917,-52.9714
99.2559,-52.8157
98.9211,-52.6575
98.5861,-52.501
98.2511,-52.3434
97.92,-52.1777
97.5901,-52.0106
97.259,-51.845
96.9285,-51.6782
96.5949,-51.5189
96.2559,-51.3699
95.9168,-51.2214
95.5787,-51.0718
95.2392,-50.9237
94.8997,-50.7766
94.5591,-50.6325
94.2172,-50.4899
93.8767,-50.3452
93.5358,-50.2019
93.1926,-50.0623
92.8492,-49.9249
92.5052,-49.7891
92.1606,-49.6528
91.8172,-49.5157
91.4727,-49.3807
91.1275,-49.246
90.7835,-49.1107
90.4385,-48.9769
90.0934,-48.8419
89.7504,-48.7046
89.4069,-48.5664
89.0637,-48.4269
88.7214,-48.2879
88.3779,-48.1494
88.0361,-48.0066
87.6964,-47.8615
87.3549,-47.7177
87.0144,-47.5722
86.6745,-47.4275
86.3309,-47.2885
85.9869,-47.1521
85.6433,-47.0165
85.2978,-46.8817
84.9543,-46.7446
84.6124,-46.6044
84.2703,-46.4608
83.9303,-46.3159
83.5888,-46.1744
83.2475,-46.0287
82.9161,-45.8665
82.5901,-45.692
82.2627,-45.5169
81.9359,-45.3453
81.6118,-45.1672
81.3002,-44.9663
81.0011,-44.7503
80.6963,-44.5398
80.3903,-44.3298
80.0923,-44.1132
79.7913,-43.8963
79.496,-43.672
79.2065,-43.4451
78.9018,-43.2303
78.6211,-42.9918
78.3998,-42.6993
78.1808,-42.3982
77.9335,-42.123
77.6884,-41.8495
77.4514,-41.5608
77.2583,-41.2486
77.1513,-40.9006
77.0775,-40.535
77.0131,-40.1729
77.0144,-39.8072
77.0609,-39.4371
77.0958,-39.0701
77.1313,-38.7022
77.1682,-38.3325
77.1868,-37.9641
77.2029,-37.5941
77.2274,-37.2242
77.273,-36.8595
77.3582,-36.4994
77.452,-36.1401
77.5314,-35.7799
77.6313,-35.4234
77.7591,-35.0755
77.8881,-34.7301
78.0184,-34.3827
78.1494,-34.0362
78.267,-33.6868
78.3729,-33.3313
78.4749,-32.9755
78.5771,-32.6207
78.6815,-32.2647
78.7841,-31.9094
78.8854,-31.554
78.9892,-31.1979
79.0918,-30.8428
79.1924,-30.4869
79.2941,-30.1304
79.3928,-29.7743
79.4864,-29.416
79.592,-29.0612
79.7326,-28.7212
79.9,-28.3906
80.0633,-28.0578
80.2235,-27.7253
80.402,-27.4008
80.5914,-27.0824
80.7788,-26.7645
80.9717,-26.4478
81.1775,-26.1404
81.396,-25.8432
81.6168,-25.5446
81.8326,-25.2441
82.0603,-24.9547
82.3092,-24.6784
82.5726,-24.42
82.8615,-24.1921
83.1681,-23.9799
83.4639,-23.7595
83.764,-23.5453
84.0801,-23.3467
84.3852,-23.1414
84.6911,-22.9347
85.0088,-22.7357
85.2804,-22.4967
85.482,-22.1903
85.6627,-21.8631
85.8472,-21.5453
86.0223,-21.219
86.1739,-20.8798
86.294,-20.5337
86.3877,-20.1759
86.4639,-19.8115
86.5528,-19.4551
86.6929,-19.1098
86.8241,-18.7667
86.8371,-18.4141
86.7543,-18.0518
86.6704,-17.6903
86.6,-17.3293
86.5339,-16.9636
86.4811,-16.5974
86.4247,-16.2327
86.3618,-15.8667
86.3159,-15.5001
86.2869,-15.1319
86.273,-14.7614
86.2787,-14.3917
86.287,-14.0221
86.2954,-13.6515
86.3225,-13.283
86.3631,-12.9155
86.4036,-12.5471
86.4447,-12.1795
86.4833,-11.8118
86.5138,-11.4424
86.5373,-11.0734
86.5609,-10.7044
86.5915,-10.3347
86.6084,-9.9658
86.5859,-9.5975
86.5458,-9.2286
86.5091,-8.8609
86.4481,-8.4973
86.3559,-8.1379
86.2651,-7.7796
86.179,-7.42
86.0807,-7.0623
85.9777,-6.7077
85.8804,-6.3503
85.7712,-5.9966
85.6164,-5.6657
85.4143,-5.3563
85.2061,-5.0481
85.0086,-4.7368
84.8026,-4.4295
84.5926,-4.123
84.3892,-3.8154
84.1799,-3.5103
83.9701,-3.2037
83.7688,-2.8948
83.5633,-2.5871
83.3588,-2.2768
83.1611,-1.9655
82.9547,-1.6589
82.7439,-1.3523
82.5271,-1.0548
82.2815,-0.77957
82.0207,-0.51189
81.7477,-0.271
81.4227,-0.12636
81.0578,-0.070666
80.6927,-0.034686
