83.1914,-307.8785
83.5604,-307.7547
83.9315,-307.6378
84.3006,-307.5146
84.6725,-307.3988
85.0397,-307.2718
85.3991,-307.1223
85.7556,-306.9658
86.1121,-306.8108
86.4718,-306.6607
86.8265,-306.5019
87.1638,-306.3118
87.4855,-306.0928
87.8023,-305.8658
88.1297,-305.6569
88.474,-305.4763
88.824,-305.3061
89.1742,-305.1356
89.5187,-304.9556
89.8458,-304.7464
90.1629,-304.5199
90.4824,-304.2979
90.8047,-304.0802
91.1361,-303.8765
91.4756,-303.6861
91.8117,-303.49
92.1477,-303.2935
92.4862,-303.1016
92.822,-302.9049
93.1588,-302.7099
93.4968,-302.517
93.8324,-302.3201
94.1698,-302.1261
94.5073,-301.9324
94.8429,-301.7354
95.1808,-301.5423
95.5178,-301.3476
95.8534,-301.1508
96.1919,-300.9586
96.528,-300.7625
96.864,-300.5663
97.2036,-300.3756
97.5287,-300.1638
97.8307,-299.9191
98.1268,-299.6662
98.4258,-299.4171
98.7247,-299.1681
99.0244,-298.9198
99.3266,-298.6745
99.6297,-298.4308
99.9305,-298.1834
100.2341,-297.9401
100.5545,-297.7211
100.8879,-297.5201
101.2205,-297.3181
101.5544,-297.1182
101.8857,-296.9142
102.2028,-296.6892
102.5136,-296.4547
102.8274,-296.2246
103.14,-295.9929
103.451,-295.7589
103.7615,-295.5244
104.0701,-295.2874
104.3797,-295.0514
104.6895,-294.816
104.9972,-294.5778
105.3052,-294.3398
105.613,-294.1019
105.9203,-293.8629
106.2295,-293.6266
106.5403,-293.3925
106.8513,-293.1586
107.1626,-292.925
107.4735,-292.6911
107.7853,-292.4581
108.0977,-292.2261
108.4096,-291.9934
108.7219,-291.7612
109.0331,-291.5276
109.341,-291.2896
109.6483,-291.0507
109.9565,-290.8133
110.2636,-290.5741
110.5679,-290.3316
110.8688,-290.0849
111.1688,-289.8369
111.4706,-289.5913
111.7701,-289.3429
112.0639,-289.0876
112.3564,-288.831
112.6494,-288.5749
112.9424,-288.3187
113.2396,-288.0677
113.5415,-287.8221
113.8436,-287.5768
114.1457,-287.3316
114.4474,-287.0856
114.7447,-286.8347
115.0392,-286.5803
115.3343,-286.3265
115.6296,-286.0732
115.9237,-285.8182
116.215,-285.5601
116.5046,-285.3004
116.7953,-285.0415
117.0858,-284.7826
117.3752,-284.5225
117.6642,-284.2618
117.9527,-284.0007
118.2413,-283.7396
118.5301,-283.4787
118.8199,-283.2191
119.1113,-282.9611
119.4025,-282.7029
119.694,-282.4452
119.9848,-282.1866
120.2688,-281.9206
120.5483,-281.6498
120.8292,-281.3804
121.109,-281.11
121.3897,-280.8405
121.6752,-280.576
121.9609,-280.3118
122.2462,-280.0471
122.5322,-279.7832
122.8123,-279.5133
123.0859,-279.2365
123.3587,-278.9589
123.6318,-278.6818
123.905,-278.4045
124.1773,-278.1266
124.4495,-277.8485
124.7221,-277.5707
124.9941,-277.2925
125.2683,-277.0163
125.546,-276.7437
125.8235,-276.4709
126.1015,-276.1985
126.3789,-275.9256
126.6494,-275.646
126.9145,-275.3611
127.1794,-275.076
127.4446,-274.7912
127.7095,-274.506
127.9737,-274.2204
128.2377,-273.9345
128.5021,-273.6489
128.766,-273.363
129.0295,-273.0765
129.2924,-272.7896
129.5547,-272.5022
129.8179,-272.2155
130.0802,-271.928
130.3393,-271.6377
130.5971,-271.3461
130.8549,-271.0547
131.1128,-270.7633
131.3703,-270.4714
131.6264,-270.1785
131.8824,-269.8853
132.1387,-269.5925
132.3944,-269.2992
132.6497,-269.0055
132.9037,-268.7107
133.1572,-268.4154
133.4123,-268.1214
133.6648,-267.8254
133.9116,-267.5245
134.1563,-267.2219
134.402,-266.9201
134.6478,-266.6184
134.8917,-266.3152
135.1346,-266.0111
135.3777,-265.7073
135.6196,-265.4024
135.8633,-265.0991
136.1139,-264.8014
136.3675,-264.5062
136.6202,-264.2103
136.8733,-263.9146
137.1249,-263.6178
137.3742,-263.3189
137.6229,-263.0196
137.8723,-262.7209
138.1212,-262.4217
138.3646,-262.1182
138.6032,-261.8108
138.8421,-261.5035
139.0805,-261.196
139.3196,-260.8889
139.5625,-260.5849
139.8059,-260.2813
140.0491,-259.9775
140.2923,-259.6737
140.5316,-259.3668
140.7663,-259.0564
140.9999,-258.7452
141.2354,-258.4354
141.4685,-258.1237
141.6905,-257.8043
141.9069,-257.4808
142.1255,-257.1588
142.3424,-256.8357
142.5614,-256.5141
142.7878,-256.1976
143.015,-255.8816
143.2415,-255.5651
143.4686,-255.2492
143.6941,-254.932
143.919,-254.6143
144.1431,-254.2963
144.3679,-253.9786
144.592,-253.6605
144.8058,-253.3354
145.0141,-253.0066
145.2249,-252.6796
145.4321,-252.3501
145.6448,-252.0243
145.8734,-251.7095
146.1053,-251.3969
146.3351,-251.0829
146.566,-250.7696
146.7934,-250.4538
147.016,-250.1346
147.237,-249.8144
147.4607,-249.4958
147.6808,-249.175
147.8811,-248.8418
148.0701,-248.5015
148.2623,-248.1632
148.4515,-247.8231
148.6458,-247.486
148.8571,-247.1593
149.0716,-246.8345
149.2834,-246.5081
149.4971,-246.1829
149.7083,-245.856
149.9167,-245.5274
150.1248,-245.1985
150.3337,-244.8701
150.541,-244.5409
150.7369,-244.2047
150.9262,-243.8647
151.118,-243.5262
151.3072,-243.186
151.5045,-242.8508
151.7201,-242.527
151.9385,-242.2048
152.1551,-241.8815
152.372,-241.5584
152.577,-241.2278
152.7729,-240.8916
152.9704,-240.5562
153.1675,-240.2207
153.3627,-239.8841
153.5551,-239.5458
153.7447,-239.206
153.9362,-238.8671
154.1273,-238.5282
154.3157,-238.1876
154.5037,-237.8469
154.6909,-237.5058
154.8779,-237.1645
155.0659,-236.8238
155.2543,-236.4832
155.4432,-236.143
155.6323,-235.8029
155.821,-235.4626
156.0066,-235.1205
156.1847,-234.7746
156.3602,-234.4272
156.5387,-234.0814
156.7149,-233.7344
156.8853,-233.3846
157.0525,-233.0332
157.2185,-232.6812
157.3851,-232.3295
157.5527,-231.9783
157.7221,-231.628
157.8935,-231.2786
158.0638,-230.9287
158.2338,-230.5786
158.4049,-230.2291
158.5745,-229.8788
158.7442,-229.5287
158.9154,-229.1792
159.084,-228.8284
159.2485,-228.4758
159.4105,-228.122
159.5726,-227.7682
159.7359,-227.4149
159.8973,-227.0608
160.0568,-226.7059
160.2163,-226.3509
160.3752,-225.9956
160.5346,-225.6406
160.6951,-225.2861
160.8561,-224.9319
161.0183,-224.5781
161.1797,-224.224
161.3411,-223.8699
161.5072,-223.518
161.6751,-223.1669
161.8428,-222.8157
162.0119,-222.4652
162.1757,-222.1123
162.3296,-221.7549
162.4802,-221.396
162.6331,-221.0382
162.785,-220.6799
162.9318,-220.3195
163.0754,-219.9579
163.2189,-219.5961
163.3618,-219.2341
163.5062,-218.8728
163.6551,-218.5132
163.806,-218.1545
163.9556,-217.7953
164.1055,-217.4361
164.2578,-217.078
164.412,-216.7207
164.5664,-216.3635
164.7218,-216.0068
164.875,-215.649
165.0193,-215.2877
165.1577,-214.924
165.2973,-214.5607
165.4379,-214.1978
165.5751,-213.8337
165.7048,-213.4668
165.8308,-213.0986
165.9591,-212.7312
166.0869,-212.3636
166.2144,-211.996
166.344,-211.629
166.4724,-211.2616
166.6016,-210.8946
166.7299,-210.5272
166.8482,-210.1565
166.9634,-209.7847
167.0819,-209.414
167.1972,-209.0424
167.3169,-208.6721
167.448,-208.3057
167.5795,-207.9395
167.7104,-207.573
167.8428,-207.207
167.9643,-206.8375
168.0735,-206.464
168.1817,-206.0902
168.2889,-205.7161
168.399,-205.3428
168.5242,-204.9747
168.6587,-204.6094
168.7912,-204.2435
168.9245,-203.8779
169.0458,-203.5085
169.1433,-203.1319
169.2379,-202.7543
169.336,-202.3778
169.4314,-202.0005
169.5401,-201.6269
169.6556,-201.2552
169.7653,-200.8819
169.882,-200.5105
169.9826,-200.1352
170.0489,-199.7518
170.1136,-199.3681
170.1777,-198.9841
170.2441,-198.6008
170.3541,-198.2289
170.4884,-197.8633
170.6155,-197.4959
170.7515,-197.1308
170.8695,-196.7609
170.9428,-196.3791
171.0085,-195.9951
171.0794,-195.6128
171.1474,-195.2295
171.2289,-194.8491
171.321,-194.4711
171.4122,-194.0927
171.5051,-193.7148
171.5947,-193.3362
171.6774,-192.9558
171.7573,-192.575
171.8387,-192.1945
171.9203,-191.8139
171.988,-191.4311
172.0401,-191.0453
172.0921,-190.6598
172.1417,-190.2737
172.1961,-189.8884
172.2845,-189.5108
172.3986,-189.1385
172.5097,-188.7655
172.6221,-188.3931
172.7336,-188.0201
172.826,-187.6423
172.9114,-187.2627
173.002,-186.884
173.088,-186.5046
173.1818,-186.1271
173.2869,-185.7519
173.3853,-185.3761
173.4931,-185.0013
173.5904,-184.6253
173.6127,-184.2405
173.594,-183.8508
173.5886,-183.4627
173.567,-183.0728
173.5668,-182.6851
173.6505,-182.3066
173.7552,-181.9301
173.841,-181.5516
173.9425,-181.1751
174.0278,-180.796
174.0676,-180.4094
174.0996,-180.0211
174.1374,-179.634
174.1717,-179.2463
174.2031,-178.8584
174.229,-178.4702
174.2534,-178.0817
174.2785,-177.6934
174.3047,-177.3052
174.3451,-176.9183
174.3967,-176.5325
174.446,-176.1466
174.4955,-175.7605
174.5469,-175.3748
174.5987,-174.9891
174.6522,-174.6036
174.7056,-174.2182
174.7578,-173.8325
174.8023,-173.4461
174.8338,-173.0582
174.863,-172.6701
174.8962,-172.2824
174.9252,-171.8943
174.9476,-171.5058
174.9664,-171.1172
174.9844,-170.7284
175.0038,-170.3397
175.0228,-169.9511
175.0428,-169.5624
175.0646,-169.1739
175.0845,-168.7852
175.1054,-168.3966
175.1321,-168.0084
175.1625,-167.6205
175.1941,-167.2326
175.2254,-166.8447
175.2558,-166.4567
175.2857,-166.0687
175.3134,-165.6806
175.3428,-165.2925
175.3712,-164.9044
175.3799,-164.5158
175.3691,-164.1268
175.359,-163.7378
175.3474,-163.3488
175.3384,-162.9598
175.3544,-162.5713
175.3819,-162.183
175.4038,-161.7946
175.432,-161.4063
175.4444,-161.018
175.4201,-160.6297
175.391,-160.2415
175.3649,-159.8533
175.3379,-159.4651
175.3439,-159.077
175.3758,-158.689
175.4028,-158.301
175.4359,-157.913
175.4624,-157.5249
175.4565,-157.1362
175.4396,-156.7473
175.4262,-156.3584
175.411,-155.9696
175.3937,-155.5808
175.3693,-155.1924
175.3441,-154.8041
175.3201,-154.4157
175.2944,-154.0273
175.2979,-153.6394
175.334,-153.2519
175.3692,-152.8645
175.4088,-152.477
175.44,-152.0895
175.4243,-151.7017
175.3881,-151.3137
175.3614,-150.9258
175.3301,-150.5378
175.2957,-150.15
175.261,-149.7627
175.2213,-149.3753
175.1842,-148.988
175.1484,-148.6006
175.1176,-148.2126
175.0956,-147.8241
175.0696,-147.4358
175.0449,-147.0474
175.0185,-146.6593
174.9722,-146.2728
174.9241,-145.8866
174.8806,-145.5
174.831,-145.1138
174.8071,-144.7263
174.813,-144.3371
174.8163,-143.9482
174.8256,-143.5588
174.8279,-143.17
174.7804,-142.7859
174.701,-142.4049
174.6221,-142.0238
174.5432,-141.6427
174.4652,-141.2615
174.3882,-140.88
174.313,-140.4982
174.2393,-140.1162
174.16,-139.7349
174.0973,-139.3515
174.0715,-138.9636
174.0557,-138.5744
174.0338,-138.1861
174.0134,-137.7974
173.9822,-137.4097
173.9352,-137.0234
173.8879,-136.6371
173.8445,-136.2503
173.7943,-135.8646
173.7251,-135.4819
173.6427,-135.1016
173.5627,-134.7207
173.4835,-134.3397
173.3997,-133.9597
173.3137,-133.5801
173.225,-133.2012
173.1378,-132.822
173.0498,-132.4429
172.9485,-132.0673
172.8392,-131.6938
172.7316,-131.3198
172.6221,-130.9464
172.5146,-130.5724
172.4134,-130.1966
172.313,-129.8206
172.2121,-129.4448
172.1117,-129.0688
172.0163,-128.6916
171.9295,-128.3122
171.8427,-127.9329
171.7557,-127.5536
171.6689,-127.1742
171.5652,-126.7995
171.4463,-126.429
171.3288,-126.0579
171.2095,-125.6875
171.0922,-125.3165
170.9897,-124.9412
170.8924,-124.5644
170.7934,-124.188
170.6965,-123.8111
170.5913,-123.4366
170.4728,-123.0659
170.3515,-122.6962
170.2326,-122.3256
170.1121,-121.9556
169.9812,-121.5893
169.8386,-121.2272
169.6948,-120.8656
169.5525,-120.5034
169.409,-120.1417
169.2684,-119.7788
169.1288,-119.4156
168.9871,-119.0531
168.8486,-118.6894
168.7053,-118.3277
168.548,-117.9717
168.3874,-117.6173
168.2292,-117.2617
168.0696,-116.9068
167.9144,-116.55
167.7643,-116.1909
167.6133,-115.8322
167.4639,-115.4729
167.3117,-115.1147
167.1489,-114.7614
166.9832,-114.4093
166.8199,-114.0559
166.6551,-113.7035
166.4906,-113.3508
166.3267,-112.9978
166.1615,-112.6455
165.9976,-112.2925
165.833,-111.9399
165.6643,-111.5892
165.4946,-111.2389
165.3245,-110.889
165.1543,-110.539
164.9845,-110.1888
164.8133,-109.8394
164.6423,-109.4898
164.4719,-109.1399
164.3002,-108.7908
164.1294,-108.441
163.9577,-108.0918
163.7845,-107.7434
163.615,-107.3929
163.4403,-107.0453
163.2479,-106.7074
163.0461,-106.3745
162.8458,-106.041
162.6463,-105.7068
162.4437,-105.3745
162.2369,-105.045
162.0287,-104.7161
161.8201,-104.3876
161.6135,-104.0579
161.4181,-103.7215
161.2302,-103.3806
161.0403,-103.041
160.8518,-102.7005
160.6597,-102.3622
160.4553,-102.031
160.2487,-101.7011
160.0447,-101.3699
159.8384,-101.0398
159.633,-100.7093
159.4274,-100.379
159.2202,-100.0495
159.0155,-99.7185
158.8081,-99.3893
158.5934,-99.0646
158.3772,-98.7411
158.1616,-98.4172
157.9461,-98.0931
157.728,-97.7709
157.5042,-97.4525
157.2794,-97.1348
157.0555,-96.8166
156.831,-96.4986
156.6109,-96.1777
156.3937,-95.8549
156.1751,-95.5329
155.9584,-95.2097
155.7378,-94.8891
155.5074,-94.5755
155.2751,-94.2634
155.0443,-93.95
154.8124,-93.6374
154.5811,-93.3246
154.3498,-93.0115
154.1181,-92.6989
153.8871,-92.3857
153.6555,-92.0729
153.4233,-91.7607
153.1907,-91.4487
152.9574,-91.1372
152.7253,-90.8249
152.4913,-90.5139
152.2511,-90.2077
152.0095,-89.9027
151.7691,-89.5966
151.5278,-89.2913
151.2877,-88.9852
151.0484,-88.6782
150.8084,-88.3719
150.5696,-88.0646
150.3293,-87.7584
150.0837,-87.4567
149.8355,-87.1569
149.5878,-86.8567
149.3405,-86.5564
149.0915,-86.2572
148.8386,-85.9615
148.5843,-85.667
148.331,-85.3714
148.0772,-85.0765
147.8229,-84.7819
147.5686,-84.4872
147.3138,-84.1933
147.0595,-83.8986
146.8046,-83.6045
146.5463,-83.3136
146.2866,-83.0237
146.0275,-82.7333
145.768,-82.4434
145.5083,-82.1534
145.248,-81.8642
144.987,-81.5756
144.7269,-81.2861
144.466,-80.9974
144.2028,-80.7108
143.9376,-80.4258
143.6718,-80.1418
143.4073,-79.8561
143.1409,-79.5725
142.8663,-79.297
142.5885,-79.0243
142.3128,-78.7497
142.0356,-78.4766
141.7604,-78.2013
141.4917,-77.92
141.2232,-77.6383
140.9545,-77.3567
140.686,-77.0752
140.4081,-76.8029
140.1223,-76.5388
139.837,-76.2742
139.5507,-76.0104
139.2659,-75.7454
138.9876,-75.4734
138.7112,-75.1994
138.4337,-74.9267
138.1568,-74.6532
137.879,-74.3806
137.6,-74.1094
137.3209,-73.8381
137.042,-73.5667
136.7628,-73.2957
136.4793,-73.0291
136.1917,-72.7669
135.9048,-72.5041
135.6171,-72.2419
135.3303,-71.9791
135.0496,-71.7095
134.7706,-71.438
134.4907,-71.1679
134.2118,-70.8964
133.9264,-70.632
133.631,-70.379
133.334,-70.1272
133.0383,-69.8743
132.7419,-69.6222
132.4469,-69.3683
132.1526,-69.1138
131.8576,-68.8599
131.5633,-68.6052
131.2676,-68.3524
130.9689,-68.1029
130.67,-67.8537
130.3715,-67.6042
130.0723,-67.3551
129.7746,-67.1046
129.4772,-66.8536
129.1791,-66.6033
128.8827,-66.3513
128.5836,-66.1023
128.2767,-65.863
127.9678,-65.6264
127.6602,-65.388
127.3519,-65.1504
127.0479,-64.9079
126.7499,-64.6573
126.4527,-64.4062
126.1548,-64.1559
125.8571,-63.905
125.5582,-63.656
125.2579,-63.4085
124.9579,-63.1605
124.6588,-62.9118
124.354,-62.67
124.0379,-62.4431
123.7183,-62.221
123.4014,-61.9951
123.0834,-61.7709
122.7649,-61.5473
122.4478,-61.3216
122.1295,-61.0978
121.8114,-60.8736
121.4941,-60.6481
121.1765,-60.4236
120.8598,-60.1972
120.5431,-59.971
120.2256,-59.7462
119.9095,-59.5189
119.5939,-59.2914
119.2781,-59.0642
118.9632,-58.8351
118.6472,-58.6083
118.3267,-58.3878
118.0019,-58.1731
117.6763,-57.9603
117.3518,-57.7454
117.0266,-57.5316
116.7009,-57.3189
116.3757,-57.1048
116.05,-56.8919
115.7244,-56.6789
115.3992,-56.4649
115.0732,-56.2525
114.7477,-56.0394
114.4224,-55.8255
114.0962,-55.6136
113.7699,-55.4014
113.4424,-55.191
113.1146,-54.9817
112.788,-54.7697
112.4596,-54.5611
112.1279,-54.3577
111.7953,-54.1553
111.4628,-53.9534
111.1309,-53.7502
110.7968,-53.5504
110.4576,-53.3602
110.1172,-53.1713
109.7779,-52.9806
109.4377,-52.792
109.0954,-52.6067
108.7493,-52.4289
108.402,-52.2534
108.0567,-52.0736
107.7092,-51.8987
107.3578,-51.7315
107.0054,-51.5663
106.6529,-51.4017
106.3011,-51.235
105.9468,-51.0742
105.5871,-50.9261
105.2267,-50.7791
104.8668,-50.6311
104.5064,-50.4844
104.1495,-50.3292
103.7955,-50.1677
103.4413,-50.0066
103.0881,-49.843
102.7333,-49.6835
102.3732,-49.5361
102.0103,-49.3954
101.6479,-49.2538
101.2857,-49.1113
100.9219,-48.9731
100.5571,-48.8379
100.1924,-48.7019
99.8271,-48.5678
99.4625,-48.4318
99.1005,-48.2889
98.7394,-48.1441
98.3782,-47.9991
98.0173,-47.8535
97.6542,-47.7138
97.2878,-47.5825
96.9203,-47.4546
96.5536,-47.3245
96.1866,-47.1948
95.8178,-47.0708
95.4483,-46.9487
95.0787,-46.8266
94.7089,-46.7055
94.3395,-46.5833
93.969,-46.4641
93.598,-46.3466
93.228,-46.2261
92.8568,-46.1092
92.4877,-45.9863
92.1246,-45.8462
91.762,-45.7049
91.3989,-45.565
91.0365,-45.423
90.6685,-45.2975
90.2952,-45.1877
89.9217,-45.0786
89.5478,-44.9707
89.1745,-44.8604
88.8029,-44.7452
88.4321,-44.6271
88.0619,-44.507
87.6906,-44.3906
87.3211,-44.2685
86.9574,-44.1303
86.5946,-43.9896
86.2309,-43.8509
85.8682,-43.71
85.5039,-43.5732
85.1383,-43.4396
84.7726,-43.3069
84.4063,-43.1752
84.0411,-43.0411
83.6753,-42.9081
83.3097,-42.7745
82.9454,-42.6383
82.5789,-42.5068
82.2157,-42.3673
81.8594,-42.2114
81.5031,-42.0543
81.1473,-41.897
80.7917,-41.7392
80.4346,-41.5836
80.0807,-41.4229
79.7236,-41.2673
79.3679,-41.1092
79.0342,-40.9138
78.7167,-40.6888
78.4057,-40.4546
78.1005,-40.2138
77.7898,-39.9783
77.4895,-39.732
77.2161,-39.4557
76.9505,-39.1705
76.7133,-38.8678
76.5219,-38.5319
76.3134,-38.2036
76.0755,-37.8933
75.8882,-37.5568
75.7695,-37.1873
75.6645,-36.8123
75.5526,-36.4396
75.444,-36.0658
75.3253,-35.6953
75.2026,-35.3263
75.1393,-34.9476
75.1451,-34.5592
75.1531,-34.1693
75.1588,-33.7807
75.1901,-33.3928
75.2207,-33.0045
75.2472,-32.6164
75.2813,-32.229
75.3049,-31.84
75.3288,-31.4518
75.3586,-31.0643
75.3746,-30.6741
75.4087,-30.2878
75.49,-29.9081
75.5884,-29.5307
75.6826,-29.1542
75.7735,-28.775
75.8687,-28.3976
75.9722,-28.0238
76.0833,-27.6493
76.2355,-27.295
76.444,-26.9686
76.6623,-26.644
76.8777,-26.3216
77.1081,-26.0079
77.3491,-25.701
77.6117,-25.4173
77.8931,-25.1469
78.1696,-24.8724
78.4516,-24.607
78.7446,-24.348
79.0495,-24.1092
79.3833,-23.912
79.7241,-23.7193
80.0589,-23.5249
80.4119,-23.3607
80.7704,-23.2063
81.1247,-23.0509
81.4847,-22.8976
81.8393,-22.7394
82.2045,-22.6052
82.5614,-22.4499
82.8281,-22.1766
83.0297,-21.8371
83.2464,-21.5165
83.447,-21.184
83.5913,-20.8224
83.7121,-20.4549
83.8361,-20.0845
83.9624,-19.7162
84.0801,-19.3469
84.1899,-18.9717
84.2954,-18.5981
84.37,-18.2184
84.4026,-17.8298
84.4108,-17.4421
84.3974,-17.0533
84.3758,-16.6639
84.3606,-16.2761
84.3374,-15.8869
84.3098,-15.4988
84.2865,-15.111
84.2562,-14.722
84.2338,-14.3343
84.2387,-13.9455
84.2571,-13.5563
84.2742,-13.1682
84.2895,-12.7788
84.3185,-12.3912
84.3708,-12.006
84.4274,-11.6203
84.4816,-11.2356
84.5356,-10.85
84.5697,-10.4624
84.5882,-10.0742
84.6116,-9.6851
84.6319,-9.2969
84.6518,-8.9084
84.6752,-8.5192
84.6651,-8.1324
84.6158,-7.7463
84.5678,-7.3595
84.5108,-6.9759
84.4089,-6.5999
84.2893,-6.2294
84.184,-5.8554
84.0728,-5.4813
83.9523,-5.1124
83.8371,-4.7403
83.7032,-4.3743
83.5386,-4.0237
83.37,-3.6715
83.1974,-3.3228
82.9957,-2.9935
82.7662,-2.6768
82.5462,-2.3574
82.3571,-2.0176
82.1498,-1.6865
81.8847,-1.4069
81.6062,-1.1326
81.3351,-0.8504
81.0403,-0.60561
80.7376,-0.34858
80.4375,-0.11284
80.1034,-0.0812
