77.8713,-54.904
77.1961,-54.4588
76.5252,-54.0132
75.8543,-53.5638
75.1857,-53.1073
74.5215,-52.6406
73.8619,-52.1638
73.2091,-51.6823
72.5679,-51.1972
71.9391,-50.6976
71.3337,-50.1743
70.7614,-49.6201
70.2207,-49.0367
69.708,-48.4312
69.2375,-47.804
68.8311,-47.1381
68.5176,-46.4251
68.3142,-45.6718
68.2224,-44.8938
68.2385,-44.1117
68.3666,-43.3478
68.6008,-42.6127
68.9355,-41.916
69.3619,-41.2648
69.8646,-40.6573
70.419,-40.0827
71.0097,-39.5334
71.6206,-39.0022
72.2372,-38.4788
72.8459,-37.9515
73.4282,-37.405
73.962,-36.822
74.4395,-36.1932
74.8689,-35.5238
75.2709,-34.8292
75.6675,-34.1262
76.0653,-33.4218
76.4621,-32.7164
76.8583,-32.0096
77.2569,-31.3038
77.6513,-30.5959
78.0385,-29.8846
78.4141,-29.1678
78.7758,-28.4446
79.1306,-27.7175
79.493,-26.9934
79.8631,-26.2732
80.2372,-25.555
80.6095,-24.836
80.9774,-24.1157
81.3405,-23.3951
81.7012,-22.6768
82.0392,-21.9557
82.3304,-21.2209
82.5712,-20.4673
82.7892,-19.7019
83.0287,-18.9414
83.3244,-18.2007
83.6676,-17.4833
84.0145,-16.7776
84.3052,-16.0643
84.4983,-15.3271
84.591,-14.562
84.6089,-13.7763
84.5748,-12.9815
84.4918,-12.184
84.3648,-11.3911
84.1862,-10.6109
83.9406,-9.8525
83.6221,-9.1222
83.2417,-8.4213
82.8109,-7.744
82.348,-7.0829
81.8685,-6.4314
81.3813,-5.7856
80.8848,-5.1505
80.3693,-4.5415
79.8146,-3.9716
79.2184,-3.439
78.5971,-2.9273
