81.8078,-57.2461
81.1158,-56.7866
80.4311,-56.3166
79.75,-55.8438
79.0634,-55.3832
78.366,-54.9426
77.6632,-54.5114
76.9674,-54.0679
76.2869,-53.5978
75.6195,-53.104
74.9562,-52.6009
74.2879,-52.1028
73.6103,-51.6169
72.9259,-51.1404
72.2423,-50.6636
71.5675,-50.1756
70.9079,-49.6691
70.2674,-49.141
69.6553,-48.5868
69.092,-47.996
68.6057,-47.3564
68.2258,-46.6625
67.9711,-45.9181
67.8437,-45.1347
67.8286,-44.3281
67.9037,-43.5133
68.0494,-42.701
68.2503,-41.8962
68.4936,-41.1014
68.7724,-40.3186
69.0864,-39.5525
69.4462,-38.8132
69.8675,-38.1138
70.3592,-37.4633
70.9177,-36.8642
71.5297,-36.3126
72.1771,-35.7993
72.8374,-35.308
73.4813,-34.8116
74.0786,-34.2773
74.613,-33.6831
75.092,-33.0309
75.5391,-32.341
75.9762,-31.6348
76.4131,-30.9242
76.8514,-30.2136
77.2883,-29.502
77.7218,-28.7883
78.1515,-28.0724
78.5761,-27.3536
78.9934,-26.6306
79.401,-25.9022
79.7977,-25.168
80.1806,-24.427
80.5428,-23.677
80.875,-22.9154
81.165,-22.1399
81.4026,-21.3497
81.5881,-20.5469
81.7407,-19.738
81.8997,-18.9346
82.1077,-18.1491
82.3887,-17.3889
82.7405,-16.6549
83.1345,-15.9382
83.529,-15.2228
83.8843,-14.4922
84.1739,-13.7366
84.3858,-12.9555
84.5155,-12.1553
84.5597,-11.3462
84.5122,-10.5404
84.3656,-9.7479
84.1224,-8.9748
83.7969,-8.2245
83.4054,-7.5001
82.9584,-6.8076
82.4574,-6.1581
81.8977,-5.5658
81.2763,-5.0403
