88.7363,-54.2768
87.9748,-53.862
87.213,-53.4444
86.4498,-53.0263
85.6846,-52.6097
84.9203,-52.1983
84.1522,-51.7942
83.3777,-51.404
82.5973,-51.0316
81.8161,-50.6698
81.0373,-50.3015
80.2629,-49.9208
79.4896,-49.5336
78.7193,-49.1418
77.9587,-48.7337
77.2133,-48.2958
76.4843,-47.8263
75.7718,-47.3346
75.0709,-46.8263
74.3866,-46.2989
73.7373,-45.7382
73.1499,-45.1245
72.6574,-44.4474
72.28,-43.7088
72.0369,-42.9238
71.942,-42.1108
71.9934,-41.2882
72.1655,-40.4697
72.438,-39.674
72.8062,-38.9195
73.2686,-38.2153
73.8087,-37.556
74.397,-36.9261
75.0097,-36.3127
75.6329,-35.7072
76.2535,-35.1022
76.8592,-34.4905
77.4364,-33.8649
77.9738,-33.2192
78.4661,-32.5454
78.9022,-31.8325
79.2759,-31.0756
79.5921,-30.2815
79.87,-29.4666
80.1297,-28.6423
80.3934,-27.8193
80.6667,-26.9999
80.9339,-26.1786
81.171,-25.3495
81.3522,-24.5106
81.4579,-23.666
81.4694,-22.8224
81.379,-21.9845
81.2028,-21.152
80.9821,-20.3222
80.7679,-19.4897
80.6104,-18.6508
80.5391,-17.8066
80.5646,-16.9693
80.6876,-16.1639
80.9076,-15.4256
81.2359,-14.7885
81.6892,-14.2614
82.245,-13.8074
82.8217,-13.3571
83.318,-12.8456
83.6761,-12.2415
83.9004,-11.5457
84.0192,-10.7791
84.0445,-9.9682
83.975,-9.1344
83.8307,-8.2935
83.6393,-7.4519
83.4255,-6.6149
83.1879,-5.7934
82.8938,-5.008
82.5032,-4.2845
81.9974,-3.643
81.3849,-3.0865
80.6921,-2.6118
