88.0746,-53.9237
87.3859,-53.4652
86.7025,-52.9956
86.0157,-52.5289
85.3134,-52.0855
84.5987,-51.6804
83.8675,-51.2993
83.1283,-50.924
82.3891,-50.5421
81.6515,-50.1522
80.9175,-49.7649
80.1862,-49.3848
79.4541,-49.0004
78.7268,-48.6008
78.0074,-48.1814
77.2979,-47.7427
76.6099,-47.2881
75.9363,-46.8108
75.2765,-46.3116
74.6327,-45.7918
74.0188,-45.2434
73.467,-44.6529
73.0067,-44.009
72.6624,-43.309
72.4605,-42.5624
72.4105,-41.7849
72.4987,-40.9966
72.7032,-40.2159
72.9788,-39.4434
73.294,-38.6798
73.6375,-37.9266
74.0061,-37.1846
74.3986,-36.4543
74.8072,-35.7314
75.2274,-35.0184
75.6765,-34.3353
76.1804,-33.7131
76.7573,-33.1779
77.4041,-32.7246
78.0671,-32.2946
78.6876,-31.8151
79.2258,-31.2433
79.6716,-30.5808
80.0407,-29.8556
80.349,-29.092
80.6097,-28.3065
80.8418,-27.5099
81.0635,-26.709
81.2876,-25.9088
81.5252,-25.1123
81.7599,-24.3163
81.9732,-23.5205
82.1367,-22.7259
82.2137,-21.936
82.1857,-21.1553
82.0492,-20.3844
81.8257,-19.6215
81.5663,-18.8586
81.3336,-18.0831
81.1777,-17.2885
81.1253,-16.4818
81.1728,-15.6774
81.3332,-14.9009
81.6242,-14.1788
82.037,-13.5231
82.5244,-12.9216
82.9928,-12.3291
83.3475,-11.6931
83.5424,-10.9859
83.585,-10.2185
83.5089,-9.4222
83.3491,-8.6232
83.1187,-7.8345
82.8341,-7.0605
82.5057,-6.302
82.1366,-5.5637
81.7324,-4.8573
81.2847,-4.1991
80.7736,-3.616
80.1801,-3.1264
